CPU Identifier;Autoscope Description;Detector ID;Detector Title;Date;Time;Status;Data Interval;Ticks (millisec.);State;Speed;Length;Class;Average Flow Rate;Volume;Arithmetic Mean Speed;Class A Count;Class B Count;Class C Count;Class D Count;Class E Count;Average Time Headway;Average Time Occupancy;Level Of Service;Space Mean Speed;Space Occupancy;Density;
040549FF9BC9D021;IDS-07B -- ?????-????? (???????????) -- 1 -- None -- 79 -- 0 -- Solo Pro II MVP -- 172.26.2.167;109;Lane 1;3/5/2012;0:00:00;100;15 Minutes;;;;;;0;0;0.000;0;0;0;0;0;255.996;0.000;A;0.000;100.000;0.000;
040549FF9BC9D021;IDS-07B -- ?????-????? (???????????) -- 1 -- None -- 79 -- 0 -- Solo Pro II MVP -- 172.26.2.167;110;Lane 2;3/5/2012;0:00:00;100;15 Minutes;;;;;;212;53;66.055;0;27;24;1;0;16.980;2.406;A;62.832;1.531;3.371;
040549FF9BC9D021;IDS-07B -- ?????-????? (???????????) -- 1 -- None -- 79 -- 0 -- Solo Pro II MVP -- 172.26.2.167;113;Total;3/5/2012;0:00:00;100;15 Minutes;;;;;;106;53;66.055;0;27;24;1;0;255.996;1.203;A;62.832;0.766;1.684;
040549FF9BC9D021;IDS-07B -- ?????-????? (???????????) -- 1 -- None -- 79 -- 0 -- Solo Pro II MVP -- 172.26.2.167;109;Lane 1;3/5/2012;0:15:00;100;15 Minutes;;;;;;4;1;57.000;0;1;0;0;0;255.996;0.027;A;57.035;0.027;0.066;
040549FF9BC9D021;IDS-07B -- ?????-????? (???????????) -- 1 -- None -- 79 -- 0 -- Solo Pro II MVP -- 172.26.2.167;110;Lane 2;3/5/2012;0:15:00;100;15 Minutes;;;;;;188;47;65.551;0;29;16;1;1;19.148;2.266;A;63.457;1.402;2.961;
040549FF9BC9D021;IDS-07B -- ?????-????? (???????????) -- 1 -- None -- 79 -- 0 -- Solo Pro II MVP -- 172.26.2.167;113;Total;3/5/2012;0:15:00;100;15 Minutes;;;;;;96;48;65.375;0;30;16;1;1;255.996;1.145;A;63.309;0.715;1.516;
040549FF9BC9D021;IDS-07B -- ?????-????? (???????????) -- 1 -- None -- 79 -- 0 -- Solo Pro II MVP -- 172.26.2.167;109;Lane 1;3/5/2012;0:30:00; 99;15 Minutes;;;;;;4;1;31.000;0;1;0;0;0;255.996;0.055;A;31.000;0.055;0.129;
040549FF9BC9D021;IDS-07B -- ?????-????? (???????????) -- 1 -- None -- 79 -- 0 -- Solo Pro II MVP -- 172.26.2.167;110;Lane 2;3/5/2012;0:30:00; 99;15 Minutes;;;;;;176;44;64.430;0;30;13;0;1;20.453;1.992;A;60.121;1.246;2.926;
040549FF9BC9D021;IDS-07B -- ?????-????? (???????????) -- 1 -- None -- 79 -- 0 -- Solo Pro II MVP -- 172.26.2.167;113;Total;3/5/2012;0:30:00; 99;15 Minutes;;;;;;90;45;63.688;0;31;13;0;1;255.996;1.023;A;58.891;0.645;1.527;
040549FF9BC9D021;IDS-07B -- ?????-????? (???????????) -- 1 -- None -- 79 -- 0 -- Solo Pro II MVP -- 172.26.2.167;109;Lane 1;3/5/2012;0:45:00;100;15 Minutes;;;;;;0;0;0.000;0;0;0;0;0;255.996;0.000;A;0.000;100.000;0.000;
040549FF9BC9D021;IDS-07B -- ?????-????? (???????????) -- 1 -- None -- 79 -- 0 -- Solo Pro II MVP -- 172.26.2.167;110;Lane 2;3/5/2012;0:45:00;100;15 Minutes;;;;;;212;53;67.488;0;38;13;1;0;16.980;2.508;A;64.836;1.391;3.270;
040549FF9BC9D021;IDS-07B -- ?????-????? (???????????) -- 1 -- None -- 79 -- 0 -- Solo Pro II MVP -- 172.26.2.167;113;Total;3/5/2012;0:45:00;100;15 Minutes;;;;;;106;53;67.488;0;38;13;1;0;255.996;1.254;A;64.836;0.695;1.633;
040549FF9BC9D021;IDS-07B -- ?????-????? (???????????) -- 1 -- None -- 79 -- 0 -- Solo Pro II MVP -- 172.26.2.167;109;Lane 1;3/5/2012;1:00:00;100;15 Minutes;;;;;;4;1;53.000;0;1;0;0;0;255.996;0.051;A;53.020;0.031;0.074;
040549FF9BC9D021;IDS-07B -- ?????-????? (???????????) -- 1 -- None -- 79 -- 0 -- Solo Pro II MVP -- 172.26.2.167;110;Lane 2;3/5/2012;1:00:00;100;15 Minutes;;;;;;220;55;61.563;0;40;14;1;0;16.363;2.520;A;59.148;1.641;3.719;
040549FF9BC9D021;IDS-07B -- ?????-????? (???????????) -- 1 -- None -- 79 -- 0 -- Solo Pro II MVP -- 172.26.2.167;113;Total;3/5/2012;1:00:00;100;15 Minutes;;;;;;112;56;61.410;0;41;14;1;0;255.996;1.285;A;59.027;0.836;1.895;
040549FF9BC9D021;IDS-07B -- ?????-????? (???????????) -- 1 -- None -- 79 -- 0 -- Solo Pro II MVP -- 172.26.2.167;109;Lane 1;3/5/2012;1:15:00;100;15 Minutes;;;;;;4;1;71.000;0;1;0;0;0;255.996;0.023;A;71.000;0.023;0.055;
040549FF9BC9D021;IDS-07B -- ?????-????? (???????????) -- 1 -- None -- 79 -- 0 -- Solo Pro II MVP -- 172.26.2.167;110;Lane 2;3/5/2012;1:15:00;100;15 Minutes;;;;;;240;60;66.297;0;37;17;2;1;15.000;3.281;A;62.910;1.629;3.813;
040549FF9BC9D021;IDS-07B -- ?????-????? (???????????) -- 1 -- None -- 79 -- 0 -- Solo Pro II MVP -- 172.26.2.167;113;Total;3/5/2012;1:15:00;100;15 Minutes;;;;;;122;61;66.375;0;38;17;2;1;255.996;1.652;A;63.027;0.824;1.934;
040549FF9BC9D021;IDS-07B -- ?????-????? (???????????) -- 1 -- None -- 79 -- 0 -- Solo Pro II MVP -- 172.26.2.167;109;Lane 1;3/5/2012;1:30:00;100;15 Minutes;;;;;;4;1;48.000;0;1;0;0;0;255.996;0.020;A;48.012;0.020;0.082;
040549FF9BC9D021;IDS-07B -- ?????-????? (???????????) -- 1 -- None -- 79 -- 0 -- Solo Pro II MVP -- 172.26.2.167;110;Lane 2;3/5/2012;1:30:00;100;15 Minutes;;;;;;196;49;66.754;0;27;19;1;1;18.367;2.316;A;64.465;1.453;3.039;
040549FF9BC9D021;IDS-07B -- ?????-????? (???????????) -- 1 -- None -- 79 -- 0 -- Solo Pro II MVP -- 172.26.2.167;113;Total;3/5/2012;1:30:00;100;15 Minutes;;;;;;100;50;66.379;0;28;19;1;1;255.996;1.168;A;64.027;0.738;1.559;
040549FF9BC9D021;IDS-07B -- ?????-????? (???????????) -- 1 -- None -- 79 -- 0 -- Solo Pro II MVP -- 172.26.2.167;109;Lane 1;3/5/2012;1:45:00;100;15 Minutes;;;;;;8;2;65.500;0;1;0;1;0;255.996;0.074;A;61.363;0.066;0.129;
040549FF9BC9D021;IDS-07B -- ?????-????? (???????????) -- 1 -- None -- 79 -- 0 -- Solo Pro II MVP -- 172.26.2.167;110;Lane 2;3/5/2012;1:45:00;100;15 Minutes;;;;;;216;54;63.129;0;34;20;0;0;16.664;2.637;A;60.645;1.578;3.559;
040549FF9BC9D021;IDS-07B -- ?????-????? (???????????) -- 1 -- None -- 79 -- 0 -- Solo Pro II MVP -- 172.26.2.167;113;Total;3/5/2012;1:45:00;100;15 Minutes;;;;;;112;56;63.211;0;35;20;1;0;233.332;1.355;A;60.672;0.824;1.844;
040549FF9BC9D021;IDS-07B -- ?????-????? (???????????) -- 1 -- None -- 79 -- 0 -- Solo Pro II MVP -- 172.26.2.167;109;Lane 1;3/5/2012;2:00:00;100;15 Minutes;;;;;;4;1;62.000;0;1;0;0;0;255.996;0.035;A;62.000;0.031;0.063;
040549FF9BC9D021;IDS-07B -- ?????-????? (???????????) -- 1 -- None -- 79 -- 0 -- Solo Pro II MVP -- 172.26.2.167;110;Lane 2;3/5/2012;2:00:00;100;15 Minutes;;;;;;192;48;64.000;0;31;15;1;0;18.750;2.262;A;61.508;1.320;3.121;
040549FF9BC9D021;IDS-07B -- ?????-????? (???????????) -- 1 -- None -- 79 -- 0 -- Solo Pro II MVP -- 172.26.2.167;113;Total;3/5/2012;2:00:00;100;15 Minutes;;;;;;98;49;63.957;0;32;15;1;0;255.996;1.148;A;61.520;0.676;1.590;
040549FF9BC9D021;IDS-07B -- ?????-????? (???????????) -- 1 -- None -- 79 -- 0 -- Solo Pro II MVP -- 172.26.2.167;109;Lane 1;3/5/2012;2:15:00;100;15 Minutes;;;;;;0;0;0.000;0;0;0;0;0;255.996;0.000;A;0.000;100.000;0.000;
040549FF9BC9D021;IDS-07B -- ?????-????? (???????????) -- 1 -- None -- 79 -- 0 -- Solo Pro II MVP -- 172.26.2.167;110;Lane 2;3/5/2012;2:15:00;100;15 Minutes;;;;;;180;45;60.664;0;28;15;2;0;20.000;2.133;A;57.371;1.352;3.137;
040549FF9BC9D021;IDS-07B -- ?????-????? (???????????) -- 1 -- None -- 79 -- 0 -- Solo Pro II MVP -- 172.26.2.167;113;Total;3/5/2012;2:15:00;100;15 Minutes;;;;;;90;45;60.664;0;28;15;2;0;255.996;1.066;A;57.371;0.676;1.566;
040549FF9BC9D021;IDS-07B -- ?????-????? (???????????) -- 1 -- None -- 79 -- 0 -- Solo Pro II MVP -- 172.26.2.167;109;Lane 1;3/5/2012;2:30:00; 99;15 Minutes;;;;;;0;0;0.000;0;0;0;0;0;255.996;0.000;A;0.000;100.000;0.000;
040549FF9BC9D021;IDS-07B -- ?????-????? (???????????) -- 1 -- None -- 79 -- 0 -- Solo Pro II MVP -- 172.26.2.167;110;Lane 2;3/5/2012;2:30:00; 99;15 Minutes;;;;;;152;38;63.762;0;21;14;2;1;23.684;1.824;A;61.289;1.273;2.477;
040549FF9BC9D021;IDS-07B -- ?????-????? (???????????) -- 1 -- None -- 79 -- 0 -- Solo Pro II MVP -- 172.26.2.167;113;Total;3/5/2012;2:30:00; 99;15 Minutes;;;;;;76;38;63.762;0;21;14;2;1;255.996;0.910;A;61.289;0.637;1.238;
040549FF9BC9D021;IDS-07B -- ?????-????? (???????????) -- 1 -- None -- 79 -- 0 -- Solo Pro II MVP -- 172.26.2.167;109;Lane 1;3/5/2012;2:45:00;100;15 Minutes;;;;;;0;0;0.000;0;0;0;0;0;255.996;0.000;A;0.000;100.000;0.000;
040549FF9BC9D021;IDS-07B -- ?????-????? (???????????) -- 1 -- None -- 79 -- 0 -- Solo Pro II MVP -- 172.26.2.167;110;Lane 2;3/5/2012;2:45:00;100;15 Minutes;;;;;;200;50;62.637;0;33;16;0;1;18.000;2.324;A;58.941;1.559;3.391;
040549FF9BC9D021;IDS-07B -- ?????-????? (???????????) -- 1 -- None -- 79 -- 0 -- Solo Pro II MVP -- 172.26.2.167;113;Total;3/5/2012;2:45:00;100;15 Minutes;;;;;;100;50;62.637;0;33;16;0;1;255.996;1.160;A;58.941;0.777;1.695;
040549FF9BC9D021;IDS-07B -- ?????-????? (???????????) -- 1 -- None -- 79 -- 0 -- Solo Pro II MVP -- 172.26.2.167;109;Lane 1;3/5/2012;3:00:00;100;15 Minutes;;;;;;4;1;49.000;0;1;0;0;0;255.996;0.043;A;49.016;0.023;0.078;
040549FF9BC9D021;IDS-07B -- ?????-????? (???????????) -- 1 -- None -- 79 -- 0 -- Solo Pro II MVP -- 172.26.2.167;110;Lane 2;3/5/2012;3:00:00;100;15 Minutes;;;;;;172;43;67.578;0;23;18;0;2;20.930;2.027;A;64.336;1.367;2.672;
040549FF9BC9D021;IDS-07B -- ?????-????? (???????????) -- 1 -- None -- 79 -- 0 -- Solo Pro II MVP -- 172.26.2.167;113;Total;3/5/2012;3:00:00;100;15 Minutes;;;;;;88;44;67.156;0;24;18;0;2;255.996;1.035;A;63.883;0.699;1.375;
040549FF9BC9D021;IDS-07B -- ?????-????? (???????????) -- 1 -- None -- 79 -- 0 -- Solo Pro II MVP -- 172.26.2.167;109;Lane 1;3/5/2012;3:15:00;100;15 Minutes;;;;;;0;0;0.000;0;0;0;0;0;255.996;0.000;A;0.000;100.000;0.000;
040549FF9BC9D021;IDS-07B -- ?????-????? (???????????) -- 1 -- None -- 79 -- 0 -- Solo Pro II MVP -- 172.26.2.167;110;Lane 2;3/5/2012;3:15:00;100;15 Minutes;;;;;;180;45;67.219;0;27;15;1;1;20.000;2.313;A;64.598;1.301;2.785;
040549FF9BC9D021;IDS-07B -- ?????-????? (???????????) -- 1 -- None -- 79 -- 0 -- Solo Pro II MVP -- 172.26.2.167;113;Total;3/5/2012;3:15:00;100;15 Minutes;;;;;;90;45;67.219;0;27;15;1;1;255.996;1.156;A;64.598;0.648;1.391;
040549FF9BC9D021;IDS-07B -- ?????-????? (???????????) -- 1 -- None -- 79 -- 0 -- Solo Pro II MVP -- 172.26.2.167;109;Lane 1;3/5/2012;3:30:00;100;15 Minutes;;;;;;0;0;0.000;0;0;0;0;0;255.996;0.000;A;0.000;100.000;0.000;
040549FF9BC9D021;IDS-07B -- ?????-????? (???????????) -- 1 -- None -- 79 -- 0 -- Solo Pro II MVP -- 172.26.2.167;110;Lane 2;3/5/2012;3:30:00;100;15 Minutes;;;;;;200;50;61.039;0;36;14;0;0;18.000;2.176;A;59.223;1.367;3.375;
040549FF9BC9D021;IDS-07B -- ?????-????? (???????????) -- 1 -- None -- 79 -- 0 -- Solo Pro II MVP -- 172.26.2.167;113;Total;3/5/2012;3:30:00;100;15 Minutes;;;;;;100;50;61.039;0;36;14;0;0;255.996;1.086;A;59.223;0.684;1.688;
040549FF9BC9D021;IDS-07B -- ?????-????? (???????????) -- 1 -- None -- 79 -- 0 -- Solo Pro II MVP -- 172.26.2.167;109;Lane 1;3/5/2012;3:45:00;100;15 Minutes;;;;;;0;0;0.000;0;0;0;0;0;255.996;0.000;A;0.000;100.000;0.000;
040549FF9BC9D021;IDS-07B -- ?????-????? (???????????) -- 1 -- None -- 79 -- 0 -- Solo Pro II MVP -- 172.26.2.167;110;Lane 2;3/5/2012;3:45:00;100;15 Minutes;;;;;;220;55;64.816;0;36;16;0;1;16.363;2.543;A;62.660;1.559;3.508;
040549FF9BC9D021;IDS-07B -- ?????-????? (???????????) -- 1 -- None -- 79 -- 0 -- Solo Pro II MVP -- 172.26.2.167;113;Total;3/5/2012;3:45:00;100;15 Minutes;;;;;;110;55;64.816;0;36;16;0;1;255.996;1.270;A;62.660;0.777;1.754;
040549FF9BC9D021;IDS-07B -- ?????-????? (???????????) -- 1 -- None -- 79 -- 0 -- Solo Pro II MVP -- 172.26.2.167;109;Lane 1;3/5/2012;4:00:00;100;15 Minutes;;;;;;8;2;61.000;0;2;0;0;0;255.996;0.078;A;60.988;0.043;0.129;
040549FF9BC9D021;IDS-07B -- ?????-????? (???????????) -- 1 -- None -- 79 -- 0 -- Solo Pro II MVP -- 172.26.2.167;110;Lane 2;3/5/2012;4:00:00;100;15 Minutes;;;;;;256;64;64.609;0;38;22;2;1;14.063;2.949;A;63.016;1.938;4.059;
040549FF9BC9D021;IDS-07B -- ?????-????? (???????????) -- 1 -- None -- 79 -- 0 -- Solo Pro II MVP -- 172.26.2.167;113;Total;3/5/2012;4:00:00;100;15 Minutes;;;;;;132;66;64.500;0;40;22;2;1;232.031;1.512;A;62.953;0.992;2.094;
040549FF9BC9D021;IDS-07B -- ?????-????? (???????????) -- 1 -- None -- 79 -- 0 -- Solo Pro II MVP -- 172.26.2.167;109;Lane 1;3/5/2012;4:15:00;100;15 Minutes;;;;;;0;0;0.000;0;0;0;0;0;255.996;0.000;A;0.000;100.000;0.000;
040549FF9BC9D021;IDS-07B -- ?????-????? (???????????) -- 1 -- None -- 79 -- 0 -- Solo Pro II MVP -- 172.26.2.167;110;Lane 2;3/5/2012;4:15:00;100;15 Minutes;;;;;;288;72;63.500;0;42;26;3;1;12.500;3.574;A;61.492;2.266;4.680;
040549FF9BC9D021;IDS-07B -- ?????-????? (???????????) -- 1 -- None -- 79 -- 0 -- Solo Pro II MVP -- 172.26.2.167;113;Total;3/5/2012;4:15:00;100;15 Minutes;;;;;;144;72;63.500;0;42;26;3;1;255.996;1.785;A;61.492;1.133;2.340;
040549FF9BC9D021;IDS-07B -- ?????-????? (???????????) -- 1 -- None -- 79 -- 0 -- Solo Pro II MVP -- 172.26.2.167;109;Lane 1;3/5/2012;4:30:00;100;15 Minutes;;;;;;0;0;0.000;0;0;0;0;0;255.996;0.000;A;0.000;100.000;0.000;
040549FF9BC9D021;IDS-07B -- ?????-????? (???????????) -- 1 -- None -- 79 -- 0 -- Solo Pro II MVP -- 172.26.2.167;110;Lane 2;3/5/2012;4:30:00;100;15 Minutes;;;;;;304;76;63.828;0;54;21;0;0;11.840;3.203;A;62.184;2.098;4.887;
040549FF9BC9D021;IDS-07B -- ?????-????? (???????????) -- 1 -- None -- 79 -- 0 -- Solo Pro II MVP -- 172.26.2.167;113;Total;3/5/2012;4:30:00;100;15 Minutes;;;;;;152;76;63.828;0;54;21;0;0;255.996;1.602;A;62.184;1.047;2.441;
040549FF9BC9D021;IDS-07B -- ?????-????? (???????????) -- 1 -- None -- 79 -- 0 -- Solo Pro II MVP -- 172.26.2.167;109;Lane 1;3/5/2012;4:45:00;100;15 Minutes;;;;;;8;2;52.000;0;2;0;0;0;255.996;0.051;A;51.078;0.051;0.156;
040549FF9BC9D021;IDS-07B -- ?????-????? (???????????) -- 1 -- None -- 79 -- 0 -- Solo Pro II MVP -- 172.26.2.167;110;Lane 2;3/5/2012;4:45:00;100;15 Minutes;;;;;;348;87;64.238;0;57;27;1;1;10.344;3.543;A;62.121;2.531;5.602;
040549FF9BC9D021;IDS-07B -- ?????-????? (???????????) -- 1 -- None -- 79 -- 0 -- Solo Pro II MVP -- 172.26.2.167;113;Total;3/5/2012;4:45:00;100;15 Minutes;;;;;;178;89;63.965;0;59;27;1;1;230.172;1.797;A;61.820;1.293;2.879;
040549FF9BC9D021;IDS-07B -- ?????-????? (???????????) -- 1 -- None -- 79 -- 0 -- Solo Pro II MVP -- 172.26.2.167;109;Lane 1;3/5/2012;5:00:00;100;15 Minutes;;;;;;0;0;0.000;0;0;0;0;0;255.996;0.000;A;0.000;100.000;0.000;
040549FF9BC9D021;IDS-07B -- ?????-????? (???????????) -- 1 -- None -- 79 -- 0 -- Solo Pro II MVP -- 172.26.2.167;110;Lane 2;3/5/2012;5:00:00;100;15 Minutes;;;;;;416;104;60.555;0;68;35;1;0;8.652;4.766;A;59.285;3.152;7.016;
040549FF9BC9D021;IDS-07B -- ?????-????? (???????????) -- 1 -- None -- 79 -- 0 -- Solo Pro II MVP -- 172.26.2.167;113;Total;3/5/2012;5:00:00;100;15 Minutes;;;;;;208;104;60.555;0;68;35;1;0;255.996;2.383;A;59.285;1.574;3.508;
040549FF9BC9D021;IDS-07B -- ?????-????? (???????????) -- 1 -- None -- 79 -- 0 -- Solo Pro II MVP -- 172.26.2.167;109;Lane 1;3/5/2012;5:15:00;100;15 Minutes;;;;;;4;1;56.000;0;1;0;0;0;255.996;0.020;A;56.012;0.020;0.070;
040549FF9BC9D021;IDS-07B -- ?????-????? (???????????) -- 1 -- None -- 79 -- 0 -- Solo Pro II MVP -- 172.26.2.167;110;Lane 2;3/5/2012;5:15:00;100;15 Minutes;;;;;;440;110;60.891;0;75;33;1;1;8.180;4.988;A;59.035;3.270;7.453;
040549FF9BC9D021;IDS-07B -- ?????-????? (???????????) -- 1 -- None -- 79 -- 0 -- Solo Pro II MVP -- 172.26.2.167;113;Total;3/5/2012;5:15:00;100;15 Minutes;;;;;;222;111;60.844;0;76;33;1;1;255.996;2.504;A;59.008;1.645;3.762;
040549FF9BC9D021;IDS-07B -- ?????-????? (???????????) -- 1 -- None -- 79 -- 0 -- Solo Pro II MVP -- 172.26.2.167;109;Lane 1;3/5/2012;5:30:00;100;15 Minutes;;;;;;0;0;0.000;0;0;0;0;0;255.996;0.000;A;0.000;100.000;0.000;
040549FF9BC9D021;IDS-07B -- ?????-????? (???????????) -- 1 -- None -- 79 -- 0 -- Solo Pro II MVP -- 172.26.2.167;110;Lane 2;3/5/2012;5:30:00;100;15 Minutes;;;;;;436;109;60.832;0;77;31;1;0;8.254;4.809;A;58.289;3.070;7.477;
040549FF9BC9D021;IDS-07B -- ?????-????? (???????????) -- 1 -- None -- 79 -- 0 -- Solo Pro II MVP -- 172.26.2.167;113;Total;3/5/2012;5:30:00;100;15 Minutes;;;;;;218;109;60.832;0;77;31;1;0;255.996;2.402;A;58.289;1.535;3.738;
040549FF9BC9D021;IDS-07B -- ?????-????? (???????????) -- 1 -- None -- 79 -- 0 -- Solo Pro II MVP -- 172.26.2.167;109;Lane 1;3/5/2012;5:45:00;100;15 Minutes;;;;;;0;0;0.000;0;0;0;0;0;255.996;0.000;A;0.000;100.000;0.000;
040549FF9BC9D021;IDS-07B -- ?????-????? (???????????) -- 1 -- None -- 79 -- 0 -- Solo Pro II MVP -- 172.26.2.167;110;Lane 2;3/5/2012;5:45:00;100;15 Minutes;;;;;;472;118;65.000;0;88;28;1;1;7.625;4.766;A;63.344;3.184;7.449;
040549FF9BC9D021;IDS-07B -- ?????-????? (???????????) -- 1 -- None -- 79 -- 0 -- Solo Pro II MVP -- 172.26.2.167;113;Total;3/5/2012;5:45:00;100;15 Minutes;;;;;;236;118;65.000;0;88;28;1;1;255.996;2.383;A;63.344;1.590;3.723;
040549FF9BC9D021;IDS-07B -- ?????-????? (???????????) -- 1 -- None -- 79 -- 0 -- Solo Pro II MVP -- 172.26.2.167;109;Lane 1;3/5/2012;6:00:00;100;15 Minutes;;;;;;0;0;0.000;0;0;0;0;0;255.996;0.000;A;0.000;100.000;0.000;
040549FF9BC9D021;IDS-07B -- ?????-????? (???????????) -- 1 -- None -- 79 -- 0 -- Solo Pro II MVP -- 172.26.2.167;110;Lane 2;3/5/2012;6:00:00;100;15 Minutes;;;;;;500;125;69.582;0;56;40;16;13;7.199;7.063;A;67.711;4.625;7.383;
040549FF9BC9D021;IDS-07B -- ?????-????? (???????????) -- 1 -- None -- 79 -- 0 -- Solo Pro II MVP -- 172.26.2.167;113;Total;3/5/2012;6:00:00;100;15 Minutes;;;;;;250;125;69.582;0;56;40;16;13;255.996;3.531;A;67.711;2.313;3.691;
040549FF9BC9D021;IDS-07B -- ?????-????? (???????????) -- 1 -- None -- 79 -- 0 -- Solo Pro II MVP -- 172.26.2.167;109;Lane 1;3/5/2012;6:15:00;100;15 Minutes;;;;;;8;2;58.500;0;1;1;0;0;255.996;0.121;A;58.484;0.063;0.137;
040549FF9BC9D021;IDS-07B -- ?????-????? (???????????) -- 1 -- None -- 79 -- 0 -- Solo Pro II MVP -- 172.26.2.167;110;Lane 2;3/5/2012;6:15:00;100;15 Minutes;;;;;;532;133;72.434;0;30;58;14;30;6.766;7.805;A;70.871;6.332;7.504;
040549FF9BC9D021;IDS-07B -- ?????-????? (???????????) -- 1 -- None -- 79 -- 0 -- Solo Pro II MVP -- 172.26.2.167;113;Total;3/5/2012;6:15:00;100;15 Minutes;;;;;;270;135;72.227;0;31;59;14;30;228.383;3.961;A;70.652;3.199;3.820;
040549FF9BC9D021;IDS-07B -- ?????-????? (???????????) -- 1 -- None -- 79 -- 0 -- Solo Pro II MVP -- 172.26.2.167;109;Lane 1;3/5/2012;6:30:00;100;15 Minutes;;;;;;4;1;65.000;0;0;1;0;0;255.996;0.078;A;65.016;0.039;0.059;
040549FF9BC9D021;IDS-07B -- ?????-????? (???????????) -- 1 -- None -- 79 -- 0 -- Solo Pro II MVP -- 172.26.2.167;110;Lane 2;3/5/2012;6:30:00;100;15 Minutes;;;;;;548;137;71.668;0;52;44;12;28;6.566;7.711;A;70.152;5.969;7.809;
040549FF9BC9D021;IDS-07B -- ?????-????? (???????????) -- 1 -- None -- 79 -- 0 -- Solo Pro II MVP -- 172.26.2.167;113;Total;3/5/2012;6:30:00;100;15 Minutes;;;;;;276;138;71.621;0;52;45;12;28;255.996;3.895;A;70.113;3.004;3.934;
040549FF9BC9D021;IDS-07B -- ?????-????? (???????????) -- 1 -- None -- 79 -- 0 -- Solo Pro II MVP -- 172.26.2.167;109;Lane 1;3/5/2012;6:45:00;100;15 Minutes;;;;;;0;0;0.000;0;0;0;0;0;255.996;0.000;A;0.000;100.000;0.000;
040549FF9BC9D021;IDS-07B -- ?????-????? (???????????) -- 1 -- None -- 79 -- 0 -- Solo Pro II MVP -- 172.26.2.167;110;Lane 2;3/5/2012;6:45:00;100;15 Minutes;;;;;;480;120;73.125;0;40;40;20;20;7.500;6.977;A;71.191;5.406;6.742;
040549FF9BC9D021;IDS-07B -- ?????-????? (???????????) -- 1 -- None -- 79 -- 0 -- Solo Pro II MVP -- 172.26.2.167;113;Total;3/5/2012;6:45:00;100;15 Minutes;;;;;;240;120;73.125;0;40;40;20;20;255.996;3.488;A;71.191;2.703;3.371;
040549FF9BC9D021;IDS-07B -- ?????-????? (???????????) -- 1 -- None -- 79 -- 0 -- Solo Pro II MVP -- 172.26.2.167;109;Lane 1;3/5/2012;7:00:00;100;15 Minutes;;;;;;4;1;124.000;0;0;1;0;0;255.996;0.023;A;124.121;0.020;0.031;
040549FF9BC9D021;IDS-07B -- ?????-????? (???????????) -- 1 -- None -- 79 -- 0 -- Solo Pro II MVP -- 172.26.2.167;110;Lane 2;3/5/2012;7:00:00;100;15 Minutes;;;;;;576;144;74.500;0;47;68;12;16;6.250;7.984;A;72.605;5.578;7.930;
040549FF9BC9D021;IDS-07B -- ?????-????? (???????????) -- 1 -- None -- 79 -- 0 -- Solo Pro II MVP -- 172.26.2.167;113;Total;3/5/2012;7:00:00;100;15 Minutes;;;;;;290;145;74.840;0;47;69;12;16;255.996;4.004;A;72.816;2.793;3.980;
040549FF9BC9D021;IDS-07B -- ?????-????? (???????????) -- 1 -- None -- 79 -- 0 -- Solo Pro II MVP -- 172.26.2.167;109;Lane 1;3/5/2012;7:15:00;100;15 Minutes;;;;;;0;0;0.000;0;0;0;0;0;255.996;0.000;A;0.000;100.000;0.000;
040549FF9BC9D021;IDS-07B -- ?????-????? (???????????) -- 1 -- None -- 79 -- 0 -- Solo Pro II MVP -- 172.26.2.167;110;Lane 2;3/5/2012;7:15:00;100;15 Minutes;;;;;;620;155;75.758;0;62;71;10;12;5.805;7.805;A;72.785;5.367;8.516;
040549FF9BC9D021;IDS-07B -- ?????-????? (???????????) -- 1 -- None -- 79 -- 0 -- Solo Pro II MVP -- 172.26.2.167;113;Total;3/5/2012;7:15:00;100;15 Minutes;;;;;;310;155;75.758;0;62;71;10;12;255.996;3.902;A;72.785;2.684;4.258;
040549FF9BC9D021;IDS-07B -- ?????-????? (???????????) -- 1 -- None -- 79 -- 0 -- Solo Pro II MVP -- 172.26.2.167;109;Lane 1;3/5/2012;7:30:00;100;15 Minutes;;;;;;4;1;110.000;0;1;0;0;0;255.996;0.020;A;110.145;0.012;0.035;
040549FF9BC9D021;IDS-07B -- ?????-????? (???????????) -- 1 -- None -- 79 -- 0 -- Solo Pro II MVP -- 172.26.2.167;110;Lane 2;3/5/2012;7:30:00;100;15 Minutes;;;;;;740;185;77.527;0;83;78;13;9;4.863;9.047;A;75.395;5.723;9.813;
040549FF9BC9D021;IDS-07B -- ?????-????? (???????????) -- 1 -- None -- 79 -- 0 -- Solo Pro II MVP -- 172.26.2.167;113;Total;3/5/2012;7:30:00;100;15 Minutes;;;;;;372;186;77.703;0;84;78;13;9;255.996;4.531;A;75.523;2.863;4.922;
040549FF9BC9D021;IDS-07B -- ?????-????? (???????????) -- 1 -- None -- 79 -- 0 -- Solo Pro II MVP -- 172.26.2.167;109;Lane 1;3/5/2012;7:45:00;100;15 Minutes;;;;;;4;1;28.000;0;1;0;0;0;255.996;0.117;A;28.004;0.066;0.141;
040549FF9BC9D021;IDS-07B -- ?????-????? (???????????) -- 1 -- None -- 79 -- 0 -- Solo Pro II MVP -- 172.26.2.167;110;Lane 2;3/5/2012;7:45:00;100;15 Minutes;;;;;;680;170;75.035;0;67;71;11;17;5.293;9.629;A;73.027;5.938;9.309;
040549FF9BC9D021;IDS-07B -- ?????-????? (???????????) -- 1 -- None -- 79 -- 0 -- Solo Pro II MVP -- 172.26.2.167;113;Total;3/5/2012;7:45:00;100;15 Minutes;;;;;;342;171;74.758;0;68;71;11;17;255.996;4.871;A;72.348;2.992;4.727;
040549FF9BC9D021;IDS-07B -- ?????-????? (???????????) -- 1 -- None -- 79 -- 0 -- Solo Pro II MVP -- 172.26.2.167;109;Lane 1;3/5/2012;8:00:00;100;15 Minutes;;;;;;0;0;0.000;0;0;0;0;0;255.996;0.000;A;0.000;100.000;0.000;
040549FF9BC9D021;IDS-07B -- ?????-????? (???????????) -- 1 -- None -- 79 -- 0 -- Solo Pro II MVP -- 172.26.2.167;110;Lane 2;3/5/2012;8:00:00;100;15 Minutes;;;;;;772;193;76.133;0;84;76;17;15;4.660;10.418;A;73.547;6.613;10.496;
040549FF9BC9D021;IDS-07B -- ?????-????? (???????????) -- 1 -- None -- 79 -- 0 -- Solo Pro II MVP -- 172.26.2.167;113;Total;3/5/2012;8:00:00;100;15 Minutes;;;;;;386;193;76.133;0;84;76;17;15;255.996;5.207;A;73.547;3.305;5.246;
040549FF9BC9D021;IDS-07B -- ?????-????? (???????????) -- 1 -- None -- 79 -- 0 -- Solo Pro II MVP -- 172.26.2.167;109;Lane 1;3/5/2012;8:15:00;100;15 Minutes;;;;;;4;1;81.000;0;1;0;0;0;255.996;0.074;A;81.008;0.023;0.047;
040549FF9BC9D021;IDS-07B -- ?????-????? (???????????) -- 1 -- None -- 79 -- 0 -- Solo Pro II MVP -- 172.26.2.167;110;Lane 2;3/5/2012;8:15:00;100;15 Minutes;;;;;;648;162;75.500;0;65;58;21;17;5.555;9.523;A;73.516;6.035;8.813;
040549FF9BC9D021;IDS-07B -- ?????-????? (???????????) -- 1 -- None -- 79 -- 0 -- Solo Pro II MVP -- 172.26.2.167;113;Total;3/5/2012;8:15:00;100;15 Minutes;;;;;;326;163;75.531;0;66;58;21;17;255.996;4.797;A;73.559;3.027;4.430;
040549FF9BC9D021;IDS-07B -- ?????-????? (???????????) -- 1 -- None -- 79 -- 0 -- Solo Pro II MVP -- 172.26.2.167;109;Lane 1;3/5/2012;8:30:00;100;15 Minutes;;;;;;20;5;58.398;0;1;3;1;0;180.000;0.539;A;48.922;0.434;0.406;
040549FF9BC9D021;IDS-07B -- ?????-????? (???????????) -- 1 -- None -- 79 -- 0 -- Solo Pro II MVP -- 172.26.2.167;110;Lane 2;3/5/2012;8:30:00;100;15 Minutes;;;;;;716;179;66.156;0;75;73;14;15;5.027;11.281;A;63.027;7.016;11.359;
040549FF9BC9D021;IDS-07B -- ?????-????? (???????????) -- 1 -- None -- 79 -- 0 -- Solo Pro II MVP -- 172.26.2.167;113;Total;3/5/2012;8:30:00;100;15 Minutes;;;;;;368;184;65.945;0;76;76;15;15;92.512;5.910;A;62.535;3.711;5.883;
040549FF9BC9D021;IDS-07B -- ?????-????? (???????????) -- 1 -- None -- 79 -- 0 -- Solo Pro II MVP -- 172.26.2.167;109;Lane 1;3/5/2012;8:45:00;100;15 Minutes;;;;;;4;1;72.000;0;0;1;0;0;255.996;0.059;A;72.016;0.035;0.055;
040549FF9BC9D021;IDS-07B -- ?????-????? (???????????) -- 1 -- None -- 79 -- 0 -- Solo Pro II MVP -- 172.26.2.167;110;Lane 2;3/5/2012;8:45:00;100;15 Minutes;;;;;;628;157;71.176;0;72;50;16;14;5.730;9.875;A;68.969;5.855;9.105;
040549FF9BC9D021;IDS-07B -- ?????-????? (???????????) -- 1 -- None -- 79 -- 0 -- Solo Pro II MVP -- 172.26.2.167;113;Total;3/5/2012;8:45:00;100;15 Minutes;;;;;;316;158;71.180;0;72;51;16;14;255.996;4.965;A;68.988;2.945;4.578;
040549FF9BC9D021;IDS-07B -- ?????-????? (???????????) -- 1 -- None -- 79 -- 0 -- Solo Pro II MVP -- 172.26.2.167;109;Lane 1;3/5/2012;9:00:00;100;15 Minutes;;;;;;16;4;83.500;0;3;0;0;0;225.000;0.180;A;77.441;0.047;0.203;
040549FF9BC9D021;IDS-07B -- ?????-????? (???????????) -- 1 -- None -- 79 -- 0 -- Solo Pro II MVP -- 172.26.2.167;110;Lane 2;3/5/2012;9:00:00;100;15 Minutes;;;;;;804;201;68.117;0;73;90;18;18;4.477;12.945;A;65.840;8.152;12.211;
040549FF9BC9D021;IDS-07B -- ?????-????? (???????????) -- 1 -- None -- 79 -- 0 -- Solo Pro II MVP -- 172.26.2.167;113;Total;3/5/2012;9:00:00;100;15 Minutes;;;;;;410;205;68.418;0;76;90;18;18;114.738;6.563;A;66.035;4.086;6.207;
040549FF9BC9D021;IDS-07B -- ?????-????? (???????????) -- 1 -- None -- 79 -- 0 -- Solo Pro II MVP -- 172.26.2.167;109;Lane 1;3/5/2012;9:15:00;100;15 Minutes;;;;;;16;4;63.750;0;2;2;0;0;225.000;0.281;A;60.625;0.180;0.262;
040549FF9BC9D021;IDS-07B -- ?????-????? (???????????) -- 1 -- None -- 79 -- 0 -- Solo Pro II MVP -- 172.26.2.167;110;Lane 2;3/5/2012;9:15:00;100;15 Minutes;;;;;;844;211;67.852;0;81;90;21;19;4.262;11.359;A;66.594;8.578;12.672;
040549FF9BC9D021;IDS-07B -- ?????-????? (???????????) -- 1 -- None -- 79 -- 0 -- Solo Pro II MVP -- 172.26.2.167;113;Total;3/5/2012;9:15:00;100;15 Minutes;;;;;;430;215;67.773;0;83;92;21;19;114.629;5.820;A;66.473;4.379;6.469;
040549FF9BC9D021;IDS-07B -- ?????-????? (???????????) -- 1 -- None -- 79 -- 0 -- Solo Pro II MVP -- 172.26.2.167;109;Lane 1;3/5/2012;9:30:00;100;15 Minutes;;;;;;8;2;55.000;0;1;1;0;0;255.996;0.141;A;53.191;0.086;0.148;
040549FF9BC9D021;IDS-07B -- ?????-????? (???????????) -- 1 -- None -- 79 -- 0 -- Solo Pro II MVP -- 172.26.2.167;110;Lane 2;3/5/2012;9:30:00;100;15 Minutes;;;;;;848;212;66.945;0;78;79;32;23;4.242;11.473;A;65.766;9.180;12.891;
040549FF9BC9D021;IDS-07B -- ?????-????? (???????????) -- 1 -- None -- 79 -- 0 -- Solo Pro II MVP -- 172.26.2.167;113;Total;3/5/2012;9:30:00;100;15 Minutes;;;;;;428;214;66.836;0;79;80;32;23;227.121;5.805;A;65.621;4.633;6.520;
040549FF9BC9D021;IDS-07B -- ?????-????? (???????????) -- 1 -- None -- 79 -- 0 -- Solo Pro II MVP -- 172.26.2.167;109;Lane 1;3/5/2012;9:45:00;100;15 Minutes;;;;;;8;2;44.500;0;2;0;0;0;255.996;0.109;A;44.367;0.090;0.180;
040549FF9BC9D021;IDS-07B -- ?????-????? (???????????) -- 1 -- None -- 79 -- 0 -- Solo Pro II MVP -- 172.26.2.167;110;Lane 2;3/5/2012;9:45:00;100;15 Minutes;;;;;;816;204;66.352;0;78;82;26;17;4.410;10.461;A;65.168;8.328;12.520;
040549FF9BC9D021;IDS-07B -- ?????-????? (???????????) -- 1 -- None -- 79 -- 0 -- Solo Pro II MVP -- 172.26.2.167;113;Total;3/5/2012;9:45:00;100;15 Minutes;;;;;;412;206;66.141;0;80;82;26;17;227.203;5.285;A;64.875;4.207;6.348;
040549FF9BC9D021;IDS-07B -- ?????-????? (???????????) -- 1 -- None -- 79 -- 0 -- Solo Pro II MVP -- 172.26.2.167;109;Lane 1;3/5/2012;10:00:00;100;15 Minutes;;;;;;12;3;71.000;0;1;2;0;0;255.996;0.219;A;64.906;0.094;0.184;
040549FF9BC9D021;IDS-07B -- ?????-????? (???????????) -- 1 -- None -- 79 -- 0 -- Solo Pro II MVP -- 172.26.2.167;110;Lane 2;3/5/2012;10:00:00;100;15 Minutes;;;;;;952;238;64.594;0;84;103;31;19;3.781;13.895;A;63.234;10.117;15.055;
040549FF9BC9D021;IDS-07B -- ?????-????? (???????????) -- 1 -- None -- 79 -- 0 -- Solo Pro II MVP -- 172.26.2.167;113;Total;3/5/2012;10:00:00;100;15 Minutes;;;;;;482;241;64.676;0;85;105;31;19;151.891;7.055;A;63.258;5.102;7.617;
040549FF9BC9D021;IDS-07B -- ?????-????? (???????????) -- 1 -- None -- 79 -- 0 -- Solo Pro II MVP -- 172.26.2.167;109;Lane 1;3/5/2012;10:15:00;100;15 Minutes;;;;;;8;2;72.000;0;1;0;0;1;255.996;0.180;A;69.680;0.148;0.113;
040549FF9BC9D021;IDS-07B -- ?????-????? (???????????) -- 1 -- None -- 79 -- 0 -- Solo Pro II MVP -- 172.26.2.167;110;Lane 2;3/5/2012;10:15:00;100;15 Minutes;;;;;;852;213;64.313;0;68;77;34;33;4.223;14.238;A;62.648;10.004;13.598;
040549FF9BC9D021;IDS-07B -- ?????-????? (???????????) -- 1 -- None -- 79 -- 0 -- Solo Pro II MVP -- 172.26.2.167;113;Total;3/5/2012;10:15:00;100;15 Minutes;;;;;;430;215;64.383;0;69;77;34;34;227.109;7.207;A;62.707;5.078;6.855;
040549FF9BC9D021;IDS-07B -- ?????-????? (???????????) -- 1 -- None -- 79 -- 0 -- Solo Pro II MVP -- 172.26.2.167;109;Lane 1;3/5/2012;10:30:00;100;15 Minutes;;;;;;8;2;26.500;0;2;0;0;0;255.996;0.285;A;12.148;0.133;0.656;
040549FF9BC9D021;IDS-07B -- ?????-????? (???????????) -- 1 -- None -- 79 -- 0 -- Solo Pro II MVP -- 172.26.2.167;110;Lane 2;3/5/2012;10:30:00;100;15 Minutes;;;;;;920;230;62.066;0;89;88;27;23;3.910;15.809;A;60.805;10.125;15.129;
040549FF9BC9D021;IDS-07B -- ?????-????? (???????????) -- 1 -- None -- 79 -- 0 -- Solo Pro II MVP -- 172.26.2.167;113;Total;3/5/2012;10:30:00;100;15 Minutes;;;;;;464;232;61.762;0;91;88;27;23;226.953;8.047;A;58.773;5.117;7.895;
040549FF9BC9D021;IDS-07B -- ?????-????? (???????????) -- 1 -- None -- 79 -- 0 -- Solo Pro II MVP -- 172.26.2.167;109;Lane 1;3/5/2012;10:45:00;100;15 Minutes;;;;;;8;2;49.000;0;1;1;0;0;255.996;0.129;A;48.508;0.082;0.164;
040549FF9BC9D021;IDS-07B -- ?????-????? (???????????) -- 1 -- None -- 79 -- 0 -- Solo Pro II MVP -- 172.26.2.167;110;Lane 2;3/5/2012;10:45:00;100;15 Minutes;;;;;;928;232;63.148;0;70;88;40;33;3.879;15.906;A;62.234;11.574;14.910;
040549FF9BC9D021;IDS-07B -- ?????-????? (???????????) -- 1 -- None -- 79 -- 0 -- Solo Pro II MVP -- 172.26.2.167;113;Total;3/5/2012;10:45:00;100;15 Minutes;;;;;;468;234;63.027;0;71;89;40;33;226.938;8.016;A;62.086;5.828;7.535;
040549FF9BC9D021;IDS-07B -- ?????-????? (???????????) -- 1 -- None -- 79 -- 0 -- Solo Pro II MVP -- 172.26.2.167;109;Lane 1;3/5/2012;11:00:00;100;15 Minutes;;;;;;4;1;47.000;0;1;0;0;0;255.996;0.051;A;47.012;0.035;0.082;
040549FF9BC9D021;IDS-07B -- ?????-????? (???????????) -- 1 -- None -- 79 -- 0 -- Solo Pro II MVP -- 172.26.2.167;110;Lane 2;3/5/2012;11:00:00;100;15 Minutes;;;;;;940;235;61.875;0;77;88;42;28;3.828;16.129;A;60.734;11.449;15.477;
040549FF9BC9D021;IDS-07B -- ?????-????? (???????????) -- 1 -- None -- 79 -- 0 -- Solo Pro II MVP -- 172.26.2.167;113;Total;3/5/2012;11:00:00;100;15 Minutes;;;;;;472;236;61.813;0;78;88;42;28;255.996;8.090;A;60.660;5.742;7.777;
040549FF9BC9D021;IDS-07B -- ?????-????? (???????????) -- 1 -- None -- 79 -- 0 -- Solo Pro II MVP -- 172.26.2.167;109;Lane 1;3/5/2012;11:15:00;100;15 Minutes;;;;;;16;4;50.500;0;2;2;0;0;225.000;0.313;A;47.250;0.188;0.336;
040549FF9BC9D021;IDS-07B -- ?????-????? (???????????) -- 1 -- None -- 79 -- 0 -- Solo Pro II MVP -- 172.26.2.167;110;Lane 2;3/5/2012;11:15:00;100;15 Minutes;;;;;;964;241;63.488;0;85;103;26;25;3.734;15.469;A;62.105;10.730;15.520;
040549FF9BC9D021;IDS-07B -- ?????-????? (???????????) -- 1 -- None -- 79 -- 0 -- Solo Pro II MVP -- 172.26.2.167;113;Total;3/5/2012;11:15:00;100;15 Minutes;;;;;;490;245;63.277;0;87;105;26;25;114.367;7.891;A;61.789;5.457;7.930;
040549FF9BC9D021;IDS-07B -- ?????-????? (???????????) -- 1 -- None -- 79 -- 0 -- Solo Pro II MVP -- 172.26.2.167;109;Lane 1;3/5/2012;11:30:00;100;15 Minutes;;;;;;8;2;61.500;0;1;1;0;0;255.996;0.113;A;58.566;0.070;0.133;
040549FF9BC9D021;IDS-07B -- ?????-????? (???????????) -- 1 -- None -- 79 -- 0 -- Solo Pro II MVP -- 172.26.2.167;110;Lane 2;3/5/2012;11:30:00;100;15 Minutes;;;;;;948;237;62.090;0;70;96;37;33;3.797;15.742;A;61.172;11.996;15.496;
040549FF9BC9D021;IDS-07B -- ?????-????? (???????????) -- 1 -- None -- 79 -- 0 -- Solo Pro II MVP -- 172.26.2.167;113;Total;3/5/2012;11:30:00;100;15 Minutes;;;;;;478;239;62.086;0;71;97;37;33;226.898;7.926;A;61.148;6.031;7.816;
040549FF9BC9D021;IDS-07B -- ?????-????? (???????????) -- 1 -- None -- 79 -- 0 -- Solo Pro II MVP -- 172.26.2.167;109;Lane 1;3/5/2012;11:45:00;100;15 Minutes;;;;;;20;5;54.199;0;1;4;0;0;180.000;0.367;A;52.781;0.207;0.379;
040549FF9BC9D021;IDS-07B -- ?????-????? (???????????) -- 1 -- None -- 79 -- 0 -- Solo Pro II MVP -- 172.26.2.167;110;Lane 2;3/5/2012;11:45:00;100;15 Minutes;;;;;;908;227;62.305;0;73;97;33;22;3.961;15.199;A;60.668;10.859;14.965;
040549FF9BC9D021;IDS-07B -- ?????-????? (???????????) -- 1 -- None -- 79 -- 0 -- Solo Pro II MVP -- 172.26.2.167;113;Total;3/5/2012;11:45:00;100;15 Minutes;;;;;;464;232;62.133;0;74;101;33;22;91.980;7.781;A;60.473;5.535;7.672;
040549FF9BC9D021;IDS-07B -- ?????-????? (???????????) -- 1 -- None -- 79 -- 0 -- Solo Pro II MVP -- 172.26.2.167;109;Lane 1;3/5/2012;12:00:00; 99;15 Minutes;;;;;;12;3;43.332;0;2;1;0;0;255.996;0.313;A;41.953;0.098;0.285;
040549FF9BC9D021;IDS-07B -- ?????-????? (???????????) -- 1 -- None -- 79 -- 0 -- Solo Pro II MVP -- 172.26.2.167;110;Lane 2;3/5/2012;12:00:00; 99;15 Minutes;;;;;;884;221;61.668;0;55;97;32;35;4.070;16.176;A;60.488;12.164;14.613;
040549FF9BC9D021;IDS-07B -- ?????-????? (???????????) -- 1 -- None -- 79 -- 0 -- Solo Pro II MVP -- 172.26.2.167;113;Total;3/5/2012;12:00:00; 99;15 Minutes;;;;;;448;224;61.422;0;57;98;32;35;152.035;8.242;A;60.133;6.141;7.449;
040549FF9BC9D021;IDS-07B -- ?????-????? (???????????) -- 1 -- None -- 79 -- 0 -- Solo Pro II MVP -- 172.26.2.167;109;Lane 1;3/5/2012;12:15:00;100;15 Minutes;;;;;;16;4;50.500;0;0;4;0;0;225.000;0.309;A;49.367;0.195;0.320;
040549FF9BC9D021;IDS-07B -- ?????-????? (???????????) -- 1 -- None -- 79 -- 0 -- Solo Pro II MVP -- 172.26.2.167;110;Lane 2;3/5/2012;12:15:00;100;15 Minutes;;;;;;928;232;59.594;0;76;94;26;34;3.879;15.797;A;58.539;11.828;15.852;
040549FF9BC9D021;IDS-07B -- ?????-????? (???????????) -- 1 -- None -- 79 -- 0 -- Solo Pro II MVP -- 172.26.2.167;113;Total;3/5/2012;12:15:00;100;15 Minutes;;;;;;472;236;59.438;0;76;98;26;34;114.438;8.051;A;58.355;6.012;8.086;
040549FF9BC9D021;IDS-07B -- ?????-????? (???????????) -- 1 -- None -- 79 -- 0 -- Solo Pro II MVP -- 172.26.2.167;109;Lane 1;3/5/2012;12:30:00;100;15 Minutes;;;;;;8;2;55.000;0;2;0;0;0;255.996;0.098;A;54.566;0.063;0.145;
040549FF9BC9D021;IDS-07B -- ?????-????? (???????????) -- 1 -- None -- 79 -- 0 -- Solo Pro II MVP -- 172.26.2.167;110;Lane 2;3/5/2012;12:30:00;100;15 Minutes;;;;;;800;200;62.297;0;53;93;20;33;4.500;13.891;A;61.383;10.230;13.031;
040549FF9BC9D021;IDS-07B -- ?????-????? (???????????) -- 1 -- None -- 79 -- 0 -- Solo Pro II MVP -- 172.26.2.167;113;Total;3/5/2012;12:30:00;100;15 Minutes;;;;;;404;202;62.227;0;55;93;20;33;227.250;6.992;A;61.305;5.148;6.590;
040549FF9BC9D021;IDS-07B -- ?????-????? (???????????) -- 1 -- None -- 79 -- 0 -- Solo Pro II MVP -- 172.26.2.167;109;Lane 1;3/5/2012;12:45:00;100;15 Minutes;;;;;;8;2;27.000;0;2;0;0;0;255.996;0.852;A;9.074;0.109;0.879;
040549FF9BC9D021;IDS-07B -- ?????-????? (???????????) -- 1 -- None -- 79 -- 0 -- Solo Pro II MVP -- 172.26.2.167;110;Lane 2;3/5/2012;12:45:00;100;15 Minutes;;;;;;820;205;59.633;0;56;90;32;24;4.387;14.758;A;58.766;10.781;13.953;
040549FF9BC9D021;IDS-07B -- ?????-????? (???????????) -- 1 -- None -- 79 -- 0 -- Solo Pro II MVP -- 172.26.2.167;113;Total;3/5/2012;12:45:00;100;15 Minutes;;;;;;414;207;59.316;0;58;90;32;24;227.191;7.805;A;55.813;5.445;7.414;
040549FF9BC9D021;IDS-07B -- ?????-????? (???????????) -- 1 -- None -- 79 -- 0 -- Solo Pro II MVP -- 172.26.2.167;109;Lane 1;3/5/2012;13:00:00;100;15 Minutes;;;;;;4;1;55.000;0;0;1;0;0;255.996;0.059;A;55.023;0.035;0.070;
040549FF9BC9D021;IDS-07B -- ?????-????? (???????????) -- 1 -- None -- 79 -- 0 -- Solo Pro II MVP -- 172.26.2.167;110;Lane 2;3/5/2012;13:00:00;100;15 Minutes;;;;;;796;199;62.703;0;45;91;38;24;4.520;14.039;A;61.641;10.469;12.910;
040549FF9BC9D021;IDS-07B -- ?????-????? (???????????) -- 1 -- None -- 79 -- 0 -- Solo Pro II MVP -- 172.26.2.167;113;Total;3/5/2012;13:00:00;100;15 Minutes;;;;;;400;200;62.664;0;45;92;38;24;255.996;7.047;A;61.605;5.254;6.492;
040549FF9BC9D021;IDS-07B -- ?????-????? (???????????) -- 1 -- None -- 79 -- 0 -- Solo Pro II MVP -- 172.26.2.167;109;Lane 1;3/5/2012;13:15:00;100;15 Minutes;;;;;;4;1;90.000;0;1;0;0;0;255.996;0.117;A;90.020;0.004;0.043;
040549FF9BC9D021;IDS-07B -- ?????-????? (???????????) -- 1 -- None -- 79 -- 0 -- Solo Pro II MVP -- 172.26.2.167;110;Lane 2;3/5/2012;13:15:00;100;15 Minutes;;;;;;840;210;61.371;0;59;91;35;24;4.285;14.480;A;60.219;10.461;13.945;
040549FF9BC9D021;IDS-07B -- ?????-????? (???????????) -- 1 -- None -- 79 -- 0 -- Solo Pro II MVP -- 172.26.2.167;113;Total;3/5/2012;13:15:00;100;15 Minutes;;;;;;422;211;61.504;0;60;91;35;24;255.996;7.297;A;60.313;5.223;6.996;
040549FF9BC9D021;IDS-07B -- ?????-????? (???????????) -- 1 -- None -- 79 -- 0 -- Solo Pro II MVP -- 172.26.2.167;109;Lane 1;3/5/2012;13:30:00;100;15 Minutes;;;;;;20;5;56.199;0;4;0;0;1;180.000;0.293;A;52.910;0.258;0.375;
040549FF9BC9D021;IDS-07B -- ?????-????? (???????????) -- 1 -- None -- 79 -- 0 -- Solo Pro II MVP -- 172.26.2.167;110;Lane 2;3/5/2012;13:30:00;100;15 Minutes;;;;;;708;177;59.590;0;55;74;28;20;5.082;13.172;A;57.715;8.969;12.266;
040549FF9BC9D021;IDS-07B -- ?????-????? (???????????) -- 1 -- None -- 79 -- 0 -- Solo Pro II MVP -- 172.26.2.167;113;Total;3/5/2012;13:30:00;100;15 Minutes;;;;;;364;182;59.500;0;59;74;28;21;92.539;6.730;A;57.570;4.613;6.320;
040549FF9BC9D021;IDS-07B -- ?????-????? (???????????) -- 1 -- None -- 79 -- 0 -- Solo Pro II MVP -- 172.26.2.167;109;Lane 1;3/5/2012;13:45:00;100;15 Minutes;;;;;;12;3;63.000;0;2;1;0;0;255.996;0.086;A;62.273;0.066;0.191;
040549FF9BC9D021;IDS-07B -- ?????-????? (???????????) -- 1 -- None -- 79 -- 0 -- Solo Pro II MVP -- 172.26.2.167;110;Lane 2;3/5/2012;13:45:00;100;15 Minutes;;;;;;808;202;61.465;0;69;65;31;35;4.453;14.262;A;60.086;10.727;13.445;
040549FF9BC9D021;IDS-07B -- ?????-????? (???????????) -- 1 -- None -- 79 -- 0 -- Solo Pro II MVP -- 172.26.2.167;113;Total;3/5/2012;13:45:00;100;15 Minutes;;;;;;410;205;61.484;0;71;66;31;35;152.227;7.172;A;60.117;5.395;6.816;
040549FF9BC9D021;IDS-07B -- ?????-????? (???????????) -- 1 -- None -- 79 -- 0 -- Solo Pro II MVP -- 172.26.2.167;109;Lane 1;3/5/2012;14:00:00;100;15 Minutes;;;;;;4;1;103.000;0;1;0;0;0;255.996;0.020;A;103.043;0.020;0.035;
040549FF9BC9D021;IDS-07B -- ?????-????? (???????????) -- 1 -- None -- 79 -- 0 -- Solo Pro II MVP -- 172.26.2.167;110;Lane 2;3/5/2012;14:00:00;100;15 Minutes;;;;;;812;203;63.637;0;62;88;23;30;4.430;13.277;A;62.348;10.305;13.023;
040549FF9BC9D021;IDS-07B -- ?????-????? (???????????) -- 1 -- None -- 79 -- 0 -- Solo Pro II MVP -- 172.26.2.167;113;Total;3/5/2012;14:00:00;100;15 Minutes;;;;;;408;204;63.832;0;63;88;23;30;255.996;6.648;A;62.469;5.152;6.531;
040549FF9BC9D021;IDS-07B -- ?????-????? (???????????) -- 1 -- None -- 79 -- 0 -- Solo Pro II MVP -- 172.26.2.167;109;Lane 1;3/5/2012;14:15:00;100;15 Minutes;;;;;;4;1;63.000;0;1;0;0;0;255.996;0.039;A;63.012;0.027;0.063;
040549FF9BC9D021;IDS-07B -- ?????-????? (???????????) -- 1 -- None -- 79 -- 0 -- Solo Pro II MVP -- 172.26.2.167;110;Lane 2;3/5/2012;14:15:00;100;15 Minutes;;;;;;780;195;59.840;0;55;78;25;35;4.613;13.973;A;57.293;10.957;13.613;
040549FF9BC9D021;IDS-07B -- ?????-????? (???????????) -- 1 -- None -- 79 -- 0 -- Solo Pro II MVP -- 172.26.2.167;113;Total;3/5/2012;14:15:00;100;15 Minutes;;;;;;392;196;59.855;0;56;78;25;35;255.996;7.004;A;57.320;5.492;6.836;
040549FF9BC9D021;IDS-07B -- ?????-????? (???????????) -- 1 -- None -- 79 -- 0 -- Solo Pro II MVP -- 172.26.2.167;109;Lane 1;3/5/2012;14:30:00;100;15 Minutes;;;;;;4;1;107.000;0;1;0;0;0;255.996;0.020;A;107.082;0.016;0.035;
040549FF9BC9D021;IDS-07B -- ?????-????? (???????????) -- 1 -- None -- 79 -- 0 -- Solo Pro II MVP -- 172.26.2.167;110;Lane 2;3/5/2012;14:30:00;100;15 Minutes;;;;;;908;227;60.082;0;77;94;24;32;3.961;15.246;A;58.797;11.516;15.441;
040549FF9BC9D021;IDS-07B -- ?????-????? (???????????) -- 1 -- None -- 79 -- 0 -- Solo Pro II MVP -- 172.26.2.167;113;Total;3/5/2012;14:30:00;100;15 Minutes;;;;;;456;228;60.289;0;78;94;24;32;255.996;7.633;A;58.914;5.750;7.738;
040549FF9BC9D021;IDS-07B -- ?????-????? (???????????) -- 1 -- None -- 79 -- 0 -- Solo Pro II MVP -- 172.26.2.167;109;Lane 1;3/5/2012;14:45:00;100;15 Minutes;;;;;;12;3;71.000;0;3;0;0;0;255.996;0.137;A;55.258;0.063;0.215;
040549FF9BC9D021;IDS-07B -- ?????-????? (???????????) -- 1 -- None -- 79 -- 0 -- Solo Pro II MVP -- 172.26.2.167;110;Lane 2;3/5/2012;14:45:00;100;15 Minutes;;;;;;856;214;59.633;0;54;110;30;20;4.203;14.582;A;55.387;10.648;15.453;
040549FF9BC9D021;IDS-07B -- ?????-????? (???????????) -- 1 -- None -- 79 -- 0 -- Solo Pro II MVP -- 172.26.2.167;113;Total;3/5/2012;14:45:00;100;15 Minutes;;;;;;434;217;59.789;0;57;110;30;20;152.102;7.359;A;55.383;5.348;7.836;
040549FF9BC9D021;IDS-07B -- ?????-????? (???????????) -- 1 -- None -- 79 -- 0 -- Solo Pro II MVP -- 172.26.2.167;109;Lane 1;3/5/2012;15:00:00;100;15 Minutes;;;;;;8;2;58.500;0;1;1;0;0;255.996;0.250;A;53.281;0.066;0.148;
040549FF9BC9D021;IDS-07B -- ?????-????? (???????????) -- 1 -- None -- 79 -- 0 -- Solo Pro II MVP -- 172.26.2.167;110;Lane 2;3/5/2012;15:00:00;100;15 Minutes;;;;;;880;220;56.797;0;49;113;33;25;4.090;15.484;A;55.430;12.129;15.875;
040549FF9BC9D021;IDS-07B -- ?????-????? (???????????) -- 1 -- None -- 79 -- 0 -- Solo Pro II MVP -- 172.26.2.167;113;Total;3/5/2012;15:00:00;100;15 Minutes;;;;;;444;222;56.813;0;50;114;33;25;227.043;7.867;A;55.406;6.098;8.012;
040549FF9BC9D021;IDS-07B -- ?????-????? (???????????) -- 1 -- None -- 79 -- 0 -- Solo Pro II MVP -- 172.26.2.167;109;Lane 1;3/5/2012;15:15:00;100;15 Minutes;;;;;;12;3;65.000;0;2;0;0;1;255.996;0.203;A;64.652;0.145;0.184;
040549FF9BC9D021;IDS-07B -- ?????-????? (???????????) -- 1 -- None -- 79 -- 0 -- Solo Pro II MVP -- 172.26.2.167;110;Lane 2;3/5/2012;15:15:00;100;15 Minutes;;;;;;872;218;58.031;0;40;113;38;27;4.125;15.402;A;56.043;12.371;15.559;
040549FF9BC9D021;IDS-07B -- ?????-????? (???????????) -- 1 -- None -- 79 -- 0 -- Solo Pro II MVP -- 172.26.2.167;113;Total;3/5/2012;15:15:00;100;15 Minutes;;;;;;442;221;58.125;0;42;113;38;28;152.063;7.801;A;56.145;6.258;7.871;
040549FF9BC9D021;IDS-07B -- ?????-????? (???????????) -- 1 -- None -- 79 -- 0 -- Solo Pro II MVP -- 172.26.2.167;109;Lane 1;3/5/2012;15:30:00;100;15 Minutes;;;;;;12;3;66.000;0;1;0;2;0;255.996;0.219;A;64.863;0.148;0.184;
040549FF9BC9D021;IDS-07B -- ?????-????? (???????????) -- 1 -- None -- 79 -- 0 -- Solo Pro II MVP -- 172.26.2.167;110;Lane 2;3/5/2012;15:30:00;100;15 Minutes;;;;;;820;205;58.035;0;39;100;36;29;4.387;14.773;A;56.539;11.961;14.500;
040549FF9BC9D021;IDS-07B -- ?????-????? (???????????) -- 1 -- None -- 79 -- 0 -- Solo Pro II MVP -- 172.26.2.167;113;Total;3/5/2012;15:30:00;100;15 Minutes;;;;;;416;208;58.152;0;40;100;38;29;152.191;7.496;A;56.645;6.051;7.344;
040549FF9BC9D021;IDS-07B -- ?????-????? (???????????) -- 1 -- None -- 79 -- 0 -- Solo Pro II MVP -- 172.26.2.167;109;Lane 1;3/5/2012;15:45:00;100;15 Minutes;;;;;;24;6;68.832;0;2;4;0;0;150.000;0.391;A;61.535;0.188;0.387;
040549FF9BC9D021;IDS-07B -- ?????-????? (???????????) -- 1 -- None -- 79 -- 0 -- Solo Pro II MVP -- 172.26.2.167;110;Lane 2;3/5/2012;15:45:00;100;15 Minutes;;;;;;896;224;61.969;0;52;125;24;22;4.016;13.684;A;60.254;10.750;14.867;
040549FF9BC9D021;IDS-07B -- ?????-????? (???????????) -- 1 -- None -- 79 -- 0 -- Solo Pro II MVP -- 172.26.2.167;113;Total;3/5/2012;15:45:00;100;15 Minutes;;;;;;460;230;62.145;0;54;129;24;22;77.008;7.035;A;60.289;5.461;7.629;
040549FF9BC9D021;IDS-07B -- ?????-????? (???????????) -- 1 -- None -- 79 -- 0 -- Solo Pro II MVP -- 172.26.2.167;109;Lane 1;3/5/2012;16:00:00;100;15 Minutes;;;;;;44;11;62.090;0;7;4;0;0;81.816;0.570;A;60.242;0.332;0.727;
040549FF9BC9D021;IDS-07B -- ?????-????? (???????????) -- 1 -- None -- 79 -- 0 -- Solo Pro II MVP -- 172.26.2.167;110;Lane 2;3/5/2012;16:00:00;100;15 Minutes;;;;;;904;226;59.609;0;45;127;22;29;3.980;15.512;A;54.309;11.777;16.645;
040549FF9BC9D021;IDS-07B -- ?????-????? (???????????) -- 1 -- None -- 79 -- 0 -- Solo Pro II MVP -- 172.26.2.167;113;Total;3/5/2012;16:00:00;100;15 Minutes;;;;;;474;237;59.723;0;52;131;22;29;42.898;8.039;A;54.559;6.051;8.688;
040549FF9BC9D021;IDS-07B -- ?????-????? (???????????) -- 1 -- None -- 79 -- 0 -- Solo Pro II MVP -- 172.26.2.167;109;Lane 1;3/5/2012;16:15:00;100;15 Minutes;;;;;;12;3;53.332;0;1;2;0;0;255.996;0.273;A;51.629;0.098;0.230;
040549FF9BC9D021;IDS-07B -- ?????-????? (???????????) -- 1 -- None -- 79 -- 0 -- Solo Pro II MVP -- 172.26.2.167;110;Lane 2;3/5/2012;16:15:00;100;15 Minutes;;;;;;840;210;63.730;0;46;118;23;23;4.285;13.250;A;62.090;10.070;13.527;
040549FF9BC9D021;IDS-07B -- ?????-????? (???????????) -- 1 -- None -- 79 -- 0 -- Solo Pro II MVP -- 172.26.2.167;113;Total;3/5/2012;16:15:00;100;15 Minutes;;;;;;426;213;63.586;0;47;120;23;23;152.141;6.762;A;61.914;5.086;6.879;
040549FF9BC9D021;IDS-07B -- ?????-????? (???????????) -- 1 -- None -- 79 -- 0 -- Solo Pro II MVP -- 172.26.2.167;109;Lane 1;3/5/2012;16:30:00;100;15 Minutes;;;;;;56;14;56.500;0;11;2;0;0;64.285;0.766;A;53.113;0.395;1.051;
040549FF9BC9D021;IDS-07B -- ?????-????? (???????????) -- 1 -- None -- 79 -- 0 -- Solo Pro II MVP -- 172.26.2.167;110;Lane 2;3/5/2012;16:30:00;100;15 Minutes;;;;;;940;235;57.309;0;62;128;25;19;3.828;16.105;A;53.684;11.422;17.508;
040549FF9BC9D021;IDS-07B -- ?????-????? (???????????) -- 1 -- None -- 79 -- 0 -- Solo Pro II MVP -- 172.26.2.167;113;Total;3/5/2012;16:30:00;100;15 Minutes;;;;;;498;249;57.262;0;73;130;25;19;34.055;8.434;A;53.652;5.910;9.281;
040549FF9BC9D021;IDS-07B -- ?????-????? (???????????) -- 1 -- None -- 79 -- 0 -- Solo Pro II MVP -- 172.26.2.167;109;Lane 1;3/5/2012;16:45:00;100;15 Minutes;;;;;;276;69;29.043;0;54;11;2;0;13.043;7.402;A;22.176;4.012;12.445;
040549FF9BC9D021;IDS-07B -- ?????-????? (???????????) -- 1 -- None -- 79 -- 0 -- Solo Pro II MVP -- 172.26.2.167;110;Lane 2;3/5/2012;16:45:00;100;15 Minutes;;;;;;832;208;47.711;0;69;91;28;15;4.324;21.574;A;29.461;11.578;28.238;
040549FF9BC9D021;IDS-07B -- ?????-????? (???????????) -- 1 -- None -- 79 -- 0 -- Solo Pro II MVP -- 172.26.2.167;113;Total;3/5/2012;16:45:00;100;15 Minutes;;;;;;554;277;43.059;0;123;102;30;15;8.684;14.488;A;27.242;7.770;20.336;
040549FF9BC9D021;IDS-07B -- ?????-????? (???????????) -- 1 -- None -- 79 -- 0 -- Solo Pro II MVP -- 172.26.2.167;109;Lane 1;3/5/2012;17:00:00;100;15 Minutes;;;;;;596;149;19.676;0;105;30;0;0;6.039;30.980;A;12.258;11.164;48.621;
040549FF9BC9D021;IDS-07B -- ?????-????? (???????????) -- 1 -- None -- 79 -- 0 -- Solo Pro II MVP -- 172.26.2.167;110;Lane 2;3/5/2012;17:00:00;100;15 Minutes;;;;;;224;56;7.586;0;24;10;9;2;16.070;41.789;A;5.992;13.078;37.379;
040549FF9BC9D021;IDS-07B -- ?????-????? (???????????) -- 1 -- None -- 79 -- 0 -- Solo Pro II MVP -- 172.26.2.167;113;Total;3/5/2012;17:00:00;100;15 Minutes;;;;;;410;205;16.375;0;129;40;9;2;11.055;36.383;A;9.535;9.734;42.996;
040549FF9BC9D021;IDS-07B -- ?????-????? (???????????) -- 1 -- None -- 79 -- 0 -- Solo Pro II MVP -- 172.26.2.167;109;Lane 1;3/5/2012;17:15:00;100;15 Minutes;;;;;;540;135;44.133;0;108;18;1;0;6.664;29.563;A;19.227;5.035;28.086;
040549FF9BC9D021;IDS-07B -- ?????-????? (???????????) -- 1 -- None -- 79 -- 0 -- Solo Pro II MVP -- 172.26.2.167;110;Lane 2;3/5/2012;17:15:00;100;15 Minutes;;;;;;776;194;47.906;0;73;92;15;12;4.637;13.469;A;42.008;10.156;18.473;
040549FF9BC9D021;IDS-07B -- ?????-????? (???????????) -- 1 -- None -- 79 -- 0 -- Solo Pro II MVP -- 172.26.2.167;113;Total;3/5/2012;17:15:00;100;15 Minutes;;;;;;658;329;46.355;0;181;110;16;12;5.648;21.516;A;28.270;7.645;23.273;
040549FF9BC9D021;IDS-07B -- ?????-????? (???????????) -- 1 -- None -- 79 -- 0 -- Solo Pro II MVP -- 172.26.2.167;109;Lane 1;3/5/2012;17:30:00;100;15 Minutes;;;;;;840;210;37.285;0;190;16;2;0;4.285;15.813;A;29.453;9.078;28.520;
040549FF9BC9D021;IDS-07B -- ?????-????? (???????????) -- 1 -- None -- 79 -- 0 -- Solo Pro II MVP -- 172.26.2.167;110;Lane 2;3/5/2012;17:30:00;100;15 Minutes;;;;;;932;233;32.574;0;100;85;24;21;3.859;29.613;A;24.941;18.133;37.367;
040549FF9BC9D021;IDS-07B -- ?????-????? (???????????) -- 1 -- None -- 79 -- 0 -- Solo Pro II MVP -- 172.26.2.167;113;Total;3/5/2012;17:30:00;100;15 Minutes;;;;;;886;443;34.805;0;290;101;26;21;4.070;22.711;A;26.898;13.352;32.938;
040549FF9BC9D021;IDS-07B -- ?????-????? (???????????) -- 1 -- None -- 79 -- 0 -- Solo Pro II MVP -- 172.26.2.167;109;Lane 1;3/5/2012;17:45:00;100;15 Minutes;;;;;;1192;298;17.668;0;234;58;1;0;3.020;38.520;A;15.781;28.469;75.531;
040549FF9BC9D021;IDS-07B -- ?????-????? (???????????) -- 1 -- None -- 79 -- 0 -- Solo Pro II MVP -- 172.26.2.167;110;Lane 2;3/5/2012;17:45:00;100;15 Minutes;;;;;;880;220;15.504;0;119;68;22;6;4.090;37.051;A;12.277;28.891;71.676;
040549FF9BC9D021;IDS-07B -- ?????-????? (???????????) -- 1 -- None -- 79 -- 0 -- Solo Pro II MVP -- 172.26.2.167;113;Total;3/5/2012;17:45:00;100;15 Minutes;;;;;;1036;518;16.750;0;353;126;23;6;3.555;37.785;A;14.078;28.383;73.586;
040549FF9BC9D021;IDS-07B -- ?????-????? (???????????) -- 1 -- None -- 79 -- 0 -- Solo Pro II MVP -- 172.26.2.167;109;Lane 1;3/5/2012;18:00:00;100;15 Minutes;;;;;;1180;295;17.930;0;232;55;4;1;3.051;35.996;A;15.844;28.066;74.477;
040549FF9BC9D021;IDS-07B -- ?????-????? (???????????) -- 1 -- None -- 79 -- 0 -- Solo Pro II MVP -- 172.26.2.167;110;Lane 2;3/5/2012;18:00:00;100;15 Minutes;;;;;;872;218;16.855;0;105;70;21;16;4.125;36.129;A;15.047;31.199;57.949;
040549FF9BC9D021;IDS-07B -- ?????-????? (???????????) -- 1 -- None -- 79 -- 0 -- Solo Pro II MVP -- 172.26.2.167;113;Total;3/5/2012;18:00:00;100;15 Minutes;;;;;;1026;513;17.473;0;337;125;25;17;3.586;36.063;A;15.492;29.449;66.227;
040549FF9BC9D021;IDS-07B -- ?????-????? (???????????) -- 1 -- None -- 79 -- 0 -- Solo Pro II MVP -- 172.26.2.167;109;Lane 1;3/5/2012;18:15:00;100;15 Minutes;;;;;;1292;323;41.703;0;268;53;1;1;2.785;20.492;A;37.516;13.969;34.438;
040549FF9BC9D021;IDS-07B -- ?????-????? (???????????) -- 1 -- None -- 79 -- 0 -- Solo Pro II MVP -- 172.26.2.167;110;Lane 2;3/5/2012;18:15:00;100;15 Minutes;;;;;;1208;302;36.934;0;154;100;26;20;2.977;26.742;A;31.465;20.434;38.391;
040549FF9BC9D021;IDS-07B -- ?????-????? (???????????) -- 1 -- None -- 79 -- 0 -- Solo Pro II MVP -- 172.26.2.167;113;Total;3/5/2012;18:15:00;100;15 Minutes;;;;;;1250;625;39.398;0;422;153;27;21;2.879;23.617;A;34.324;16.969;36.414;
040549FF9BC9D021;IDS-07B -- ?????-????? (???????????) -- 1 -- None -- 79 -- 0 -- Solo Pro II MVP -- 172.26.2.167;109;Lane 1;3/5/2012;18:30:00;100;15 Minutes;;;;;;708;177;59.184;0;149;26;2;0;5.082;7.961;A;58.270;5.508;12.148;
040549FF9BC9D021;IDS-07B -- ?????-????? (???????????) -- 1 -- None -- 79 -- 0 -- Solo Pro II MVP -- 172.26.2.167;110;Lane 2;3/5/2012;18:30:00;100;15 Minutes;;;;;;960;240;50.602;0;92;93;22;32;3.750;18.629;A;48.988;14.742;19.594;
040549FF9BC9D021;IDS-07B -- ?????-????? (???????????) -- 1 -- None -- 79 -- 0 -- Solo Pro II MVP -- 172.26.2.167;113;Total;3/5/2012;18:30:00;100;15 Minutes;;;;;;834;417;54.246;0;241;119;24;32;4.414;13.293;A;52.559;9.879;15.867;
040549FF9BC9D021;IDS-07B -- ?????-????? (???????????) -- 1 -- None -- 79 -- 0 -- Solo Pro II MVP -- 172.26.2.167;109;Lane 1;3/5/2012;18:45:00;100;15 Minutes;;;;;;744;186;59.453;0;170;15;1;0;4.836;8.383;A;58.320;5.402;12.754;
040549FF9BC9D021;IDS-07B -- ?????-????? (???????????) -- 1 -- None -- 79 -- 0 -- Solo Pro II MVP -- 172.26.2.167;110;Lane 2;3/5/2012;18:45:00;100;15 Minutes;;;;;;1136;284;47.047;0;125;106;23;28;3.168;21.789;A;46.160;17.160;24.609;
040549FF9BC9D021;IDS-07B -- ?????-????? (???????????) -- 1 -- None -- 79 -- 0 -- Solo Pro II MVP -- 172.26.2.167;113;Total;3/5/2012;18:45:00;100;15 Minutes;;;;;;940;470;51.957;0;295;121;24;28;4.000;15.086;A;50.320;10.859;18.680;
040549FF9BC9D021;IDS-07B -- ?????-????? (???????????) -- 1 -- None -- 79 -- 0 -- Solo Pro II MVP -- 172.26.2.167;109;Lane 1;3/5/2012;19:00:00;100;15 Minutes;;;;;;124;31;57.676;0;26;5;0;0;29.031;1.633;A;55.414;0.828;2.234;
040549FF9BC9D021;IDS-07B -- ?????-????? (???????????) -- 1 -- None -- 79 -- 0 -- Solo Pro II MVP -- 172.26.2.167;110;Lane 2;3/5/2012;19:00:00;100;15 Minutes;;;;;;940;235;50.434;0;135;86;4;8;3.828;15.969;A;47.680;9.402;19.715;
040549FF9BC9D021;IDS-07B -- ?????-????? (???????????) -- 1 -- None -- 79 -- 0 -- Solo Pro II MVP -- 172.26.2.167;113;Total;3/5/2012;19:00:00;100;15 Minutes;;;;;;532;266;51.277;0;161;91;4;8;16.430;8.801;A;48.500;5.090;10.969;
040549FF9BC9D021;IDS-07B -- ?????-????? (???????????) -- 1 -- None -- 79 -- 0 -- Solo Pro II MVP -- 172.26.2.167;109;Lane 1;3/5/2012;19:15:00;100;15 Minutes;;;;;;8;2;66.000;0;2;0;0;0;255.996;0.051;A;65.898;0.051;0.121;
040549FF9BC9D021;IDS-07B -- ?????-????? (???????????) -- 1 -- None -- 79 -- 0 -- Solo Pro II MVP -- 172.26.2.167;110;Lane 2;3/5/2012;19:15:00;100;15 Minutes;;;;;;632;158;62.582;0;74;78;4;1;5.695;7.750;A;60.148;5.027;10.504;
040549FF9BC9D021;IDS-07B -- ?????-????? (???????????) -- 1 -- None -- 79 -- 0 -- Solo Pro II MVP -- 172.26.2.167;113;Total;3/5/2012;19:15:00;100;15 Minutes;;;;;;320;160;62.625;0;76;78;4;1;227.848;3.898;A;60.215;2.539;5.313;
040549FF9BC9D021;IDS-07B -- ?????-????? (???????????) -- 1 -- None -- 79 -- 0 -- Solo Pro II MVP -- 172.26.2.167;109;Lane 1;3/5/2012;19:30:00;100;15 Minutes;;;;;;4;1;59.000;0;1;0;0;0;255.996;0.023;A;59.039;0.023;0.066;
040549FF9BC9D021;IDS-07B -- ?????-????? (???????????) -- 1 -- None -- 79 -- 0 -- Solo Pro II MVP -- 172.26.2.167;110;Lane 2;3/5/2012;19:30:00;100;15 Minutes;;;;;;596;149;63.238;0;74;69;4;2;6.039;7.102;A;61.313;4.930;9.719;
040549FF9BC9D021;IDS-07B -- ?????-????? (???????????) -- 1 -- None -- 79 -- 0 -- Solo Pro II MVP -- 172.26.2.167;113;Total;3/5/2012;19:30:00;100;15 Minutes;;;;;;300;150;63.211;0;75;69;4;2;255.996;3.563;A;61.297;2.477;4.891;
040549FF9BC9D021;IDS-07B -- ?????-????? (???????????) -- 1 -- None -- 79 -- 0 -- Solo Pro II MVP -- 172.26.2.167;109;Lane 1;3/5/2012;19:45:00;100;15 Minutes;;;;;;0;0;0.000;0;0;0;0;0;255.996;0.000;A;0.000;100.000;0.000;
040549FF9BC9D021;IDS-07B -- ?????-????? (???????????) -- 1 -- None -- 79 -- 0 -- Solo Pro II MVP -- 172.26.2.167;110;Lane 2;3/5/2012;19:45:00;100;15 Minutes;;;;;;504;126;62.664;0;63;57;3;2;7.141;6.242;A;60.273;4.141;8.359;
040549FF9BC9D021;IDS-07B -- ?????-????? (???????????) -- 1 -- None -- 79 -- 0 -- Solo Pro II MVP -- 172.26.2.167;113;Total;3/5/2012;19:45:00;100;15 Minutes;;;;;;252;126;62.664;0;63;57;3;2;255.996;3.121;A;60.273;2.070;4.180;
040549FF9BC9D021;IDS-07B -- ?????-????? (???????????) -- 1 -- None -- 79 -- 0 -- Solo Pro II MVP -- 172.26.2.167;109;Lane 1;3/5/2012;20:00:00;100;15 Minutes;;;;;;0;0;0.000;0;0;0;0;0;255.996;0.000;A;0.000;100.000;0.000;
040549FF9BC9D021;IDS-07B -- ?????-????? (???????????) -- 1 -- None -- 79 -- 0 -- Solo Pro II MVP -- 172.26.2.167;110;Lane 2;3/5/2012;20:00:00;100;15 Minutes;;;;;;508;127;66.730;0;65;55;5;2;7.086;6.438;A;63.898;4.063;7.949;
040549FF9BC9D021;IDS-07B -- ?????-????? (???????????) -- 1 -- None -- 79 -- 0 -- Solo Pro II MVP -- 172.26.2.167;113;Total;3/5/2012;20:00:00;100;15 Minutes;;;;;;254;127;66.730;0;65;55;5;2;255.996;3.219;A;63.898;2.031;3.973;
040549FF9BC9D021;IDS-07B -- ?????-????? (???????????) -- 1 -- None -- 79 -- 0 -- Solo Pro II MVP -- 172.26.2.167;109;Lane 1;3/5/2012;20:15:00;100;15 Minutes;;;;;;20;5;19.797;0;3;0;1;0;180.000;1.148;A;9.184;0.410;2.176;
040549FF9BC9D021;IDS-07B -- ?????-????? (???????????) -- 1 -- None -- 79 -- 0 -- Solo Pro II MVP -- 172.26.2.167;110;Lane 2;3/5/2012;20:15:00;100;15 Minutes;;;;;;448;112;59.113;0;57;50;2;1;8.035;5.977;A;54.648;3.617;8.195;
040549FF9BC9D021;IDS-07B -- ?????-????? (???????????) -- 1 -- None -- 79 -- 0 -- Solo Pro II MVP -- 172.26.2.167;113;Total;3/5/2012;20:15:00;100;15 Minutes;;;;;;234;117;57.434;0;60;50;3;1;94.016;3.563;A;45.109;1.934;5.184;
040549FF9BC9D021;IDS-07B -- ?????-????? (???????????) -- 1 -- None -- 79 -- 0 -- Solo Pro II MVP -- 172.26.2.167;109;Lane 1;3/5/2012;20:30:00;100;15 Minutes;;;;;;4;1;51.000;0;1;0;0;0;255.996;0.023;A;51.000;0.023;0.078;
040549FF9BC9D021;IDS-07B -- ?????-????? (???????????) -- 1 -- None -- 79 -- 0 -- Solo Pro II MVP -- 172.26.2.167;110;Lane 2;3/5/2012;20:30:00;100;15 Minutes;;;;;;524;131;61.188;0;77;52;0;0;6.867;5.992;A;58.180;3.910;9.004;
040549FF9BC9D021;IDS-07B -- ?????-????? (???????????) -- 1 -- None -- 79 -- 0 -- Solo Pro II MVP -- 172.26.2.167;113;Total;3/5/2012;20:30:00;100;15 Minutes;;;;;;264;132;61.113;0;78;52;0;0;255.996;3.008;A;58.117;1.969;4.539;
040549FF9BC9D021;IDS-07B -- ?????-????? (???????????) -- 1 -- None -- 79 -- 0 -- Solo Pro II MVP -- 172.26.2.167;109;Lane 1;3/5/2012;20:45:00;100;15 Minutes;;;;;;0;0;0.000;0;0;0;0;0;255.996;0.000;A;0.000;100.000;0.000;
040549FF9BC9D021;IDS-07B -- ?????-????? (???????????) -- 1 -- None -- 79 -- 0 -- Solo Pro II MVP -- 172.26.2.167;110;Lane 2;3/5/2012;20:45:00;100;15 Minutes;;;;;;484;121;60.113;0;68;47;3;3;7.438;5.902;A;57.703;4.191;8.387;
040549FF9BC9D021;IDS-07B -- ?????-????? (???????????) -- 1 -- None -- 79 -- 0 -- Solo Pro II MVP -- 172.26.2.167;113;Total;3/5/2012;20:45:00;100;15 Minutes;;;;;;242;121;60.113;0;68;47;3;3;255.996;2.949;A;57.703;2.094;4.191;
040549FF9BC9D021;IDS-07B -- ?????-????? (???????????) -- 1 -- None -- 79 -- 0 -- Solo Pro II MVP -- 172.26.2.167;109;Lane 1;3/5/2012;21:00:00;100;15 Minutes;;;;;;0;0;0.000;0;0;0;0;0;255.996;0.000;A;0.000;100.000;0.000;
040549FF9BC9D021;IDS-07B -- ?????-????? (???????????) -- 1 -- None -- 79 -- 0 -- Solo Pro II MVP -- 172.26.2.167;110;Lane 2;3/5/2012;21:00:00;100;15 Minutes;;;;;;472;118;64.836;0;64;52;2;0;7.625;5.078;A;62.949;3.426;7.496;
040549FF9BC9D021;IDS-07B -- ?????-????? (???????????) -- 1 -- None -- 79 -- 0 -- Solo Pro II MVP -- 172.26.2.167;113;Total;3/5/2012;21:00:00;100;15 Minutes;;;;;;236;118;64.836;0;64;52;2;0;255.996;2.539;A;62.949;1.711;3.746;
040549FF9BC9D021;IDS-07B -- ?????-????? (???????????) -- 1 -- None -- 79 -- 0 -- Solo Pro II MVP -- 172.26.2.167;109;Lane 1;3/5/2012;21:15:00;100;15 Minutes;;;;;;4;1;59.000;0;1;0;0;0;255.996;0.020;A;59.039;0.020;0.066;
040549FF9BC9D021;IDS-07B -- ?????-????? (???????????) -- 1 -- None -- 79 -- 0 -- Solo Pro II MVP -- 172.26.2.167;110;Lane 2;3/5/2012;21:15:00;100;15 Minutes;;;;;;432;108;66.137;0;61;43;3;1;8.332;5.211;A;61.922;3.301;6.973;
040549FF9BC9D021;IDS-07B -- ?????-????? (???????????) -- 1 -- None -- 79 -- 0 -- Solo Pro II MVP -- 172.26.2.167;113;Total;3/5/2012;21:15:00;100;15 Minutes;;;;;;218;109;66.070;0;62;43;3;1;255.996;2.613;A;61.895;1.660;3.520;
040549FF9BC9D021;IDS-07B -- ?????-????? (???????????) -- 1 -- None -- 79 -- 0 -- Solo Pro II MVP -- 172.26.2.167;109;Lane 1;3/5/2012;21:30:00;100;15 Minutes;;;;;;4;1;62.000;0;1;0;0;0;255.996;0.023;A;62.000;0.023;0.063;
040549FF9BC9D021;IDS-07B -- ?????-????? (???????????) -- 1 -- None -- 79 -- 0 -- Solo Pro II MVP -- 172.26.2.167;110;Lane 2;3/5/2012;21:30:00;100;15 Minutes;;;;;;404;101;67.273;0;57;43;0;0;8.910;4.484;A;64.520;2.855;6.258;
040549FF9BC9D021;IDS-07B -- ?????-????? (???????????) -- 1 -- None -- 79 -- 0 -- Solo Pro II MVP -- 172.26.2.167;113;Total;3/5/2012;21:30:00;100;15 Minutes;;;;;;204;102;67.223;0;58;43;0;0;255.996;2.254;A;64.496;1.441;3.160;
040549FF9BC9D021;IDS-07B -- ?????-????? (???????????) -- 1 -- None -- 79 -- 0 -- Solo Pro II MVP -- 172.26.2.167;109;Lane 1;3/5/2012;21:45:00;100;15 Minutes;;;;;;12;3;68.332;0;2;1;0;0;255.996;0.133;A;58.988;0.074;0.203;
040549FF9BC9D021;IDS-07B -- ?????-????? (???????????) -- 1 -- None -- 79 -- 0 -- Solo Pro II MVP -- 172.26.2.167;110;Lane 2;3/5/2012;21:45:00;100;15 Minutes;;;;;;416;104;69.633;0;55;47;0;1;8.652;4.957;A;66.039;2.879;6.297;
040549FF9BC9D021;IDS-07B -- ?????-????? (???????????) -- 1 -- None -- 79 -- 0 -- Solo Pro II MVP -- 172.26.2.167;113;Total;3/5/2012;21:45:00;100;15 Minutes;;;;;;214;107;69.598;0;57;48;0;1;154.324;2.543;A;65.820;1.477;3.250;
040549FF9BC9D021;IDS-07B -- ?????-????? (???????????) -- 1 -- None -- 79 -- 0 -- Solo Pro II MVP -- 172.26.2.167;109;Lane 1;3/5/2012;22:00:00;100;15 Minutes;;;;;;0;0;0.000;0;0;0;0;0;255.996;0.000;A;0.000;100.000;0.000;
040549FF9BC9D021;IDS-07B -- ?????-????? (???????????) -- 1 -- None -- 79 -- 0 -- Solo Pro II MVP -- 172.26.2.167;110;Lane 2;3/5/2012;22:00:00;100;15 Minutes;;;;;;344;86;66.555;0;46;38;1;1;10.465;3.922;A;63.445;2.531;5.422;
040549FF9BC9D021;IDS-07B -- ?????-????? (???????????) -- 1 -- None -- 79 -- 0 -- Solo Pro II MVP -- 172.26.2.167;113;Total;3/5/2012;22:00:00;100;15 Minutes;;;;;;172;86;66.555;0;46;38;1;1;255.996;1.961;A;63.445;1.266;2.711;
040549FF9BC9D021;IDS-07B -- ?????-????? (???????????) -- 1 -- None -- 79 -- 0 -- Solo Pro II MVP -- 172.26.2.167;109;Lane 1;3/5/2012;22:15:00;100;15 Minutes;;;;;;4;1;52.000;0;1;0;0;0;255.996;0.035;A;52.012;0.031;0.074;
040549FF9BC9D021;IDS-07B -- ?????-????? (???????????) -- 1 -- None -- 79 -- 0 -- Solo Pro II MVP -- 172.26.2.167;110;Lane 2;3/5/2012;22:15:00;100;15 Minutes;;;;;;316;79;66.391;0;45;31;1;1;11.391;3.746;A;63.164;2.352;5.000;
040549FF9BC9D021;IDS-07B -- ?????-????? (???????????) -- 1 -- None -- 79 -- 0 -- Solo Pro II MVP -- 172.26.2.167;113;Total;3/5/2012;22:15:00;100;15 Minutes;;;;;;160;80;66.211;0;46;31;1;1;255.996;1.891;A;62.996;1.191;2.539;
040549FF9BC9D021;IDS-07B -- ?????-????? (???????????) -- 1 -- None -- 79 -- 0 -- Solo Pro II MVP -- 172.26.2.167;109;Lane 1;3/5/2012;22:30:00;100;15 Minutes;;;;;;4;1;57.000;0;1;0;0;0;255.996;0.047;A;57.035;0.027;0.066;
040549FF9BC9D021;IDS-07B -- ?????-????? (???????????) -- 1 -- None -- 79 -- 0 -- Solo Pro II MVP -- 172.26.2.167;110;Lane 2;3/5/2012;22:30:00;100;15 Minutes;;;;;;368;92;68.551;0;54;35;3;0;9.781;4.035;A;65.039;2.566;5.656;
040549FF9BC9D021;IDS-07B -- ?????-????? (???????????) -- 1 -- None -- 79 -- 0 -- Solo Pro II MVP -- 172.26.2.167;113;Total;3/5/2012;22:30:00;100;15 Minutes;;;;;;186;93;68.430;0;55;35;3;0;255.996;2.039;A;64.941;1.297;2.863;
040549FF9BC9D021;IDS-07B -- ?????-????? (???????????) -- 1 -- None -- 79 -- 0 -- Solo Pro II MVP -- 172.26.2.167;109;Lane 1;3/5/2012;22:45:00;100;15 Minutes;;;;;;4;1;54.000;0;1;0;0;0;255.996;0.059;A;54.027;0.020;0.070;
040549FF9BC9D021;IDS-07B -- ?????-????? (???????????) -- 1 -- None -- 79 -- 0 -- Solo Pro II MVP -- 172.26.2.167;110;Lane 2;3/5/2012;22:45:00;100;15 Minutes;;;;;;308;77;64.555;0;50;25;1;0;11.688;3.410;A;61.906;2.109;4.973;
040549FF9BC9D021;IDS-07B -- ?????-????? (???????????) -- 1 -- None -- 79 -- 0 -- Solo Pro II MVP -- 172.26.2.167;113;Total;3/5/2012;22:45:00;100;15 Minutes;;;;;;156;78;64.422;0;51;25;1;0;255.996;1.734;A;61.793;1.066;2.523;
040549FF9BC9D021;IDS-07B -- ?????-????? (???????????) -- 1 -- None -- 79 -- 0 -- Solo Pro II MVP -- 172.26.2.167;109;Lane 1;3/5/2012;23:00:00;100;15 Minutes;;;;;;0;0;0.000;0;0;0;0;0;255.996;0.000;A;0.000;100.000;0.000;
040549FF9BC9D021;IDS-07B -- ?????-????? (???????????) -- 1 -- None -- 79 -- 0 -- Solo Pro II MVP -- 172.26.2.167;110;Lane 2;3/5/2012;23:00:00;100;15 Minutes;;;;;;308;77;66.531;0;40;35;2;0;11.688;3.418;A;63.641;2.293;4.836;
040549FF9BC9D021;IDS-07B -- ?????-????? (???????????) -- 1 -- None -- 79 -- 0 -- Solo Pro II MVP -- 172.26.2.167;113;Total;3/5/2012;23:00:00;100;15 Minutes;;;;;;154;77;66.531;0;40;35;2;0;255.996;1.707;A;63.641;1.145;2.418;
040549FF9BC9D021;IDS-07B -- ?????-????? (???????????) -- 1 -- None -- 79 -- 0 -- Solo Pro II MVP -- 172.26.2.167;109;Lane 1;3/5/2012;23:15:00;100;15 Minutes;;;;;;0;0;0.000;0;0;0;0;0;255.996;0.000;A;0.000;100.000;0.000;
040549FF9BC9D021;IDS-07B -- ?????-????? (???????????) -- 1 -- None -- 79 -- 0 -- Solo Pro II MVP -- 172.26.2.167;110;Lane 2;3/5/2012;23:15:00;100;15 Minutes;;;;;;240;60;67.230;0;37;22;0;0;15.000;2.578;A;65.004;1.602;3.691;
040549FF9BC9D021;IDS-07B -- ?????-????? (???????????) -- 1 -- None -- 79 -- 0 -- Solo Pro II MVP -- 172.26.2.167;113;Total;3/5/2012;23:15:00;100;15 Minutes;;;;;;120;60;67.230;0;37;22;0;0;255.996;1.289;A;65.004;0.801;1.844;
040549FF9BC9D021;IDS-07B -- ?????-????? (???????????) -- 1 -- None -- 79 -- 0 -- Solo Pro II MVP -- 172.26.2.167;109;Lane 1;3/5/2012;23:30:00;100;15 Minutes;;;;;;4;1;60.000;0;1;0;0;0;255.996;0.020;A;60.012;0.020;0.066;
040549FF9BC9D021;IDS-07B -- ?????-????? (???????????) -- 1 -- None -- 79 -- 0 -- Solo Pro II MVP -- 172.26.2.167;110;Lane 2;3/5/2012;23:30:00;100;15 Minutes;;;;;;208;52;67.516;0;27;23;1;0;17.305;2.516;A;62.902;1.496;3.305;
040549FF9BC9D021;IDS-07B -- ?????-????? (???????????) -- 1 -- None -- 79 -- 0 -- Solo Pro II MVP -- 172.26.2.167;113;Total;3/5/2012;23:30:00;100;15 Minutes;;;;;;106;53;67.375;0;28;23;1;0;255.996;1.266;A;62.848;0.758;1.684;
040549FF9BC9D021;IDS-07B -- ?????-????? (???????????) -- 1 -- None -- 79 -- 0 -- Solo Pro II MVP -- 172.26.2.167;109;Lane 1;3/5/2012;23:45:00; 99;15 Minutes;;;;;;0;0;0.000;0;0;0;0;0;255.996;0.000;A;0.000;100.000;0.000;
040549FF9BC9D021;IDS-07B -- ?????-????? (???????????) -- 1 -- None -- 79 -- 0 -- Solo Pro II MVP -- 172.26.2.167;110;Lane 2;3/5/2012;23:45:00; 99;15 Minutes;;;;;;200;50;64.078;0;26;24;0;0;18.000;2.262;A;60.953;1.449;3.277;
040549FF9BC9D021;IDS-07B -- ?????-????? (???????????) -- 1 -- None -- 79 -- 0 -- Solo Pro II MVP -- 172.26.2.167;113;Total;3/5/2012;23:45:00; 99;15 Minutes;;;;;;100;50;64.078;0;26;24;0;0;255.996;1.129;A;60.953;0.723;1.637;
040549FF9BC9D021;IDS-07B -- ?????-????? (???????????) -- 1 -- None -- 79 -- 0 -- Solo Pro II MVP -- 172.26.2.167;109;Lane 1;4/5/2012;0:00:00;100;15 Minutes;;;;;;0;0;0.000;0;0;0;0;0;255.996;0.000;A;0.000;100.000;0.000;
040549FF9BC9D021;IDS-07B -- ?????-????? (???????????) -- 1 -- None -- 79 -- 0 -- Solo Pro II MVP -- 172.26.2.167;110;Lane 2;4/5/2012;0:00:00;100;15 Minutes;;;;;;232;58;65.379;0;24;33;0;0;15.516;3.004;A;62.691;1.742;3.699;
040549FF9BC9D021;IDS-07B -- ?????-????? (???????????) -- 1 -- None -- 79 -- 0 -- Solo Pro II MVP -- 172.26.2.167;113;Total;4/5/2012;0:00:00;100;15 Minutes;;;;;;116;58;65.379;0;24;33;0;0;255.996;1.500;A;62.691;0.871;1.848;
