CPU Identifier;Autoscope Description;Detector ID;Detector Title;Date;Time;Status;Data Interval;Ticks (millisec.);State;Speed;Length;Class;Average Flow Rate;Volume;Arithmetic Mean Speed;Class A Count;Class B Count;Class C Count;Class D Count;Class E Count;Average Time Headway;Average Time Occupancy;Level Of Service;Space Mean Speed;Space Occupancy;Density;
040548FF7504B521;IDS-10A -- ?????-????? (????????) -- 1 -- None -- 80 -- 0 -- Solo Pro II MVP -- 172.26.2.150;109;Lane 1;3/5/2012;0:00:00;100;15 Minutes;;;;;;348;87;84.445;0;72;9;2;3;10.344;4.137;A;79.938;2.160;4.352;
040548FF7504B521;IDS-10A -- ?????-????? (????????) -- 1 -- None -- 80 -- 0 -- Solo Pro II MVP -- 172.26.2.150;110;Lane 2;3/5/2012;0:00:00;100;15 Minutes;;;;;;244;61;105.324;0;58;3;0;0;14.754;2.160;A;102.629;1.027;2.375;
040548FF7504B521;IDS-10A -- ?????-????? (????????) -- 1 -- None -- 80 -- 0 -- Solo Pro II MVP -- 172.26.2.150;113;Total;3/5/2012;0:00:00;100;15 Minutes;;;;;;296;148;93.051;0;130;12;2;3;12.547;3.148;A;87.953;1.563;3.363;
040548FF7504B521;IDS-10A -- ?????-????? (????????) -- 1 -- None -- 80 -- 0 -- Solo Pro II MVP -- 172.26.2.150;109;Lane 1;3/5/2012;0:15:00;100;15 Minutes;;;;;;288;72;82.234;0;63;4;2;2;12.500;3.426;A;79.246;1.758;3.633;
040548FF7504B521;IDS-10A -- ?????-????? (????????) -- 1 -- None -- 80 -- 0 -- Solo Pro II MVP -- 172.26.2.150;110;Lane 2;3/5/2012;0:15:00;100;15 Minutes;;;;;;200;50;101.340;0;49;1;0;0;18.000;1.914;A;99.563;0.824;2.008;
040548FF7504B521;IDS-10A -- ?????-????? (????????) -- 1 -- None -- 80 -- 0 -- Solo Pro II MVP -- 172.26.2.150;113;Total;3/5/2012;0:15:00;100;15 Minutes;;;;;;244;122;90.063;0;112;5;2;2;15.250;2.668;A;86.480;1.266;2.820;
040548FF7504B521;IDS-10A -- ?????-????? (????????) -- 1 -- None -- 80 -- 0 -- Solo Pro II MVP -- 172.26.2.150;109;Lane 1;3/5/2012;0:30:00; 99;15 Minutes;;;;;;288;72;82.930;0;69;2;1;0;12.500;2.930;A;80.797;1.582;3.563;
040548FF7504B521;IDS-10A -- ?????-????? (????????) -- 1 -- None -- 80 -- 0 -- Solo Pro II MVP -- 172.26.2.150;110;Lane 2;3/5/2012;0:30:00; 99;15 Minutes;;;;;;152;38;107.313;0;38;0;0;0;23.684;1.297;A;105.813;0.621;1.434;
040548FF7504B521;IDS-10A -- ?????-????? (????????) -- 1 -- None -- 80 -- 0 -- Solo Pro II MVP -- 172.26.2.150;113;Total;3/5/2012;0:30:00; 99;15 Minutes;;;;;;220;110;91.352;0;107;2;1;0;18.090;2.113;A;87.980;1.082;2.500;
040548FF7504B521;IDS-10A -- ?????-????? (????????) -- 1 -- None -- 80 -- 0 -- Solo Pro II MVP -- 172.26.2.150;109;Lane 1;3/5/2012;0:45:00;100;15 Minutes;;;;;;252;63;86.141;0;55;5;3;0;14.285;2.641;A;83.344;1.438;3.023;
040548FF7504B521;IDS-10A -- ?????-????? (????????) -- 1 -- None -- 80 -- 0 -- Solo Pro II MVP -- 172.26.2.150;110;Lane 2;3/5/2012;0:45:00;100;15 Minutes;;;;;;120;30;113.465;0;30;0;0;0;30.000;1.008;A;111.082;0.445;1.078;
040548FF7504B521;IDS-10A -- ?????-????? (????????) -- 1 -- None -- 80 -- 0 -- Solo Pro II MVP -- 172.26.2.150;113;Total;3/5/2012;0:45:00;100;15 Minutes;;;;;;186;93;94.953;0;85;5;3;0;22.141;1.824;A;90.648;0.918;2.051;
040548FF7504B521;IDS-10A -- ?????-????? (????????) -- 1 -- None -- 80 -- 0 -- Solo Pro II MVP -- 172.26.2.150;109;Lane 1;3/5/2012;1:00:00;100;15 Minutes;;;;;;228;57;85.000;0;50;3;2;2;15.789;2.641;A;82.102;1.414;2.773;
040548FF7504B521;IDS-10A -- ?????-????? (????????) -- 1 -- None -- 80 -- 0 -- Solo Pro II MVP -- 172.26.2.150;110;Lane 2;3/5/2012;1:00:00;100;15 Minutes;;;;;;96;24;106.250;0;24;0;0;0;37.500;0.848;A;102.805;0.352;0.934;
040548FF7504B521;IDS-10A -- ?????-????? (????????) -- 1 -- None -- 80 -- 0 -- Solo Pro II MVP -- 172.26.2.150;113;Total;3/5/2012;1:00:00;100;15 Minutes;;;;;;162;81;91.293;0;74;3;2;2;26.645;1.742;A;87.313;0.863;1.852;
040548FF7504B521;IDS-10A -- ?????-????? (????????) -- 1 -- None -- 80 -- 0 -- Solo Pro II MVP -- 172.26.2.150;109;Lane 1;3/5/2012;1:15:00;100;15 Minutes;;;;;;248;62;82.145;0;52;8;1;1;14.516;2.742;A;78.836;1.531;3.145;
040548FF7504B521;IDS-10A -- ?????-????? (????????) -- 1 -- None -- 80 -- 0 -- Solo Pro II MVP -- 172.26.2.150;110;Lane 2;3/5/2012;1:15:00;100;15 Minutes;;;;;;136;34;101.438;0;31;3;0;0;26.469;1.172;A;99.242;0.566;1.367;
040548FF7504B521;IDS-10A -- ?????-????? (????????) -- 1 -- None -- 80 -- 0 -- Solo Pro II MVP -- 172.26.2.150;113;Total;3/5/2012;1:15:00;100;15 Minutes;;;;;;192;96;88.977;0;83;11;1;1;20.492;1.957;A;85.027;1.027;2.258;
040548FF7504B521;IDS-10A -- ?????-????? (????????) -- 1 -- None -- 80 -- 0 -- Solo Pro II MVP -- 172.26.2.150;109;Lane 1;3/5/2012;1:30:00;100;15 Minutes;;;;;;184;46;87.348;0;38;5;3;0;19.563;2.043;A;84.289;1.039;2.180;
040548FF7504B521;IDS-10A -- ?????-????? (????????) -- 1 -- None -- 80 -- 0 -- Solo Pro II MVP -- 172.26.2.150;110;Lane 2;3/5/2012;1:30:00;100;15 Minutes;;;;;;136;34;107.703;0;33;0;1;0;26.469;1.223;A;106.316;0.539;1.277;
040548FF7504B521;IDS-10A -- ?????-????? (????????) -- 1 -- None -- 80 -- 0 -- Solo Pro II MVP -- 172.26.2.150;113;Total;3/5/2012;1:30:00;100;15 Minutes;;;;;;160;80;96.000;0;71;5;4;0;23.016;1.633;A;92.426;0.777;1.730;
040548FF7504B521;IDS-10A -- ?????-????? (????????) -- 1 -- None -- 80 -- 0 -- Solo Pro II MVP -- 172.26.2.150;109;Lane 1;3/5/2012;1:45:00;100;15 Minutes;;;;;;176;44;80.477;0;37;4;1;2;20.453;2.379;A;78.188;1.164;2.250;
040548FF7504B521;IDS-10A -- ?????-????? (????????) -- 1 -- None -- 80 -- 0 -- Solo Pro II MVP -- 172.26.2.150;110;Lane 2;3/5/2012;1:45:00;100;15 Minutes;;;;;;64;16;105.813;0;15;0;0;0;56.250;0.582;A;102.406;0.254;0.621;
040548FF7504B521;IDS-10A -- ?????-????? (????????) -- 1 -- None -- 80 -- 0 -- Solo Pro II MVP -- 172.26.2.150;113;Total;3/5/2012;1:45:00;100;15 Minutes;;;;;;120;60;87.230;0;52;4;1;2;38.352;1.480;A;83.453;0.691;1.438;
040548FF7504B521;IDS-10A -- ?????-????? (????????) -- 1 -- None -- 80 -- 0 -- Solo Pro II MVP -- 172.26.2.150;109;Lane 1;3/5/2012;2:00:00;100;15 Minutes;;;;;;196;49;81.324;0;41;4;2;1;18.367;2.117;A;77.027;1.164;2.543;
040548FF7504B521;IDS-10A -- ?????-????? (????????) -- 1 -- None -- 80 -- 0 -- Solo Pro II MVP -- 172.26.2.150;110;Lane 2;3/5/2012;2:00:00;100;15 Minutes;;;;;;64;16;100.563;0;15;0;1;0;56.250;0.602;A;99.484;0.266;0.641;
040548FF7504B521;IDS-10A -- ?????-????? (????????) -- 1 -- None -- 80 -- 0 -- Solo Pro II MVP -- 172.26.2.150;113;Total;3/5/2012;2:00:00;100;15 Minutes;;;;;;130;65;86.059;0;56;4;3;1;37.309;1.359;A;81.559;0.703;1.594;
040548FF7504B521;IDS-10A -- ?????-????? (????????) -- 1 -- None -- 80 -- 0 -- Solo Pro II MVP -- 172.26.2.150;109;Lane 1;3/5/2012;2:15:00;100;15 Minutes;;;;;;180;45;78.863;0;40;1;2;2;20.000;2.559;A;76.180;1.258;2.359;
040548FF7504B521;IDS-10A -- ?????-????? (????????) -- 1 -- None -- 80 -- 0 -- Solo Pro II MVP -- 172.26.2.150;110;Lane 2;3/5/2012;2:15:00;100;15 Minutes;;;;;;96;24;102.000;0;23;1;0;0;37.500;0.887;A;99.051;0.414;0.969;
040548FF7504B521;IDS-10A -- ?????-????? (????????) -- 1 -- None -- 80 -- 0 -- Solo Pro II MVP -- 172.26.2.150;113;Total;3/5/2012;2:15:00;100;15 Minutes;;;;;;138;69;86.910;0;63;2;2;2;28.750;1.723;A;82.832;0.813;1.664;
040548FF7504B521;IDS-10A -- ?????-????? (????????) -- 1 -- None -- 80 -- 0 -- Solo Pro II MVP -- 172.26.2.150;109;Lane 1;3/5/2012;2:30:00;100;15 Minutes;;;;;;148;37;91.215;0;33;2;1;0;24.324;1.523;A;88.547;0.754;1.668;
040548FF7504B521;IDS-10A -- ?????-????? (????????) -- 1 -- None -- 80 -- 0 -- Solo Pro II MVP -- 172.26.2.150;110;Lane 2;3/5/2012;2:30:00;100;15 Minutes;;;;;;52;13;115.152;0;12;1;0;0;69.230;0.449;A;113.082;0.184;0.457;
040548FF7504B521;IDS-10A -- ?????-????? (????????) -- 1 -- None -- 80 -- 0 -- Solo Pro II MVP -- 172.26.2.150;113;Total;3/5/2012;2:30:00;100;15 Minutes;;;;;;100;50;97.438;0;45;3;1;0;46.777;0.984;A;93.840;0.461;1.063;
040548FF7504B521;IDS-10A -- ?????-????? (????????) -- 1 -- None -- 80 -- 0 -- Solo Pro II MVP -- 172.26.2.150;109;Lane 1;3/5/2012;2:45:00;100;15 Minutes;;;;;;172;43;77.578;0;41;1;0;1;20.930;2.070;A;73.820;1.051;2.328;
040548FF7504B521;IDS-10A -- ?????-????? (????????) -- 1 -- None -- 80 -- 0 -- Solo Pro II MVP -- 172.26.2.150;110;Lane 2;3/5/2012;2:45:00;100;15 Minutes;;;;;;52;13;102.691;0;12;0;0;1;69.230;0.492;A;100.172;0.250;0.516;
040548FF7504B521;IDS-10A -- ?????-????? (????????) -- 1 -- None -- 80 -- 0 -- Solo Pro II MVP -- 172.26.2.150;113;Total;3/5/2012;2:45:00;100;15 Minutes;;;;;;112;56;83.410;0;53;1;0;2;45.078;1.281;A;78.621;0.645;1.422;
040548FF7504B521;IDS-10A -- ?????-????? (????????) -- 1 -- None -- 80 -- 0 -- Solo Pro II MVP -- 172.26.2.150;109;Lane 1;3/5/2012;3:00:00;100;15 Minutes;;;;;;180;45;80.797;0;37;5;1;2;20.000;2.031;A;78.223;1.141;2.301;
040548FF7504B521;IDS-10A -- ?????-????? (????????) -- 1 -- None -- 80 -- 0 -- Solo Pro II MVP -- 172.26.2.150;110;Lane 2;3/5/2012;3:00:00;100;15 Minutes;;;;;;84;21;107.000;0;20;0;0;1;42.855;0.707;A;102.496;0.398;0.816;
040548FF7504B521;IDS-10A -- ?????-????? (????????) -- 1 -- None -- 80 -- 0 -- Solo Pro II MVP -- 172.26.2.150;113;Total;3/5/2012;3:00:00;100;15 Minutes;;;;;;132;66;89.133;0;57;5;1;3;31.426;1.367;A;84.598;0.758;1.559;
040548FF7504B521;IDS-10A -- ?????-????? (????????) -- 1 -- None -- 80 -- 0 -- Solo Pro II MVP -- 172.26.2.150;109;Lane 1;3/5/2012;3:15:00;100;15 Minutes;;;;;;172;43;84.672;0;39;2;2;0;20.930;1.805;A;81.672;0.988;2.105;
040548FF7504B521;IDS-10A -- ?????-????? (????????) -- 1 -- None -- 80 -- 0 -- Solo Pro II MVP -- 172.26.2.150;110;Lane 2;3/5/2012;3:15:00;100;15 Minutes;;;;;;84;21;104.426;0;19;0;0;2;42.855;0.648;A;102.480;0.484;0.816;
040548FF7504B521;IDS-10A -- ?????-????? (????????) -- 1 -- None -- 80 -- 0 -- Solo Pro II MVP -- 172.26.2.150;113;Total;3/5/2012;3:15:00;100;15 Minutes;;;;;;128;64;91.156;0;58;2;2;2;31.891;1.227;A;87.504;0.738;1.461;
040548FF7504B521;IDS-10A -- ?????-????? (????????) -- 1 -- None -- 80 -- 0 -- Solo Pro II MVP -- 172.26.2.150;109;Lane 1;3/5/2012;3:30:00;100;15 Minutes;;;;;;172;43;87.930;0;36;3;2;1;20.930;1.879;A;85.160;0.961;2.020;
040548FF7504B521;IDS-10A -- ?????-????? (????????) -- 1 -- None -- 80 -- 0 -- Solo Pro II MVP -- 172.26.2.150;110;Lane 2;3/5/2012;3:30:00;100;15 Minutes;;;;;;120;30;111.730;0;30;0;0;0;30.000;0.914;A;108.898;0.469;1.102;
040548FF7504B521;IDS-10A -- ?????-????? (????????) -- 1 -- None -- 80 -- 0 -- Solo Pro II MVP -- 172.26.2.150;113;Total;3/5/2012;3:30:00;100;15 Minutes;;;;;;146;73;97.711;0;66;3;2;1;25.465;1.395;A;93.539;0.699;1.559;
040548FF7504B521;IDS-10A -- ?????-????? (????????) -- 1 -- None -- 80 -- 0 -- Solo Pro II MVP -- 172.26.2.150;109;Lane 1;3/5/2012;3:45:00;100;15 Minutes;;;;;;168;42;85.117;0;36;1;3;2;21.426;1.941;A;80.906;1.051;2.074;
040548FF7504B521;IDS-10A -- ?????-????? (????????) -- 1 -- None -- 80 -- 0 -- Solo Pro II MVP -- 172.26.2.150;110;Lane 2;3/5/2012;3:45:00;100;15 Minutes;;;;;;124;31;105.609;0;28;3;0;0;29.031;0.988;A;103.801;0.516;1.191;
040548FF7504B521;IDS-10A -- ?????-????? (????????) -- 1 -- None -- 80 -- 0 -- Solo Pro II MVP -- 172.26.2.150;113;Total;3/5/2012;3:45:00;100;15 Minutes;;;;;;146;73;93.820;0;64;4;3;2;25.227;1.465;A;89.266;0.766;1.633;
040548FF7504B521;IDS-10A -- ?????-????? (????????) -- 1 -- None -- 80 -- 0 -- Solo Pro II MVP -- 172.26.2.150;109;Lane 1;3/5/2012;4:00:00;100;15 Minutes;;;;;;168;42;81.188;0;37;3;0;2;21.426;1.996;A;78.035;0.992;2.152;
040548FF7504B521;IDS-10A -- ?????-????? (????????) -- 1 -- None -- 80 -- 0 -- Solo Pro II MVP -- 172.26.2.150;110;Lane 2;3/5/2012;4:00:00;100;15 Minutes;;;;;;120;30;106.266;0;29;1;0;0;30.000;0.992;A;104.738;0.496;1.145;
040548FF7504B521;IDS-10A -- ?????-????? (????????) -- 1 -- None -- 80 -- 0 -- Solo Pro II MVP -- 172.26.2.150;113;Total;3/5/2012;4:00:00;100;15 Minutes;;;;;;144;72;91.637;0;66;4;0;2;25.711;1.492;A;87.313;0.727;1.648;
040548FF7504B521;IDS-10A -- ?????-????? (????????) -- 1 -- None -- 80 -- 0 -- Solo Pro II MVP -- 172.26.2.150;109;Lane 1;3/5/2012;4:15:00;100;15 Minutes;;;;;;228;57;81.156;0;51;2;3;1;15.789;2.734;A;78.219;1.348;2.914;
040548FF7504B521;IDS-10A -- ?????-????? (????????) -- 1 -- None -- 80 -- 0 -- Solo Pro II MVP -- 172.26.2.150;110;Lane 2;3/5/2012;4:15:00;100;15 Minutes;;;;;;120;30;100.266;0;29;1;0;0;30.000;0.973;A;98.855;0.477;1.211;
040548FF7504B521;IDS-10A -- ?????-????? (????????) -- 1 -- None -- 80 -- 0 -- Solo Pro II MVP -- 172.26.2.150;113;Total;3/5/2012;4:15:00;100;15 Minutes;;;;;;174;87;87.746;0;80;3;3;1;22.895;1.852;A;84.285;0.895;2.063;
040548FF7504B521;IDS-10A -- ?????-????? (????????) -- 1 -- None -- 80 -- 0 -- Solo Pro II MVP -- 172.26.2.150;109;Lane 1;3/5/2012;4:30:00;100;15 Minutes;;;;;;212;53;77.527;0;46;2;3;2;16.980;2.500;A;75.414;1.367;2.809;
040548FF7504B521;IDS-10A -- ?????-????? (????????) -- 1 -- None -- 80 -- 0 -- Solo Pro II MVP -- 172.26.2.150;110;Lane 2;3/5/2012;4:30:00;100;15 Minutes;;;;;;152;38;100.629;0;37;0;1;0;23.684;1.301;A;98.551;0.656;1.539;
040548FF7504B521;IDS-10A -- ?????-????? (????????) -- 1 -- None -- 80 -- 0 -- Solo Pro II MVP -- 172.26.2.150;113;Total;3/5/2012;4:30:00;100;15 Minutes;;;;;;182;91;87.176;0;83;2;4;2;20.332;1.898;A;83.609;0.988;2.176;
040548FF7504B521;IDS-10A -- ?????-????? (????????) -- 1 -- None -- 80 -- 0 -- Solo Pro II MVP -- 172.26.2.150;109;Lane 1;3/5/2012;4:45:00;100;15 Minutes;;;;;;248;62;75.594;0;50;4;6;2;14.516;3.152;A;72.887;1.758;3.402;
040548FF7504B521;IDS-10A -- ?????-????? (????????) -- 1 -- None -- 80 -- 0 -- Solo Pro II MVP -- 172.26.2.150;110;Lane 2;3/5/2012;4:45:00;100;15 Minutes;;;;;;144;36;104.914;0;34;2;0;0;25.000;1.211;A;103.031;0.574;1.395;
040548FF7504B521;IDS-10A -- ?????-????? (????????) -- 1 -- None -- 80 -- 0 -- Solo Pro II MVP -- 172.26.2.150;113;Total;3/5/2012;4:45:00;100;15 Minutes;;;;;;196;98;86.367;0;84;6;6;2;19.758;2.180;A;81.664;1.121;2.398;
040548FF7504B521;IDS-10A -- ?????-????? (????????) -- 1 -- None -- 80 -- 0 -- Solo Pro II MVP -- 172.26.2.150;109;Lane 1;3/5/2012;5:00:00;100;15 Minutes;;;;;;336;84;78.438;0;72;5;5;2;10.711;3.832;A;76.199;2.117;4.406;
040548FF7504B521;IDS-10A -- ?????-????? (????????) -- 1 -- None -- 80 -- 0 -- Solo Pro II MVP -- 172.26.2.150;110;Lane 2;3/5/2012;5:00:00;100;15 Minutes;;;;;;184;46;103.910;0;44;1;1;0;19.563;1.602;A;102.277;0.754;1.797;
040548FF7504B521;IDS-10A -- ?????-????? (????????) -- 1 -- None -- 80 -- 0 -- Solo Pro II MVP -- 172.26.2.150;113;Total;3/5/2012;5:00:00;100;15 Minutes;;;;;;260;130;87.453;0;116;6;6;2;15.137;2.715;A;83.758;1.398;3.102;
040548FF7504B521;IDS-10A -- ?????-????? (????????) -- 1 -- None -- 80 -- 0 -- Solo Pro II MVP -- 172.26.2.150;109;Lane 1;3/5/2012;5:15:00;100;15 Minutes;;;;;;404;101;77.188;0;82;9;7;2;8.910;5.051;A;75.277;2.715;5.363;
040548FF7504B521;IDS-10A -- ?????-????? (????????) -- 1 -- None -- 80 -- 0 -- Solo Pro II MVP -- 172.26.2.150;110;Lane 2;3/5/2012;5:15:00;100;15 Minutes;;;;;;264;66;101.969;0;61;4;0;1;13.633;2.266;A;100.035;1.152;2.637;
040548FF7504B521;IDS-10A -- ?????-????? (????????) -- 1 -- None -- 80 -- 0 -- Solo Pro II MVP -- 172.26.2.150;113;Total;3/5/2012;5:15:00;100;15 Minutes;;;;;;334;167;86.980;0;143;13;7;3;11.270;3.656;A;83.438;1.879;4.000;
040548FF7504B521;IDS-10A -- ?????-????? (????????) -- 1 -- None -- 80 -- 0 -- Solo Pro II MVP -- 172.26.2.150;109;Lane 1;3/5/2012;5:30:00;100;15 Minutes;;;;;;368;92;79.000;0;69;11;9;3;9.781;4.594;A;76.422;2.660;4.813;
040548FF7504B521;IDS-10A -- ?????-????? (????????) -- 1 -- None -- 80 -- 0 -- Solo Pro II MVP -- 172.26.2.150;110;Lane 2;3/5/2012;5:30:00;100;15 Minutes;;;;;;252;63;104.125;0;61;2;0;0;14.285;2.098;A;102.816;1.043;2.449;
040548FF7504B521;IDS-10A -- ?????-????? (????????) -- 1 -- None -- 80 -- 0 -- Solo Pro II MVP -- 172.26.2.150;113;Total;3/5/2012;5:30:00;100;15 Minutes;;;;;;310;155;89.211;0;130;13;9;3;12.031;3.344;A;85.324;1.785;3.633;
040548FF7504B521;IDS-10A -- ?????-????? (????????) -- 1 -- None -- 80 -- 0 -- Solo Pro II MVP -- 172.26.2.150;109;Lane 1;3/5/2012;5:45:00;100;15 Minutes;;;;;;392;98;82.957;0;83;8;5;1;9.184;3.754;A;80.418;2.063;4.871;
040548FF7504B521;IDS-10A -- ?????-????? (????????) -- 1 -- None -- 80 -- 0 -- Solo Pro II MVP -- 172.26.2.150;110;Lane 2;3/5/2012;5:45:00;100;15 Minutes;;;;;;252;63;101.980;0;60;2;0;1;14.285;1.824;A;100.266;1.082;2.512;
040548FF7504B521;IDS-10A -- ?????-????? (????????) -- 1 -- None -- 80 -- 0 -- Solo Pro II MVP -- 172.26.2.150;113;Total;3/5/2012;5:45:00;100;15 Minutes;;;;;;322;161;90.402;0;143;10;5;2;11.734;2.789;A;87.168;1.555;3.691;
040548FF7504B521;IDS-10A -- ?????-????? (????????) -- 1 -- None -- 80 -- 0 -- Solo Pro II MVP -- 172.26.2.150;109;Lane 1;3/5/2012;6:00:00;100;15 Minutes;;;;;;380;95;83.051;0;80;4;7;3;9.473;3.957;A;81.469;2.527;4.664;
040548FF7504B521;IDS-10A -- ?????-????? (????????) -- 1 -- None -- 80 -- 0 -- Solo Pro II MVP -- 172.26.2.150;110;Lane 2;3/5/2012;6:00:00;100;15 Minutes;;;;;;400;100;104.930;0;100;0;0;0;9.000;2.563;A;103.906;1.648;3.848;
040548FF7504B521;IDS-10A -- ?????-????? (????????) -- 1 -- None -- 80 -- 0 -- Solo Pro II MVP -- 172.26.2.150;113;Total;3/5/2012;6:00:00;100;15 Minutes;;;;;;390;195;94.270;0;180;4;7;3;9.234;3.258;A;91.613;2.031;4.254;
040548FF7504B521;IDS-10A -- ?????-????? (????????) -- 1 -- None -- 80 -- 0 -- Solo Pro II MVP -- 172.26.2.150;109;Lane 1;3/5/2012;6:15:00;100;15 Minutes;;;;;;468;117;82.512;0;96;4;9;8;7.691;5.297;A;80.805;3.461;5.789;
040548FF7504B521;IDS-10A -- ?????-????? (????????) -- 1 -- None -- 80 -- 0 -- Solo Pro II MVP -- 172.26.2.150;110;Lane 2;3/5/2012;6:15:00;100;15 Minutes;;;;;;448;112;100.176;0;107;1;0;4;8.035;3.211;A;99.051;2.164;4.520;
040548FF7504B521;IDS-10A -- ?????-????? (????????) -- 1 -- None -- 80 -- 0 -- Solo Pro II MVP -- 172.26.2.150;113;Total;3/5/2012;6:15:00;100;15 Minutes;;;;;;458;229;91.152;0;203;5;9;12;7.863;4.254;A;88.805;2.754;5.156;
040548FF7504B521;IDS-10A -- ?????-????? (????????) -- 1 -- None -- 80 -- 0 -- Solo Pro II MVP -- 172.26.2.150;109;Lane 1;3/5/2012;6:30:00;100;15 Minutes;;;;;;616;154;85.121;0;134;6;7;4;5.844;6.621;A;83.082;3.715;7.414;
040548FF7504B521;IDS-10A -- ?????-????? (????????) -- 1 -- None -- 80 -- 0 -- Solo Pro II MVP -- 172.26.2.150;110;Lane 2;3/5/2012;6:30:00;100;15 Minutes;;;;;;552;138;98.809;0;133;0;3;2;6.520;3.910;A;98.012;2.570;5.629;
040548FF7504B521;IDS-10A -- ?????-????? (????????) -- 1 -- None -- 80 -- 0 -- Solo Pro II MVP -- 172.26.2.150;113;Total;3/5/2012;6:30:00;100;15 Minutes;;;;;;584;292;91.590;0;267;6;10;6;6.180;5.266;A;89.629;3.113;6.516;
040548FF7504B521;IDS-10A -- ?????-????? (????????) -- 1 -- None -- 80 -- 0 -- Solo Pro II MVP -- 172.26.2.150;109;Lane 1;3/5/2012;6:45:00;100;15 Minutes;;;;;;632;158;83.770;0;143;5;7;0;5.695;5.703;A;82.145;3.418;7.691;
040548FF7504B521;IDS-10A -- ?????-????? (????????) -- 1 -- None -- 80 -- 0 -- Solo Pro II MVP -- 172.26.2.150;110;Lane 2;3/5/2012;6:45:00;100;15 Minutes;;;;;;672;168;103.262;0;163;0;2;1;5.355;4.461;A;102.648;2.816;6.543;
040548FF7504B521;IDS-10A -- ?????-????? (????????) -- 1 -- None -- 80 -- 0 -- Solo Pro II MVP -- 172.26.2.150;113;Total;3/5/2012;6:45:00;100;15 Minutes;;;;;;652;326;93.813;0;306;5;9;1;5.523;5.082;A;91.605;3.078;7.117;
040548FF7504B521;IDS-10A -- ?????-????? (????????) -- 1 -- None -- 80 -- 0 -- Solo Pro II MVP -- 172.26.2.150;109;Lane 1;3/5/2012;7:00:00;100;15 Minutes;;;;;;760;190;82.602;0;146;6;25;3;4.734;8.059;A;80.133;4.551;9.480;
040548FF7504B521;IDS-10A -- ?????-????? (????????) -- 1 -- None -- 80 -- 0 -- Solo Pro II MVP -- 172.26.2.150;110;Lane 2;3/5/2012;7:00:00;100;15 Minutes;;;;;;868;217;98.605;0;195;2;17;0;4.145;6.625;A;97.223;4.199;8.926;
040548FF7504B521;IDS-10A -- ?????-????? (????????) -- 1 -- None -- 80 -- 0 -- Solo Pro II MVP -- 172.26.2.150;113;Total;3/5/2012;7:00:00;100;15 Minutes;;;;;;814;407;91.137;0;341;8;42;3;4.438;7.340;A;88.445;4.332;9.203;
040548FF7504B521;IDS-10A -- ?????-????? (????????) -- 1 -- None -- 80 -- 0 -- Solo Pro II MVP -- 172.26.2.150;109;Lane 1;3/5/2012;7:15:00;100;15 Minutes;;;;;;840;210;83.160;0;181;10;16;2;4.285;7.730;A;80.543;4.969;10.426;
040548FF7504B521;IDS-10A -- ?????-????? (????????) -- 1 -- None -- 80 -- 0 -- Solo Pro II MVP -- 172.26.2.150;110;Lane 2;3/5/2012;7:15:00;100;15 Minutes;;;;;;928;232;100.531;0;219;5;4;1;3.879;6.988;A;99.277;4.129;9.344;
040548FF7504B521;IDS-10A -- ?????-????? (????????) -- 1 -- None -- 80 -- 0 -- Solo Pro II MVP -- 172.26.2.150;113;Total;3/5/2012;7:15:00;100;15 Minutes;;;;;;884;442;92.277;0;400;15;20;3;4.082;7.359;A;89.445;4.488;9.883;
040548FF7504B521;IDS-10A -- ?????-????? (????????) -- 1 -- None -- 80 -- 0 -- Solo Pro II MVP -- 172.26.2.150;109;Lane 1;3/5/2012;7:30:00;100;15 Minutes;;;;;;804;201;84.012;0;180;8;10;0;4.477;7.664;A;82.574;4.660;9.734;
040548FF7504B521;IDS-10A -- ?????-????? (????????) -- 1 -- None -- 80 -- 0 -- Solo Pro II MVP -- 172.26.2.150;110;Lane 2;3/5/2012;7:30:00;100;15 Minutes;;;;;;1040;260;95.742;0;248;4;3;4;3.461;8.098;A;94.813;5.402;10.969;
040548FF7504B521;IDS-10A -- ?????-????? (????????) -- 1 -- None -- 80 -- 0 -- Solo Pro II MVP -- 172.26.2.150;113;Total;3/5/2012;7:30:00;100;15 Minutes;;;;;;922;461;90.629;0;428;12;13;4;3.969;7.879;A;89.066;5.016;10.352;
040548FF7504B521;IDS-10A -- ?????-????? (????????) -- 1 -- None -- 80 -- 0 -- Solo Pro II MVP -- 172.26.2.150;109;Lane 1;3/5/2012;7:45:00;100;15 Minutes;;;;;;940;235;81.957;0;219;1;7;2;3.828;9.547;A;80.199;5.426;11.719;
040548FF7504B521;IDS-10A -- ?????-????? (????????) -- 1 -- None -- 80 -- 0 -- Solo Pro II MVP -- 172.26.2.150;110;Lane 2;3/5/2012;7:45:00;100;15 Minutes;;;;;;1196;299;92.441;0;285;2;1;8;3.008;9.102;A;91.668;6.348;13.047;
040548FF7504B521;IDS-10A -- ?????-????? (????????) -- 1 -- None -- 80 -- 0 -- Solo Pro II MVP -- 172.26.2.150;113;Total;3/5/2012;7:45:00;100;15 Minutes;;;;;;1068;534;87.824;0;504;3;8;10;3.418;9.324;A;86.246;5.871;12.383;
040548FF7504B521;IDS-10A -- ?????-????? (????????) -- 1 -- None -- 80 -- 0 -- Solo Pro II MVP -- 172.26.2.150;109;Lane 1;3/5/2012;8:00:00;100;15 Minutes;;;;;;848;212;83.285;0;204;5;3;0;4.242;8.371;A;81.813;4.703;10.363;
040548FF7504B521;IDS-10A -- ?????-????? (????????) -- 1 -- None -- 80 -- 0 -- Solo Pro II MVP -- 172.26.2.150;110;Lane 2;3/5/2012;8:00:00;100;15 Minutes;;;;;;1032;258;96.906;0;247;6;0;3;3.488;7.457;A;96.277;5.125;10.719;
040548FF7504B521;IDS-10A -- ?????-????? (????????) -- 1 -- None -- 80 -- 0 -- Solo Pro II MVP -- 172.26.2.150;113;Total;3/5/2012;8:00:00;100;15 Minutes;;;;;;940;470;90.762;0;451;11;3;3;3.863;7.914;A;89.125;4.895;10.547;
040548FF7504B521;IDS-10A -- ?????-????? (????????) -- 1 -- None -- 80 -- 0 -- Solo Pro II MVP -- 172.26.2.150;109;Lane 1;3/5/2012;8:15:00;100;15 Minutes;;;;;;924;231;80.309;0;216;7;3;4;3.895;8.945;A;78.641;5.750;11.746;
040548FF7504B521;IDS-10A -- ?????-????? (????????) -- 1 -- None -- 80 -- 0 -- Solo Pro II MVP -- 172.26.2.150;110;Lane 2;3/5/2012;8:15:00;100;15 Minutes;;;;;;1160;290;91.031;0;283;2;2;3;3.102;8.867;A;90.426;6.309;12.828;
040548FF7504B521;IDS-10A -- ?????-????? (????????) -- 1 -- None -- 80 -- 0 -- Solo Pro II MVP -- 172.26.2.150;113;Total;3/5/2012;8:15:00;100;15 Minutes;;;;;;1042;521;86.277;0;499;9;5;7;3.496;8.906;A;84.789;6.004;12.289;
040548FF7504B521;IDS-10A -- ?????-????? (????????) -- 1 -- None -- 80 -- 0 -- Solo Pro II MVP -- 172.26.2.150;109;Lane 1;3/5/2012;8:30:00;100;15 Minutes;;;;;;1028;257;76.656;0;243;5;5;4;3.500;10.375;A;75.016;6.738;13.703;
040548FF7504B521;IDS-10A -- ?????-????? (????????) -- 1 -- None -- 80 -- 0 -- Solo Pro II MVP -- 172.26.2.150;110;Lane 2;3/5/2012;8:30:00;100;15 Minutes;;;;;;1296;324;89.945;0;319;0;0;4;2.777;9.789;A;89.184;6.906;14.531;
040548FF7504B521;IDS-10A -- ?????-????? (????????) -- 1 -- None -- 80 -- 0 -- Solo Pro II MVP -- 172.26.2.150;113;Total;3/5/2012;8:30:00;100;15 Minutes;;;;;;1162;581;84.066;0;562;5;5;8;3.137;10.082;A;82.262;6.766;14.125;
040548FF7504B521;IDS-10A -- ?????-????? (????????) -- 1 -- None -- 80 -- 0 -- Solo Pro II MVP -- 172.26.2.150;109;Lane 1;3/5/2012;8:45:00;100;15 Minutes;;;;;;948;237;80.199;0;216;9;6;6;3.797;9.730;A;77.961;6.320;12.156;
040548FF7504B521;IDS-10A -- ?????-????? (????????) -- 1 -- None -- 80 -- 0 -- Solo Pro II MVP -- 172.26.2.150;110;Lane 2;3/5/2012;8:45:00;100;15 Minutes;;;;;;1300;325;91.539;0;319;3;0;3;2.766;10.539;A;90.531;6.777;14.359;
040548FF7504B521;IDS-10A -- ?????-????? (????????) -- 1 -- None -- 80 -- 0 -- Solo Pro II MVP -- 172.26.2.150;113;Total;3/5/2012;8:45:00;100;15 Minutes;;;;;;1124;562;86.758;0;535;12;6;9;3.281;10.133;A;84.727;6.496;13.266;
040548FF7504B521;IDS-10A -- ?????-????? (????????) -- 1 -- None -- 80 -- 0 -- Solo Pro II MVP -- 172.26.2.150;109;Lane 1;3/5/2012;9:00:00;100;15 Minutes;;;;;;948;237;78.496;0;213;14;6;4;3.797;10.008;A;77.348;6.313;12.254;
040548FF7504B521;IDS-10A -- ?????-????? (????????) -- 1 -- None -- 80 -- 0 -- Solo Pro II MVP -- 172.26.2.150;110;Lane 2;3/5/2012;9:00:00;100;15 Minutes;;;;;;1268;317;90.613;0;309;5;0;3;2.836;10.379;A;89.867;6.805;14.109;
040548FF7504B521;IDS-10A -- ?????-????? (????????) -- 1 -- None -- 80 -- 0 -- Solo Pro II MVP -- 172.26.2.150;113;Total;3/5/2012;9:00:00;100;15 Minutes;;;;;;1108;554;85.430;0;522;19;6;7;3.316;10.191;A;84.066;6.508;13.180;
040548FF7504B521;IDS-10A -- ?????-????? (????????) -- 1 -- None -- 80 -- 0 -- Solo Pro II MVP -- 172.26.2.150;109;Lane 1;3/5/2012;9:15:00;100;15 Minutes;;;;;;1068;267;73.621;0;238;10;10;9;3.367;11.766;A;72.176;7.949;14.797;
040548FF7504B521;IDS-10A -- ?????-????? (????????) -- 1 -- None -- 80 -- 0 -- Solo Pro II MVP -- 172.26.2.150;110;Lane 2;3/5/2012;9:15:00;100;15 Minutes;;;;;;1452;363;85.289;0;353;9;0;1;2.477;12.152;A;84.402;7.828;17.203;
040548FF7504B521;IDS-10A -- ?????-????? (????????) -- 1 -- None -- 80 -- 0 -- Solo Pro II MVP -- 172.26.2.150;113;Total;3/5/2012;9:15:00;100;15 Minutes;;;;;;1260;630;80.344;0;591;19;10;10;2.922;11.957;A;78.750;7.797;16.000;
040548FF7504B521;IDS-10A -- ?????-????? (????????) -- 1 -- None -- 80 -- 0 -- Solo Pro II MVP -- 172.26.2.150;109;Lane 1;3/5/2012;9:30:00;100;15 Minutes;;;;;;1128;282;72.375;0;247;17;9;9;3.191;13.301;A;71.055;8.531;15.875;
040548FF7504B521;IDS-10A -- ?????-????? (????????) -- 1 -- None -- 80 -- 0 -- Solo Pro II MVP -- 172.26.2.150;110;Lane 2;3/5/2012;9:30:00;100;15 Minutes;;;;;;1496;374;84.957;0;371;1;0;2;2.406;12.910;A;84.133;8.422;17.781;
040548FF7504B521;IDS-10A -- ?????-????? (????????) -- 1 -- None -- 80 -- 0 -- Solo Pro II MVP -- 172.26.2.150;113;Total;3/5/2012;9:30:00;100;15 Minutes;;;;;;1312;656;79.547;0;618;18;9;11;2.797;13.105;A;77.961;8.379;16.828;
040548FF7504B521;IDS-10A -- ?????-????? (????????) -- 1 -- None -- 80 -- 0 -- Solo Pro II MVP -- 172.26.2.150;109;Lane 1;3/5/2012;9:45:00;100;15 Minutes;;;;;;1088;272;70.512;0;226;26;10;9;3.309;13.574;A;69.145;8.797;15.734;
040548FF7504B521;IDS-10A -- ?????-????? (????????) -- 1 -- None -- 80 -- 0 -- Solo Pro II MVP -- 172.26.2.150;110;Lane 2;3/5/2012;9:45:00;100;15 Minutes;;;;;;1396;349;84.203;0;342;2;3;2;2.578;12.270;A;83.418;8.004;16.734;
040548FF7504B521;IDS-10A -- ?????-????? (????????) -- 1 -- None -- 80 -- 0 -- Solo Pro II MVP -- 172.26.2.150;113;Total;3/5/2012;9:45:00;100;15 Minutes;;;;;;1242;621;78.207;0;568;28;13;11;2.941;12.922;A;76.465;8.277;16.242;
040548FF7504B521;IDS-10A -- ?????-????? (????????) -- 1 -- None -- 80 -- 0 -- Solo Pro II MVP -- 172.26.2.150;109;Lane 1;3/5/2012;10:00:00;100;15 Minutes;;;;;;1008;252;68.895;0;212;17;15;6;3.570;13.082;A;66.879;8.223;15.070;
040548FF7504B521;IDS-10A -- ?????-????? (????????) -- 1 -- None -- 80 -- 0 -- Solo Pro II MVP -- 172.26.2.150;110;Lane 2;3/5/2012;10:00:00;100;15 Minutes;;;;;;1400;350;81.723;0;344;1;5;0;2.570;12.398;A;80.070;7.980;17.484;
040548FF7504B521;IDS-10A -- ?????-????? (????????) -- 1 -- None -- 80 -- 0 -- Solo Pro II MVP -- 172.26.2.150;113;Total;3/5/2012;10:00:00;100;15 Minutes;;;;;;1204;602;76.352;0;556;18;20;6;3.070;12.738;A;73.949;7.980;16.281;
040548FF7504B521;IDS-10A -- ?????-????? (????????) -- 1 -- None -- 80 -- 0 -- Solo Pro II MVP -- 172.26.2.150;109;Lane 1;3/5/2012;10:15:00;100;15 Minutes;;;;;;1104;276;69.848;0;228;20;15;13;3.258;14.434;A;68.332;9.410;16.156;
040548FF7504B521;IDS-10A -- ?????-????? (????????) -- 1 -- None -- 80 -- 0 -- Solo Pro II MVP -- 172.26.2.150;110;Lane 2;3/5/2012;10:15:00;100;15 Minutes;;;;;;1556;389;81.410;0;387;1;1;0;2.313;13.715;A;80.309;8.824;19.375;
040548FF7504B521;IDS-10A -- ?????-????? (????????) -- 1 -- None -- 80 -- 0 -- Solo Pro II MVP -- 172.26.2.150;113;Total;3/5/2012;10:15:00;100;15 Minutes;;;;;;1330;665;76.613;0;615;21;16;13;2.785;14.074;A;74.863;8.980;17.766;
040548FF7504B521;IDS-10A -- ?????-????? (????????) -- 1 -- None -- 80 -- 0 -- Solo Pro II MVP -- 172.26.2.150;109;Lane 1;3/5/2012;10:30:00;100;15 Minutes;;;;;;1036;259;71.664;0;215;26;12;6;3.473;13.297;A;70.012;8.063;14.797;
040548FF7504B521;IDS-10A -- ?????-????? (????????) -- 1 -- None -- 80 -- 0 -- Solo Pro II MVP -- 172.26.2.150;110;Lane 2;3/5/2012;10:30:00;100;15 Minutes;;;;;;1288;322;81.766;0;314;3;2;3;2.793;11.727;A;80.656;7.535;15.969;
040548FF7504B521;IDS-10A -- ?????-????? (????????) -- 1 -- None -- 80 -- 0 -- Solo Pro II MVP -- 172.26.2.150;113;Total;3/5/2012;10:30:00;100;15 Minutes;;;;;;1162;581;77.262;0;529;29;14;9;3.133;12.512;A;75.500;7.727;15.391;
040548FF7504B521;IDS-10A -- ?????-????? (????????) -- 1 -- None -- 80 -- 0 -- Solo Pro II MVP -- 172.26.2.150;109;Lane 1;3/5/2012;10:45:00;100;15 Minutes;;;;;;1068;267;70.363;0;221;19;15;11;3.367;13.742;A;69.180;8.914;15.438;
040548FF7504B521;IDS-10A -- ?????-????? (????????) -- 1 -- None -- 80 -- 0 -- Solo Pro II MVP -- 172.26.2.150;110;Lane 2;3/5/2012;10:45:00;100;15 Minutes;;;;;;1372;343;82.918;0;339;2;1;1;2.621;11.754;A;82.137;7.527;16.703;
040548FF7504B521;IDS-10A -- ?????-????? (????????) -- 1 -- None -- 80 -- 0 -- Solo Pro II MVP -- 172.26.2.150;113;Total;3/5/2012;10:45:00;100;15 Minutes;;;;;;1220;610;77.422;0;560;21;16;12;2.992;12.746;A;75.879;8.082;16.078;
040548FF7504B521;IDS-10A -- ?????-????? (????????) -- 1 -- None -- 80 -- 0 -- Solo Pro II MVP -- 172.26.2.150;109;Lane 1;3/5/2012;11:00:00;100;15 Minutes;;;;;;976;244;67.625;0;188;29;20;4;3.688;13.551;A;66.109;8.164;14.762;
040548FF7504B521;IDS-10A -- ?????-????? (????????) -- 1 -- None -- 80 -- 0 -- Solo Pro II MVP -- 172.26.2.150;110;Lane 2;3/5/2012;11:00:00;100;15 Minutes;;;;;;1392;348;81.504;0;341;4;1;2;2.586;12.277;A;80.547;7.715;17.281;
040548FF7504B521;IDS-10A -- ?????-????? (????????) -- 1 -- None -- 80 -- 0 -- Solo Pro II MVP -- 172.26.2.150;113;Total;3/5/2012;11:00:00;100;15 Minutes;;;;;;1184;592;75.785;0;529;33;21;6;3.137;12.914;A;73.891;7.789;16.023;
040548FF7504B521;IDS-10A -- ?????-????? (????????) -- 1 -- None -- 80 -- 0 -- Solo Pro II MVP -- 172.26.2.150;109;Lane 1;3/5/2012;11:15:00;100;15 Minutes;;;;;;996;249;71.168;0;206;17;15;10;3.613;12.426;A;69.449;8.121;14.340;
040548FF7504B521;IDS-10A -- ?????-????? (????????) -- 1 -- None -- 80 -- 0 -- Solo Pro II MVP -- 172.26.2.150;110;Lane 2;3/5/2012;11:15:00;100;15 Minutes;;;;;;1228;307;85.398;0;305;0;1;1;2.930;10.402;A;84.324;6.367;14.563;
040548FF7504B521;IDS-10A -- ?????-????? (????????) -- 1 -- None -- 80 -- 0 -- Solo Pro II MVP -- 172.26.2.150;113;Total;3/5/2012;11:15:00;100;15 Minutes;;;;;;1112;556;79.023;0;511;17;16;11;3.270;11.414;A;76.938;7.098;14.453;
040548FF7504B521;IDS-10A -- ?????-????? (????????) -- 1 -- None -- 80 -- 0 -- Solo Pro II MVP -- 172.26.2.150;109;Lane 1;3/5/2012;11:30:00;100;15 Minutes;;;;;;904;226;70.754;0;184;27;8;7;3.980;11.219;A;69.191;7.102;13.063;
040548FF7504B521;IDS-10A -- ?????-????? (????????) -- 1 -- None -- 80 -- 0 -- Solo Pro II MVP -- 172.26.2.150;110;Lane 2;3/5/2012;11:30:00;100;15 Minutes;;;;;;1268;317;88.281;0;312;2;2;0;2.836;10.383;A;87.258;6.488;14.531;
040548FF7504B521;IDS-10A -- ?????-????? (????????) -- 1 -- None -- 80 -- 0 -- Solo Pro II MVP -- 172.26.2.150;113;Total;3/5/2012;11:30:00;100;15 Minutes;;;;;;1086;543;80.988;0;496;29;10;7;3.406;10.801;A;78.711;6.637;13.797;
040548FF7504B521;IDS-10A -- ?????-????? (????????) -- 1 -- None -- 80 -- 0 -- Solo Pro II MVP -- 172.26.2.150;109;Lane 1;3/5/2012;11:45:00;100;15 Minutes;;;;;;940;235;73.051;0;199;12;15;8;3.828;11.109;A;71.766;7.305;13.098;
040548FF7504B521;IDS-10A -- ?????-????? (????????) -- 1 -- None -- 80 -- 0 -- Solo Pro II MVP -- 172.26.2.150;110;Lane 2;3/5/2012;11:45:00;100;15 Minutes;;;;;;1220;305;86.730;0;304;0;0;1;2.949;9.938;A;85.613;6.047;14.250;
040548FF7504B521;IDS-10A -- ?????-????? (????????) -- 1 -- None -- 80 -- 0 -- Solo Pro II MVP -- 172.26.2.150;113;Total;3/5/2012;11:45:00;100;15 Minutes;;;;;;1080;540;80.777;0;503;12;15;9;3.387;10.523;A;78.992;6.551;13.672;
040548FF7504B521;IDS-10A -- ?????-????? (????????) -- 1 -- None -- 80 -- 0 -- Solo Pro II MVP -- 172.26.2.150;109;Lane 1;3/5/2012;12:00:00; 99;15 Minutes;;;;;;904;226;71.715;0;188;24;7;6;3.980;11.230;A;70.281;6.754;12.859;
040548FF7504B521;IDS-10A -- ?????-????? (????????) -- 1 -- None -- 80 -- 0 -- Solo Pro II MVP -- 172.26.2.150;110;Lane 2;3/5/2012;12:00:00; 99;15 Minutes;;;;;;1148;287;85.543;0;283;2;1;1;3.133;9.590;A;84.449;6.023;13.594;
040548FF7504B521;IDS-10A -- ?????-????? (????????) -- 1 -- None -- 80 -- 0 -- Solo Pro II MVP -- 172.26.2.150;113;Total;3/5/2012;12:00:00; 99;15 Minutes;;;;;;1026;513;79.449;0;471;26;8;7;3.555;10.410;A;77.570;6.293;13.227;
040548FF7504B521;IDS-10A -- ?????-????? (????????) -- 1 -- None -- 80 -- 0 -- Solo Pro II MVP -- 172.26.2.150;109;Lane 1;3/5/2012;12:15:00;100;15 Minutes;;;;;;924;231;72.207;0;190;19;14;8;3.895;10.777;A;70.750;7.379;13.059;
040548FF7504B521;IDS-10A -- ?????-????? (????????) -- 1 -- None -- 80 -- 0 -- Solo Pro II MVP -- 172.26.2.150;110;Lane 2;3/5/2012;12:15:00;100;15 Minutes;;;;;;1140;285;85.797;0;285;0;0;0;3.156;9.332;A;84.637;5.668;13.469;
040548FF7504B521;IDS-10A -- ?????-????? (????????) -- 1 -- None -- 80 -- 0 -- Solo Pro II MVP -- 172.26.2.150;113;Total;3/5/2012;12:15:00;100;15 Minutes;;;;;;1032;516;79.715;0;475;19;14;8;3.523;10.055;A;77.793;6.395;13.266;
040548FF7504B521;IDS-10A -- ?????-????? (????????) -- 1 -- None -- 80 -- 0 -- Solo Pro II MVP -- 172.26.2.150;109;Lane 1;3/5/2012;12:30:00;100;15 Minutes;;;;;;944;236;71.758;0;199;13;16;8;3.813;11.426;A;69.891;7.352;13.504;
040548FF7504B521;IDS-10A -- ?????-????? (????????) -- 1 -- None -- 80 -- 0 -- Solo Pro II MVP -- 172.26.2.150;110;Lane 2;3/5/2012;12:30:00;100;15 Minutes;;;;;;1156;289;86.332;0;287;0;1;1;3.113;9.633;A;84.746;5.805;13.641;
040548FF7504B521;IDS-10A -- ?????-????? (????????) -- 1 -- None -- 80 -- 0 -- Solo Pro II MVP -- 172.26.2.150;113;Total;3/5/2012;12:30:00;100;15 Minutes;;;;;;1050;525;79.777;0;486;13;17;9;3.461;10.527;A;77.371;6.445;13.570;
040548FF7504B521;IDS-10A -- ?????-????? (????????) -- 1 -- None -- 80 -- 0 -- Solo Pro II MVP -- 172.26.2.150;109;Lane 1;3/5/2012;12:45:00;100;15 Minutes;;;;;;840;210;73.402;0;183;9;8;10;4.285;9.801;A;72.039;6.297;11.660;
040548FF7504B521;IDS-10A -- ?????-????? (????????) -- 1 -- None -- 80 -- 0 -- Solo Pro II MVP -- 172.26.2.150;110;Lane 2;3/5/2012;12:45:00;100;15 Minutes;;;;;;1256;314;87.523;0;308;3;2;1;2.863;10.223;A;86.340;6.418;14.547;
040548FF7504B521;IDS-10A -- ?????-????? (????????) -- 1 -- None -- 80 -- 0 -- Solo Pro II MVP -- 172.26.2.150;113;Total;3/5/2012;12:45:00;100;15 Minutes;;;;;;1048;524;81.863;0;491;12;10;11;3.574;10.012;A;79.988;6.254;13.102;
040548FF7504B521;IDS-10A -- ?????-????? (????????) -- 1 -- None -- 80 -- 0 -- Solo Pro II MVP -- 172.26.2.150;109;Lane 1;3/5/2012;13:00:00;100;15 Minutes;;;;;;968;242;69.648;0;199;19;13;10;3.719;12.527;A;68.105;7.832;14.211;
040548FF7504B521;IDS-10A -- ?????-????? (????????) -- 1 -- None -- 80 -- 0 -- Solo Pro II MVP -- 172.26.2.150;110;Lane 2;3/5/2012;13:00:00;100;15 Minutes;;;;;;1356;339;83.828;0;332;3;2;2;2.652;11.340;A;82.887;7.133;16.359;
040548FF7504B521;IDS-10A -- ?????-????? (????????) -- 1 -- None -- 80 -- 0 -- Solo Pro II MVP -- 172.26.2.150;113;Total;3/5/2012;13:00:00;100;15 Minutes;;;;;;1162;581;77.922;0;531;22;15;12;3.184;11.934;A;76.000;7.336;15.289;
040548FF7504B521;IDS-10A -- ?????-????? (????????) -- 1 -- None -- 80 -- 0 -- Solo Pro II MVP -- 172.26.2.150;109;Lane 1;3/5/2012;13:15:00;100;15 Minutes;;;;;;912;228;72.840;0;198;12;11;7;3.945;10.340;A;71.422;6.664;12.766;
040548FF7504B521;IDS-10A -- ?????-????? (????????) -- 1 -- None -- 80 -- 0 -- Solo Pro II MVP -- 172.26.2.150;110;Lane 2;3/5/2012;13:15:00;100;15 Minutes;;;;;;1300;325;88.176;0;321;3;0;1;2.766;10.238;A;87.301;6.250;14.891;
040548FF7504B521;IDS-10A -- ?????-????? (????????) -- 1 -- None -- 80 -- 0 -- Solo Pro II MVP -- 172.26.2.150;113;Total;3/5/2012;13:15:00;100;15 Minutes;;;;;;1106;553;81.852;0;519;15;11;8;3.355;10.289;A;79.934;6.332;13.836;
040548FF7504B521;IDS-10A -- ?????-????? (????????) -- 1 -- None -- 80 -- 0 -- Solo Pro II MVP -- 172.26.2.150;109;Lane 1;3/5/2012;13:30:00;100;15 Minutes;;;;;;920;230;73.867;0;189;17;16;8;3.910;10.793;A;72.336;7.102;12.715;
040548FF7504B521;IDS-10A -- ?????-????? (????????) -- 1 -- None -- 80 -- 0 -- Solo Pro II MVP -- 172.26.2.150;110;Lane 2;3/5/2012;13:30:00;100;15 Minutes;;;;;;1336;334;87.496;0;333;0;0;1;2.691;10.582;A;86.715;6.504;15.406;
040548FF7504B521;IDS-10A -- ?????-????? (????????) -- 1 -- None -- 80 -- 0 -- Solo Pro II MVP -- 172.26.2.150;113;Total;3/5/2012;13:30:00;100;15 Minutes;;;;;;1128;564;81.938;0;522;17;16;9;3.301;10.688;A;80.211;6.676;14.063;
040548FF7504B521;IDS-10A -- ?????-????? (????????) -- 1 -- None -- 80 -- 0 -- Solo Pro II MVP -- 172.26.2.150;109;Lane 1;3/5/2012;13:45:00;100;15 Minutes;;;;;;812;203;76.145;0;181;8;7;6;4.430;8.363;A;74.625;5.508;10.879;
040548FF7504B521;IDS-10A -- ?????-????? (????????) -- 1 -- None -- 80 -- 0 -- Solo Pro II MVP -- 172.26.2.150;110;Lane 2;3/5/2012;13:45:00;100;15 Minutes;;;;;;1236;309;90.281;0;308;0;1;0;2.910;9.410;A;89.281;5.824;13.844;
040548FF7504B521;IDS-10A -- ?????-????? (????????) -- 1 -- None -- 80 -- 0 -- Solo Pro II MVP -- 172.26.2.150;113;Total;3/5/2012;13:45:00;100;15 Minutes;;;;;;1024;512;84.680;0;489;8;8;6;3.668;8.887;A;82.852;5.582;12.359;
040548FF7504B521;IDS-10A -- ?????-????? (????????) -- 1 -- None -- 80 -- 0 -- Solo Pro II MVP -- 172.26.2.150;109;Lane 1;3/5/2012;14:00:00;100;15 Minutes;;;;;;980;245;76.797;0;220;13;7;5;3.672;10.000;A;75.617;6.645;12.957;
040548FF7504B521;IDS-10A -- ?????-????? (????????) -- 1 -- None -- 80 -- 0 -- Solo Pro II MVP -- 172.26.2.150;110;Lane 2;3/5/2012;14:00:00;100;15 Minutes;;;;;;1264;316;90.082;0;310;1;3;2;2.848;9.625;A;89.289;6.254;14.156;
040548FF7504B521;IDS-10A -- ?????-????? (????????) -- 1 -- None -- 80 -- 0 -- Solo Pro II MVP -- 172.26.2.150;113;Total;3/5/2012;14:00:00;100;15 Minutes;;;;;;1122;561;84.281;0;530;14;10;7;3.258;9.813;A;82.727;6.367;13.563;
040548FF7504B521;IDS-10A -- ?????-????? (????????) -- 1 -- None -- 80 -- 0 -- Solo Pro II MVP -- 172.26.2.150;109;Lane 1;3/5/2012;14:15:00;100;15 Minutes;;;;;;984;246;73.715;0;225;12;2;7;3.656;10.512;A;72.031;6.727;13.660;
040548FF7504B521;IDS-10A -- ?????-????? (????????) -- 1 -- None -- 80 -- 0 -- Solo Pro II MVP -- 172.26.2.150;110;Lane 2;3/5/2012;14:15:00;100;15 Minutes;;;;;;1412;353;88.273;0;351;0;1;1;2.547;11.297;A;87.141;7.172;16.203;
040548FF7504B521;IDS-10A -- ?????-????? (????????) -- 1 -- None -- 80 -- 0 -- Solo Pro II MVP -- 172.26.2.150;113;Total;3/5/2012;14:15:00;100;15 Minutes;;;;;;1198;599;82.293;0;576;12;3;8;3.102;10.902;A;80.199;6.859;14.938;
040548FF7504B521;IDS-10A -- ?????-????? (????????) -- 1 -- None -- 80 -- 0 -- Solo Pro II MVP -- 172.26.2.150;109;Lane 1;3/5/2012;14:30:00;100;15 Minutes;;;;;;1044;261;71.223;0;213;13;16;18;3.445;13.016;A;69.961;8.801;14.922;
040548FF7504B521;IDS-10A -- ?????-????? (????????) -- 1 -- None -- 80 -- 0 -- Solo Pro II MVP -- 172.26.2.150;110;Lane 2;3/5/2012;14:30:00;100;15 Minutes;;;;;;1564;391;83.656;0;385;0;5;1;2.301;12.941;A;82.926;8.203;18.859;
040548FF7504B521;IDS-10A -- ?????-????? (????????) -- 1 -- None -- 80 -- 0 -- Solo Pro II MVP -- 172.26.2.150;113;Total;3/5/2012;14:30:00;100;15 Minutes;;;;;;1304;652;78.680;0;598;13;21;19;2.871;12.977;A;77.199;8.344;16.891;
040548FF7504B521;IDS-10A -- ?????-????? (????????) -- 1 -- None -- 80 -- 0 -- Solo Pro II MVP -- 172.26.2.150;109;Lane 1;3/5/2012;14:45:00;100;15 Minutes;;;;;;1028;257;74.719;0;217;15;15;8;3.500;11.625;A;73.262;7.605;14.031;
040548FF7504B521;IDS-10A -- ?????-????? (????????) -- 1 -- None -- 80 -- 0 -- Solo Pro II MVP -- 172.26.2.150;110;Lane 2;3/5/2012;14:45:00;100;15 Minutes;;;;;;1308;327;88.004;0;323;1;2;1;2.750;10.340;A;86.926;6.508;15.047;
040548FF7504B521;IDS-10A -- ?????-????? (????????) -- 1 -- None -- 80 -- 0 -- Solo Pro II MVP -- 172.26.2.150;113;Total;3/5/2012;14:45:00;100;15 Minutes;;;;;;1168;584;82.156;0;540;16;17;9;3.125;10.980;A;80.332;6.945;14.539;
040548FF7504B521;IDS-10A -- ?????-????? (????????) -- 1 -- None -- 80 -- 0 -- Solo Pro II MVP -- 172.26.2.150;109;Lane 1;3/5/2012;15:00:00;100;15 Minutes;;;;;;1016;254;76.551;0;232;9;6;7;3.543;10.383;A;75.078;6.840;13.531;
040548FF7504B521;IDS-10A -- ?????-????? (????????) -- 1 -- None -- 80 -- 0 -- Solo Pro II MVP -- 172.26.2.150;110;Lane 2;3/5/2012;15:00:00;100;15 Minutes;;;;;;1336;334;90.723;0;332;1;1;0;2.691;10.148;A;90.004;6.477;14.844;
040548FF7504B521;IDS-10A -- ?????-????? (????????) -- 1 -- None -- 80 -- 0 -- Solo Pro II MVP -- 172.26.2.150;113;Total;3/5/2012;15:00:00;100;15 Minutes;;;;;;1176;588;84.602;0;564;10;7;7;3.117;10.266;A;82.887;6.566;14.188;
040548FF7504B521;IDS-10A -- ?????-????? (????????) -- 1 -- None -- 80 -- 0 -- Solo Pro II MVP -- 172.26.2.150;109;Lane 1;3/5/2012;15:15:00;100;15 Minutes;;;;;;568;142;81.855;0;113;9;12;8;6.336;6.219;A;79.422;4.242;7.148;
040548FF7504B521;IDS-10A -- ?????-????? (????????) -- 1 -- None -- 80 -- 0 -- Solo Pro II MVP -- 172.26.2.150;110;Lane 2;3/5/2012;15:15:00;100;15 Minutes;;;;;;564;141;96.801;0;138;0;3;0;6.383;4.223;A;95.164;2.660;5.926;
040548FF7504B521;IDS-10A -- ?????-????? (????????) -- 1 -- None -- 80 -- 0 -- Solo Pro II MVP -- 172.26.2.150;113;Total;3/5/2012;15:15:00;100;15 Minutes;;;;;;566;283;89.301;0;251;9;15;8;6.359;5.219;A;86.660;3.387;6.531;
040548FF7504B521;IDS-10A -- ?????-????? (????????) -- 1 -- None -- 80 -- 0 -- Solo Pro II MVP -- 172.26.2.150;109;Lane 1;3/5/2012;15:30:00;100;15 Minutes;;;;;;976;244;75.492;0;215;10;6;11;3.688;9.777;A;73.867;6.621;13.211;
040548FF7504B521;IDS-10A -- ?????-????? (????????) -- 1 -- None -- 80 -- 0 -- Solo Pro II MVP -- 172.26.2.150;110;Lane 2;3/5/2012;15:30:00;100;15 Minutes;;;;;;1464;366;87.824;0;364;0;1;1;2.457;11.574;A;86.434;7.227;16.938;
040548FF7504B521;IDS-10A -- ?????-????? (????????) -- 1 -- None -- 80 -- 0 -- Solo Pro II MVP -- 172.26.2.150;113;Total;3/5/2012;15:30:00;100;15 Minutes;;;;;;1220;610;82.895;0;579;10;7;12;3.070;10.676;A;80.953;6.844;15.070;
040548FF7504B521;IDS-10A -- ?????-????? (????????) -- 1 -- None -- 80 -- 0 -- Solo Pro II MVP -- 172.26.2.150;109;Lane 1;3/5/2012;15:45:00;100;15 Minutes;;;;;;1188;297;67.465;0;248;20;12;16;3.027;14.453;A;66.285;10.234;17.922;
040548FF7504B521;IDS-10A -- ?????-????? (????????) -- 1 -- None -- 80 -- 0 -- Solo Pro II MVP -- 172.26.2.150;110;Lane 2;3/5/2012;15:45:00;100;15 Minutes;;;;;;1912;478;76.320;0;464;6;6;2;1.883;17.391;A;75.441;11.133;25.344;
040548FF7504B521;IDS-10A -- ?????-????? (????????) -- 1 -- None -- 80 -- 0 -- Solo Pro II MVP -- 172.26.2.150;113;Total;3/5/2012;15:45:00;100;15 Minutes;;;;;;1550;775;72.926;0;712;26;18;18;2.453;15.922;A;71.648;10.559;21.633;
040548FF7504B521;IDS-10A -- ?????-????? (????????) -- 1 -- None -- 80 -- 0 -- Solo Pro II MVP -- 172.26.2.150;109;Lane 1;3/5/2012;16:00:00;100;15 Minutes;;;;;;1188;297;71.984;0;250;10;21;14;3.027;14.230;A;70.398;9.367;16.875;
040548FF7504B521;IDS-10A -- ?????-????? (????????) -- 1 -- None -- 80 -- 0 -- Solo Pro II MVP -- 172.26.2.150;110;Lane 2;3/5/2012;16:00:00;100;15 Minutes;;;;;;1660;415;84.668;0;402;4;4;5;2.168;14.129;A;83.785;8.789;19.813;
040548FF7504B521;IDS-10A -- ?????-????? (????????) -- 1 -- None -- 80 -- 0 -- Solo Pro II MVP -- 172.26.2.150;113;Total;3/5/2012;16:00:00;100;15 Minutes;;;;;;1424;712;79.379;0;652;14;25;19;2.598;14.180;A;77.594;8.934;18.352;
040548FF7504B521;IDS-10A -- ?????-????? (????????) -- 1 -- None -- 80 -- 0 -- Solo Pro II MVP -- 172.26.2.150;109;Lane 1;3/5/2012;16:15:00;100;15 Minutes;;;;;;1044;261;74.250;0;230;9;11;10;3.445;12.566;A;72.781;7.734;14.344;
040548FF7504B521;IDS-10A -- ?????-????? (????????) -- 1 -- None -- 80 -- 0 -- Solo Pro II MVP -- 172.26.2.150;110;Lane 2;3/5/2012;16:15:00;100;15 Minutes;;;;;;1784;446;83.320;0;434;3;3;6;2.016;15.359;A;82.613;9.680;21.594;
040548FF7504B521;IDS-10A -- ?????-????? (????????) -- 1 -- None -- 80 -- 0 -- Solo Pro II MVP -- 172.26.2.150;113;Total;3/5/2012;16:15:00;100;15 Minutes;;;;;;1414;707;79.973;0;664;12;14;16;2.730;13.961;A;78.656;8.633;17.977;
040548FF7504B521;IDS-10A -- ?????-????? (????????) -- 1 -- None -- 80 -- 0 -- Solo Pro II MVP -- 172.26.2.150;109;Lane 1;3/5/2012;16:30:00;100;15 Minutes;;;;;;1108;277;75.066;0;257;5;8;7;3.246;12.500;A;73.254;7.586;15.125;
040548FF7504B521;IDS-10A -- ?????-????? (????????) -- 1 -- None -- 80 -- 0 -- Solo Pro II MVP -- 172.26.2.150;110;Lane 2;3/5/2012;16:30:00;100;15 Minutes;;;;;;1612;403;86.305;0;396;4;1;2;2.230;13.262;A;85.402;8.168;18.875;
040548FF7504B521;IDS-10A -- ?????-????? (????????) -- 1 -- None -- 80 -- 0 -- Solo Pro II MVP -- 172.26.2.150;113;Total;3/5/2012;16:30:00;100;15 Minutes;;;;;;1360;680;81.727;0;653;9;9;9;2.738;12.879;A;80.000;7.797;17.000;
040548FF7504B521;IDS-10A -- ?????-????? (????????) -- 1 -- None -- 80 -- 0 -- Solo Pro II MVP -- 172.26.2.150;109;Lane 1;3/5/2012;16:45:00;100;15 Minutes;;;;;;1040;260;74.117;0;226;5;15;9;3.461;11.320;A;72.820;7.625;14.281;
040548FF7504B521;IDS-10A -- ?????-????? (????????) -- 1 -- None -- 80 -- 0 -- Solo Pro II MVP -- 172.26.2.150;110;Lane 2;3/5/2012;16:45:00;100;15 Minutes;;;;;;1584;396;85.824;0;389;4;1;1;2.270;12.438;A;84.973;8.055;18.641;
040548FF7504B521;IDS-10A -- ?????-????? (????????) -- 1 -- None -- 80 -- 0 -- Solo Pro II MVP -- 172.26.2.150;113;Total;3/5/2012;16:45:00;100;15 Minutes;;;;;;1312;656;81.184;0;615;9;16;10;2.863;11.879;A;79.664;7.738;16.469;
040548FF7504B521;IDS-10A -- ?????-????? (????????) -- 1 -- None -- 80 -- 0 -- Solo Pro II MVP -- 172.26.2.150;109;Lane 1;3/5/2012;17:00:00;100;15 Minutes;;;;;;888;222;76.758;0;202;5;4;9;4.051;9.430;A;75.254;5.980;11.797;
040548FF7504B521;IDS-10A -- ?????-????? (????????) -- 1 -- None -- 80 -- 0 -- Solo Pro II MVP -- 172.26.2.150;110;Lane 2;3/5/2012;17:00:00;100;15 Minutes;;;;;;1540;385;87.547;0;376;6;1;1;2.336;12.457;A;86.152;7.855;17.875;
040548FF7504B521;IDS-10A -- ?????-????? (????????) -- 1 -- None -- 80 -- 0 -- Solo Pro II MVP -- 172.26.2.150;113;Total;3/5/2012;17:00:00;100;15 Minutes;;;;;;1214;607;83.602;0;578;11;5;10;3.191;10.941;A;81.828;6.859;14.836;
040548FF7504B521;IDS-10A -- ?????-????? (????????) -- 1 -- None -- 80 -- 0 -- Solo Pro II MVP -- 172.26.2.150;109;Lane 1;3/5/2012;17:15:00;100;15 Minutes;;;;;;1208;302;71.867;0;277;12;10;2;2.977;13.711;A;70.090;8.148;17.234;
040548FF7504B521;IDS-10A -- ?????-????? (????????) -- 1 -- None -- 80 -- 0 -- Solo Pro II MVP -- 172.26.2.150;110;Lane 2;3/5/2012;17:15:00;100;15 Minutes;;;;;;1784;446;81.652;0;441;3;1;1;2.016;16.395;A;80.402;9.289;22.188;
040548FF7504B521;IDS-10A -- ?????-????? (????????) -- 1 -- None -- 80 -- 0 -- Solo Pro II MVP -- 172.26.2.150;113;Total;3/5/2012;17:15:00;100;15 Minutes;;;;;;1496;748;77.703;0;718;15;11;3;2.496;15.051;A;75.863;8.648;19.719;
040548FF7504B521;IDS-10A -- ?????-????? (????????) -- 1 -- None -- 80 -- 0 -- Solo Pro II MVP -- 172.26.2.150;109;Lane 1;3/5/2012;17:30:00;100;15 Minutes;;;;;;1036;259;76.844;0;240;6;6;7;3.473;10.746;A;75.602;6.785;13.703;
040548FF7504B521;IDS-10A -- ?????-????? (????????) -- 1 -- None -- 80 -- 0 -- Solo Pro II MVP -- 172.26.2.150;110;Lane 2;3/5/2012;17:30:00;100;15 Minutes;;;;;;1616;404;85.129;0;402;1;0;1;2.227;13.445;A;84.152;8.168;19.203;
040548FF7504B521;IDS-10A -- ?????-????? (????????) -- 1 -- None -- 80 -- 0 -- Solo Pro II MVP -- 172.26.2.150;113;Total;3/5/2012;17:30:00;100;15 Minutes;;;;;;1326;663;81.891;0;642;7;6;8;2.848;12.094;A;80.551;7.430;16.461;
040548FF7504B521;IDS-10A -- ?????-????? (????????) -- 1 -- None -- 80 -- 0 -- Solo Pro II MVP -- 172.26.2.150;109;Lane 1;3/5/2012;17:45:00;100;15 Minutes;;;;;;1152;288;75.504;0;276;5;3;4;3.125;10.715;A;74.246;7.070;15.516;
040548FF7504B521;IDS-10A -- ?????-????? (????????) -- 1 -- None -- 80 -- 0 -- Solo Pro II MVP -- 172.26.2.150;110;Lane 2;3/5/2012;17:45:00;100;15 Minutes;;;;;;1680;420;84.016;0;417;2;0;1;2.141;13.609;A;82.898;8.719;20.266;
040548FF7504B521;IDS-10A -- ?????-????? (????????) -- 1 -- None -- 80 -- 0 -- Solo Pro II MVP -- 172.26.2.150;113;Total;3/5/2012;17:45:00;100;15 Minutes;;;;;;1416;708;80.555;0;693;7;3;5;2.633;12.160;A;79.109;7.859;17.898;
040548FF7504B521;IDS-10A -- ?????-????? (????????) -- 1 -- None -- 80 -- 0 -- Solo Pro II MVP -- 172.26.2.150;109;Lane 1;3/5/2012;18:00:00;100;15 Minutes;;;;;;960;240;78.266;0;223;6;9;2;3.750;9.098;A;76.480;5.992;12.551;
040548FF7504B521;IDS-10A -- ?????-????? (????????) -- 1 -- None -- 80 -- 0 -- Solo Pro II MVP -- 172.26.2.150;110;Lane 2;3/5/2012;18:00:00;100;15 Minutes;;;;;;1528;382;87.855;0;375;2;1;3;2.355;12.066;A;87.156;7.645;17.531;
040548FF7504B521;IDS-10A -- ?????-????? (????????) -- 1 -- None -- 80 -- 0 -- Solo Pro II MVP -- 172.26.2.150;113;Total;3/5/2012;18:00:00;100;15 Minutes;;;;;;1244;622;84.156;0;598;8;10;5;3.051;10.582;A;82.672;6.777;15.047;
040548FF7504B521;IDS-10A -- ?????-????? (????????) -- 1 -- None -- 80 -- 0 -- Solo Pro II MVP -- 172.26.2.150;109;Lane 1;3/5/2012;18:15:00;100;15 Minutes;;;;;;1140;285;75.891;0;270;6;3;5;3.156;10.473;A;74.598;6.988;15.281;
040548FF7504B521;IDS-10A -- ?????-????? (????????) -- 1 -- None -- 80 -- 0 -- Solo Pro II MVP -- 172.26.2.150;110;Lane 2;3/5/2012;18:15:00;100;15 Minutes;;;;;;1596;399;85.027;0;396;1;2;0;2.254;12.629;A;83.859;8.137;19.031;
040548FF7504B521;IDS-10A -- ?????-????? (????????) -- 1 -- None -- 80 -- 0 -- Solo Pro II MVP -- 172.26.2.150;113;Total;3/5/2012;18:15:00;100;15 Minutes;;;;;;1368;684;81.219;0;666;7;5;5;2.703;11.551;A;79.734;7.523;17.156;
040548FF7504B521;IDS-10A -- ?????-????? (????????) -- 1 -- None -- 80 -- 0 -- Solo Pro II MVP -- 172.26.2.150;109;Lane 1;3/5/2012;18:30:00;100;15 Minutes;;;;;;924;231;78.863;0;219;5;4;3;3.895;8.680;A;77.477;5.488;11.926;
040548FF7504B521;IDS-10A -- ?????-????? (????????) -- 1 -- None -- 80 -- 0 -- Solo Pro II MVP -- 172.26.2.150;110;Lane 2;3/5/2012;18:30:00;100;15 Minutes;;;;;;1460;365;90.410;0;363;0;1;1;2.465;10.945;A;89.672;7.098;16.281;
040548FF7504B521;IDS-10A -- ?????-????? (????????) -- 1 -- None -- 80 -- 0 -- Solo Pro II MVP -- 172.26.2.150;113;Total;3/5/2012;18:30:00;100;15 Minutes;;;;;;1192;596;85.938;0;582;5;5;4;3.180;9.813;A;84.527;6.254;14.102;
040548FF7504B521;IDS-10A -- ?????-????? (????????) -- 1 -- None -- 80 -- 0 -- Solo Pro II MVP -- 172.26.2.150;109;Lane 1;3/5/2012;18:45:00;100;15 Minutes;;;;;;864;216;75.813;0;206;3;5;2;4.164;8.254;A;73.715;5.254;11.719;
040548FF7504B521;IDS-10A -- ?????-????? (????????) -- 1 -- None -- 80 -- 0 -- Solo Pro II MVP -- 172.26.2.150;110;Lane 2;3/5/2012;18:45:00;100;15 Minutes;;;;;;1384;346;87.391;0;338;2;3;3;2.598;10.883;A;86.328;6.867;16.031;
040548FF7504B521;IDS-10A -- ?????-????? (????????) -- 1 -- None -- 80 -- 0 -- Solo Pro II MVP -- 172.26.2.150;113;Total;3/5/2012;18:45:00;100;15 Minutes;;;;;;1124;562;82.941;0;544;5;8;5;3.379;9.566;A;81.008;6.020;13.875;
040548FF7504B521;IDS-10A -- ?????-????? (????????) -- 1 -- None -- 80 -- 0 -- Solo Pro II MVP -- 172.26.2.150;109;Lane 1;3/5/2012;19:00:00;100;15 Minutes;;;;;;936;234;75.434;0;213;18;1;2;3.844;10.867;A;73.230;5.516;12.781;
040548FF7504B521;IDS-10A -- ?????-????? (????????) -- 1 -- None -- 80 -- 0 -- Solo Pro II MVP -- 172.26.2.150;110;Lane 2;3/5/2012;19:00:00;100;15 Minutes;;;;;;1496;374;88.820;0;364;6;1;3;2.406;14.531;A;87.836;7.109;17.031;
040548FF7504B521;IDS-10A -- ?????-????? (????????) -- 1 -- None -- 80 -- 0 -- Solo Pro II MVP -- 172.26.2.150;113;Total;3/5/2012;19:00:00;100;15 Minutes;;;;;;1216;608;83.668;0;577;24;2;5;3.125;12.699;A;81.574;6.262;14.906;
040548FF7504B521;IDS-10A -- ?????-????? (????????) -- 1 -- None -- 80 -- 0 -- Solo Pro II MVP -- 172.26.2.150;109;Lane 1;3/5/2012;19:15:00;100;15 Minutes;;;;;;956;239;73.426;0;216;13;8;1;3.766;11.727;A;71.719;6.023;13.328;
040548FF7504B521;IDS-10A -- ?????-????? (????????) -- 1 -- None -- 80 -- 0 -- Solo Pro II MVP -- 172.26.2.150;110;Lane 2;3/5/2012;19:15:00;100;15 Minutes;;;;;;1432;358;86.246;0;349;8;0;1;2.512;14.043;A;85.332;7.047;16.781;
040548FF7504B521;IDS-10A -- ?????-????? (????????) -- 1 -- None -- 80 -- 0 -- Solo Pro II MVP -- 172.26.2.150;113;Total;3/5/2012;19:15:00;100;15 Minutes;;;;;;1194;597;81.113;0;565;21;8;2;3.137;12.883;A;79.309;6.473;15.055;
040548FF7504B521;IDS-10A -- ?????-????? (????????) -- 1 -- None -- 80 -- 0 -- Solo Pro II MVP -- 172.26.2.150;109;Lane 1;3/5/2012;19:30:00;100;15 Minutes;;;;;;972;243;74.320;0;227;5;6;5;3.703;11.711;A;72.465;6.137;13.410;
040548FF7504B521;IDS-10A -- ?????-????? (????????) -- 1 -- None -- 80 -- 0 -- Solo Pro II MVP -- 172.26.2.150;110;Lane 2;3/5/2012;19:30:00;100;15 Minutes;;;;;;1340;335;86.199;0;323;5;4;3;2.684;13.406;A;85.246;6.922;15.719;
040548FF7504B521;IDS-10A -- ?????-????? (????????) -- 1 -- None -- 80 -- 0 -- Solo Pro II MVP -- 172.26.2.150;113;Total;3/5/2012;19:30:00;100;15 Minutes;;;;;;1156;578;81.203;0;550;10;10;8;3.191;12.559;A;79.336;6.480;14.570;
040548FF7504B521;IDS-10A -- ?????-????? (????????) -- 1 -- None -- 80 -- 0 -- Solo Pro II MVP -- 172.26.2.150;109;Lane 1;3/5/2012;19:45:00;100;15 Minutes;;;;;;888;222;73.488;0;201;11;5;4;4.051;11.137;A;71.375;5.758;12.438;
040548FF7504B521;IDS-10A -- ?????-????? (????????) -- 1 -- None -- 80 -- 0 -- Solo Pro II MVP -- 172.26.2.150;110;Lane 2;3/5/2012;19:45:00;100;15 Minutes;;;;;;1276;319;88.645;0;307;10;2;0;2.820;12.320;A;87.715;6.188;14.547;
040548FF7504B521;IDS-10A -- ?????-????? (????????) -- 1 -- None -- 80 -- 0 -- Solo Pro II MVP -- 172.26.2.150;113;Total;3/5/2012;19:45:00;100;15 Minutes;;;;;;1082;541;82.426;0;508;21;7;4;3.434;11.727;A;80.191;5.895;13.492;
040548FF7504B521;IDS-10A -- ?????-????? (????????) -- 1 -- None -- 80 -- 0 -- Solo Pro II MVP -- 172.26.2.150;109;Lane 1;3/5/2012;20:00:00;100;15 Minutes;;;;;;880;220;70.348;0;193;16;4;6;4.090;11.641;A;68.133;6.121;12.914;
040548FF7504B521;IDS-10A -- ?????-????? (????????) -- 1 -- None -- 80 -- 0 -- Solo Pro II MVP -- 172.26.2.150;110;Lane 2;3/5/2012;20:00:00;100;15 Minutes;;;;;;1404;351;84.234;0;341;6;3;1;2.563;13.629;A;83.199;7.168;16.875;
040548FF7504B521;IDS-10A -- ?????-????? (????????) -- 1 -- None -- 80 -- 0 -- Solo Pro II MVP -- 172.26.2.150;113;Total;3/5/2012;20:00:00;100;15 Minutes;;;;;;1142;571;78.883;0;534;22;7;7;3.324;12.633;A;76.648;6.555;14.898;
040548FF7504B521;IDS-10A -- ?????-????? (????????) -- 1 -- None -- 80 -- 0 -- Solo Pro II MVP -- 172.26.2.150;109;Lane 1;3/5/2012;20:15:00;100;15 Minutes;;;;;;804;201;73.129;0;180;11;9;1;4.477;9.883;A;71.328;5.184;11.270;
040548FF7504B521;IDS-10A -- ?????-????? (????????) -- 1 -- None -- 80 -- 0 -- Solo Pro II MVP -- 172.26.2.150;110;Lane 2;3/5/2012;20:15:00;100;15 Minutes;;;;;;1144;286;87.371;0;281;3;0;2;3.145;11.609;A;85.934;5.766;13.313;
040548FF7504B521;IDS-10A -- ?????-????? (????????) -- 1 -- None -- 80 -- 0 -- Solo Pro II MVP -- 172.26.2.150;113;Total;3/5/2012;20:15:00;100;15 Minutes;;;;;;974;487;81.492;0;461;14;9;3;3.809;10.746;A;79.254;5.414;12.289;
040548FF7504B521;IDS-10A -- ?????-????? (????????) -- 1 -- None -- 80 -- 0 -- Solo Pro II MVP -- 172.26.2.150;109;Lane 1;3/5/2012;20:30:00;100;15 Minutes;;;;;;920;230;74.820;0;209;12;5;4;3.910;11.324;A;72.961;5.902;12.609;
040548FF7504B521;IDS-10A -- ?????-????? (????????) -- 1 -- None -- 80 -- 0 -- Solo Pro II MVP -- 172.26.2.150;110;Lane 2;3/5/2012;20:30:00;100;15 Minutes;;;;;;1040;260;90.664;0;252;7;1;0;3.461;10.004;A;89.824;4.980;11.578;
040548FF7504B521;IDS-10A -- ?????-????? (????????) -- 1 -- None -- 80 -- 0 -- Solo Pro II MVP -- 172.26.2.150;113;Total;3/5/2012;20:30:00;100;15 Minutes;;;;;;980;490;83.227;0;461;19;6;4;3.684;10.664;A;81.031;5.363;12.094;
040548FF7504B521;IDS-10A -- ?????-????? (????????) -- 1 -- None -- 80 -- 0 -- Solo Pro II MVP -- 172.26.2.150;109;Lane 1;3/5/2012;20:45:00;100;15 Minutes;;;;;;756;189;76.512;0;172;7;1;6;4.762;8.797;A;74.703;4.668;10.117;
040548FF7504B521;IDS-10A -- ?????-????? (????????) -- 1 -- None -- 80 -- 0 -- Solo Pro II MVP -- 172.26.2.150;110;Lane 2;3/5/2012;20:45:00;100;15 Minutes;;;;;;864;216;93.906;0;207;6;0;3;4.164;8.230;A;92.809;4.090;9.309;
040548FF7504B521;IDS-10A -- ?????-????? (????????) -- 1 -- None -- 80 -- 0 -- Solo Pro II MVP -- 172.26.2.150;113;Total;3/5/2012;20:45:00;100;15 Minutes;;;;;;810;405;85.789;0;379;13;1;9;4.461;8.512;A;83.410;4.320;9.711;
040548FF7504B521;IDS-10A -- ?????-????? (????????) -- 1 -- None -- 80 -- 0 -- Solo Pro II MVP -- 172.26.2.150;109;Lane 1;3/5/2012;21:00:00;100;15 Minutes;;;;;;700;175;78.027;0;156;14;1;3;5.141;7.695;A;76.629;4.281;9.133;
040548FF7504B521;IDS-10A -- ?????-????? (????????) -- 1 -- None -- 80 -- 0 -- Solo Pro II MVP -- 172.26.2.150;110;Lane 2;3/5/2012;21:00:00;100;15 Minutes;;;;;;788;197;94.516;0;190;3;3;1;4.566;7.023;A;93.664;3.617;8.410;
040548FF7504B521;IDS-10A -- ?????-????? (????????) -- 1 -- None -- 80 -- 0 -- Solo Pro II MVP -- 172.26.2.150;113;Total;3/5/2012;21:00:00;100;15 Minutes;;;;;;744;372;86.758;0;346;17;4;4;4.852;7.359;A;84.801;3.895;8.773;
040548FF7504B521;IDS-10A -- ?????-????? (????????) -- 1 -- None -- 80 -- 0 -- Solo Pro II MVP -- 172.26.2.150;109;Lane 1;3/5/2012;21:15:00;100;15 Minutes;;;;;;596;149;78.113;0;136;4;6;3;6.039;6.633;A;76.309;3.762;7.809;
040548FF7504B521;IDS-10A -- ?????-????? (????????) -- 1 -- None -- 80 -- 0 -- Solo Pro II MVP -- 172.26.2.150;110;Lane 2;3/5/2012;21:15:00;100;15 Minutes;;;;;;844;211;96.613;0;209;2;0;0;4.262;7.258;A;95.625;3.746;8.824;
040548FF7504B521;IDS-10A -- ?????-????? (????????) -- 1 -- None -- 80 -- 0 -- Solo Pro II MVP -- 172.26.2.150;113;Total;3/5/2012;21:15:00;100;15 Minutes;;;;;;720;360;88.957;0;345;6;6;3;5.148;6.945;A;86.613;3.688;8.313;
040548FF7504B521;IDS-10A -- ?????-????? (????????) -- 1 -- None -- 80 -- 0 -- Solo Pro II MVP -- 172.26.2.150;109;Lane 1;3/5/2012;21:30:00;100;15 Minutes;;;;;;708;177;80.547;0;158;12;3;4;5.082;8.520;A;78.543;4.273;9.012;
040548FF7504B521;IDS-10A -- ?????-????? (????????) -- 1 -- None -- 80 -- 0 -- Solo Pro II MVP -- 172.26.2.150;110;Lane 2;3/5/2012;21:30:00;100;15 Minutes;;;;;;724;181;97.273;0;176;2;1;2;4.969;6.723;A;96.301;3.434;7.516;
040548FF7504B521;IDS-10A -- ?????-????? (????????) -- 1 -- None -- 80 -- 0 -- Solo Pro II MVP -- 172.26.2.150;113;Total;3/5/2012;21:30:00;100;15 Minutes;;;;;;716;358;89.004;0;334;14;4;6;5.023;7.621;A;86.621;3.813;8.266;
040548FF7504B521;IDS-10A -- ?????-????? (????????) -- 1 -- None -- 80 -- 0 -- Solo Pro II MVP -- 172.26.2.150;109;Lane 1;3/5/2012;21:45:00;100;15 Minutes;;;;;;604;151;82.191;0;139;8;2;2;5.957;6.805;A;80.055;3.500;7.543;
040548FF7504B521;IDS-10A -- ?????-????? (????????) -- 1 -- None -- 80 -- 0 -- Solo Pro II MVP -- 172.26.2.150;110;Lane 2;3/5/2012;21:45:00;100;15 Minutes;;;;;;600;150;98.293;0;142;6;1;1;6.000;5.574;A;97.078;2.707;6.180;
040548FF7504B521;IDS-10A -- ?????-????? (????????) -- 1 -- None -- 80 -- 0 -- Solo Pro II MVP -- 172.26.2.150;113;Total;3/5/2012;21:45:00;100;15 Minutes;;;;;;602;301;90.215;0;281;14;3;3;5.977;6.188;A;87.762;3.070;6.859;
040548FF7504B521;IDS-10A -- ?????-????? (????????) -- 1 -- None -- 80 -- 0 -- Solo Pro II MVP -- 172.26.2.150;109;Lane 1;3/5/2012;22:00:00;100;15 Minutes;;;;;;608;152;83.215;0;141;4;4;3;5.918;6.383;A;80.859;3.469;7.516;
040548FF7504B521;IDS-10A -- ?????-????? (????????) -- 1 -- None -- 80 -- 0 -- Solo Pro II MVP -- 172.26.2.150;110;Lane 2;3/5/2012;22:00:00;100;15 Minutes;;;;;;524;131;99.922;0;129;2;0;0;6.867;4.805;A;98.664;2.293;5.309;
040548FF7504B521;IDS-10A -- ?????-????? (????????) -- 1 -- None -- 80 -- 0 -- Solo Pro II MVP -- 172.26.2.150;113;Total;3/5/2012;22:00:00;100;15 Minutes;;;;;;566;283;90.949;0;270;6;4;3;6.391;5.594;A;88.242;2.848;6.414;
040548FF7504B521;IDS-10A -- ?????-????? (????????) -- 1 -- None -- 80 -- 0 -- Solo Pro II MVP -- 172.26.2.150;109;Lane 1;3/5/2012;22:15:00;100;15 Minutes;;;;;;512;128;81.039;0;114;9;1;4;7.031;6.039;A;78.008;3.199;6.563;
040548FF7504B521;IDS-10A -- ?????-????? (????????) -- 1 -- None -- 80 -- 0 -- Solo Pro II MVP -- 172.26.2.150;110;Lane 2;3/5/2012;22:15:00;100;15 Minutes;;;;;;508;127;100.543;0;121;1;4;0;7.086;4.488;A;99.055;2.172;5.125;
040548FF7504B521;IDS-10A -- ?????-????? (????????) -- 1 -- None -- 80 -- 0 -- Solo Pro II MVP -- 172.26.2.150;113;Total;3/5/2012;22:15:00;100;15 Minutes;;;;;;510;255;90.750;0;235;10;5;4;7.059;5.262;A;87.242;2.633;5.844;
040548FF7504B521;IDS-10A -- ?????-????? (????????) -- 1 -- None -- 80 -- 0 -- Solo Pro II MVP -- 172.26.2.150;109;Lane 1;3/5/2012;22:30:00;100;15 Minutes;;;;;;500;125;83.344;0;116;6;1;2;7.199;5.457;A;81.457;2.789;6.137;
040548FF7504B521;IDS-10A -- ?????-????? (????????) -- 1 -- None -- 80 -- 0 -- Solo Pro II MVP -- 172.26.2.150;110;Lane 2;3/5/2012;22:30:00;100;15 Minutes;;;;;;568;142;99.570;0;140;2;0;0;6.336;4.977;A;98.078;2.418;5.789;
040548FF7504B521;IDS-10A -- ?????-????? (????????) -- 1 -- None -- 80 -- 0 -- Solo Pro II MVP -- 172.26.2.150;113;Total;3/5/2012;22:30:00;100;15 Minutes;;;;;;534;267;91.973;0;256;8;1;2;6.766;5.215;A;89.582;2.574;5.961;
040548FF7504B521;IDS-10A -- ?????-????? (????????) -- 1 -- None -- 80 -- 0 -- Solo Pro II MVP -- 172.26.2.150;109;Lane 1;3/5/2012;22:45:00;100;15 Minutes;;;;;;504;126;82.402;0;113;6;4;2;7.141;5.844;A;80.547;2.918;6.254;
040548FF7504B521;IDS-10A -- ?????-????? (????????) -- 1 -- None -- 80 -- 0 -- Solo Pro II MVP -- 172.26.2.150;110;Lane 2;3/5/2012;22:45:00;100;15 Minutes;;;;;;432;108;104.926;0;104;0;2;2;8.332;3.941;A;103.566;1.953;4.168;
040548FF7504B521;IDS-10A -- ?????-????? (????????) -- 1 -- None -- 80 -- 0 -- Solo Pro II MVP -- 172.26.2.150;113;Total;3/5/2012;22:45:00;100;15 Minutes;;;;;;468;234;92.797;0;217;6;6;4;7.734;4.891;A;89.754;2.402;5.211;
040548FF7504B521;IDS-10A -- ?????-????? (????????) -- 1 -- None -- 80 -- 0 -- Solo Pro II MVP -- 172.26.2.150;109;Lane 1;3/5/2012;23:00:00;100;15 Minutes;;;;;;392;98;83.918;0;86;11;1;0;9.184;4.137;A;81.367;2.145;4.816;
040548FF7504B521;IDS-10A -- ?????-????? (????????) -- 1 -- None -- 80 -- 0 -- Solo Pro II MVP -- 172.26.2.150;110;Lane 2;3/5/2012;23:00:00;100;15 Minutes;;;;;;348;87;103.563;0;80;5;0;1;10.344;3.113;A;101.711;1.484;3.418;
040548FF7504B521;IDS-10A -- ?????-????? (????????) -- 1 -- None -- 80 -- 0 -- Solo Pro II MVP -- 172.26.2.150;113;Total;3/5/2012;23:00:00;100;15 Minutes;;;;;;370;185;93.156;0;166;16;1;1;9.762;3.625;A;89.816;1.789;4.117;
040548FF7504B521;IDS-10A -- ?????-????? (????????) -- 1 -- None -- 80 -- 0 -- Solo Pro II MVP -- 172.26.2.150;109;Lane 1;3/5/2012;23:15:00;100;15 Minutes;;;;;;392;98;82.344;0;89;7;1;1;9.184;4.246;A;80.398;2.195;4.875;
040548FF7504B521;IDS-10A -- ?????-????? (????????) -- 1 -- None -- 80 -- 0 -- Solo Pro II MVP -- 172.26.2.150;110;Lane 2;3/5/2012;23:15:00;100;15 Minutes;;;;;;336;84;107.500;0;82;1;0;1;10.711;3.070;A;105.000;1.434;3.199;
040548FF7504B521;IDS-10A -- ?????-????? (????????) -- 1 -- None -- 80 -- 0 -- Solo Pro II MVP -- 172.26.2.150;113;Total;3/5/2012;23:15:00;100;15 Minutes;;;;;;364;182;93.953;0;171;8;1;2;9.945;3.656;A;90.148;1.781;4.035;
040548FF7504B521;IDS-10A -- ?????-????? (????????) -- 1 -- None -- 80 -- 0 -- Solo Pro II MVP -- 172.26.2.150;109;Lane 1;3/5/2012;23:30:00;100;15 Minutes;;;;;;344;86;85.578;0;74;5;5;2;10.465;3.816;A;82.641;2.090;4.160;
040548FF7504B521;IDS-10A -- ?????-????? (????????) -- 1 -- None -- 80 -- 0 -- Solo Pro II MVP -- 172.26.2.150;110;Lane 2;3/5/2012;23:30:00;100;15 Minutes;;;;;;244;61;105.570;0;59;0;2;0;14.754;2.066;A;104.000;1.039;2.344;
040548FF7504B521;IDS-10A -- ?????-????? (????????) -- 1 -- None -- 80 -- 0 -- Solo Pro II MVP -- 172.26.2.150;113;Total;3/5/2012;23:30:00;100;15 Minutes;;;;;;294;147;93.875;0;133;5;7;2;12.609;2.941;A;90.340;1.535;3.254;
040548FF7504B521;IDS-10A -- ?????-????? (????????) -- 1 -- None -- 80 -- 0 -- Solo Pro II MVP -- 172.26.2.150;109;Lane 1;3/5/2012;23:45:00;100;15 Minutes;;;;;;364;91;83.098;0;84;6;1;0;9.887;3.898;A;80.883;2.086;4.500;
040548FF7504B521;IDS-10A -- ?????-????? (????????) -- 1 -- None -- 80 -- 0 -- Solo Pro II MVP -- 172.26.2.150;110;Lane 2;3/5/2012;23:45:00;100;15 Minutes;;;;;;332;83;106.059;0;78;5;0;0;10.840;2.895;A;104.469;1.367;3.176;
040548FF7504B521;IDS-10A -- ?????-????? (????????) -- 1 -- None -- 80 -- 0 -- Solo Pro II MVP -- 172.26.2.150;113;Total;3/5/2012;23:45:00;100;15 Minutes;;;;;;348;174;94.051;0;162;11;1;0;10.363;3.395;A;90.645;1.695;3.836;
040548FF7504B521;IDS-10A -- ?????-????? (????????) -- 1 -- None -- 80 -- 0 -- Solo Pro II MVP -- 172.26.2.150;109;Lane 1;4/5/2012;0:00:00;100;15 Minutes;;;;;;260;65;79.352;0;55;6;3;1;13.844;3.266;A;77.094;1.637;3.371;
040548FF7504B521;IDS-10A -- ?????-????? (????????) -- 1 -- None -- 80 -- 0 -- Solo Pro II MVP -- 172.26.2.150;110;Lane 2;4/5/2012;0:00:00;100;15 Minutes;;;;;;232;58;103.551;0;58;0;0;0;15.516;2.230;A;102.023;0.930;2.273;
040548FF7504B521;IDS-10A -- ?????-????? (????????) -- 1 -- None -- 80 -- 0 -- Solo Pro II MVP -- 172.26.2.150;113;Total;4/5/2012;0:00:00;100;15 Minutes;;;;;;246;123;90.762;0;113;6;3;1;14.680;2.746;A;87.133;1.246;2.820;
