CPU Identifier;Autoscope Description;Detector ID;Detector Title;Date;Time;Status;Data Interval;Ticks (millisec.);State;Speed;Length;Class;Average Flow Rate;Volume;Arithmetic Mean Speed;Class A Count;Class B Count;Class C Count;Class D Count;Class E Count;Average Time Headway;Average Time Occupancy;Level Of Service;Space Mean Speed;Space Occupancy;Density;
040548FF6CFDB421;IDS-06A -- ??????-????? -- 1 -- None -- 79 -- 0 -- Solo Pro II MVP -- 172.26.2.146;109;Lane 1;3/5/2012;0:00:00;100;15 Minutes;;;;;;336;84;90.938;0;77;3;3;1;10.711;3.426;A;88.641;1.750;3.789;
040548FF6CFDB421;IDS-06A -- ??????-????? -- 1 -- None -- 79 -- 0 -- Solo Pro II MVP -- 172.26.2.146;110;Lane 2;3/5/2012;0:00:00;100;15 Minutes;;;;;;204;51;112.508;0;46;4;0;1;17.645;1.895;A;109.699;0.891;1.859;
040548FF6CFDB421;IDS-06A -- ??????-????? -- 1 -- None -- 79 -- 0 -- Solo Pro II MVP -- 172.26.2.146;113;Total;3/5/2012;0:00:00;100;15 Minutes;;;;;;270;135;99.086;0;123;7;3;2;14.176;2.660;A;95.570;1.309;2.824;
040548FF6CFDB421;IDS-06A -- ??????-????? -- 1 -- None -- 79 -- 0 -- Solo Pro II MVP -- 172.26.2.146;109;Lane 1;3/5/2012;0:15:00;100;15 Minutes;;;;;;328;82;89.789;0;80;1;0;1;10.973;3.445;A;87.699;1.742;3.738;
040548FF6CFDB421;IDS-06A -- ??????-????? -- 1 -- None -- 79 -- 0 -- Solo Pro II MVP -- 172.26.2.146;110;Lane 2;3/5/2012;0:15:00;100;15 Minutes;;;;;;192;48;106.938;0;47;1;0;0;18.750;1.848;A;105.125;0.801;1.824;
040548FF6CFDB421;IDS-06A -- ??????-????? -- 1 -- None -- 79 -- 0 -- Solo Pro II MVP -- 172.26.2.146;113;Total;3/5/2012;0:15:00;100;15 Minutes;;;;;;260;130;96.121;0;127;2;0;1;14.859;2.645;A;93.418;1.258;2.781;
040548FF6CFDB421;IDS-06A -- ??????-????? -- 1 -- None -- 79 -- 0 -- Solo Pro II MVP -- 172.26.2.146;109;Lane 1;3/5/2012;0:30:00;100;15 Minutes;;;;;;264;66;86.801;0;65;1;0;0;13.633;2.980;A;84.309;1.395;3.129;
040548FF6CFDB421;IDS-06A -- ??????-????? -- 1 -- None -- 79 -- 0 -- Solo Pro II MVP -- 172.26.2.146;110;Lane 2;3/5/2012;0:30:00;100;15 Minutes;;;;;;180;45;105.930;0;40;3;1;1;20.000;1.723;A;104.629;0.828;1.719;
040548FF6CFDB421;IDS-06A -- ??????-????? -- 1 -- None -- 79 -- 0 -- Solo Pro II MVP -- 172.26.2.146;113;Total;3/5/2012;0:30:00;100;15 Minutes;;;;;;222;111;94.555;0;105;4;1;1;16.816;2.352;A;91.512;1.105;2.426;
040548FF6CFDB421;IDS-06A -- ??????-????? -- 1 -- None -- 79 -- 0 -- Solo Pro II MVP -- 172.26.2.146;109;Lane 1;3/5/2012;0:45:00;100;15 Minutes;;;;;;224;56;91.586;0;52;1;2;1;16.070;2.277;A;89.324;1.238;2.504;
040548FF6CFDB421;IDS-06A -- ??????-????? -- 1 -- None -- 79 -- 0 -- Solo Pro II MVP -- 172.26.2.146;110;Lane 2;3/5/2012;0:45:00;100;15 Minutes;;;;;;124;31;107.418;0;28;2;1;0;29.031;1.184;A;105.230;0.516;1.176;
040548FF6CFDB421;IDS-06A -- ??????-????? -- 1 -- None -- 79 -- 0 -- Solo Pro II MVP -- 172.26.2.146;113;Total;3/5/2012;0:45:00;100;15 Minutes;;;;;;174;87;97.227;0;80;3;3;1;22.551;1.730;A;94.410;0.867;1.840;
040548FF6CFDB421;IDS-06A -- ??????-????? -- 1 -- None -- 79 -- 0 -- Solo Pro II MVP -- 172.26.2.146;109;Lane 1;3/5/2012;1:00:00;100;15 Minutes;;;;;;228;57;88.277;0;56;0;1;0;15.789;2.441;A;85.215;1.172;2.672;
040548FF6CFDB421;IDS-06A -- ??????-????? -- 1 -- None -- 79 -- 0 -- Solo Pro II MVP -- 172.26.2.146;110;Lane 2;3/5/2012;1:00:00;100;15 Minutes;;;;;;132;33;109.422;0;33;0;0;0;27.270;1.211;A;107.230;0.492;1.230;
040548FF6CFDB421;IDS-06A -- ??????-????? -- 1 -- None -- 79 -- 0 -- Solo Pro II MVP -- 172.26.2.146;113;Total;3/5/2012;1:00:00;100;15 Minutes;;;;;;180;90;96.031;0;89;0;1;0;21.527;1.824;A;92.152;0.820;1.953;
040548FF6CFDB421;IDS-06A -- ??????-????? -- 1 -- None -- 79 -- 0 -- Solo Pro II MVP -- 172.26.2.146;109;Lane 1;3/5/2012;1:15:00;100;15 Minutes;;;;;;228;57;93.789;0;48;6;3;0;15.789;2.598;A;91.582;1.227;2.488;
040548FF6CFDB421;IDS-06A -- ??????-????? -- 1 -- None -- 79 -- 0 -- Solo Pro II MVP -- 172.26.2.146;110;Lane 2;3/5/2012;1:15:00;100;15 Minutes;;;;;;72;18;108.441;0;17;1;0;0;50.000;0.633;A;105.824;0.297;0.680;
040548FF6CFDB421;IDS-06A -- ??????-????? -- 1 -- None -- 79 -- 0 -- Solo Pro II MVP -- 172.26.2.146;113;Total;3/5/2012;1:15:00;100;15 Minutes;;;;;;150;75;97.305;0;65;7;3;0;32.895;1.613;A;94.637;0.754;1.582;
040548FF6CFDB421;IDS-06A -- ??????-????? -- 1 -- None -- 79 -- 0 -- Solo Pro II MVP -- 172.26.2.146;109;Lane 1;3/5/2012;1:30:00;100;15 Minutes;;;;;;200;50;86.719;0;48;2;0;0;18.000;2.148;A;83.938;1.016;2.379;
040548FF6CFDB421;IDS-06A -- ??????-????? -- 1 -- None -- 79 -- 0 -- Solo Pro II MVP -- 172.26.2.146;110;Lane 2;3/5/2012;1:30:00;100;15 Minutes;;;;;;104;26;111.500;0;25;1;0;0;34.613;1.008;A;108.660;0.402;0.957;
040548FF6CFDB421;IDS-06A -- ??????-????? -- 1 -- None -- 79 -- 0 -- Solo Pro II MVP -- 172.26.2.146;113;Total;3/5/2012;1:30:00;100;15 Minutes;;;;;;152;76;95.195;0;73;3;0;0;26.305;1.578;A;91.023;0.699;1.668;
040548FF6CFDB421;IDS-06A -- ??????-????? -- 1 -- None -- 79 -- 0 -- Solo Pro II MVP -- 172.26.2.146;109;Lane 1;3/5/2012;1:45:00;100;15 Minutes;;;;;;176;44;89.363;0;41;2;0;1;20.453;1.793;A;87.508;0.871;2.008;
040548FF6CFDB421;IDS-06A -- ??????-????? -- 1 -- None -- 79 -- 0 -- Solo Pro II MVP -- 172.26.2.146;110;Lane 2;3/5/2012;1:45:00;100;15 Minutes;;;;;;60;15;101.598;0;14;1;0;0;60.000;0.598;A;98.078;0.266;0.609;
040548FF6CFDB421;IDS-06A -- ??????-????? -- 1 -- None -- 79 -- 0 -- Solo Pro II MVP -- 172.26.2.146;113;Total;3/5/2012;1:45:00;100;15 Minutes;;;;;;118;59;92.473;0;55;3;0;1;40.227;1.195;A;89.973;0.566;1.309;
040548FF6CFDB421;IDS-06A -- ??????-????? -- 1 -- None -- 79 -- 0 -- Solo Pro II MVP -- 172.26.2.146;109;Lane 1;3/5/2012;2:00:00;100;15 Minutes;;;;;;184;46;89.824;0;44;1;1;0;19.563;2.094;A;86.574;0.938;2.125;
040548FF6CFDB421;IDS-06A -- ??????-????? -- 1 -- None -- 79 -- 0 -- Solo Pro II MVP -- 172.26.2.146;110;Lane 2;3/5/2012;2:00:00;100;15 Minutes;;;;;;64;16;118.250;0;14;0;2;0;56.250;0.652;A;117.055;0.281;0.543;
040548FF6CFDB421;IDS-06A -- ??????-????? -- 1 -- None -- 79 -- 0 -- Solo Pro II MVP -- 172.26.2.146;113;Total;3/5/2012;2:00:00;100;15 Minutes;;;;;;124;62;97.160;0;58;1;3;0;37.906;1.371;A;92.809;0.605;1.336;
040548FF6CFDB421;IDS-06A -- ??????-????? -- 1 -- None -- 79 -- 0 -- Solo Pro II MVP -- 172.26.2.146;109;Lane 1;3/5/2012;2:15:00;100;15 Minutes;;;;;;176;44;87.477;0;38;5;0;1;20.453;1.941;A;85.285;0.980;2.063;
040548FF6CFDB421;IDS-06A -- ??????-????? -- 1 -- None -- 79 -- 0 -- Solo Pro II MVP -- 172.26.2.146;110;Lane 2;3/5/2012;2:15:00;100;15 Minutes;;;;;;76;19;112.313;0;18;1;0;0;47.367;0.602;A;110.316;0.309;0.688;
040548FF6CFDB421;IDS-06A -- ??????-????? -- 1 -- None -- 79 -- 0 -- Solo Pro II MVP -- 172.26.2.146;113;Total;3/5/2012;2:15:00;100;15 Minutes;;;;;;126;63;94.965;0;56;6;0;1;33.910;1.270;A;91.551;0.633;1.375;
040548FF6CFDB421;IDS-06A -- ??????-????? -- 1 -- None -- 79 -- 0 -- Solo Pro II MVP -- 172.26.2.146;109;Lane 1;3/5/2012;2:30:00;100;15 Minutes;;;;;;152;38;90.523;0;35;1;1;1;23.684;1.656;A;87.785;0.805;1.730;
040548FF6CFDB421;IDS-06A -- ??????-????? -- 1 -- None -- 79 -- 0 -- Solo Pro II MVP -- 172.26.2.146;110;Lane 2;3/5/2012;2:30:00;100;15 Minutes;;;;;;48;12;100.164;0;10;2;0;0;75.000;0.414;A;98.031;0.211;0.488;
040548FF6CFDB421;IDS-06A -- ??????-????? -- 1 -- None -- 79 -- 0 -- Solo Pro II MVP -- 172.26.2.146;113;Total;3/5/2012;2:30:00;100;15 Minutes;;;;;;100;50;92.840;0;45;3;1;1;49.340;1.035;A;90.043;0.508;1.109;
040548FF6CFDB421;IDS-06A -- ??????-????? -- 1 -- None -- 79 -- 0 -- Solo Pro II MVP -- 172.26.2.146;109;Lane 1;3/5/2012;2:45:00;100;15 Minutes;;;;;;164;41;86.559;0;38;3;0;0;21.949;1.660;A;84.031;0.844;1.949;
040548FF6CFDB421;IDS-06A -- ??????-????? -- 1 -- None -- 79 -- 0 -- Solo Pro II MVP -- 172.26.2.146;110;Lane 2;3/5/2012;2:45:00;100;15 Minutes;;;;;;48;12;102.414;0;12;0;0;0;75.000;0.445;A;99.762;0.203;0.480;
040548FF6CFDB421;IDS-06A -- ??????-????? -- 1 -- None -- 79 -- 0 -- Solo Pro II MVP -- 172.26.2.146;113;Total;3/5/2012;2:45:00;100;15 Minutes;;;;;;106;53;90.148;0;50;3;0;0;48.473;1.051;A;87.145;0.520;1.215;
040548FF6CFDB421;IDS-06A -- ??????-????? -- 1 -- None -- 79 -- 0 -- Solo Pro II MVP -- 172.26.2.146;109;Lane 1;3/5/2012;3:00:00;100;15 Minutes;;;;;;152;38;88.313;0;37;0;1;0;23.684;1.469;A;86.828;0.754;1.750;
040548FF6CFDB421;IDS-06A -- ??????-????? -- 1 -- None -- 79 -- 0 -- Solo Pro II MVP -- 172.26.2.146;110;Lane 2;3/5/2012;3:00:00;100;15 Minutes;;;;;;60;15;108.465;0;14;1;0;0;60.000;0.516;A;104.301;0.246;0.574;
040548FF6CFDB421;IDS-06A -- ??????-????? -- 1 -- None -- 79 -- 0 -- Solo Pro II MVP -- 172.26.2.146;113;Total;3/5/2012;3:00:00;100;15 Minutes;;;;;;106;53;94.016;0;51;1;1;0;41.840;0.992;A;91.148;0.496;1.160;
040548FF6CFDB421;IDS-06A -- ??????-????? -- 1 -- None -- 79 -- 0 -- Solo Pro II MVP -- 172.26.2.146;109;Lane 1;3/5/2012;3:15:00;100;15 Minutes;;;;;;176;44;87.906;0;40;1;2;1;20.453;1.945;A;86.012;0.988;2.043;
040548FF6CFDB421;IDS-06A -- ??????-????? -- 1 -- None -- 79 -- 0 -- Solo Pro II MVP -- 172.26.2.146;110;Lane 2;3/5/2012;3:15:00;100;15 Minutes;;;;;;60;15;110.465;0;15;0;0;0;60.000;0.551;A;108.852;0.250;0.551;
040548FF6CFDB421;IDS-06A -- ??????-????? -- 1 -- None -- 79 -- 0 -- Solo Pro II MVP -- 172.26.2.146;113;Total;3/5/2012;3:15:00;100;15 Minutes;;;;;;118;59;93.641;0;55;1;2;1;40.227;1.246;A;90.859;0.613;1.297;
040548FF6CFDB421;IDS-06A -- ??????-????? -- 1 -- None -- 79 -- 0 -- Solo Pro II MVP -- 172.26.2.146;109;Lane 1;3/5/2012;3:30:00;100;15 Minutes;;;;;;160;40;87.875;0;35;5;0;0;22.500;1.734;A;85.398;0.840;1.871;
040548FF6CFDB421;IDS-06A -- ??????-????? -- 1 -- None -- 79 -- 0 -- Solo Pro II MVP -- 172.26.2.146;110;Lane 2;3/5/2012;3:30:00;100;15 Minutes;;;;;;92;23;108.648;0;21;2;0;0;39.129;0.758;A;106.910;0.355;0.859;
040548FF6CFDB421;IDS-06A -- ??????-????? -- 1 -- None -- 79 -- 0 -- Solo Pro II MVP -- 172.26.2.146;113;Total;3/5/2012;3:30:00;100;15 Minutes;;;;;;126;63;95.457;0;56;7;0;0;30.813;1.246;A;92.168;0.586;1.363;
040548FF6CFDB421;IDS-06A -- ??????-????? -- 1 -- None -- 79 -- 0 -- Solo Pro II MVP -- 172.26.2.146;109;Lane 1;3/5/2012;3:45:00;100;15 Minutes;;;;;;164;41;91.219;0;41;0;0;0;21.949;1.723;A;88.242;0.805;1.855;
040548FF6CFDB421;IDS-06A -- ??????-????? -- 1 -- None -- 79 -- 0 -- Solo Pro II MVP -- 172.26.2.146;110;Lane 2;3/5/2012;3:45:00;100;15 Minutes;;;;;;80;20;103.500;0;19;1;0;0;45.000;0.801;A;100.422;0.344;0.793;
040548FF6CFDB421;IDS-06A -- ??????-????? -- 1 -- None -- 79 -- 0 -- Solo Pro II MVP -- 172.26.2.146;113;Total;3/5/2012;3:45:00;100;15 Minutes;;;;;;122;61;95.242;0;60;1;0;0;33.473;1.262;A;91.895;0.570;1.324;
040548FF6CFDB421;IDS-06A -- ??????-????? -- 1 -- None -- 79 -- 0 -- Solo Pro II MVP -- 172.26.2.146;109;Lane 1;3/5/2012;4:00:00;100;15 Minutes;;;;;;192;48;83.602;0;44;1;2;0;18.750;2.246;A;81.156;1.066;2.363;
040548FF6CFDB421;IDS-06A -- ??????-????? -- 1 -- None -- 79 -- 0 -- Solo Pro II MVP -- 172.26.2.146;110;Lane 2;3/5/2012;4:00:00;100;15 Minutes;;;;;;92;23;104.301;0;22;1;0;0;39.129;0.918;A;102.238;0.363;0.898;
040548FF6CFDB421;IDS-06A -- ??????-????? -- 1 -- None -- 79 -- 0 -- Solo Pro II MVP -- 172.26.2.146;113;Total;3/5/2012;4:00:00;100;15 Minutes;;;;;;142;71;90.309;0;66;2;2;0;28.938;1.582;A;86.965;0.703;1.633;
040548FF6CFDB421;IDS-06A -- ??????-????? -- 1 -- None -- 79 -- 0 -- Solo Pro II MVP -- 172.26.2.146;109;Lane 1;3/5/2012;4:15:00;100;15 Minutes;;;;;;208;52;85.250;0;46;1;3;2;17.305;2.488;A;82.254;1.266;2.527;
040548FF6CFDB421;IDS-06A -- ??????-????? -- 1 -- None -- 79 -- 0 -- Solo Pro II MVP -- 172.26.2.146;110;Lane 2;3/5/2012;4:15:00;100;15 Minutes;;;;;;120;30;94.465;0;29;1;0;0;30.000;1.180;A;92.008;0.539;1.301;
040548FF6CFDB421;IDS-06A -- ??????-????? -- 1 -- None -- 79 -- 0 -- Solo Pro II MVP -- 172.26.2.146;113;Total;3/5/2012;4:15:00;100;15 Minutes;;;;;;164;82;88.621;0;75;2;3;2;23.652;1.832;A;85.574;0.895;1.914;
040548FF6CFDB421;IDS-06A -- ??????-????? -- 1 -- None -- 79 -- 0 -- Solo Pro II MVP -- 172.26.2.146;109;Lane 1;3/5/2012;4:30:00;100;15 Minutes;;;;;;172;43;85.695;0;41;1;0;1;20.930;1.719;A;80.785;0.914;2.129;
040548FF6CFDB421;IDS-06A -- ??????-????? -- 1 -- None -- 79 -- 0 -- Solo Pro II MVP -- 172.26.2.146;110;Lane 2;3/5/2012;4:30:00;100;15 Minutes;;;;;;116;29;100.723;0;27;0;2;0;31.031;1.004;A;97.781;0.496;1.184;
040548FF6CFDB421;IDS-06A -- ??????-????? -- 1 -- None -- 79 -- 0 -- Solo Pro II MVP -- 172.26.2.146;113;Total;3/5/2012;4:30:00;100;15 Minutes;;;;;;144;72;91.750;0;68;1;2;1;25.980;1.359;A;86.867;0.699;1.656;
040548FF6CFDB421;IDS-06A -- ??????-????? -- 1 -- None -- 79 -- 0 -- Solo Pro II MVP -- 172.26.2.146;109;Lane 1;3/5/2012;4:45:00;100;15 Minutes;;;;;;268;67;88.297;0;63;2;1;1;13.430;2.984;A;84.969;1.395;3.152;
040548FF6CFDB421;IDS-06A -- ??????-????? -- 1 -- None -- 79 -- 0 -- Solo Pro II MVP -- 172.26.2.146;110;Lane 2;3/5/2012;4:45:00;100;15 Minutes;;;;;;136;34;107.645;0;32;2;0;0;26.469;1.184;A;105.320;0.574;1.289;
040548FF6CFDB421;IDS-06A -- ??????-????? -- 1 -- None -- 79 -- 0 -- Solo Pro II MVP -- 172.26.2.146;113;Total;3/5/2012;4:45:00;100;15 Minutes;;;;;;202;101;94.809;0;95;4;1;1;19.949;2.082;A;90.879;0.977;2.223;
040548FF6CFDB421;IDS-06A -- ??????-????? -- 1 -- None -- 79 -- 0 -- Solo Pro II MVP -- 172.26.2.146;109;Lane 1;3/5/2012;5:00:00;100;15 Minutes;;;;;;256;64;84.047;0;53;5;4;2;14.063;3.020;A;81.973;1.699;3.121;
040548FF6CFDB421;IDS-06A -- ??????-????? -- 1 -- None -- 79 -- 0 -- Solo Pro II MVP -- 172.26.2.146;110;Lane 2;3/5/2012;5:00:00;100;15 Minutes;;;;;;208;52;106.172;0;48;2;2;0;17.305;1.852;A;104.938;0.879;1.980;
040548FF6CFDB421;IDS-06A -- ??????-????? -- 1 -- None -- 79 -- 0 -- Solo Pro II MVP -- 172.26.2.146;113;Total;3/5/2012;5:00:00;100;15 Minutes;;;;;;232;116;93.965;0;101;7;6;2;15.684;2.434;A;90.887;1.258;2.551;
040548FF6CFDB421;IDS-06A -- ??????-????? -- 1 -- None -- 79 -- 0 -- Solo Pro II MVP -- 172.26.2.146;109;Lane 1;3/5/2012;5:15:00;100;15 Minutes;;;;;;372;93;84.430;0;89;2;2;0;9.676;3.934;A;81.840;2.016;4.543;
040548FF6CFDB421;IDS-06A -- ??????-????? -- 1 -- None -- 79 -- 0 -- Solo Pro II MVP -- 172.26.2.146;110;Lane 2;3/5/2012;5:15:00;100;15 Minutes;;;;;;260;65;105.305;0;58;6;1;0;13.844;2.266;A;103.203;1.129;2.516;
040548FF6CFDB421;IDS-06A -- ??????-????? -- 1 -- None -- 79 -- 0 -- Solo Pro II MVP -- 172.26.2.146;113;Total;3/5/2012;5:15:00;100;15 Minutes;;;;;;316;158;93.016;0;147;8;3;0;11.758;3.098;A;89.457;1.555;3.531;
040548FF6CFDB421;IDS-06A -- ??????-????? -- 1 -- None -- 79 -- 0 -- Solo Pro II MVP -- 172.26.2.146;109;Lane 1;3/5/2012;5:30:00;100;15 Minutes;;;;;;308;77;83.336;0;72;2;3;0;11.688;3.391;A;81.641;1.719;3.770;
040548FF6CFDB421;IDS-06A -- ??????-????? -- 1 -- None -- 79 -- 0 -- Solo Pro II MVP -- 172.26.2.146;110;Lane 2;3/5/2012;5:30:00;100;15 Minutes;;;;;;200;50;108.500;0;47;3;0;0;18.000;1.734;A;106.387;0.801;1.879;
040548FF6CFDB421;IDS-06A -- ??????-????? -- 1 -- None -- 79 -- 0 -- Solo Pro II MVP -- 172.26.2.146;113;Total;3/5/2012;5:30:00;100;15 Minutes;;;;;;254;127;93.242;0;119;5;3;0;14.844;2.563;A;89.871;1.234;2.824;
040548FF6CFDB421;IDS-06A -- ??????-????? -- 1 -- None -- 79 -- 0 -- Solo Pro II MVP -- 172.26.2.146;109;Lane 1;3/5/2012;5:45:00;100;15 Minutes;;;;;;376;94;87.594;0;85;6;1;2;9.574;3.539;A;85.770;1.941;4.383;
040548FF6CFDB421;IDS-06A -- ??????-????? -- 1 -- None -- 79 -- 0 -- Solo Pro II MVP -- 172.26.2.146;110;Lane 2;3/5/2012;5:45:00;100;15 Minutes;;;;;;264;66;108.711;0;63;3;0;0;13.633;1.883;A;106.859;0.969;2.469;
040548FF6CFDB421;IDS-06A -- ??????-????? -- 1 -- None -- 79 -- 0 -- Solo Pro II MVP -- 172.26.2.146;113;Total;3/5/2012;5:45:00;100;15 Minutes;;;;;;320;160;96.305;0;148;9;1;2;11.602;2.711;A;93.371;1.430;3.426;
040548FF6CFDB421;IDS-06A -- ??????-????? -- 1 -- None -- 79 -- 0 -- Solo Pro II MVP -- 172.26.2.146;109;Lane 1;3/5/2012;6:00:00;100;15 Minutes;;;;;;452;113;91.051;0;107;0;2;2;7.961;3.871;A;89.313;2.418;5.059;
040548FF6CFDB421;IDS-06A -- ??????-????? -- 1 -- None -- 79 -- 0 -- Solo Pro II MVP -- 172.26.2.146;110;Lane 2;3/5/2012;6:00:00;100;15 Minutes;;;;;;340;85;107.668;0;84;1;0;0;10.586;2.211;A;106.461;1.391;3.191;
040548FF6CFDB421;IDS-06A -- ??????-????? -- 1 -- None -- 79 -- 0 -- Solo Pro II MVP -- 172.26.2.146;113;Total;3/5/2012;6:00:00;100;15 Minutes;;;;;;396;198;98.184;0;191;1;2;2;9.273;3.039;A;95.949;1.883;4.125;
040548FF6CFDB421;IDS-06A -- ??????-????? -- 1 -- None -- 79 -- 0 -- Solo Pro II MVP -- 172.26.2.146;109;Lane 1;3/5/2012;6:15:00;100;15 Minutes;;;;;;656;164;90.820;0;147;3;5;8;5.484;6.008;A;88.855;4.055;7.379;
040548FF6CFDB421;IDS-06A -- ??????-????? -- 1 -- None -- 79 -- 0 -- Solo Pro II MVP -- 172.26.2.146;110;Lane 2;3/5/2012;6:15:00;100;15 Minutes;;;;;;524;131;106.320;0;126;0;1;4;6.867;3.555;A;105.449;2.348;4.969;
040548FF6CFDB421;IDS-06A -- ??????-????? -- 1 -- None -- 79 -- 0 -- Solo Pro II MVP -- 172.26.2.146;113;Total;3/5/2012;6:15:00;100;15 Minutes;;;;;;590;295;97.703;0;273;3;6;12;6.176;4.781;A;95.594;3.160;6.172;
040548FF6CFDB421;IDS-06A -- ??????-????? -- 1 -- None -- 79 -- 0 -- Solo Pro II MVP -- 172.26.2.146;109;Lane 1;3/5/2012;6:30:00;100;15 Minutes;;;;;;820;205;87.883;0;178;7;9;11;4.387;7.789;A;86.074;5.535;9.523;
040548FF6CFDB421;IDS-06A -- ??????-????? -- 1 -- None -- 79 -- 0 -- Solo Pro II MVP -- 172.26.2.146;110;Lane 2;3/5/2012;6:30:00;100;15 Minutes;;;;;;672;168;104.820;0;161;4;1;1;5.355;4.500;A;104.063;2.922;6.457;
040548FF6CFDB421;IDS-06A -- ??????-????? -- 1 -- None -- 79 -- 0 -- Solo Pro II MVP -- 172.26.2.146;113;Total;3/5/2012;6:30:00;100;15 Minutes;;;;;;746;373;95.512;0;339;11;10;12;4.871;6.145;A;93.430;4.148;7.984;
040548FF6CFDB421;IDS-06A -- ??????-????? -- 1 -- None -- 79 -- 0 -- Solo Pro II MVP -- 172.26.2.146;109;Lane 1;3/5/2012;6:45:00;100;15 Minutes;;;;;;1040;260;86.043;0;241;5;5;9;3.461;9.395;A;84.574;6.469;12.297;
040548FF6CFDB421;IDS-06A -- ??????-????? -- 1 -- None -- 79 -- 0 -- Solo Pro II MVP -- 172.26.2.146;110;Lane 2;3/5/2012;6:45:00;100;15 Minutes;;;;;;1032;258;98.660;0;244;4;1;9;3.488;7.199;A;97.703;5.402;10.563;
040548FF6CFDB421;IDS-06A -- ??????-????? -- 1 -- None -- 79 -- 0 -- Solo Pro II MVP -- 172.26.2.146;113;Total;3/5/2012;6:45:00;100;15 Minutes;;;;;;1036;518;92.328;0;485;9;6;18;3.473;8.297;A;90.641;5.902;11.430;
040548FF6CFDB421;IDS-06A -- ??????-????? -- 1 -- None -- 79 -- 0 -- Solo Pro II MVP -- 172.26.2.146;109;Lane 1;3/5/2012;7:00:00;100;15 Minutes;;;;;;1264;316;87.563;0;288;5;14;9;2.848;11.281;A;85.512;8.047;14.781;
040548FF6CFDB421;IDS-06A -- ??????-????? -- 1 -- None -- 79 -- 0 -- Solo Pro II MVP -- 172.26.2.146;110;Lane 2;3/5/2012;7:00:00;100;15 Minutes;;;;;;1264;316;101.152;0;310;3;1;2;2.848;8.328;A;100.488;6.090;12.578;
040548FF6CFDB421;IDS-06A -- ??????-????? -- 1 -- None -- 79 -- 0 -- Solo Pro II MVP -- 172.26.2.146;113;Total;3/5/2012;7:00:00;100;15 Minutes;;;;;;1264;632;94.355;0;598;8;15;11;2.848;9.805;A;92.398;6.996;13.680;
040548FF6CFDB421;IDS-06A -- ??????-????? -- 1 -- None -- 79 -- 0 -- Solo Pro II MVP -- 172.26.2.146;109;Lane 1;3/5/2012;7:15:00;100;15 Minutes;;;;;;1324;331;85.422;0;312;12;3;4;2.719;13.590;A;83.563;8.418;15.844;
040548FF6CFDB421;IDS-06A -- ??????-????? -- 1 -- None -- 79 -- 0 -- Solo Pro II MVP -- 172.26.2.146;110;Lane 2;3/5/2012;7:15:00;100;15 Minutes;;;;;;1532;383;99.598;0;370;6;3;4;2.348;10.535;A;98.637;7.676;15.531;
040548FF6CFDB421;IDS-06A -- ??????-????? -- 1 -- None -- 79 -- 0 -- Solo Pro II MVP -- 172.26.2.146;113;Total;3/5/2012;7:15:00;100;15 Minutes;;;;;;1428;714;93.023;0;682;18;6;8;2.531;12.063;A;91.027;7.973;15.688;
040548FF6CFDB421;IDS-06A -- ??????-????? -- 1 -- None -- 79 -- 0 -- Solo Pro II MVP -- 172.26.2.146;109;Lane 1;3/5/2012;7:30:00;100;15 Minutes;;;;;;1416;354;81.277;0;339;6;3;6;2.539;14.742;A;80.266;9.098;17.641;
040548FF6CFDB421;IDS-06A -- ??????-????? -- 1 -- None -- 79 -- 0 -- Solo Pro II MVP -- 172.26.2.146;110;Lane 2;3/5/2012;7:30:00;100;15 Minutes;;;;;;1868;467;97.758;0;455;4;4;4;1.926;14.074;A;97.117;9.402;19.234;
040548FF6CFDB421;IDS-06A -- ??????-????? -- 1 -- None -- 79 -- 0 -- Solo Pro II MVP -- 172.26.2.146;113;Total;3/5/2012;7:30:00;100;15 Minutes;;;;;;1642;821;90.652;0;794;10;7;10;2.230;14.406;A;89.020;9.148;18.445;
040548FF6CFDB421;IDS-06A -- ??????-????? -- 1 -- None -- 79 -- 0 -- Solo Pro II MVP -- 172.26.2.146;109;Lane 1;3/5/2012;7:45:00;100;15 Minutes;;;;;;1392;348;83.277;0;336;4;7;1;2.586;13.801;A;82.184;8.590;16.938;
040548FF6CFDB421;IDS-06A -- ??????-????? -- 1 -- None -- 79 -- 0 -- Solo Pro II MVP -- 172.26.2.146;110;Lane 2;3/5/2012;7:45:00;100;15 Minutes;;;;;;1836;459;99.961;0;453;6;0;0;1.957;14.391;A;99.324;8.668;18.484;
040548FF6CFDB421;IDS-06A -- ??????-????? -- 1 -- None -- 79 -- 0 -- Solo Pro II MVP -- 172.26.2.146;113;Total;3/5/2012;7:45:00;100;15 Minutes;;;;;;1614;807;92.766;0;789;10;7;1;2.270;14.094;A;91.129;8.527;17.711;
040548FF6CFDB421;IDS-06A -- ??????-????? -- 1 -- None -- 79 -- 0 -- Solo Pro II MVP -- 172.26.2.146;109;Lane 1;3/5/2012;8:00:00;100;15 Minutes;;;;;;1476;369;84.379;0;347;6;9;6;2.438;15.090;A;83.008;9.395;17.781;
040548FF6CFDB421;IDS-06A -- ??????-????? -- 1 -- None -- 79 -- 0 -- Solo Pro II MVP -- 172.26.2.146;110;Lane 2;3/5/2012;8:00:00;100;15 Minutes;;;;;;1832;458;98.227;0;450;4;2;2;1.965;14.703;A;97.137;8.852;18.859;
040548FF6CFDB421;IDS-06A -- ??????-????? -- 1 -- None -- 79 -- 0 -- Solo Pro II MVP -- 172.26.2.146;113;Total;3/5/2012;8:00:00;100;15 Minutes;;;;;;1654;827;92.047;0;797;10;11;8;2.199;14.895;A;90.281;9.027;18.320;
040548FF6CFDB421;IDS-06A -- ??????-????? -- 1 -- None -- 79 -- 0 -- Solo Pro II MVP -- 172.26.2.146;109;Lane 1;3/5/2012;8:15:00;100;15 Minutes;;;;;;1292;323;83.781;0;304;5;10;4;2.785;12.762;A;82.438;8.242;15.672;
040548FF6CFDB421;IDS-06A -- ??????-????? -- 1 -- None -- 79 -- 0 -- Solo Pro II MVP -- 172.26.2.146;110;Lane 2;3/5/2012;8:15:00;100;15 Minutes;;;;;;1800;450;96.613;0;441;5;1;3;2.000;14.789;A;95.680;8.836;18.813;
040548FF6CFDB421;IDS-06A -- ??????-????? -- 1 -- None -- 79 -- 0 -- Solo Pro II MVP -- 172.26.2.146;113;Total;3/5/2012;8:15:00;100;15 Minutes;;;;;;1546;773;91.250;0;745;10;11;7;2.391;13.773;A;89.621;8.461;17.250;
040548FF6CFDB421;IDS-06A -- ??????-????? -- 1 -- None -- 79 -- 0 -- Solo Pro II MVP -- 172.26.2.146;109;Lane 1;3/5/2012;8:30:00;100;15 Minutes;;;;;;1280;320;82.625;0;315;3;2;0;2.813;12.332;A;81.188;7.801;15.766;
040548FF6CFDB421;IDS-06A -- ??????-????? -- 1 -- None -- 79 -- 0 -- Solo Pro II MVP -- 172.26.2.146;110;Lane 2;3/5/2012;8:30:00;100;15 Minutes;;;;;;1768;442;98.730;0;429;7;3;3;2.035;14.215;A;97.965;8.445;18.047;
040548FF6CFDB421;IDS-06A -- ??????-????? -- 1 -- None -- 79 -- 0 -- Solo Pro II MVP -- 172.26.2.146;113;Total;3/5/2012;8:30:00;100;15 Minutes;;;;;;1524;762;91.965;0;744;10;5;3;2.422;13.273;A;90.102;8.039;16.914;
040548FF6CFDB421;IDS-06A -- ??????-????? -- 1 -- None -- 79 -- 0 -- Solo Pro II MVP -- 172.26.2.146;109;Lane 1;3/5/2012;8:45:00;100;15 Minutes;;;;;;1384;346;78.285;0;322;8;12;4;2.598;14.574;A;76.754;9.375;18.031;
040548FF6CFDB421;IDS-06A -- ??????-????? -- 1 -- None -- 79 -- 0 -- Solo Pro II MVP -- 172.26.2.146;110;Lane 2;3/5/2012;8:45:00;100;15 Minutes;;;;;;1916;479;92.375;0;472;1;3;3;1.879;16.086;A;91.371;9.676;20.969;
040548FF6CFDB421;IDS-06A -- ??????-????? -- 1 -- None -- 79 -- 0 -- Solo Pro II MVP -- 172.26.2.146;113;Total;3/5/2012;8:45:00;100;15 Minutes;;;;;;1650;825;86.469;0;794;9;15;7;2.238;15.328;A;84.578;9.410;19.508;
040548FF6CFDB421;IDS-06A -- ??????-????? -- 1 -- None -- 79 -- 0 -- Solo Pro II MVP -- 172.26.2.146;109;Lane 1;3/5/2012;9:00:00;100;15 Minutes;;;;;;1348;337;78.875;0;314;7;8;8;2.668;13.773;A;77.371;9.387;17.422;
040548FF6CFDB421;IDS-06A -- ??????-????? -- 1 -- None -- 79 -- 0 -- Solo Pro II MVP -- 172.26.2.146;110;Lane 2;3/5/2012;9:00:00;100;15 Minutes;;;;;;1800;450;93.707;0;441;6;1;2;2.000;14.906;A;92.828;8.766;19.391;
040548FF6CFDB421;IDS-06A -- ??????-????? -- 1 -- None -- 79 -- 0 -- Solo Pro II MVP -- 172.26.2.146;113;Total;3/5/2012;9:00:00;100;15 Minutes;;;;;;1574;787;87.355;0;755;13;9;10;2.332;14.340;A;85.512;8.941;18.406;
040548FF6CFDB421;IDS-06A -- ??????-????? -- 1 -- None -- 79 -- 0 -- Solo Pro II MVP -- 172.26.2.146;109;Lane 1;3/5/2012;9:15:00;100;15 Minutes;;;;;;1316;329;79.355;0;304;7;7;11;2.734;13.590;A;77.695;9.391;16.938;
040548FF6CFDB421;IDS-06A -- ??????-????? -- 1 -- None -- 79 -- 0 -- Solo Pro II MVP -- 172.26.2.146;110;Lane 2;3/5/2012;9:15:00;100;15 Minutes;;;;;;1888;472;91.980;0;466;5;1;0;1.906;15.551;A;90.918;9.148;20.766;
040548FF6CFDB421;IDS-06A -- ??????-????? -- 1 -- None -- 79 -- 0 -- Solo Pro II MVP -- 172.26.2.146;113;Total;3/5/2012;9:15:00;100;15 Minutes;;;;;;1602;801;86.793;0;770;12;8;11;2.320;14.570;A;84.941;9.141;18.859;
040548FF6CFDB421;IDS-06A -- ??????-????? -- 1 -- None -- 79 -- 0 -- Solo Pro II MVP -- 172.26.2.146;109;Lane 1;3/5/2012;9:30:00;100;15 Minutes;;;;;;1428;357;76.195;0;327;14;8;8;2.520;14.930;A;75.094;10.188;19.016;
040548FF6CFDB421;IDS-06A -- ??????-????? -- 1 -- None -- 79 -- 0 -- Solo Pro II MVP -- 172.26.2.146;110;Lane 2;3/5/2012;9:30:00;100;15 Minutes;;;;;;2096;524;89.480;0;514;6;2;2;1.715;17.422;A;88.836;10.309;23.594;
040548FF6CFDB421;IDS-06A -- ??????-????? -- 1 -- None -- 79 -- 0 -- Solo Pro II MVP -- 172.26.2.146;113;Total;3/5/2012;9:30:00;100;15 Minutes;;;;;;1762;881;84.098;0;841;20;10;10;2.117;16.176;A;82.672;10.098;21.313;
040548FF6CFDB421;IDS-06A -- ??????-????? -- 1 -- None -- 79 -- 0 -- Solo Pro II MVP -- 172.26.2.146;109;Lane 1;3/5/2012;9:45:00;100;15 Minutes;;;;;;1336;334;74.223;0;295;11;22;6;2.691;14.980;A;72.398;10.039;18.453;
040548FF6CFDB421;IDS-06A -- ??????-????? -- 1 -- None -- 79 -- 0 -- Solo Pro II MVP -- 172.26.2.146;110;Lane 2;3/5/2012;9:45:00;100;15 Minutes;;;;;;1896;474;88.480;0;469;1;1;3;1.898;15.902;A;87.234;9.430;21.734;
040548FF6CFDB421;IDS-06A -- ??????-????? -- 1 -- None -- 79 -- 0 -- Solo Pro II MVP -- 172.26.2.146;113;Total;3/5/2012;9:45:00;100;15 Minutes;;;;;;1616;808;82.586;0;764;12;23;9;2.293;15.441;A;80.391;9.563;20.102;
040548FF6CFDB421;IDS-06A -- ??????-????? -- 1 -- None -- 79 -- 0 -- Solo Pro II MVP -- 172.26.2.146;109;Lane 1;3/5/2012;10:00:00;100;15 Minutes;;;;;;1324;331;74.832;0;291;14;18;7;2.719;15.031;A;73.301;9.992;18.063;
040548FF6CFDB421;IDS-06A -- ??????-????? -- 1 -- None -- 79 -- 0 -- Solo Pro II MVP -- 172.26.2.146;110;Lane 2;3/5/2012;10:00:00;100;15 Minutes;;;;;;1868;467;88.840;0;458;4;1;3;1.926;15.602;A;87.902;9.180;21.250;
040548FF6CFDB421;IDS-06A -- ??????-????? -- 1 -- None -- 79 -- 0 -- Solo Pro II MVP -- 172.26.2.146;113;Total;3/5/2012;10:00:00;100;15 Minutes;;;;;;1596;798;83.031;0;749;18;19;10;2.320;15.316;A;81.195;9.414;19.656;
040548FF6CFDB421;IDS-06A -- ??????-????? -- 1 -- None -- 79 -- 0 -- Solo Pro II MVP -- 172.26.2.146;109;Lane 1;3/5/2012;10:15:00;100;15 Minutes;;;;;;1220;305;77.441;0;277;14;10;4;2.949;12.949;A;76.098;8.477;16.031;
040548FF6CFDB421;IDS-06A -- ??????-????? -- 1 -- None -- 79 -- 0 -- Solo Pro II MVP -- 172.26.2.146;110;Lane 2;3/5/2012;10:15:00;100;15 Minutes;;;;;;1668;417;92.852;0;406;3;4;4;2.156;13.617;A;91.629;7.805;18.203;
040548FF6CFDB421;IDS-06A -- ??????-????? -- 1 -- None -- 79 -- 0 -- Solo Pro II MVP -- 172.26.2.146;113;Total;3/5/2012;10:15:00;100;15 Minutes;;;;;;1444;722;86.340;0;683;17;14;8;2.551;13.281;A;84.359;8.000;17.117;
040548FF6CFDB421;IDS-06A -- ??????-????? -- 1 -- None -- 79 -- 0 -- Solo Pro II MVP -- 172.26.2.146;109;Lane 1;3/5/2012;10:30:00;100;15 Minutes;;;;;;1300;325;76.625;0;290;11;13;11;2.766;14.609;A;75.430;9.578;17.234;
040548FF6CFDB421;IDS-06A -- ??????-????? -- 1 -- None -- 79 -- 0 -- Solo Pro II MVP -- 172.26.2.146;110;Lane 2;3/5/2012;10:30:00;100;15 Minutes;;;;;;1792;448;88.254;0;439;5;0;4;2.008;15.352;A;87.215;8.824;20.547;
040548FF6CFDB421;IDS-06A -- ??????-????? -- 1 -- None -- 79 -- 0 -- Solo Pro II MVP -- 172.26.2.146;113;Total;3/5/2012;10:30:00;100;15 Minutes;;;;;;1546;773;83.367;0;729;16;13;15;2.387;14.980;A;81.805;9.074;18.898;
040548FF6CFDB421;IDS-06A -- ??????-????? -- 1 -- None -- 79 -- 0 -- Solo Pro II MVP -- 172.26.2.146;109;Lane 1;3/5/2012;10:45:00;100;15 Minutes;;;;;;1192;298;75.035;0;266;15;12;5;3.020;13.410;A;73.637;8.734;16.188;
040548FF6CFDB421;IDS-06A -- ??????-????? -- 1 -- None -- 79 -- 0 -- Solo Pro II MVP -- 172.26.2.146;110;Lane 2;3/5/2012;10:45:00;100;15 Minutes;;;;;;1608;402;92.020;0;392;6;1;3;2.238;13.039;A;90.988;7.453;17.672;
040548FF6CFDB421;IDS-06A -- ??????-????? -- 1 -- None -- 79 -- 0 -- Solo Pro II MVP -- 172.26.2.146;113;Total;3/5/2012;10:45:00;100;15 Minutes;;;;;;1400;700;84.789;0;658;21;13;8;2.629;13.223;A;82.656;7.910;16.938;
040548FF6CFDB421;IDS-06A -- ??????-????? -- 1 -- None -- 79 -- 0 -- Solo Pro II MVP -- 172.26.2.146;109;Lane 1;3/5/2012;11:00:00;100;15 Minutes;;;;;;1212;303;77.273;0;265;18;10;10;2.969;13.082;A;76.121;8.711;15.922;
040548FF6CFDB421;IDS-06A -- ??????-????? -- 1 -- None -- 79 -- 0 -- Solo Pro II MVP -- 172.26.2.146;110;Lane 2;3/5/2012;11:00:00;100;15 Minutes;;;;;;1708;427;92.441;0;420;4;1;2;2.105;13.832;A;91.395;7.785;18.688;
040548FF6CFDB421;IDS-06A -- ??????-????? -- 1 -- None -- 79 -- 0 -- Solo Pro II MVP -- 172.26.2.146;113;Total;3/5/2012;11:00:00;100;15 Minutes;;;;;;1460;730;86.145;0;685;22;11;12;2.535;13.457;A;84.367;8.086;17.305;
040548FF6CFDB421;IDS-06A -- ??????-????? -- 1 -- None -- 79 -- 0 -- Solo Pro II MVP -- 172.26.2.146;109;Lane 1;3/5/2012;11:15:00;100;15 Minutes;;;;;;1132;283;79.105;0;270;9;2;2;3.180;11.203;A;77.730;7.082;14.563;
040548FF6CFDB421;IDS-06A -- ??????-????? -- 1 -- None -- 79 -- 0 -- Solo Pro II MVP -- 172.26.2.146;110;Lane 2;3/5/2012;11:15:00;100;15 Minutes;;;;;;1520;380;93.828;0;374;4;1;1;2.367;12.098;A;92.824;6.699;16.375;
040548FF6CFDB421;IDS-06A -- ??????-????? -- 1 -- None -- 79 -- 0 -- Solo Pro II MVP -- 172.26.2.146;113;Total;3/5/2012;11:15:00;100;15 Minutes;;;;;;1326;663;87.543;0;644;13;3;3;2.773;11.648;A;85.719;6.789;15.469;
040548FF6CFDB421;IDS-06A -- ??????-????? -- 1 -- None -- 79 -- 0 -- Solo Pro II MVP -- 172.26.2.146;109;Lane 1;3/5/2012;11:30:00;100;15 Minutes;;;;;;1072;268;82.984;0;258;4;2;4;3.355;10.172;A;81.773;6.465;13.109;
040548FF6CFDB421;IDS-06A -- ??????-????? -- 1 -- None -- 79 -- 0 -- Solo Pro II MVP -- 172.26.2.146;110;Lane 2;3/5/2012;11:30:00;100;15 Minutes;;;;;;1208;302;98.910;0;296;3;1;2;2.977;9.305;A;98.234;4.980;12.297;
040548FF6CFDB421;IDS-06A -- ??????-????? -- 1 -- None -- 79 -- 0 -- Solo Pro II MVP -- 172.26.2.146;113;Total;3/5/2012;11:30:00;100;15 Minutes;;;;;;1140;570;91.422;0;554;7;3;6;3.164;9.738;A;89.684;5.629;12.711;
040548FF6CFDB421;IDS-06A -- ??????-????? -- 1 -- None -- 79 -- 0 -- Solo Pro II MVP -- 172.26.2.146;109;Lane 1;3/5/2012;11:45:00;100;15 Minutes;;;;;;1216;304;79.164;0;277;9;11;6;2.957;12.875;A;78.055;8.051;15.578;
040548FF6CFDB421;IDS-06A -- ??????-????? -- 1 -- None -- 79 -- 0 -- Solo Pro II MVP -- 172.26.2.146;110;Lane 2;3/5/2012;11:45:00;100;15 Minutes;;;;;;1356;339;95.535;0;335;2;1;1;2.652;10.664;A;94.430;5.789;14.359;
040548FF6CFDB421;IDS-06A -- ??????-????? -- 1 -- None -- 79 -- 0 -- Solo Pro II MVP -- 172.26.2.146;113;Total;3/5/2012;11:45:00;100;15 Minutes;;;;;;1286;643;87.797;0;612;11;12;7;2.805;11.770;A;85.867;6.781;14.977;
040548FF6CFDB421;IDS-06A -- ??????-????? -- 1 -- None -- 79 -- 0 -- Solo Pro II MVP -- 172.26.2.146;109;Lane 1;3/5/2012;12:00:00;100;15 Minutes;;;;;;1044;261;81.371;0;245;5;6;5;3.445;10.551;A;79.824;6.621;13.078;
040548FF6CFDB421;IDS-06A -- ??????-????? -- 1 -- None -- 79 -- 0 -- Solo Pro II MVP -- 172.26.2.146;110;Lane 2;3/5/2012;12:00:00;100;15 Minutes;;;;;;1144;286;99.086;0;282;1;1;2;3.145;8.715;A;98.406;5.109;11.625;
040548FF6CFDB421;IDS-06A -- ??????-????? -- 1 -- None -- 79 -- 0 -- Solo Pro II MVP -- 172.26.2.146;113;Total;3/5/2012;12:00:00;100;15 Minutes;;;;;;1094;547;90.633;0;527;6;7;7;3.293;9.633;A;88.570;5.766;12.352;
040548FF6CFDB421;IDS-06A -- ??????-????? -- 1 -- None -- 79 -- 0 -- Solo Pro II MVP -- 172.26.2.146;109;Lane 1;3/5/2012;12:15:00;100;15 Minutes;;;;;;1068;267;81.457;0;236;12;11;8;3.367;10.863;A;80.035;7.215;13.344;
040548FF6CFDB421;IDS-06A -- ??????-????? -- 1 -- None -- 79 -- 0 -- Solo Pro II MVP -- 172.26.2.146;110;Lane 2;3/5/2012;12:15:00;100;15 Minutes;;;;;;1168;292;98.770;0;289;2;1;0;3.082;8.637;A;98.098;4.945;11.906;
040548FF6CFDB421;IDS-06A -- ??????-????? -- 1 -- None -- 79 -- 0 -- Solo Pro II MVP -- 172.26.2.146;113;Total;3/5/2012;12:15:00;100;15 Minutes;;;;;;1118;559;90.500;0;525;14;12;8;3.223;9.750;A;88.551;5.945;12.625;
040548FF6CFDB421;IDS-06A -- ??????-????? -- 1 -- None -- 79 -- 0 -- Solo Pro II MVP -- 172.26.2.146;109;Lane 1;3/5/2012;12:30:00;100;15 Minutes;;;;;;1068;267;80.305;0;248;3;9;7;3.367;10.832;A;79.020;7.016;13.516;
040548FF6CFDB421;IDS-06A -- ??????-????? -- 1 -- None -- 79 -- 0 -- Solo Pro II MVP -- 172.26.2.146;110;Lane 2;3/5/2012;12:30:00;100;15 Minutes;;;;;;1204;301;98.230;0;299;1;0;1;2.988;8.703;A;97.289;5.273;12.375;
040548FF6CFDB421;IDS-06A -- ??????-????? -- 1 -- None -- 79 -- 0 -- Solo Pro II MVP -- 172.26.2.146;113;Total;3/5/2012;12:30:00;100;15 Minutes;;;;;;1136;568;89.805;0;547;4;9;8;3.176;9.766;A;87.750;6.020;12.945;
040548FF6CFDB421;IDS-06A -- ??????-????? -- 1 -- None -- 79 -- 0 -- Solo Pro II MVP -- 172.26.2.146;109;Lane 1;3/5/2012;12:45:00;100;15 Minutes;;;;;;1156;289;76.844;0;248;17;14;10;3.113;12.832;A;75.414;8.512;15.328;
040548FF6CFDB421;IDS-06A -- ??????-????? -- 1 -- None -- 79 -- 0 -- Solo Pro II MVP -- 172.26.2.146;110;Lane 2;3/5/2012;12:45:00;100;15 Minutes;;;;;;1356;339;96.008;0;337;1;1;0;2.652;10.137;A;95.156;6.004;14.250;
040548FF6CFDB421;IDS-06A -- ??????-????? -- 1 -- None -- 79 -- 0 -- Solo Pro II MVP -- 172.26.2.146;113;Total;3/5/2012;12:45:00;100;15 Minutes;;;;;;1256;628;87.188;0;585;18;15;10;2.883;11.484;A;84.926;7.059;14.789;
040548FF6CFDB421;IDS-06A -- ??????-????? -- 1 -- None -- 79 -- 0 -- Solo Pro II MVP -- 172.26.2.146;109;Lane 1;3/5/2012;13:00:00;100;15 Minutes;;;;;;1140;285;83.445;0;261;8;11;5;3.156;10.969;A;81.883;6.906;13.922;
040548FF6CFDB421;IDS-06A -- ??????-????? -- 1 -- None -- 79 -- 0 -- Solo Pro II MVP -- 172.26.2.146;110;Lane 2;3/5/2012;13:00:00;100;15 Minutes;;;;;;1268;317;98.094;0;313;2;0;2;2.836;9.281;A;96.840;5.520;13.094;
040548FF6CFDB421;IDS-06A -- ??????-????? -- 1 -- None -- 79 -- 0 -- Solo Pro II MVP -- 172.26.2.146;113;Total;3/5/2012;13:00:00;100;15 Minutes;;;;;;1204;602;91.156;0;574;10;11;7;2.996;10.125;A;89.133;6.133;13.508;
040548FF6CFDB421;IDS-06A -- ??????-????? -- 1 -- None -- 79 -- 0 -- Solo Pro II MVP -- 172.26.2.146;109;Lane 1;3/5/2012;13:15:00;100;15 Minutes;;;;;;1116;279;79.508;0;246;10;11;12;3.223;11.934;A;78.141;7.711;14.281;
040548FF6CFDB421;IDS-06A -- ??????-????? -- 1 -- None -- 79 -- 0 -- Solo Pro II MVP -- 172.26.2.146;110;Lane 2;3/5/2012;13:15:00;100;15 Minutes;;;;;;1340;335;95.215;0;329;2;4;0;2.684;10.078;A;93.930;6.023;14.266;
040548FF6CFDB421;IDS-06A -- ??????-????? -- 1 -- None -- 79 -- 0 -- Solo Pro II MVP -- 172.26.2.146;113;Total;3/5/2012;13:15:00;100;15 Minutes;;;;;;1228;614;88.078;0;575;12;15;12;2.953;11.004;A;86.031;6.734;14.273;
040548FF6CFDB421;IDS-06A -- ??????-????? -- 1 -- None -- 79 -- 0 -- Solo Pro II MVP -- 172.26.2.146;109;Lane 1;3/5/2012;13:30:00;100;15 Minutes;;;;;;1152;288;82.973;0;265;11;4;8;3.125;10.992;A;82.191;7.168;14.016;
040548FF6CFDB421;IDS-06A -- ??????-????? -- 1 -- None -- 79 -- 0 -- Solo Pro II MVP -- 172.26.2.146;110;Lane 2;3/5/2012;13:30:00;100;15 Minutes;;;;;;1340;335;99.074;0;334;1;0;0;2.684;9.746;A;98.234;5.629;13.641;
040548FF6CFDB421;IDS-06A -- ??????-????? -- 1 -- None -- 79 -- 0 -- Solo Pro II MVP -- 172.26.2.146;113;Total;3/5/2012;13:30:00;100;15 Minutes;;;;;;1246;623;91.629;0;599;12;4;8;2.902;10.367;A;90.055;6.289;13.836;
040548FF6CFDB421;IDS-06A -- ??????-????? -- 1 -- None -- 79 -- 0 -- Solo Pro II MVP -- 172.26.2.146;109;Lane 1;3/5/2012;13:45:00;100;15 Minutes;;;;;;1124;281;84.191;0;266;3;9;3;3.199;10.270;A;82.777;6.480;13.578;
040548FF6CFDB421;IDS-06A -- ??????-????? -- 1 -- None -- 79 -- 0 -- Solo Pro II MVP -- 172.26.2.146;110;Lane 2;3/5/2012;13:45:00;100;15 Minutes;;;;;;1168;292;100.805;0;290;0;0;2;3.082;8.426;A;100.203;5.051;11.656;
040548FF6CFDB421;IDS-06A -- ??????-????? -- 1 -- None -- 79 -- 0 -- Solo Pro II MVP -- 172.26.2.146;113;Total;3/5/2012;13:45:00;100;15 Minutes;;;;;;1146;573;92.656;0;556;3;9;5;3.141;9.348;A;90.828;5.691;12.617;
040548FF6CFDB421;IDS-06A -- ??????-????? -- 1 -- None -- 79 -- 0 -- Solo Pro II MVP -- 172.26.2.146;109;Lane 1;3/5/2012;14:00:01;100;15 Minutes;;;;;;1240;310;81.746;0;289;8;7;6;2.902;11.801;A;80.402;7.563;15.422;
040548FF6CFDB421;IDS-06A -- ??????-????? -- 1 -- None -- 79 -- 0 -- Solo Pro II MVP -- 172.26.2.146;110;Lane 2;3/5/2012;14:00:01;100;15 Minutes;;;;;;1276;319;98.617;0;312;5;0;2;2.820;9.297;A;97.801;5.723;13.047;
040548FF6CFDB421;IDS-06A -- ??????-????? -- 1 -- None -- 79 -- 0 -- Solo Pro II MVP -- 172.26.2.146;113;Total;3/5/2012;14:00:01;100;15 Minutes;;;;;;1258;629;90.301;0;601;13;7;8;2.859;10.547;A;88.375;6.547;14.234;
040548FF6CFDB421;IDS-06A -- ??????-????? -- 1 -- None -- 79 -- 0 -- Solo Pro II MVP -- 172.26.2.146;109;Lane 1;3/5/2012;14:15:00; 99;15 Minutes;;;;;;1152;288;79.563;0;268;7;7;6;3.125;11.648;A;77.770;7.441;14.813;
040548FF6CFDB421;IDS-06A -- ??????-????? -- 1 -- None -- 79 -- 0 -- Solo Pro II MVP -- 172.26.2.146;110;Lane 2;3/5/2012;14:15:00; 99;15 Minutes;;;;;;1484;371;93.832;0;360;3;2;6;2.426;11.441;A;92.750;7.266;16.000;
040548FF6CFDB421;IDS-06A -- ??????-????? -- 1 -- None -- 79 -- 0 -- Solo Pro II MVP -- 172.26.2.146;113;Total;3/5/2012;14:15:00; 99;15 Minutes;;;;;;1318;659;87.598;0;628;10;9;12;2.773;11.543;A;85.547;7.270;15.406;
040548FF6CFDB421;IDS-06A -- ??????-????? -- 1 -- None -- 79 -- 0 -- Solo Pro II MVP -- 172.26.2.146;109;Lane 1;3/5/2012;14:30:00;100;15 Minutes;;;;;;1244;311;78.035;0;294;4;7;5;2.891;12.391;A;76.922;7.934;16.172;
040548FF6CFDB421;IDS-06A -- ??????-????? -- 1 -- None -- 79 -- 0 -- Solo Pro II MVP -- 172.26.2.146;110;Lane 2;3/5/2012;14:30:00;100;15 Minutes;;;;;;1332;333;96.508;0;327;3;2;1;2.699;9.844;A;95.676;6.137;13.922;
040548FF6CFDB421;IDS-06A -- ??????-????? -- 1 -- None -- 79 -- 0 -- Solo Pro II MVP -- 172.26.2.146;113;Total;3/5/2012;14:30:00;100;15 Minutes;;;;;;1288;644;87.586;0;621;7;9;6;2.793;11.117;A;85.555;6.914;15.055;
040548FF6CFDB421;IDS-06A -- ??????-????? -- 1 -- None -- 79 -- 0 -- Solo Pro II MVP -- 172.26.2.146;109;Lane 1;3/5/2012;14:45:00;100;15 Minutes;;;;;;1144;286;82.734;0;270;7;5;4;3.145;10.750;A;81.621;6.984;14.016;
040548FF6CFDB421;IDS-06A -- ??????-????? -- 1 -- None -- 79 -- 0 -- Solo Pro II MVP -- 172.26.2.146;110;Lane 2;3/5/2012;14:45:00;100;15 Minutes;;;;;;1344;336;98.109;0;332;3;1;0;2.676;9.629;A;97.301;5.953;13.813;
040548FF6CFDB421;IDS-06A -- ??????-????? -- 1 -- None -- 79 -- 0 -- Solo Pro II MVP -- 172.26.2.146;113;Total;3/5/2012;14:45:00;100;15 Minutes;;;;;;1244;622;91.039;0;602;10;6;4;2.910;10.188;A;89.355;6.379;13.922;
040548FF6CFDB421;IDS-06A -- ??????-????? -- 1 -- None -- 79 -- 0 -- Solo Pro II MVP -- 172.26.2.146;109;Lane 1;3/5/2012;15:00:00;100;15 Minutes;;;;;;1156;289;79.340;0;263;6;11;8;3.113;11.871;A;78.207;7.977;14.781;
040548FF6CFDB421;IDS-06A -- ??????-????? -- 1 -- None -- 79 -- 0 -- Solo Pro II MVP -- 172.26.2.146;110;Lane 2;3/5/2012;15:00:00;100;15 Minutes;;;;;;1264;316;96.332;0;310;1;3;1;2.848;9.305;A;95.168;5.832;13.281;
040548FF6CFDB421;IDS-06A -- ??????-????? -- 1 -- None -- 79 -- 0 -- Solo Pro II MVP -- 172.26.2.146;113;Total;3/5/2012;15:00:00;100;15 Minutes;;;;;;1210;605;88.215;0;573;7;14;9;2.980;10.586;A;86.188;6.773;14.039;
040548FF6CFDB421;IDS-06A -- ??????-????? -- 1 -- None -- 79 -- 0 -- Solo Pro II MVP -- 172.26.2.146;109;Lane 1;3/5/2012;15:15:00;100;15 Minutes;;;;;;788;197;85.770;0;196;1;0;0;4.566;6.609;A;84.211;4.113;9.355;
040548FF6CFDB421;IDS-06A -- ??????-????? -- 1 -- None -- 79 -- 0 -- Solo Pro II MVP -- 172.26.2.146;110;Lane 2;3/5/2012;15:15:00;100;15 Minutes;;;;;;852;213;95.516;0;211;0;1;0;4.223;6.172;A;94.105;3.855;9.051;
040548FF6CFDB421;IDS-06A -- ??????-????? -- 1 -- None -- 79 -- 0 -- Solo Pro II MVP -- 172.26.2.146;113;Total;3/5/2012;15:15:00;100;15 Minutes;;;;;;820;410;90.832;0;407;1;1;0;4.395;6.391;A;89.098;3.969;9.203;
040548FF6CFDB421;IDS-06A -- ??????-????? -- 1 -- None -- 79 -- 0 -- Solo Pro II MVP -- 172.26.2.146;109;Lane 1;3/5/2012;15:30:00;100;15 Minutes;;;;;;1408;352;73.289;0;322;13;5;11;2.555;14.336;A;72.379;9.883;19.453;
040548FF6CFDB421;IDS-06A -- ??????-????? -- 1 -- None -- 79 -- 0 -- Solo Pro II MVP -- 172.26.2.146;110;Lane 2;3/5/2012;15:30:00;100;15 Minutes;;;;;;1868;467;80.609;0;456;1;2;5;1.926;15.988;A;79.434;10.535;23.516;
040548FF6CFDB421;IDS-06A -- ??????-????? -- 1 -- None -- 79 -- 0 -- Solo Pro II MVP -- 172.26.2.146;113;Total;3/5/2012;15:30:00;100;15 Minutes;;;;;;1638;819;77.465;0;778;14;7;16;2.238;15.160;A;76.238;10.156;21.484;
040548FF6CFDB421;IDS-06A -- ??????-????? -- 1 -- None -- 79 -- 0 -- Solo Pro II MVP -- 172.26.2.146;109;Lane 1;3/5/2012;15:45:00;100;15 Minutes;;;;;;1184;296;77.574;0;274;11;5;6;3.039;12.352;A;76.617;7.715;15.453;
040548FF6CFDB421;IDS-06A -- ??????-????? -- 1 -- None -- 79 -- 0 -- Solo Pro II MVP -- 172.26.2.146;110;Lane 2;3/5/2012;15:45:00;100;15 Minutes;;;;;;1480;370;91.148;0;361;6;1;2;2.430;11.980;A;88.938;7.313;16.641;
040548FF6CFDB421;IDS-06A -- ??????-????? -- 1 -- None -- 79 -- 0 -- Solo Pro II MVP -- 172.26.2.146;113;Total;3/5/2012;15:45:00;100;15 Minutes;;;;;;1332;666;85.117;0;635;17;6;8;2.734;12.164;A;82.965;7.430;16.055;
040548FF6CFDB421;IDS-06A -- ??????-????? -- 1 -- None -- 79 -- 0 -- Solo Pro II MVP -- 172.26.2.146;109;Lane 1;3/5/2012;16:00:00;100;15 Minutes;;;;;;1360;340;79.074;0;307;13;11;8;2.645;14.816;A;77.645;9.105;17.516;
040548FF6CFDB421;IDS-06A -- ??????-????? -- 1 -- None -- 79 -- 0 -- Solo Pro II MVP -- 172.26.2.146;110;Lane 2;3/5/2012;16:00:00;100;15 Minutes;;;;;;1616;404;88.063;0;375;11;3;14;2.227;14.816;A;86.691;9.137;18.641;
040548FF6CFDB421;IDS-06A -- ??????-????? -- 1 -- None -- 79 -- 0 -- Solo Pro II MVP -- 172.26.2.146;113;Total;3/5/2012;16:00:00;100;15 Minutes;;;;;;1488;744;83.953;0;682;24;14;22;2.434;14.816;A;82.273;9.082;18.086;
040548FF6CFDB421;IDS-06A -- ??????-????? -- 1 -- None -- 79 -- 0 -- Solo Pro II MVP -- 172.26.2.146;109;Lane 1;3/5/2012;16:15:00;100;15 Minutes;;;;;;1224;306;79.840;0;279;6;11;10;2.938;13.703;A;78.254;8.195;15.641;
040548FF6CFDB421;IDS-06A -- ??????-????? -- 1 -- None -- 79 -- 0 -- Solo Pro II MVP -- 172.26.2.146;110;Lane 2;3/5/2012;16:15:00;100;15 Minutes;;;;;;1548;387;92.430;0;368;11;3;4;2.324;13.883;A;91.309;7.773;16.953;
040548FF6CFDB421;IDS-06A -- ??????-????? -- 1 -- None -- 79 -- 0 -- Solo Pro II MVP -- 172.26.2.146;113;Total;3/5/2012;16:15:00;100;15 Minutes;;;;;;1386;693;86.871;0;647;17;14;14;2.629;13.793;A;85.047;7.902;16.297;
040548FF6CFDB421;IDS-06A -- ??????-????? -- 1 -- None -- 79 -- 0 -- Solo Pro II MVP -- 172.26.2.146;109;Lane 1;3/5/2012;16:30:00;100;15 Minutes;;;;;;1328;332;75.215;0;308;6;11;7;2.707;14.949;A;73.141;9.160;18.156;
040548FF6CFDB421;IDS-06A -- ??????-????? -- 1 -- None -- 79 -- 0 -- Solo Pro II MVP -- 172.26.2.146;110;Lane 2;3/5/2012;16:30:00;100;15 Minutes;;;;;;1580;395;85.316;0;387;5;0;3;2.277;14.414;A;80.445;7.984;19.641;
040548FF6CFDB421;IDS-06A -- ??????-????? -- 1 -- None -- 79 -- 0 -- Solo Pro II MVP -- 172.26.2.146;113;Total;3/5/2012;16:30:00;100;15 Minutes;;;;;;1454;727;80.703;0;695;11;11;10;2.492;14.680;A;76.902;8.488;18.906;
040548FF6CFDB421;IDS-06A -- ??????-????? -- 1 -- None -- 79 -- 0 -- Solo Pro II MVP -- 172.26.2.146;109;Lane 1;3/5/2012;16:45:00;100;15 Minutes;;;;;;1188;297;76.410;0;280;5;4;7;3.027;13.176;A;74.613;7.875;15.922;
040548FF6CFDB421;IDS-06A -- ??????-????? -- 1 -- None -- 79 -- 0 -- Solo Pro II MVP -- 172.26.2.146;110;Lane 2;3/5/2012;16:45:00;100;15 Minutes;;;;;;1544;386;82.965;0;371;8;2;4;2.328;14.434;A;80.930;8.645;19.078;
040548FF6CFDB421;IDS-06A -- ??????-????? -- 1 -- None -- 79 -- 0 -- Solo Pro II MVP -- 172.26.2.146;113;Total;3/5/2012;16:45:00;100;15 Minutes;;;;;;1366;683;80.113;0;651;13;6;11;2.676;13.805;A;78.020;8.230;17.508;
040548FF6CFDB421;IDS-06A -- ??????-????? -- 1 -- None -- 79 -- 0 -- Solo Pro II MVP -- 172.26.2.146;109;Lane 1;3/5/2012;17:00:00;100;15 Minutes;;;;;;1392;348;73.207;0;336;4;6;2;2.586;15.945;A;70.930;9.000;19.625;
040548FF6CFDB421;IDS-06A -- ??????-????? -- 1 -- None -- 79 -- 0 -- Solo Pro II MVP -- 172.26.2.146;110;Lane 2;3/5/2012;17:00:00;100;15 Minutes;;;;;;1616;404;78.254;0;395;4;2;2;2.227;17.043;A;74.242;8.945;21.766;
040548FF6CFDB421;IDS-06A -- ??????-????? -- 1 -- None -- 79 -- 0 -- Solo Pro II MVP -- 172.26.2.146;113;Total;3/5/2012;17:00:00;100;15 Minutes;;;;;;1504;752;75.918;0;731;8;8;4;2.406;16.492;A;72.645;8.949;20.703;
040548FF6CFDB421;IDS-06A -- ??????-????? -- 1 -- None -- 79 -- 0 -- Solo Pro II MVP -- 172.26.2.146;109;Lane 1;3/5/2012;17:15:00;100;15 Minutes;;;;;;1328;332;80.180;0;310;6;11;5;2.707;14.805;A;79.133;8.352;16.781;
040548FF6CFDB421;IDS-06A -- ??????-????? -- 1 -- None -- 79 -- 0 -- Solo Pro II MVP -- 172.26.2.146;110;Lane 2;3/5/2012;17:15:00;100;15 Minutes;;;;;;1644;411;91.930;0;404;5;1;1;2.188;14.777;A;91.016;8.145;18.063;
040548FF6CFDB421;IDS-06A -- ??????-????? -- 1 -- None -- 79 -- 0 -- Solo Pro II MVP -- 172.26.2.146;113;Total;3/5/2012;17:15:00;100;15 Minutes;;;;;;1486;743;86.680;0;714;11;12;6;2.445;14.789;A;85.254;8.184;17.430;
040548FF6CFDB421;IDS-06A -- ??????-????? -- 1 -- None -- 79 -- 0 -- Solo Pro II MVP -- 172.26.2.146;109;Lane 1;3/5/2012;17:30:00;100;15 Minutes;;;;;;1400;350;80.230;0;327;2;12;8;2.570;15.004;A;78.871;8.914;17.750;
040548FF6CFDB421;IDS-06A -- ??????-????? -- 1 -- None -- 79 -- 0 -- Solo Pro II MVP -- 172.26.2.146;110;Lane 2;3/5/2012;17:30:00;100;15 Minutes;;;;;;1692;423;89.082;0;412;8;1;2;2.125;15.121;A;87.680;8.590;19.297;
040548FF6CFDB421;IDS-06A -- ??????-????? -- 1 -- None -- 79 -- 0 -- Solo Pro II MVP -- 172.26.2.146;113;Total;3/5/2012;17:30:00;100;15 Minutes;;;;;;1546;773;85.074;0;739;10;13;10;2.348;15.063;A;83.426;8.699;18.531;
040548FF6CFDB421;IDS-06A -- ??????-????? -- 1 -- None -- 79 -- 0 -- Solo Pro II MVP -- 172.26.2.146;109;Lane 1;3/5/2012;17:45:00;100;15 Minutes;;;;;;1220;305;84.039;0;293;3;4;5;2.949;10.711;A;82.973;7.141;14.703;
040548FF6CFDB421;IDS-06A -- ??????-????? -- 1 -- None -- 79 -- 0 -- Solo Pro II MVP -- 172.26.2.146;110;Lane 2;3/5/2012;17:45:00;100;15 Minutes;;;;;;1616;404;93.594;0;396;4;1;2;2.227;11.934;A;92.422;7.926;17.484;
040548FF6CFDB421;IDS-06A -- ??????-????? -- 1 -- None -- 79 -- 0 -- Solo Pro II MVP -- 172.26.2.146;113;Total;3/5/2012;17:45:00;100;15 Minutes;;;;;;1418;709;89.484;0;689;7;5;7;2.586;11.320;A;88.063;7.496;16.102;
040548FF6CFDB421;IDS-06A -- ??????-????? -- 1 -- None -- 79 -- 0 -- Solo Pro II MVP -- 172.26.2.146;109;Lane 1;3/5/2012;18:00:00;100;15 Minutes;;;;;;1312;328;82.012;0;316;3;4;5;2.742;11.391;A;80.738;7.602;16.250;
040548FF6CFDB421;IDS-06A -- ??????-????? -- 1 -- None -- 79 -- 0 -- Solo Pro II MVP -- 172.26.2.146;110;Lane 2;3/5/2012;18:00:00;100;15 Minutes;;;;;;1668;417;91.023;0;409;0;0;5;2.156;12.336;A;90.086;8.320;18.516;
040548FF6CFDB421;IDS-06A -- ??????-????? -- 1 -- None -- 79 -- 0 -- Solo Pro II MVP -- 172.26.2.146;113;Total;3/5/2012;18:00:00;100;15 Minutes;;;;;;1490;745;87.059;0;725;3;4;10;2.449;11.863;A;85.676;7.930;17.391;
040548FF6CFDB421;IDS-06A -- ??????-????? -- 1 -- None -- 79 -- 0 -- Solo Pro II MVP -- 172.26.2.146;109;Lane 1;3/5/2012;18:15:00;100;15 Minutes;;;;;;1224;306;80.504;0;296;1;5;4;2.938;11.406;A;79.047;7.324;15.484;
040548FF6CFDB421;IDS-06A -- ??????-????? -- 1 -- None -- 79 -- 0 -- Solo Pro II MVP -- 172.26.2.146;110;Lane 2;3/5/2012;18:15:00;100;15 Minutes;;;;;;1536;384;92.563;0;378;1;1;1;2.344;11.625;A;91.188;7.504;16.844;
040548FF6CFDB421;IDS-06A -- ??????-????? -- 1 -- None -- 79 -- 0 -- Solo Pro II MVP -- 172.26.2.146;113;Total;3/5/2012;18:15:00;100;15 Minutes;;;;;;1380;690;87.215;0;674;2;6;5;2.641;11.516;A;85.371;7.363;16.164;
040548FF6CFDB421;IDS-06A -- ??????-????? -- 1 -- None -- 79 -- 0 -- Solo Pro II MVP -- 172.26.2.146;109;Lane 1;3/5/2012;18:30:00;100;15 Minutes;;;;;;1160;290;82.813;0;270;6;5;9;3.102;10.770;A;81.133;7.055;14.297;
040548FF6CFDB421;IDS-06A -- ??????-????? -- 1 -- None -- 79 -- 0 -- Solo Pro II MVP -- 172.26.2.146;110;Lane 2;3/5/2012;18:30:00;100;15 Minutes;;;;;;1504;376;94.934;0;368;2;2;2;2.391;11.203;A;93.449;7.129;16.094;
040548FF6CFDB421;IDS-06A -- ??????-????? -- 1 -- None -- 79 -- 0 -- Solo Pro II MVP -- 172.26.2.146;113;Total;3/5/2012;18:30:00;100;15 Minutes;;;;;;1332;666;89.656;0;638;8;7;11;2.746;10.984;A;87.656;7.031;15.195;
040548FF6CFDB421;IDS-06A -- ??????-????? -- 1 -- None -- 79 -- 0 -- Solo Pro II MVP -- 172.26.2.146;109;Lane 1;3/5/2012;18:45:00;100;15 Minutes;;;;;;1084;271;80.477;0;253;7;5;6;3.320;10.340;A;78.656;6.848;13.781;
040548FF6CFDB421;IDS-06A -- ??????-????? -- 1 -- None -- 79 -- 0 -- Solo Pro II MVP -- 172.26.2.146;110;Lane 2;3/5/2012;18:45:00;100;15 Minutes;;;;;;1512;378;91.359;0;371;2;3;2;2.379;11.668;A;90.016;7.137;16.797;
040548FF6CFDB421;IDS-06A -- ??????-????? -- 1 -- None -- 79 -- 0 -- Solo Pro II MVP -- 172.26.2.146;113;Total;3/5/2012;18:45:00;100;15 Minutes;;;;;;1298;649;86.816;0;624;9;8;8;2.848;11.004;A;84.852;6.930;15.297;
040548FF6CFDB421;IDS-06A -- ??????-????? -- 1 -- None -- 79 -- 0 -- Solo Pro II MVP -- 172.26.2.146;109;Lane 1;3/5/2012;19:00:00;100;15 Minutes;;;;;;1224;306;76.703;0;283;12;6;5;2.938;14.547;A;74.961;7.602;16.328;
040548FF6CFDB421;IDS-06A -- ??????-????? -- 1 -- None -- 79 -- 0 -- Solo Pro II MVP -- 172.26.2.146;110;Lane 2;3/5/2012;19:00:00;100;15 Minutes;;;;;;1688;422;85.215;0;394;13;13;2;2.129;18.387;A;84.070;8.785;20.078;
040548FF6CFDB421;IDS-06A -- ??????-????? -- 1 -- None -- 79 -- 0 -- Solo Pro II MVP -- 172.26.2.146;113;Total;3/5/2012;19:00:00;100;15 Minutes;;;;;;1456;728;81.637;0;677;25;19;7;2.531;16.465;A;79.984;8.156;18.203;
040548FF6CFDB421;IDS-06A -- ??????-????? -- 1 -- None -- 79 -- 0 -- Solo Pro II MVP -- 172.26.2.146;109;Lane 1;3/5/2012;19:15:00;100;15 Minutes;;;;;;1148;287;74.668;0;268;14;2;3;3.133;13.809;A;73.543;7.375;15.609;
040548FF6CFDB421;IDS-06A -- ??????-????? -- 1 -- None -- 79 -- 0 -- Solo Pro II MVP -- 172.26.2.146;110;Lane 2;3/5/2012;19:15:00;100;15 Minutes;;;;;;1604;401;86.531;0;382;8;4;5;2.242;17.164;A;85.332;8.352;18.797;
040548FF6CFDB421;IDS-06A -- ??????-????? -- 1 -- None -- 79 -- 0 -- Solo Pro II MVP -- 172.26.2.146;113;Total;3/5/2012;19:15:00;100;15 Minutes;;;;;;1376;688;81.582;0;650;22;6;8;2.688;15.484;A;79.984;7.805;17.203;
040548FF6CFDB421;IDS-06A -- ??????-????? -- 1 -- None -- 79 -- 0 -- Solo Pro II MVP -- 172.26.2.146;109;Lane 1;3/5/2012;19:30:00;100;15 Minutes;;;;;;1192;298;72.844;0;275;8;8;5;3.020;15.410;A;70.832;8.012;16.828;
040548FF6CFDB421;IDS-06A -- ??????-????? -- 1 -- None -- 79 -- 0 -- Solo Pro II MVP -- 172.26.2.146;110;Lane 2;3/5/2012;19:30:00;100;15 Minutes;;;;;;1728;432;83.961;0;412;13;6;0;2.082;18.414;A;82.344;8.844;20.984;
040548FF6CFDB421;IDS-06A -- ??????-????? -- 1 -- None -- 79 -- 0 -- Solo Pro II MVP -- 172.26.2.146;113;Total;3/5/2012;19:30:00;100;15 Minutes;;;;;;1460;730;79.422;0;687;21;14;5;2.551;16.910;A;77.188;8.348;18.914;
040548FF6CFDB421;IDS-06A -- ??????-????? -- 1 -- None -- 79 -- 0 -- Solo Pro II MVP -- 172.26.2.146;109;Lane 1;3/5/2012;19:45:00;100;15 Minutes;;;;;;1068;267;74.980;0;241;13;7;6;3.367;13.551;A;73.258;7.039;14.578;
040548FF6CFDB421;IDS-06A -- ??????-????? -- 1 -- None -- 79 -- 0 -- Solo Pro II MVP -- 172.26.2.146;110;Lane 2;3/5/2012;19:45:00;100;15 Minutes;;;;;;1488;372;86.094;0;351;8;5;6;2.418;15.824;A;84.500;7.832;17.609;
040548FF6CFDB421;IDS-06A -- ??????-????? -- 1 -- None -- 79 -- 0 -- Solo Pro II MVP -- 172.26.2.146;113;Total;3/5/2012;19:45:00;100;15 Minutes;;;;;;1278;639;81.449;0;592;21;12;12;2.891;14.688;A;79.371;7.379;16.102;
040548FF6CFDB421;IDS-06A -- ??????-????? -- 1 -- None -- 79 -- 0 -- Solo Pro II MVP -- 172.26.2.146;109;Lane 1;3/5/2012;20:00:00;100;15 Minutes;;;;;;948;237;76.234;0;217;13;6;1;3.797;11.797;A;74.691;6.031;12.691;
040548FF6CFDB421;IDS-06A -- ??????-????? -- 1 -- None -- 79 -- 0 -- Solo Pro II MVP -- 172.26.2.146;110;Lane 2;3/5/2012;20:00:00;100;15 Minutes;;;;;;1488;372;91.242;0;346;10;8;5;2.418;15.242;A;90.523;7.551;16.438;
040548FF6CFDB421;IDS-06A -- ??????-????? -- 1 -- None -- 79 -- 0 -- Solo Pro II MVP -- 172.26.2.146;113;Total;3/5/2012;20:00:00;100;15 Minutes;;;;;;1218;609;85.402;0;563;23;14;6;3.105;13.520;A;83.637;6.727;14.563;
040548FF6CFDB421;IDS-06A -- ??????-????? -- 1 -- None -- 79 -- 0 -- Solo Pro II MVP -- 172.26.2.146;109;Lane 1;3/5/2012;20:15:00;100;15 Minutes;;;;;;948;237;78.152;0;216;12;7;2;3.797;11.680;A;76.004;5.914;12.473;
040548FF6CFDB421;IDS-06A -- ??????-????? -- 1 -- None -- 79 -- 0 -- Solo Pro II MVP -- 172.26.2.146;110;Lane 2;3/5/2012;20:15:00;100;15 Minutes;;;;;;1252;313;92.102;0;285;18;4;6;2.875;12.508;A;90.336;6.332;13.859;
040548FF6CFDB421;IDS-06A -- ??????-????? -- 1 -- None -- 79 -- 0 -- Solo Pro II MVP -- 172.26.2.146;113;Total;3/5/2012;20:15:00;100;15 Minutes;;;;;;1100;550;86.090;0;501;30;11;8;3.336;12.094;A;83.508;6.070;13.172;
040548FF6CFDB421;IDS-06A -- ??????-????? -- 1 -- None -- 79 -- 0 -- Solo Pro II MVP -- 172.26.2.146;109;Lane 1;3/5/2012;20:30:00;100;15 Minutes;;;;;;968;242;77.664;0;218;16;6;2;3.719;11.621;A;75.797;6.055;12.770;
040548FF6CFDB421;IDS-06A -- ??????-????? -- 1 -- None -- 79 -- 0 -- Solo Pro II MVP -- 172.26.2.146;110;Lane 2;3/5/2012;20:30:00;100;15 Minutes;;;;;;1236;309;91.867;0;287;13;7;2;2.910;12.758;A;91.133;6.082;13.563;
040548FF6CFDB421;IDS-06A -- ??????-????? -- 1 -- None -- 79 -- 0 -- Solo Pro II MVP -- 172.26.2.146;113;Total;3/5/2012;20:30:00;100;15 Minutes;;;;;;1102;551;85.629;0;505;29;13;4;3.313;12.188;A;83.711;6.008;13.164;
040548FF6CFDB421;IDS-06A -- ??????-????? -- 1 -- None -- 79 -- 0 -- Solo Pro II MVP -- 172.26.2.146;109;Lane 1;3/5/2012;20:45:00;100;15 Minutes;;;;;;772;193;81.906;0;175;7;8;3;4.660;8.836;A;80.340;4.633;9.605;
040548FF6CFDB421;IDS-06A -- ??????-????? -- 1 -- None -- 79 -- 0 -- Solo Pro II MVP -- 172.26.2.146;110;Lane 2;3/5/2012;20:45:00;100;15 Minutes;;;;;;940;235;96.184;0;215;7;5;8;3.828;9.523;A;94.902;4.914;9.902;
040548FF6CFDB421;IDS-06A -- ??????-????? -- 1 -- None -- 79 -- 0 -- Solo Pro II MVP -- 172.26.2.146;113;Total;3/5/2012;20:45:00;100;15 Minutes;;;;;;856;428;89.746;0;390;14;13;11;4.242;9.180;A;87.793;4.746;9.750;
040548FF6CFDB421;IDS-06A -- ??????-????? -- 1 -- None -- 79 -- 0 -- Solo Pro II MVP -- 172.26.2.146;109;Lane 1;3/5/2012;21:00:00;100;15 Minutes;;;;;;776;194;81.570;0;179;10;4;1;4.637;8.820;A;80.059;4.449;9.691;
040548FF6CFDB421;IDS-06A -- ??????-????? -- 1 -- None -- 79 -- 0 -- Solo Pro II MVP -- 172.26.2.146;110;Lane 2;3/5/2012;21:00:00;100;15 Minutes;;;;;;1044;261;96.875;0;240;12;3;4;3.445;10.441;A;95.586;4.867;10.922;
040548FF6CFDB421;IDS-06A -- ??????-????? -- 1 -- None -- 79 -- 0 -- Solo Pro II MVP -- 172.26.2.146;113;Total;3/5/2012;21:00:00;100;15 Minutes;;;;;;910;455;90.352;0;419;22;7;5;4.039;9.629;A;88.309;4.617;10.305;
040548FF6CFDB421;IDS-06A -- ??????-????? -- 1 -- None -- 79 -- 0 -- Solo Pro II MVP -- 172.26.2.146;109;Lane 1;3/5/2012;21:15:00;100;15 Minutes;;;;;;680;170;81.273;0;153;9;5;2;5.293;7.789;A;79.438;4.215;8.559;
040548FF6CFDB421;IDS-06A -- ??????-????? -- 1 -- None -- 79 -- 0 -- Solo Pro II MVP -- 172.26.2.146;110;Lane 2;3/5/2012;21:15:00;100;15 Minutes;;;;;;868;217;97.258;0;203;5;6;3;4.145;8.559;A;96.039;4.129;9.035;
040548FF6CFDB421;IDS-06A -- ??????-????? -- 1 -- None -- 79 -- 0 -- Solo Pro II MVP -- 172.26.2.146;113;Total;3/5/2012;21:15:00;100;15 Minutes;;;;;;774;387;90.234;0;356;14;11;5;4.719;8.172;A;87.984;4.125;8.797;
040548FF6CFDB421;IDS-06A -- ??????-????? -- 1 -- None -- 79 -- 0 -- Solo Pro II MVP -- 172.26.2.146;109;Lane 1;3/5/2012;21:30:00;100;15 Minutes;;;;;;716;179;82.418;0;163;6;7;3;5.027;8.449;A;80.391;4.402;8.906;
040548FF6CFDB421;IDS-06A -- ??????-????? -- 1 -- None -- 79 -- 0 -- Solo Pro II MVP -- 172.26.2.146;110;Lane 2;3/5/2012;21:30:00;100;15 Minutes;;;;;;720;180;98.543;0;170;5;4;1;5.000;7.547;A;97.176;3.398;7.406;
040548FF6CFDB421;IDS-06A -- ??????-????? -- 1 -- None -- 79 -- 0 -- Solo Pro II MVP -- 172.26.2.146;113;Total;3/5/2012;21:30:00;100;15 Minutes;;;;;;718;359;90.504;0;333;11;11;4;5.012;7.996;A;88.027;3.855;8.156;
040548FF6CFDB421;IDS-06A -- ??????-????? -- 1 -- None -- 79 -- 0 -- Solo Pro II MVP -- 172.26.2.146;109;Lane 1;3/5/2012;21:45:00;100;15 Minutes;;;;;;648;162;79.992;0;150;6;4;2;5.555;7.438;A;78.188;3.891;8.285;
040548FF6CFDB421;IDS-06A -- ??????-????? -- 1 -- None -- 79 -- 0 -- Solo Pro II MVP -- 172.26.2.146;110;Lane 2;3/5/2012;21:45:00;100;15 Minutes;;;;;;876;219;99.824;0;204;8;2;5;4.109;8.742;A;98.434;4.152;8.898;
040548FF6CFDB421;IDS-06A -- ??????-????? -- 1 -- None -- 79 -- 0 -- Solo Pro II MVP -- 172.26.2.146;113;Total;3/5/2012;21:45:00;100;15 Minutes;;;;;;762;381;91.391;0;354;14;6;7;4.832;8.090;A;88.746;3.973;8.586;
040548FF6CFDB421;IDS-06A -- ??????-????? -- 1 -- None -- 79 -- 0 -- Solo Pro II MVP -- 172.26.2.146;109;Lane 1;3/5/2012;22:00:00;100;15 Minutes;;;;;;612;153;81.496;0;140;7;3;3;5.879;7.113;A;79.133;3.613;7.730;
040548FF6CFDB421;IDS-06A -- ??????-????? -- 1 -- None -- 79 -- 0 -- Solo Pro II MVP -- 172.26.2.146;110;Lane 2;3/5/2012;22:00:00;100;15 Minutes;;;;;;632;158;103.188;0;142;10;2;3;5.695;6.328;A;101.762;2.934;6.207;
040548FF6CFDB421;IDS-06A -- ??????-????? -- 1 -- None -- 79 -- 0 -- Solo Pro II MVP -- 172.26.2.146;113;Total;3/5/2012;22:00:00;100;15 Minutes;;;;;;622;311;92.516;0;282;17;5;6;5.785;6.719;A;89.254;3.230;6.969;
040548FF6CFDB421;IDS-06A -- ??????-????? -- 1 -- None -- 79 -- 0 -- Solo Pro II MVP -- 172.26.2.146;109;Lane 1;3/5/2012;22:15:00;100;15 Minutes;;;;;;588;147;84.883;0;136;6;3;2;6.121;6.441;A;82.781;3.285;7.102;
040548FF6CFDB421;IDS-06A -- ??????-????? -- 1 -- None -- 79 -- 0 -- Solo Pro II MVP -- 172.26.2.146;110;Lane 2;3/5/2012;22:15:00;100;15 Minutes;;;;;;592;148;99.781;0;142;4;2;0;6.078;5.977;A;98.254;2.629;6.023;
040548FF6CFDB421;IDS-06A -- ??????-????? -- 1 -- None -- 79 -- 0 -- Solo Pro II MVP -- 172.26.2.146;113;Total;3/5/2012;22:15:00;100;15 Minutes;;;;;;590;295;92.355;0;278;10;5;2;6.098;6.207;A;89.902;2.930;6.563;
040548FF6CFDB421;IDS-06A -- ??????-????? -- 1 -- None -- 79 -- 0 -- Solo Pro II MVP -- 172.26.2.146;109;Lane 1;3/5/2012;22:30:00;100;15 Minutes;;;;;;548;137;85.895;0;128;6;3;0;6.566;5.945;A;83.582;2.918;6.555;
040548FF6CFDB421;IDS-06A -- ??????-????? -- 1 -- None -- 79 -- 0 -- Solo Pro II MVP -- 172.26.2.146;110;Lane 2;3/5/2012;22:30:00;100;15 Minutes;;;;;;564;141;101.332;0;132;5;3;1;6.383;5.738;A;99.352;2.559;5.676;
040548FF6CFDB421;IDS-06A -- ??????-????? -- 1 -- None -- 79 -- 0 -- Solo Pro II MVP -- 172.26.2.146;113;Total;3/5/2012;22:30:00;100;15 Minutes;;;;;;556;278;93.727;0;260;11;6;1;6.473;5.840;A;91.004;2.719;6.109;
040548FF6CFDB421;IDS-06A -- ??????-????? -- 1 -- None -- 79 -- 0 -- Solo Pro II MVP -- 172.26.2.146;109;Lane 1;3/5/2012;22:45:00;100;15 Minutes;;;;;;520;130;82.766;0;116;8;3;2;6.922;5.910;A;80.258;2.973;6.477;
040548FF6CFDB421;IDS-06A -- ??????-????? -- 1 -- None -- 79 -- 0 -- Solo Pro II MVP -- 172.26.2.146;110;Lane 2;3/5/2012;22:45:00;100;15 Minutes;;;;;;428;107;102.625;0;98;6;1;2;8.410;4.223;A;100.563;1.973;4.254;
040548FF6CFDB421;IDS-06A -- ??????-????? -- 1 -- None -- 79 -- 0 -- Solo Pro II MVP -- 172.26.2.146;113;Total;3/5/2012;22:45:00;100;15 Minutes;;;;;;474;237;91.730;0;214;14;4;4;7.664;5.066;A;88.309;2.445;5.367;
040548FF6CFDB421;IDS-06A -- ??????-????? -- 1 -- None -- 79 -- 0 -- Solo Pro II MVP -- 172.26.2.146;109;Lane 1;3/5/2012;23:00:00;100;15 Minutes;;;;;;524;131;89.082;0;125;2;3;1;6.867;5.563;A;86.750;2.633;6.039;
040548FF6CFDB421;IDS-06A -- ??????-????? -- 1 -- None -- 79 -- 0 -- Solo Pro II MVP -- 172.26.2.146;110;Lane 2;3/5/2012;23:00:00;100;15 Minutes;;;;;;452;113;105.520;0;102;5;1;3;7.961;4.328;A;103.457;2.102;4.367;
040548FF6CFDB421;IDS-06A -- ??????-????? -- 1 -- None -- 79 -- 0 -- Solo Pro II MVP -- 172.26.2.146;113;Total;3/5/2012;23:00:00;100;15 Minutes;;;;;;488;244;96.695;0;227;7;4;4;7.414;4.945;A;93.762;2.359;5.203;
040548FF6CFDB421;IDS-06A -- ??????-????? -- 1 -- None -- 79 -- 0 -- Solo Pro II MVP -- 172.26.2.146;109;Lane 1;3/5/2012;23:15:00;100;15 Minutes;;;;;;404;101;87.652;0;94;4;1;2;8.910;4.367;A;85.156;2.184;4.742;
040548FF6CFDB421;IDS-06A -- ??????-????? -- 1 -- None -- 79 -- 0 -- Solo Pro II MVP -- 172.26.2.146;110;Lane 2;3/5/2012;23:15:00;100;15 Minutes;;;;;;312;78;105.176;0;73;2;2;1;11.535;2.941;A;103.230;1.414;3.020;
040548FF6CFDB421;IDS-06A -- ??????-????? -- 1 -- None -- 79 -- 0 -- Solo Pro II MVP -- 172.26.2.146;113;Total;3/5/2012;23:15:00;100;15 Minutes;;;;;;358;179;95.289;0;167;6;3;3;10.223;3.652;A;92.188;1.785;3.883;
040548FF6CFDB421;IDS-06A -- ??????-????? -- 1 -- None -- 79 -- 0 -- Solo Pro II MVP -- 172.26.2.146;109;Lane 1;3/5/2012;23:30:00;100;15 Minutes;;;;;;328;82;86.719;0;78;1;0;3;10.973;3.496;A;84.891;1.855;3.863;
040548FF6CFDB421;IDS-06A -- ??????-????? -- 1 -- None -- 79 -- 0 -- Solo Pro II MVP -- 172.26.2.146;110;Lane 2;3/5/2012;23:30:00;100;15 Minutes;;;;;;288;72;106.527;0;70;1;1;0;12.500;2.594;A;104.641;1.191;2.750;
040548FF6CFDB421;IDS-06A -- ??????-????? -- 1 -- None -- 79 -- 0 -- Solo Pro II MVP -- 172.26.2.146;113;Total;3/5/2012;23:30:00;100;15 Minutes;;;;;;308;154;95.980;0;148;2;1;3;11.734;3.043;A;93.105;1.500;3.305;
040548FF6CFDB421;IDS-06A -- ??????-????? -- 1 -- None -- 79 -- 0 -- Solo Pro II MVP -- 172.26.2.146;109;Lane 1;3/5/2012;23:45:00;100;15 Minutes;;;;;;356;89;90.547;0;83;4;2;0;10.109;3.684;A;88.121;1.879;4.039;
040548FF6CFDB421;IDS-06A -- ??????-????? -- 1 -- None -- 79 -- 0 -- Solo Pro II MVP -- 172.26.2.146;110;Lane 2;3/5/2012;23:45:00;100;15 Minutes;;;;;;288;72;107.219;0;65;4;3;0;12.500;2.793;A;105.641;1.262;2.723;
040548FF6CFDB421;IDS-06A -- ??????-????? -- 1 -- None -- 79 -- 0 -- Solo Pro II MVP -- 172.26.2.146;113;Total;3/5/2012;23:45:00;100;15 Minutes;;;;;;322;161;98.004;0;148;8;5;0;11.305;3.238;A;95.180;1.559;3.383;
