CPU Identifier;Autoscope Description;Detector ID;Detector Title;Date;Time;Status;Data Interval;Ticks (millisec.);State;Speed;Length;Class;Average Flow Rate;Volume;Arithmetic Mean Speed;Class A Count;Class B Count;Class C Count;Class D Count;Class E Count;Average Time Headway;Average Time Occupancy;Level Of Service;Space Mean Speed;Space Occupancy;Density;
040548FF0211B521;IDS-01A -- ?????-?????? -- 1 -- None -- 77 -- 0 -- Solo Pro II MVP -- 172.26.2.141;109;Lane 1;3/5/2012;0:00:00;100;15 Minutes;;;;;;8;2;61.000;0;1;0;1;0;255.996;0.098;A;60.625;0.082;0.129;
040548FF0211B521;IDS-01A -- ?????-?????? -- 1 -- None -- 77 -- 0 -- Solo Pro II MVP -- 172.26.2.141;110;Lane 2;3/5/2012;0:00:00;100;15 Minutes;;;;;;188;47;64.914;0;21;15;4;7;19.148;3.367;A;60.715;2.305;3.094;
040548FF0211B521;IDS-01A -- ?????-?????? -- 1 -- None -- 77 -- 0 -- Solo Pro II MVP -- 172.26.2.141;113;Total;3/5/2012;0:00:00;100;15 Minutes;;;;;;98;49;64.754;0;22;15;5;7;234.574;1.730;A;60.711;1.195;1.613;
040548FF0211B521;IDS-01A -- ?????-?????? -- 1 -- None -- 77 -- 0 -- Solo Pro II MVP -- 172.26.2.141;109;Lane 1;3/5/2012;0:15:00;100;15 Minutes;;;;;;4;1;63.000;0;1;0;0;0;255.996;0.023;A;63.012;0.023;0.063;
040548FF0211B521;IDS-01A -- ?????-?????? -- 1 -- None -- 77 -- 0 -- Solo Pro II MVP -- 172.26.2.141;110;Lane 2;3/5/2012;0:15:00;100;15 Minutes;;;;;;200;50;60.117;0;25;12;9;4;18.000;3.383;A;58.082;2.430;3.441;
040548FF0211B521;IDS-01A -- ?????-?????? -- 1 -- None -- 77 -- 0 -- Solo Pro II MVP -- 172.26.2.141;113;Total;3/5/2012;0:15:00;100;15 Minutes;;;;;;102;51;60.176;0;26;12;9;4;255.996;1.703;A;58.172;1.227;1.750;
040548FF0211B521;IDS-01A -- ?????-?????? -- 1 -- None -- 77 -- 0 -- Solo Pro II MVP -- 172.26.2.141;109;Lane 1;3/5/2012;0:30:00; 99;15 Minutes;;;;;;0;0;0.000;0;0;0;0;0;255.996;0.000;A;0.000;100.000;0.000;
040548FF0211B521;IDS-01A -- ?????-?????? -- 1 -- None -- 77 -- 0 -- Solo Pro II MVP -- 172.26.2.141;110;Lane 2;3/5/2012;0:30:00; 99;15 Minutes;;;;;;196;49;61.672;0;20;21;4;4;18.367;3.961;A;58.387;2.223;3.355;
040548FF0211B521;IDS-01A -- ?????-?????? -- 1 -- None -- 77 -- 0 -- Solo Pro II MVP -- 172.26.2.141;113;Total;3/5/2012;0:30:00; 99;15 Minutes;;;;;;98;49;61.672;0;20;21;4;4;255.996;1.980;A;58.387;1.109;1.676;
040548FF0211B521;IDS-01A -- ?????-?????? -- 1 -- None -- 77 -- 0 -- Solo Pro II MVP -- 172.26.2.141;109;Lane 1;3/5/2012;0:45:00;100;15 Minutes;;;;;;12;3;63.332;0;0;2;0;0;255.996;0.137;A;62.832;0.090;0.188;
040548FF0211B521;IDS-01A -- ?????-?????? -- 1 -- None -- 77 -- 0 -- Solo Pro II MVP -- 172.26.2.141;110;Lane 2;3/5/2012;0:45:00;100;15 Minutes;;;;;;184;46;61.301;0;19;20;3;4;19.563;3.102;A;59.051;2.016;3.113;
040548FF0211B521;IDS-01A -- ?????-?????? -- 1 -- None -- 77 -- 0 -- Solo Pro II MVP -- 172.26.2.141;113;Total;3/5/2012;0:45:00;100;15 Minutes;;;;;;98;49;61.426;0;19;22;3;4;159.781;1.617;A;59.270;1.051;1.652;
040548FF0211B521;IDS-01A -- ?????-?????? -- 1 -- None -- 77 -- 0 -- Solo Pro II MVP -- 172.26.2.141;109;Lane 1;3/5/2012;1:00:00;100;15 Minutes;;;;;;8;2;67.500;0;1;0;1;0;255.996;0.105;A;66.703;0.086;0.117;
040548FF0211B521;IDS-01A -- ?????-?????? -- 1 -- None -- 77 -- 0 -- Solo Pro II MVP -- 172.26.2.141;110;Lane 2;3/5/2012;1:00:00;100;15 Minutes;;;;;;148;37;63.000;0;17;11;5;4;24.324;3.027;A;59.313;1.836;2.492;
040548FF0211B521;IDS-01A -- ?????-?????? -- 1 -- None -- 77 -- 0 -- Solo Pro II MVP -- 172.26.2.141;113;Total;3/5/2012;1:00:00;100;15 Minutes;;;;;;78;39;63.230;0;18;11;6;4;237.160;1.566;A;59.652;0.961;1.305;
040548FF0211B521;IDS-01A -- ?????-?????? -- 1 -- None -- 77 -- 0 -- Solo Pro II MVP -- 172.26.2.141;109;Lane 1;3/5/2012;1:15:00;100;15 Minutes;;;;;;0;0;0.000;0;0;0;0;0;255.996;0.000;A;0.000;100.000;0.000;
040548FF0211B521;IDS-01A -- ?????-?????? -- 1 -- None -- 77 -- 0 -- Solo Pro II MVP -- 172.26.2.141;110;Lane 2;3/5/2012;1:15:00;100;15 Minutes;;;;;;172;43;61.578;0;17;18;3;5;20.930;3.313;A;58.547;2.020;2.938;
040548FF0211B521;IDS-01A -- ?????-?????? -- 1 -- None -- 77 -- 0 -- Solo Pro II MVP -- 172.26.2.141;113;Total;3/5/2012;1:15:00;100;15 Minutes;;;;;;86;43;61.578;0;17;18;3;5;255.996;1.656;A;58.547;1.008;1.469;
040548FF0211B521;IDS-01A -- ?????-?????? -- 1 -- None -- 77 -- 0 -- Solo Pro II MVP -- 172.26.2.141;109;Lane 1;3/5/2012;1:30:00;100;15 Minutes;;;;;;4;1;35.000;0;1;0;0;0;255.996;0.090;A;35.008;0.047;0.113;
040548FF0211B521;IDS-01A -- ?????-?????? -- 1 -- None -- 77 -- 0 -- Solo Pro II MVP -- 172.26.2.141;110;Lane 2;3/5/2012;1:30:00;100;15 Minutes;;;;;;156;39;61.871;0;17;15;1;6;23.074;3.137;A;58.773;1.785;2.652;
040548FF0211B521;IDS-01A -- ?????-?????? -- 1 -- None -- 77 -- 0 -- Solo Pro II MVP -- 172.26.2.141;113;Total;3/5/2012;1:30:00;100;15 Minutes;;;;;;80;40;61.199;0;18;15;1;6;255.996;1.613;A;57.793;0.914;1.383;
040548FF0211B521;IDS-01A -- ?????-?????? -- 1 -- None -- 77 -- 0 -- Solo Pro II MVP -- 172.26.2.141;109;Lane 1;3/5/2012;1:45:00;100;15 Minutes;;;;;;0;0;0.000;0;0;0;0;0;255.996;0.000;A;0.000;100.000;0.000;
040548FF0211B521;IDS-01A -- ?????-?????? -- 1 -- None -- 77 -- 0 -- Solo Pro II MVP -- 172.26.2.141;110;Lane 2;3/5/2012;1:45:00;100;15 Minutes;;;;;;192;48;54.000;0;19;21;3;4;18.750;3.738;A;52.008;2.469;3.691;
040548FF0211B521;IDS-01A -- ?????-?????? -- 1 -- None -- 77 -- 0 -- Solo Pro II MVP -- 172.26.2.141;113;Total;3/5/2012;1:45:00;100;15 Minutes;;;;;;96;48;54.000;0;19;21;3;4;255.996;1.867;A;52.008;1.234;1.844;
040548FF0211B521;IDS-01A -- ?????-?????? -- 1 -- None -- 77 -- 0 -- Solo Pro II MVP -- 172.26.2.141;109;Lane 1;3/5/2012;2:00:00;100;15 Minutes;;;;;;4;1;62.000;0;0;1;0;0;255.996;0.039;A;62.000;0.035;0.063;
040548FF0211B521;IDS-01A -- ?????-?????? -- 1 -- None -- 77 -- 0 -- Solo Pro II MVP -- 172.26.2.141;110;Lane 2;3/5/2012;2:00:00;100;15 Minutes;;;;;;172;43;59.555;0;19;18;4;2;20.930;2.891;A;57.371;1.867;2.996;
040548FF0211B521;IDS-01A -- ?????-?????? -- 1 -- None -- 77 -- 0 -- Solo Pro II MVP -- 172.26.2.141;113;Total;3/5/2012;2:00:00;100;15 Minutes;;;;;;88;44;59.613;0;19;19;4;2;255.996;1.465;A;57.469;0.949;1.531;
040548FF0211B521;IDS-01A -- ?????-?????? -- 1 -- None -- 77 -- 0 -- Solo Pro II MVP -- 172.26.2.141;109;Lane 1;3/5/2012;2:15:00;100;15 Minutes;;;;;;0;0;0.000;0;0;0;0;0;255.996;0.000;A;0.000;100.000;0.000;
040548FF0211B521;IDS-01A -- ?????-?????? -- 1 -- None -- 77 -- 0 -- Solo Pro II MVP -- 172.26.2.141;110;Lane 2;3/5/2012;2:15:00;100;15 Minutes;;;;;;168;42;64.449;0;23;14;0;5;21.426;2.652;A;60.316;1.656;2.785;
040548FF0211B521;IDS-01A -- ?????-?????? -- 1 -- None -- 77 -- 0 -- Solo Pro II MVP -- 172.26.2.141;113;Total;3/5/2012;2:15:00;100;15 Minutes;;;;;;84;42;64.449;0;23;14;0;5;255.996;1.324;A;60.316;0.828;1.391;
040548FF0211B521;IDS-01A -- ?????-?????? -- 1 -- None -- 77 -- 0 -- Solo Pro II MVP -- 172.26.2.141;109;Lane 1;3/5/2012;2:30:00;100;15 Minutes;;;;;;0;0;0.000;0;0;0;0;0;255.996;0.000;A;0.000;100.000;0.000;
040548FF0211B521;IDS-01A -- ?????-?????? -- 1 -- None -- 77 -- 0 -- Solo Pro II MVP -- 172.26.2.141;110;Lane 2;3/5/2012;2:30:00;100;15 Minutes;;;;;;140;35;62.082;0;15;15;2;3;25.711;2.801;A;56.047;1.566;2.496;
040548FF0211B521;IDS-01A -- ?????-?????? -- 1 -- None -- 77 -- 0 -- Solo Pro II MVP -- 172.26.2.141;113;Total;3/5/2012;2:30:00;100;15 Minutes;;;;;;70;35;62.082;0;15;15;2;3;255.996;1.398;A;56.047;0.781;1.246;
040548FF0211B521;IDS-01A -- ?????-?????? -- 1 -- None -- 77 -- 0 -- Solo Pro II MVP -- 172.26.2.141;109;Lane 1;3/5/2012;2:45:00;100;15 Minutes;;;;;;0;0;0.000;0;0;0;0;0;255.996;0.000;A;0.000;100.000;0.000;
040548FF0211B521;IDS-01A -- ?????-?????? -- 1 -- None -- 77 -- 0 -- Solo Pro II MVP -- 172.26.2.141;110;Lane 2;3/5/2012;2:45:00;100;15 Minutes;;;;;;148;37;60.000;0;19;11;4;3;24.324;2.633;A;57.844;1.723;2.559;
040548FF0211B521;IDS-01A -- ?????-?????? -- 1 -- None -- 77 -- 0 -- Solo Pro II MVP -- 172.26.2.141;113;Total;3/5/2012;2:45:00;100;15 Minutes;;;;;;74;37;60.000;0;19;11;4;3;255.996;1.316;A;57.844;0.859;1.277;
040548FF0211B521;IDS-01A -- ?????-?????? -- 1 -- None -- 77 -- 0 -- Solo Pro II MVP -- 172.26.2.141;109;Lane 1;3/5/2012;3:00:00;100;15 Minutes;;;;;;0;0;0.000;0;0;0;0;0;255.996;0.000;A;0.000;100.000;0.000;
040548FF0211B521;IDS-01A -- ?????-?????? -- 1 -- None -- 77 -- 0 -- Solo Pro II MVP -- 172.26.2.141;110;Lane 2;3/5/2012;3:00:00;100;15 Minutes;;;;;;152;38;62.523;0;18;12;5;3;23.684;2.539;A;60.355;1.625;2.516;
040548FF0211B521;IDS-01A -- ?????-?????? -- 1 -- None -- 77 -- 0 -- Solo Pro II MVP -- 172.26.2.141;113;Total;3/5/2012;3:00:00;100;15 Minutes;;;;;;76;38;62.523;0;18;12;5;3;255.996;1.270;A;60.355;0.813;1.258;
040548FF0211B521;IDS-01A -- ?????-?????? -- 1 -- None -- 77 -- 0 -- Solo Pro II MVP -- 172.26.2.141;109;Lane 1;3/5/2012;3:15:00;100;15 Minutes;;;;;;0;0;0.000;0;0;0;0;0;255.996;0.000;A;0.000;100.000;0.000;
040548FF0211B521;IDS-01A -- ?????-?????? -- 1 -- None -- 77 -- 0 -- Solo Pro II MVP -- 172.26.2.141;110;Lane 2;3/5/2012;3:15:00;100;15 Minutes;;;;;;152;38;60.000;0;17;17;3;1;23.684;2.438;A;57.410;1.504;2.645;
040548FF0211B521;IDS-01A -- ?????-?????? -- 1 -- None -- 77 -- 0 -- Solo Pro II MVP -- 172.26.2.141;113;Total;3/5/2012;3:15:00;100;15 Minutes;;;;;;76;38;60.000;0;17;17;3;1;255.996;1.219;A;57.410;0.750;1.320;
040548FF0211B521;IDS-01A -- ?????-?????? -- 1 -- None -- 77 -- 0 -- Solo Pro II MVP -- 172.26.2.141;109;Lane 1;3/5/2012;3:30:00;100;15 Minutes;;;;;;0;0;0.000;0;0;0;0;0;255.996;0.000;A;0.000;100.000;0.000;
040548FF0211B521;IDS-01A -- ?????-?????? -- 1 -- None -- 77 -- 0 -- Solo Pro II MVP -- 172.26.2.141;110;Lane 2;3/5/2012;3:30:00;100;15 Minutes;;;;;;192;48;58.707;0;23;17;3;5;18.750;3.445;A;56.070;2.352;3.422;
040548FF0211B521;IDS-01A -- ?????-?????? -- 1 -- None -- 77 -- 0 -- Solo Pro II MVP -- 172.26.2.141;113;Total;3/5/2012;3:30:00;100;15 Minutes;;;;;;96;48;58.707;0;23;17;3;5;255.996;1.723;A;56.070;1.176;1.711;
040548FF0211B521;IDS-01A -- ?????-?????? -- 1 -- None -- 77 -- 0 -- Solo Pro II MVP -- 172.26.2.141;109;Lane 1;3/5/2012;3:45:00;100;15 Minutes;;;;;;0;0;0.000;0;0;0;0;0;255.996;0.000;A;0.000;100.000;0.000;
040548FF0211B521;IDS-01A -- ?????-?????? -- 1 -- None -- 77 -- 0 -- Solo Pro II MVP -- 172.26.2.141;110;Lane 2;3/5/2012;3:45:00;100;15 Minutes;;;;;;192;48;54.207;0;23;16;4;5;18.750;3.520;A;53.020;2.508;3.621;
040548FF0211B521;IDS-01A -- ?????-?????? -- 1 -- None -- 77 -- 0 -- Solo Pro II MVP -- 172.26.2.141;113;Total;3/5/2012;3:45:00;100;15 Minutes;;;;;;96;48;54.207;0;23;16;4;5;255.996;1.758;A;53.020;1.254;1.809;
040548FF0211B521;IDS-01A -- ?????-?????? -- 1 -- None -- 77 -- 0 -- Solo Pro II MVP -- 172.26.2.141;109;Lane 1;3/5/2012;4:00:00;100;15 Minutes;;;;;;0;0;0.000;0;0;0;0;0;255.996;0.000;A;0.000;100.000;0.000;
040548FF0211B521;IDS-01A -- ?????-?????? -- 1 -- None -- 77 -- 0 -- Solo Pro II MVP -- 172.26.2.141;110;Lane 2;3/5/2012;4:00:00;100;15 Minutes;;;;;;180;45;54.133;0;26;12;4;2;20.000;3.316;A;53.422;1.984;3.367;
040548FF0211B521;IDS-01A -- ?????-?????? -- 1 -- None -- 77 -- 0 -- Solo Pro II MVP -- 172.26.2.141;113;Total;3/5/2012;4:00:00;100;15 Minutes;;;;;;90;45;54.133;0;26;12;4;2;255.996;1.656;A;53.422;0.992;1.684;
040548FF0211B521;IDS-01A -- ?????-?????? -- 1 -- None -- 77 -- 0 -- Solo Pro II MVP -- 172.26.2.141;109;Lane 1;3/5/2012;4:15:00;100;15 Minutes;;;;;;4;1;62.000;0;0;0;0;0;255.996;0.148;A;62.000;0.000;0.063;
040548FF0211B521;IDS-01A -- ?????-?????? -- 1 -- None -- 77 -- 0 -- Solo Pro II MVP -- 172.26.2.141;110;Lane 2;3/5/2012;4:15:00;100;15 Minutes;;;;;;232;58;54.930;0;32;14;7;5;15.516;4.867;A;53.512;2.859;4.332;
040548FF0211B521;IDS-01A -- ?????-?????? -- 1 -- None -- 77 -- 0 -- Solo Pro II MVP -- 172.26.2.141;113;Total;3/5/2012;4:15:00;100;15 Minutes;;;;;;118;59;55.051;0;32;14;7;5;255.996;2.508;A;53.637;1.426;2.199;
040548FF0211B521;IDS-01A -- ?????-?????? -- 1 -- None -- 77 -- 0 -- Solo Pro II MVP -- 172.26.2.141;109;Lane 1;3/5/2012;4:30:00;100;15 Minutes;;;;;;8;2;45.000;0;2;0;0;0;255.996;0.129;A;44.918;0.047;0.176;
040548FF0211B521;IDS-01A -- ?????-?????? -- 1 -- None -- 77 -- 0 -- Solo Pro II MVP -- 172.26.2.141;110;Lane 2;3/5/2012;4:30:00;100;15 Minutes;;;;;;216;54;60.664;0;24;18;6;6;16.664;3.723;A;58.266;2.543;3.707;
040548FF0211B521;IDS-01A -- ?????-?????? -- 1 -- None -- 77 -- 0 -- Solo Pro II MVP -- 172.26.2.141;113;Total;3/5/2012;4:30:00;100;15 Minutes;;;;;;112;56;60.105;0;26;18;6;6;233.332;1.926;A;57.652;1.301;1.941;
040548FF0211B521;IDS-01A -- ?????-?????? -- 1 -- None -- 77 -- 0 -- Solo Pro II MVP -- 172.26.2.141;109;Lane 1;3/5/2012;4:45:00;100;15 Minutes;;;;;;0;0;0.000;0;0;0;0;0;255.996;0.000;A;0.000;100.000;0.000;
040548FF0211B521;IDS-01A -- ?????-?????? -- 1 -- None -- 77 -- 0 -- Solo Pro II MVP -- 172.26.2.141;110;Lane 2;3/5/2012;4:45:00;100;15 Minutes;;;;;;288;72;56.180;0;48;12;6;5;12.500;5.488;A;54.508;3.152;5.281;
040548FF0211B521;IDS-01A -- ?????-?????? -- 1 -- None -- 77 -- 0 -- Solo Pro II MVP -- 172.26.2.141;113;Total;3/5/2012;4:45:00;100;15 Minutes;;;;;;144;72;56.180;0;48;12;6;5;255.996;2.742;A;54.508;1.574;2.641;
040548FF0211B521;IDS-01A -- ?????-?????? -- 1 -- None -- 77 -- 0 -- Solo Pro II MVP -- 172.26.2.141;109;Lane 1;3/5/2012;5:00:00;100;15 Minutes;;;;;;0;0;0.000;0;0;0;0;0;255.996;0.000;A;0.000;100.000;0.000;
040548FF0211B521;IDS-01A -- ?????-?????? -- 1 -- None -- 77 -- 0 -- Solo Pro II MVP -- 172.26.2.141;110;Lane 2;3/5/2012;5:00:00;100;15 Minutes;;;;;;400;100;56.809;0;66;19;8;7;9.000;6.738;A;55.387;4.266;7.219;
040548FF0211B521;IDS-01A -- ?????-?????? -- 1 -- None -- 77 -- 0 -- Solo Pro II MVP -- 172.26.2.141;113;Total;3/5/2012;5:00:00;100;15 Minutes;;;;;;200;100;56.809;0;66;19;8;7;255.996;3.367;A;55.387;2.133;3.609;
040548FF0211B521;IDS-01A -- ?????-?????? -- 1 -- None -- 77 -- 0 -- Solo Pro II MVP -- 172.26.2.141;109;Lane 1;3/5/2012;5:15:00;100;15 Minutes;;;;;;0;0;0.000;0;0;0;0;0;255.996;0.000;A;0.000;100.000;0.000;
040548FF0211B521;IDS-01A -- ?????-?????? -- 1 -- None -- 77 -- 0 -- Solo Pro II MVP -- 172.26.2.141;110;Lane 2;3/5/2012;5:15:00;100;15 Minutes;;;;;;272;68;59.750;0;34;24;3;6;13.234;4.918;A;58.250;2.852;4.668;
040548FF0211B521;IDS-01A -- ?????-?????? -- 1 -- None -- 77 -- 0 -- Solo Pro II MVP -- 172.26.2.141;113;Total;3/5/2012;5:15:00;100;15 Minutes;;;;;;136;68;59.750;0;34;24;3;6;255.996;2.457;A;58.250;1.426;2.332;
040548FF0211B521;IDS-01A -- ?????-?????? -- 1 -- None -- 77 -- 0 -- Solo Pro II MVP -- 172.26.2.141;109;Lane 1;3/5/2012;5:30:00;100;15 Minutes;;;;;;0;0;0.000;0;0;0;0;0;255.996;0.000;A;0.000;100.000;0.000;
040548FF0211B521;IDS-01A -- ?????-?????? -- 1 -- None -- 77 -- 0 -- Solo Pro II MVP -- 172.26.2.141;110;Lane 2;3/5/2012;5:30:00;100;15 Minutes;;;;;;336;84;59.984;0;52;23;4;5;10.711;5.371;A;58.543;3.348;5.738;
040548FF0211B521;IDS-01A -- ?????-?????? -- 1 -- None -- 77 -- 0 -- Solo Pro II MVP -- 172.26.2.141;113;Total;3/5/2012;5:30:00;100;15 Minutes;;;;;;168;84;59.984;0;52;23;4;5;255.996;2.684;A;58.543;1.672;2.867;
040548FF0211B521;IDS-01A -- ?????-?????? -- 1 -- None -- 77 -- 0 -- Solo Pro II MVP -- 172.26.2.141;109;Lane 1;3/5/2012;5:45:00;100;15 Minutes;;;;;;0;0;0.000;0;0;0;0;0;255.996;0.000;A;0.000;100.000;0.000;
040548FF0211B521;IDS-01A -- ?????-?????? -- 1 -- None -- 77 -- 0 -- Solo Pro II MVP -- 172.26.2.141;110;Lane 2;3/5/2012;5:45:00;100;15 Minutes;;;;;;344;86;61.918;0;59;20;4;3;10.465;5.121;A;60.176;2.918;5.715;
040548FF0211B521;IDS-01A -- ?????-?????? -- 1 -- None -- 77 -- 0 -- Solo Pro II MVP -- 172.26.2.141;113;Total;3/5/2012;5:45:00;100;15 Minutes;;;;;;172;86;61.918;0;59;20;4;3;255.996;2.559;A;60.176;1.457;2.855;
040548FF0211B521;IDS-01A -- ?????-?????? -- 1 -- None -- 77 -- 0 -- Solo Pro II MVP -- 172.26.2.141;109;Lane 1;3/5/2012;6:00:00;100;15 Minutes;;;;;;0;0;0.000;0;0;0;0;0;255.996;0.000;A;0.000;100.000;0.000;
040548FF0211B521;IDS-01A -- ?????-?????? -- 1 -- None -- 77 -- 0 -- Solo Pro II MVP -- 172.26.2.141;110;Lane 2;3/5/2012;6:00:00;100;15 Minutes;;;;;;356;89;63.055;0;30;31;11;17;10.109;6.609;A;61.719;4.898;5.766;
040548FF0211B521;IDS-01A -- ?????-?????? -- 1 -- None -- 77 -- 0 -- Solo Pro II MVP -- 172.26.2.141;113;Total;3/5/2012;6:00:00;100;15 Minutes;;;;;;178;89;63.055;0;30;31;11;17;255.996;3.305;A;61.719;2.449;2.883;
040548FF0211B521;IDS-01A -- ?????-?????? -- 1 -- None -- 77 -- 0 -- Solo Pro II MVP -- 172.26.2.141;109;Lane 1;3/5/2012;6:15:00;100;15 Minutes;;;;;;16;4;58.750;0;0;3;0;0;225.000;0.426;A;58.199;0.137;0.273;
040548FF0211B521;IDS-01A -- ?????-?????? -- 1 -- None -- 77 -- 0 -- Solo Pro II MVP -- 172.26.2.141;110;Lane 2;3/5/2012;6:15:00;100;15 Minutes;;;;;;396;99;65.281;0;31;28;12;27;9.090;7.340;A;63.621;6.113;6.223;
040548FF0211B521;IDS-01A -- ?????-?????? -- 1 -- None -- 77 -- 0 -- Solo Pro II MVP -- 172.26.2.141;113;Total;3/5/2012;6:15:00;100;15 Minutes;;;;;;206;103;65.027;0;31;31;12;27;117.043;3.883;A;63.391;3.129;3.246;
040548FF0211B521;IDS-01A -- ?????-?????? -- 1 -- None -- 77 -- 0 -- Solo Pro II MVP -- 172.26.2.141;109;Lane 1;3/5/2012;6:30:00;100;15 Minutes;;;;;;4;1;56.000;0;0;0;1;0;255.996;0.164;A;56.012;0.066;0.070;
040548FF0211B521;IDS-01A -- ?????-?????? -- 1 -- None -- 77 -- 0 -- Solo Pro II MVP -- 172.26.2.141;110;Lane 2;3/5/2012;6:30:00;100;15 Minutes;;;;;;396;99;62.855;0;35;32;12;20;9.090;7.355;A;61.020;5.559;6.488;
040548FF0211B521;IDS-01A -- ?????-?????? -- 1 -- None -- 77 -- 0 -- Solo Pro II MVP -- 172.26.2.141;113;Total;3/5/2012;6:30:00;100;15 Minutes;;;;;;200;100;62.789;0;35;32;13;20;255.996;3.758;A;60.965;2.813;3.277;
040548FF0211B521;IDS-01A -- ?????-?????? -- 1 -- None -- 77 -- 0 -- Solo Pro II MVP -- 172.26.2.141;109;Lane 1;3/5/2012;6:45:00;100;15 Minutes;;;;;;8;2;59.000;0;0;1;0;1;255.996;0.277;A;56.961;0.133;0.137;
040548FF0211B521;IDS-01A -- ?????-?????? -- 1 -- None -- 77 -- 0 -- Solo Pro II MVP -- 172.26.2.141;110;Lane 2;3/5/2012;6:45:00;100;15 Minutes;;;;;;424;106;62.563;0;27;37;16;26;8.488;8.234;A;60.375;6.797;7.020;
040548FF0211B521;IDS-01A -- ?????-?????? -- 1 -- None -- 77 -- 0 -- Solo Pro II MVP -- 172.26.2.141;113;Total;3/5/2012;6:45:00;100;15 Minutes;;;;;;216;108;62.500;0;27;38;16;27;229.242;4.254;A;60.309;3.465;3.578;
040548FF0211B521;IDS-01A -- ?????-?????? -- 1 -- None -- 77 -- 0 -- Solo Pro II MVP -- 172.26.2.141;109;Lane 1;3/5/2012;7:00:00;100;15 Minutes;;;;;;4;1;50.000;0;0;0;0;1;255.996;0.145;A;50.027;0.117;0.078;
040548FF0211B521;IDS-01A -- ?????-?????? -- 1 -- None -- 77 -- 0 -- Solo Pro II MVP -- 172.26.2.141;110;Lane 2;3/5/2012;7:00:00;100;15 Minutes;;;;;;424;106;60.395;0;18;43;24;21;8.488;8.367;A;58.539;7.352;7.242;
040548FF0211B521;IDS-01A -- ?????-?????? -- 1 -- None -- 77 -- 0 -- Solo Pro II MVP -- 172.26.2.141;113;Total;3/5/2012;7:00:00;100;15 Minutes;;;;;;214;107;60.297;0;18;43;24;22;255.996;4.254;A;58.445;3.730;3.660;
040548FF0211B521;IDS-01A -- ?????-?????? -- 1 -- None -- 77 -- 0 -- Solo Pro II MVP -- 172.26.2.141;109;Lane 1;3/5/2012;7:15:00;100;15 Minutes;;;;;;0;0;0.000;0;0;0;0;0;255.996;0.000;A;0.000;100.000;0.000;
040548FF0211B521;IDS-01A -- ?????-?????? -- 1 -- None -- 77 -- 0 -- Solo Pro II MVP -- 172.26.2.141;110;Lane 2;3/5/2012;7:15:00;100;15 Minutes;;;;;;476;119;60.840;0;26;45;18;30;7.563;8.676;A;58.820;7.723;8.090;
040548FF0211B521;IDS-01A -- ?????-?????? -- 1 -- None -- 77 -- 0 -- Solo Pro II MVP -- 172.26.2.141;113;Total;3/5/2012;7:15:00;100;15 Minutes;;;;;;238;119;60.840;0;26;45;18;30;255.996;4.336;A;58.820;3.859;4.043;
040548FF0211B521;IDS-01A -- ?????-?????? -- 1 -- None -- 77 -- 0 -- Solo Pro II MVP -- 172.26.2.141;109;Lane 1;3/5/2012;7:30:00;100;15 Minutes;;;;;;8;2;59.000;0;1;0;0;0;255.996;0.086;A;58.406;0.027;0.137;
040548FF0211B521;IDS-01A -- ?????-?????? -- 1 -- None -- 77 -- 0 -- Solo Pro II MVP -- 172.26.2.141;110;Lane 2;3/5/2012;7:30:00;100;15 Minutes;;;;;;504;126;66.254;0;37;46;16;27;7.141;8.281;A;63.289;6.914;7.961;
040548FF0211B521;IDS-01A -- ?????-?????? -- 1 -- None -- 77 -- 0 -- Solo Pro II MVP -- 172.26.2.141;113;Total;3/5/2012;7:30:00;100;15 Minutes;;;;;;256;128;66.141;0;38;46;16;27;228.570;4.184;A;63.207;3.477;4.047;
040548FF0211B521;IDS-01A -- ?????-?????? -- 1 -- None -- 77 -- 0 -- Solo Pro II MVP -- 172.26.2.141;109;Lane 1;3/5/2012;7:45:00;100;15 Minutes;;;;;;12;3;76.332;0;0;2;0;0;255.996;0.234;A;67.238;0.066;0.176;
040548FF0211B521;IDS-01A -- ?????-?????? -- 1 -- None -- 77 -- 0 -- Solo Pro II MVP -- 172.26.2.141;110;Lane 2;3/5/2012;7:45:00;100;15 Minutes;;;;;;520;130;67.699;0;50;51;11;18;6.922;7.387;A;65.098;5.930;7.984;
040548FF0211B521;IDS-01A -- ?????-?????? -- 1 -- None -- 77 -- 0 -- Solo Pro II MVP -- 172.26.2.141;113;Total;3/5/2012;7:45:00;100;15 Minutes;;;;;;266;133;67.895;0;50;53;11;18;153.461;3.809;A;65.145;2.992;4.082;
040548FF0211B521;IDS-01A -- ?????-?????? -- 1 -- None -- 77 -- 0 -- Solo Pro II MVP -- 172.26.2.141;109;Lane 1;3/5/2012;8:00:00;100;15 Minutes;;;;;;12;3;69.000;0;3;0;0;0;255.996;0.309;A;65.016;0.066;0.184;
040548FF0211B521;IDS-01A -- ?????-?????? -- 1 -- None -- 77 -- 0 -- Solo Pro II MVP -- 172.26.2.141;110;Lane 2;3/5/2012;8:00:00;100;15 Minutes;;;;;;500;125;61.359;0;33;44;17;31;7.199;9.367;A;59.117;7.828;8.457;
040548FF0211B521;IDS-01A -- ?????-?????? -- 1 -- None -- 77 -- 0 -- Solo Pro II MVP -- 172.26.2.141;113;Total;3/5/2012;8:00:00;100;15 Minutes;;;;;;256;128;61.539;0;36;44;17;31;153.598;4.836;A;59.246;3.941;4.320;
040548FF0211B521;IDS-01A -- ?????-?????? -- 1 -- None -- 77 -- 0 -- Solo Pro II MVP -- 172.26.2.141;109;Lane 1;3/5/2012;8:15:00;100;15 Minutes;;;;;;4;1;64.000;0;1;0;0;0;255.996;0.059;A;64.000;0.012;0.063;
040548FF0211B521;IDS-01A -- ?????-?????? -- 1 -- None -- 77 -- 0 -- Solo Pro II MVP -- 172.26.2.141;110;Lane 2;3/5/2012;8:15:00;100;15 Minutes;;;;;;508;127;68.574;0;40;48;12;27;7.086;8.590;A;65.566;6.543;7.746;
040548FF0211B521;IDS-01A -- ?????-?????? -- 1 -- None -- 77 -- 0 -- Solo Pro II MVP -- 172.26.2.141;113;Total;3/5/2012;8:15:00;100;15 Minutes;;;;;;256;128;68.539;0;41;48;12;27;255.996;4.324;A;65.555;3.281;3.902;
040548FF0211B521;IDS-01A -- ?????-?????? -- 1 -- None -- 77 -- 0 -- Solo Pro II MVP -- 172.26.2.141;109;Lane 1;3/5/2012;8:30:00;100;15 Minutes;;;;;;12;3;41.332;0;3;0;0;0;255.996;0.109;A;40.629;0.090;0.293;
040548FF0211B521;IDS-01A -- ?????-?????? -- 1 -- None -- 77 -- 0 -- Solo Pro II MVP -- 172.26.2.141;110;Lane 2;3/5/2012;8:30:00;100;15 Minutes;;;;;;512;128;61.555;0;32;53;17;26;7.031;9.652;A;59.102;7.598;8.660;
040548FF0211B521;IDS-01A -- ?????-?????? -- 1 -- None -- 77 -- 0 -- Solo Pro II MVP -- 172.26.2.141;113;Total;3/5/2012;8:30:00;100;15 Minutes;;;;;;262;131;61.090;0;35;53;17;26;153.516;4.879;A;58.492;3.855;4.477;
040548FF0211B521;IDS-01A -- ?????-?????? -- 1 -- None -- 77 -- 0 -- Solo Pro II MVP -- 172.26.2.141;109;Lane 1;3/5/2012;8:45:00;100;15 Minutes;;;;;;12;3;65.000;0;1;1;0;0;255.996;0.379;A;63.543;0.059;0.188;
040548FF0211B521;IDS-01A -- ?????-?????? -- 1 -- None -- 77 -- 0 -- Solo Pro II MVP -- 172.26.2.141;110;Lane 2;3/5/2012;8:45:00;100;15 Minutes;;;;;;560;140;58.113;0;18;58;25;39;6.426;12.547;A;56.750;10.375;9.867;
040548FF0211B521;IDS-01A -- ?????-?????? -- 1 -- None -- 77 -- 0 -- Solo Pro II MVP -- 172.26.2.141;113;Total;3/5/2012;8:45:00;100;15 Minutes;;;;;;286;143;58.258;0;19;59;25;39;153.211;6.461;A;56.875;5.207;5.027;
040548FF0211B521;IDS-01A -- ?????-?????? -- 1 -- None -- 77 -- 0 -- Solo Pro II MVP -- 172.26.2.141;109;Lane 1;3/5/2012;9:00:00;100;15 Minutes;;;;;;4;1;46.000;0;0;0;0;1;255.996;0.180;A;46.020;0.168;0.086;
040548FF0211B521;IDS-01A -- ?????-?????? -- 1 -- None -- 77 -- 0 -- Solo Pro II MVP -- 172.26.2.141;110;Lane 2;3/5/2012;9:00:00;100;15 Minutes;;;;;;624;156;58.492;0;32;62;23;38;5.766;13.305;A;56.129;10.605;11.117;
040548FF0211B521;IDS-01A -- ?????-?????? -- 1 -- None -- 77 -- 0 -- Solo Pro II MVP -- 172.26.2.141;113;Total;3/5/2012;9:00:00;100;15 Minutes;;;;;;314;157;58.410;0;32;62;23;39;255.996;6.742;A;56.051;5.375;5.602;
040548FF0211B521;IDS-01A -- ?????-?????? -- 1 -- None -- 77 -- 0 -- Solo Pro II MVP -- 172.26.2.141;109;Lane 1;3/5/2012;9:15:00;100;15 Minutes;;;;;;8;2;68.000;0;1;1;0;0;255.996;0.121;A;62.711;0.063;0.125;
040548FF0211B521;IDS-01A -- ?????-?????? -- 1 -- None -- 77 -- 0 -- Solo Pro II MVP -- 172.26.2.141;110;Lane 2;3/5/2012;9:15:00;100;15 Minutes;;;;;;656;164;59.809;0;35;66;25;38;5.484;13.543;A;57.410;10.414;11.426;
040548FF0211B521;IDS-01A -- ?????-?????? -- 1 -- None -- 77 -- 0 -- Solo Pro II MVP -- 172.26.2.141;113;Total;3/5/2012;9:15:00;100;15 Minutes;;;;;;332;166;59.906;0;36;67;25;38;227.742;6.832;A;57.469;5.234;5.773;
040548FF0211B521;IDS-01A -- ?????-?????? -- 1 -- None -- 77 -- 0 -- Solo Pro II MVP -- 172.26.2.141;109;Lane 1;3/5/2012;9:30:00;100;15 Minutes;;;;;;0;0;0.000;0;0;0;0;0;255.996;0.000;A;0.000;100.000;0.000;
040548FF0211B521;IDS-01A -- ?????-?????? -- 1 -- None -- 77 -- 0 -- Solo Pro II MVP -- 172.26.2.141;110;Lane 2;3/5/2012;9:30:00;100;15 Minutes;;;;;;652;163;58.598;0;40;69;20;33;5.520;13.848;A;56.570;10.242;11.523;
040548FF0211B521;IDS-01A -- ?????-?????? -- 1 -- None -- 77 -- 0 -- Solo Pro II MVP -- 172.26.2.141;113;Total;3/5/2012;9:30:00;100;15 Minutes;;;;;;326;163;58.598;0;40;69;20;33;255.996;6.922;A;56.570;5.121;5.762;
040548FF0211B521;IDS-01A -- ?????-?????? -- 1 -- None -- 77 -- 0 -- Solo Pro II MVP -- 172.26.2.141;109;Lane 1;3/5/2012;9:45:00;100;15 Minutes;;;;;;12;3;61.000;0;2;0;1;0;255.996;0.148;A;53.895;0.090;0.223;
040548FF0211B521;IDS-01A -- ?????-?????? -- 1 -- None -- 77 -- 0 -- Solo Pro II MVP -- 172.26.2.141;110;Lane 2;3/5/2012;9:45:00;100;15 Minutes;;;;;;756;189;56.152;0;41;76;30;42;4.762;16.836;A;54.613;12.852;13.840;
040548FF0211B521;IDS-01A -- ?????-?????? -- 1 -- None -- 77 -- 0 -- Solo Pro II MVP -- 172.26.2.141;113;Total;3/5/2012;9:45:00;100;15 Minutes;;;;;;384;192;56.227;0;43;76;31;42;152.379;8.492;A;54.602;6.469;7.031;
040548FF0211B521;IDS-01A -- ?????-?????? -- 1 -- None -- 77 -- 0 -- Solo Pro II MVP -- 172.26.2.141;109;Lane 1;3/5/2012;10:00:00;100;15 Minutes;;;;;;16;4;61.000;0;2;2;0;0;225.000;0.199;A;60.793;0.129;0.262;
040548FF0211B521;IDS-01A -- ?????-?????? -- 1 -- None -- 77 -- 0 -- Solo Pro II MVP -- 172.26.2.141;110;Lane 2;3/5/2012;10:00:00;100;15 Minutes;;;;;;656;164;58.680;0;43;70;19;32;5.484;12.777;A;57.500;9.719;11.406;
040548FF0211B521;IDS-01A -- ?????-?????? -- 1 -- None -- 77 -- 0 -- Solo Pro II MVP -- 172.26.2.141;113;Total;3/5/2012;10:00:00;100;15 Minutes;;;;;;336;168;58.734;0;45;72;19;32;115.242;6.488;A;57.574;4.922;5.836;
040548FF0211B521;IDS-01A -- ?????-?????? -- 1 -- None -- 77 -- 0 -- Solo Pro II MVP -- 172.26.2.141;109;Lane 1;3/5/2012;10:15:00;100;15 Minutes;;;;;;12;3;75.000;0;1;1;0;1;255.996;0.195;A;73.578;0.129;0.160;
040548FF0211B521;IDS-01A -- ?????-?????? -- 1 -- None -- 77 -- 0 -- Solo Pro II MVP -- 172.26.2.141;110;Lane 2;3/5/2012;10:15:00;100;15 Minutes;;;;;;724;181;59.363;0;62;66;23;28;4.969;13.746;A;57.648;9.793;12.559;
040548FF0211B521;IDS-01A -- ?????-?????? -- 1 -- None -- 77 -- 0 -- Solo Pro II MVP -- 172.26.2.141;113;Total;3/5/2012;10:15:00;100;15 Minutes;;;;;;368;184;59.617;0;63;67;23;29;152.484;6.969;A;57.855;4.957;6.359;
040548FF0211B521;IDS-01A -- ?????-?????? -- 1 -- None -- 77 -- 0 -- Solo Pro II MVP -- 172.26.2.141;109;Lane 1;3/5/2012;10:30:00;100;15 Minutes;;;;;;12;3;66.332;0;1;1;0;0;255.996;0.242;A;63.074;0.070;0.188;
040548FF0211B521;IDS-01A -- ?????-?????? -- 1 -- None -- 77 -- 0 -- Solo Pro II MVP -- 172.26.2.141;110;Lane 2;3/5/2012;10:30:00;100;15 Minutes;;;;;;732;183;60.211;0;63;83;20;17;4.918;12.449;A;58.379;8.863;12.535;
040548FF0211B521;IDS-01A -- ?????-?????? -- 1 -- None -- 77 -- 0 -- Solo Pro II MVP -- 172.26.2.141;113;Total;3/5/2012;10:30:00;100;15 Minutes;;;;;;372;186;60.309;0;64;84;20;17;152.457;6.344;A;58.449;4.465;6.363;
040548FF0211B521;IDS-01A -- ?????-?????? -- 1 -- None -- 77 -- 0 -- Solo Pro II MVP -- 172.26.2.141;109;Lane 1;3/5/2012;10:45:00;100;15 Minutes;;;;;;12;3;92.000;0;2;1;0;0;255.996;0.121;A;90.727;0.051;0.129;
040548FF0211B521;IDS-01A -- ?????-?????? -- 1 -- None -- 77 -- 0 -- Solo Pro II MVP -- 172.26.2.141;110;Lane 2;3/5/2012;10:45:00;100;15 Minutes;;;;;;688;172;60.004;0;53;74;19;26;5.230;13.387;A;58.469;9.387;11.766;
040548FF0211B521;IDS-01A -- ?????-?????? -- 1 -- None -- 77 -- 0 -- Solo Pro II MVP -- 172.26.2.141;113;Total;3/5/2012;10:45:00;100;15 Minutes;;;;;;350;175;60.551;0;55;75;19;26;152.613;6.754;A;58.828;4.688;5.949;
040548FF0211B521;IDS-01A -- ?????-?????? -- 1 -- None -- 77 -- 0 -- Solo Pro II MVP -- 172.26.2.141;109;Lane 1;3/5/2012;11:00:00;100;15 Minutes;;;;;;4;1;52.000;0;1;0;0;0;255.996;0.074;A;52.012;0.020;0.074;
040548FF0211B521;IDS-01A -- ?????-?????? -- 1 -- None -- 77 -- 0 -- Solo Pro II MVP -- 172.26.2.141;110;Lane 2;3/5/2012;11:00:00;100;15 Minutes;;;;;;764;191;60.031;0;79;70;20;21;4.711;13.512;A;58.660;9.305;13.023;
040548FF0211B521;IDS-01A -- ?????-?????? -- 1 -- None -- 77 -- 0 -- Solo Pro II MVP -- 172.26.2.141;113;Total;3/5/2012;11:00:00;100;15 Minutes;;;;;;384;192;59.988;0;80;70;20;21;255.996;6.793;A;58.621;4.664;6.547;
040548FF0211B521;IDS-01A -- ?????-?????? -- 1 -- None -- 77 -- 0 -- Solo Pro II MVP -- 172.26.2.141;109;Lane 1;3/5/2012;11:15:00;100;15 Minutes;;;;;;12;3;37.000;0;2;0;0;0;255.996;4.391;A;15.734;0.059;0.762;
040548FF0211B521;IDS-01A -- ?????-?????? -- 1 -- None -- 77 -- 0 -- Solo Pro II MVP -- 172.26.2.141;110;Lane 2;3/5/2012;11:15:00;100;15 Minutes;;;;;;596;149;61.918;0;52;65;16;16;6.039;10.414;A;60.664;7.410;9.824;
040548FF0211B521;IDS-01A -- ?????-?????? -- 1 -- None -- 77 -- 0 -- Solo Pro II MVP -- 172.26.2.141;113;Total;3/5/2012;11:15:00;100;15 Minutes;;;;;;304;152;61.426;0;54;65;16;16;153.020;7.402;A;57.430;3.754;5.293;
040548FF0211B521;IDS-01A -- ?????-?????? -- 1 -- None -- 77 -- 0 -- Solo Pro II MVP -- 172.26.2.141;109;Lane 1;3/5/2012;11:30:00;100;15 Minutes;;;;;;12;3;53.332;0;1;2;0;0;255.996;0.340;A;47.578;0.094;0.250;
040548FF0211B521;IDS-01A -- ?????-?????? -- 1 -- None -- 77 -- 0 -- Solo Pro II MVP -- 172.26.2.141;110;Lane 2;3/5/2012;11:30:00;100;15 Minutes;;;;;;624;156;61.164;0;55;64;16;21;5.766;11.770;A;59.070;8.129;10.563;
040548FF0211B521;IDS-01A -- ?????-?????? -- 1 -- None -- 77 -- 0 -- Solo Pro II MVP -- 172.26.2.141;113;Total;3/5/2012;11:30:00;100;15 Minutes;;;;;;318;159;61.016;0;56;66;16;21;152.883;6.055;A;58.805;4.113;5.406;
040548FF0211B521;IDS-01A -- ?????-?????? -- 1 -- None -- 77 -- 0 -- Solo Pro II MVP -- 172.26.2.141;109;Lane 1;3/5/2012;11:45:00;100;15 Minutes;;;;;;4;1;71.000;0;1;0;0;0;255.996;0.023;A;71.000;0.023;0.055;
040548FF0211B521;IDS-01A -- ?????-?????? -- 1 -- None -- 77 -- 0 -- Solo Pro II MVP -- 172.26.2.141;110;Lane 2;3/5/2012;11:45:00;100;15 Minutes;;;;;;648;162;61.152;0;70;59;15;18;5.555;11.340;A;59.066;7.727;10.969;
040548FF0211B521;IDS-01A -- ?????-?????? -- 1 -- None -- 77 -- 0 -- Solo Pro II MVP -- 172.26.2.141;113;Total;3/5/2012;11:45:00;100;15 Minutes;;;;;;326;163;61.211;0;71;59;15;18;255.996;5.680;A;59.129;3.875;5.512;
040548FF0211B521;IDS-01A -- ?????-?????? -- 1 -- None -- 77 -- 0 -- Solo Pro II MVP -- 172.26.2.141;109;Lane 1;3/5/2012;12:00:00; 99;15 Minutes;;;;;;0;0;0.000;0;0;0;0;0;255.996;0.000;A;0.000;100.000;0.000;
040548FF0211B521;IDS-01A -- ?????-?????? -- 1 -- None -- 77 -- 0 -- Solo Pro II MVP -- 172.26.2.141;110;Lane 2;3/5/2012;12:00:00; 99;15 Minutes;;;;;;656;164;60.590;0;52;75;17;20;5.484;11.863;A;58.773;8.566;11.160;
040548FF0211B521;IDS-01A -- ?????-?????? -- 1 -- None -- 77 -- 0 -- Solo Pro II MVP -- 172.26.2.141;113;Total;3/5/2012;12:00:00; 99;15 Minutes;;;;;;328;164;60.590;0;52;75;17;20;255.996;5.930;A;58.773;4.281;5.578;
040548FF0211B521;IDS-01A -- ?????-?????? -- 1 -- None -- 77 -- 0 -- Solo Pro II MVP -- 172.26.2.141;109;Lane 1;3/5/2012;12:15:00;100;15 Minutes;;;;;;4;1;50.000;0;0;1;0;0;255.996;0.055;A;50.027;0.043;0.078;
040548FF0211B521;IDS-01A -- ?????-?????? -- 1 -- None -- 77 -- 0 -- Solo Pro II MVP -- 172.26.2.141;110;Lane 2;3/5/2012;12:15:00;100;15 Minutes;;;;;;712;178;60.457;0;65;79;16;17;5.055;12.063;A;59.262;8.734;12.012;
040548FF0211B521;IDS-01A -- ?????-?????? -- 1 -- None -- 77 -- 0 -- Solo Pro II MVP -- 172.26.2.141;113;Total;3/5/2012;12:15:00;100;15 Minutes;;;;;;358;179;60.398;0;65;80;16;17;255.996;6.059;A;59.199;4.391;6.047;
040548FF0211B521;IDS-01A -- ?????-?????? -- 1 -- None -- 77 -- 0 -- Solo Pro II MVP -- 172.26.2.141;109;Lane 1;3/5/2012;12:30:00;100;15 Minutes;;;;;;8;2;79.000;0;0;1;0;0;255.996;0.176;A;78.203;0.027;0.102;
040548FF0211B521;IDS-01A -- ?????-?????? -- 1 -- None -- 77 -- 0 -- Solo Pro II MVP -- 172.26.2.141;110;Lane 2;3/5/2012;12:30:00;100;15 Minutes;;;;;;712;178;58.449;0;77;53;21;27;5.055;12.949;A;57.070;9.773;12.473;
040548FF0211B521;IDS-01A -- ?????-?????? -- 1 -- None -- 77 -- 0 -- Solo Pro II MVP -- 172.26.2.141;113;Total;3/5/2012;12:30:00;100;15 Minutes;;;;;;360;180;58.676;0;77;54;21;27;227.527;6.563;A;57.242;4.887;6.289;
040548FF0211B521;IDS-01A -- ?????-?????? -- 1 -- None -- 77 -- 0 -- Solo Pro II MVP -- 172.26.2.141;109;Lane 1;3/5/2012;12:45:00;100;15 Minutes;;;;;;0;0;0.000;0;0;0;0;0;255.996;0.000;A;0.000;100.000;0.000;
040548FF0211B521;IDS-01A -- ?????-?????? -- 1 -- None -- 77 -- 0 -- Solo Pro II MVP -- 172.26.2.141;110;Lane 2;3/5/2012;12:45:00;100;15 Minutes;;;;;;640;160;61.398;0;68;51;14;27;5.625;10.672;A;60.441;8.246;10.586;
040548FF0211B521;IDS-01A -- ?????-?????? -- 1 -- None -- 77 -- 0 -- Solo Pro II MVP -- 172.26.2.141;113;Total;3/5/2012;12:45:00;100;15 Minutes;;;;;;320;160;61.398;0;68;51;14;27;255.996;5.336;A;60.441;4.121;5.293;
040548FF0211B521;IDS-01A -- ?????-?????? -- 1 -- None -- 77 -- 0 -- Solo Pro II MVP -- 172.26.2.141;109;Lane 1;3/5/2012;13:00:00;100;15 Minutes;;;;;;20;5;68.000;0;3;2;0;0;180.000;0.227;A;66.328;0.113;0.301;
040548FF0211B521;IDS-01A -- ?????-?????? -- 1 -- None -- 77 -- 0 -- Solo Pro II MVP -- 172.26.2.141;110;Lane 2;3/5/2012;13:00:00;100;15 Minutes;;;;;;736;184;59.008;0;66;70;21;26;4.891;13.637;A;57.500;10.094;12.797;
040548FF0211B521;IDS-01A -- ?????-?????? -- 1 -- None -- 77 -- 0 -- Solo Pro II MVP -- 172.26.2.141;113;Total;3/5/2012;13:00:00;100;15 Minutes;;;;;;378;189;59.246;0;69;72;21;26;92.445;6.930;A;57.707;5.094;6.547;
040548FF0211B521;IDS-01A -- ?????-?????? -- 1 -- None -- 77 -- 0 -- Solo Pro II MVP -- 172.26.2.141;109;Lane 1;3/5/2012;13:15:00;100;15 Minutes;;;;;;20;5;67.398;0;0;1;3;0;180.000;0.414;A;66.223;0.188;0.301;
040548FF0211B521;IDS-01A -- ?????-?????? -- 1 -- None -- 77 -- 0 -- Solo Pro II MVP -- 172.26.2.141;110;Lane 2;3/5/2012;13:15:00;100;15 Minutes;;;;;;704;176;60.453;0;51;60;23;40;5.113;13.703;A;59.438;10.953;11.844;
040548FF0211B521;IDS-01A -- ?????-?????? -- 1 -- None -- 77 -- 0 -- Solo Pro II MVP -- 172.26.2.141;113;Total;3/5/2012;13:15:00;100;15 Minutes;;;;;;362;181;60.645;0;51;61;26;40;92.555;7.059;A;59.605;5.563;6.070;
040548FF0211B521;IDS-01A -- ?????-?????? -- 1 -- None -- 77 -- 0 -- Solo Pro II MVP -- 172.26.2.141;109;Lane 1;3/5/2012;13:30:00;100;15 Minutes;;;;;;8;2;70.500;0;1;1;0;0;255.996;0.121;A;60.566;0.055;0.129;
040548FF0211B521;IDS-01A -- ?????-?????? -- 1 -- None -- 77 -- 0 -- Solo Pro II MVP -- 172.26.2.141;110;Lane 2;3/5/2012;13:30:00;100;15 Minutes;;;;;;672;168;62.355;0;49;64;21;34;5.355;12.352;A;60.930;10.129;11.027;
040548FF0211B521;IDS-01A -- ?????-?????? -- 1 -- None -- 77 -- 0 -- Solo Pro II MVP -- 172.26.2.141;113;Total;3/5/2012;13:30:00;100;15 Minutes;;;;;;340;170;62.449;0;50;65;21;34;227.676;6.234;A;60.926;5.090;5.578;
040548FF0211B521;IDS-01A -- ?????-?????? -- 1 -- None -- 77 -- 0 -- Solo Pro II MVP -- 172.26.2.141;109;Lane 1;3/5/2012;13:45:00;100;15 Minutes;;;;;;28;7;55.285;0;3;2;1;0;128.570;0.422;A;52.500;0.238;0.531;
040548FF0211B521;IDS-01A -- ?????-?????? -- 1 -- None -- 77 -- 0 -- Solo Pro II MVP -- 172.26.2.141;110;Lane 2;3/5/2012;13:45:00;100;15 Minutes;;;;;;680;170;63.109;0;46;77;13;34;5.293;12.488;A;61.688;9.707;11.020;
040548FF0211B521;IDS-01A -- ?????-?????? -- 1 -- None -- 77 -- 0 -- Solo Pro II MVP -- 172.26.2.141;113;Total;3/5/2012;13:45:00;100;15 Minutes;;;;;;354;177;62.801;0;49;79;14;34;66.930;6.453;A;61.262;4.980;5.777;
040548FF0211B521;IDS-01A -- ?????-?????? -- 1 -- None -- 77 -- 0 -- Solo Pro II MVP -- 172.26.2.141;109;Lane 1;3/5/2012;14:00:00;100;15 Minutes;;;;;;56;14;49.141;0;7;2;1;0;64.285;0.816;A;47.539;0.402;1.176;
040548FF0211B521;IDS-01A -- ?????-?????? -- 1 -- None -- 77 -- 0 -- Solo Pro II MVP -- 172.26.2.141;110;Lane 2;3/5/2012;14:00:00;100;15 Minutes;;;;;;692;173;59.887;0;60;76;5;32;5.199;13.320;A;58.164;9.488;11.895;
040548FF0211B521;IDS-01A -- ?????-?????? -- 1 -- None -- 77 -- 0 -- Solo Pro II MVP -- 172.26.2.141;113;Total;3/5/2012;14:00:00;100;15 Minutes;;;;;;374;187;59.082;0;67;78;6;32;34.742;7.066;A;57.207;4.977;6.535;
040548FF0211B521;IDS-01A -- ?????-?????? -- 1 -- None -- 77 -- 0 -- Solo Pro II MVP -- 172.26.2.141;109;Lane 1;3/5/2012;14:15:00;100;15 Minutes;;;;;;72;18;54.277;0;8;5;1;2;50.000;1.184;A;51.691;0.758;1.391;
040548FF0211B521;IDS-01A -- ?????-?????? -- 1 -- None -- 77 -- 0 -- Solo Pro II MVP -- 172.26.2.141;110;Lane 2;3/5/2012;14:15:00;100;15 Minutes;;;;;;752;188;60.387;0;56;78;15;39;4.785;14.289;A;58.996;11.176;12.746;
040548FF0211B521;IDS-01A -- ?????-?????? -- 1 -- None -- 77 -- 0 -- Solo Pro II MVP -- 172.26.2.141;113;Total;3/5/2012;14:15:00;100;15 Minutes;;;;;;412;206;59.852;0;64;83;16;41;27.391;7.734;A;58.277;5.980;7.066;
040548FF0211B521;IDS-01A -- ?????-?????? -- 1 -- None -- 77 -- 0 -- Solo Pro II MVP -- 172.26.2.141;109;Lane 1;3/5/2012;14:30:00;100;15 Minutes;;;;;;24;6;68.832;0;2;1;1;0;150.000;0.297;A;64.227;0.145;0.371;
040548FF0211B521;IDS-01A -- ?????-?????? -- 1 -- None -- 77 -- 0 -- Solo Pro II MVP -- 172.26.2.141;110;Lane 2;3/5/2012;14:30:00;100;15 Minutes;;;;;;748;187;62.543;0;56;79;24;27;4.813;12.844;A;61.074;10.105;12.246;
040548FF0211B521;IDS-01A -- ?????-?????? -- 1 -- None -- 77 -- 0 -- Solo Pro II MVP -- 172.26.2.141;113;Total;3/5/2012;14:30:00;100;15 Minutes;;;;;;386;193;62.738;0;58;80;25;27;77.406;6.570;A;61.168;5.117;6.309;
040548FF0211B521;IDS-01A -- ?????-?????? -- 1 -- None -- 77 -- 0 -- Solo Pro II MVP -- 172.26.2.141;109;Lane 1;3/5/2012;14:45:00;100;15 Minutes;;;;;;20;5;51.199;0;1;0;1;0;180.000;0.488;A;49.867;0.102;0.398;
040548FF0211B521;IDS-01A -- ?????-?????? -- 1 -- None -- 77 -- 0 -- Solo Pro II MVP -- 172.26.2.141;110;Lane 2;3/5/2012;14:45:00;100;15 Minutes;;;;;;636;159;58.809;0;52;63;12;32;5.660;11.949;A;56.988;9.445;11.160;
040548FF0211B521;IDS-01A -- ?????-?????? -- 1 -- None -- 77 -- 0 -- Solo Pro II MVP -- 172.26.2.141;113;Total;3/5/2012;14:45:00;100;15 Minutes;;;;;;328;164;58.578;0;53;63;13;32;92.828;6.219;A;56.742;4.785;5.777;
040548FF0211B521;IDS-01A -- ?????-?????? -- 1 -- None -- 77 -- 0 -- Solo Pro II MVP -- 172.26.2.141;109;Lane 1;3/5/2012;15:00:00;100;15 Minutes;;;;;;0;0;0.000;0;0;0;0;0;255.996;0.000;A;0.000;100.000;0.000;
040548FF0211B521;IDS-01A -- ?????-?????? -- 1 -- None -- 77 -- 0 -- Solo Pro II MVP -- 172.26.2.141;110;Lane 2;3/5/2012;15:00:00;100;15 Minutes;;;;;;388;97;59.914;0;28;45;11;13;9.277;6.809;A;57.922;5.328;6.695;
040548FF0211B521;IDS-01A -- ?????-?????? -- 1 -- None -- 77 -- 0 -- Solo Pro II MVP -- 172.26.2.141;113;Total;3/5/2012;15:00:00;100;15 Minutes;;;;;;194;97;59.914;0;28;45;11;13;255.996;3.402;A;57.922;2.664;3.348;
040548FF0211B521;IDS-01A -- ?????-?????? -- 1 -- None -- 77 -- 0 -- Solo Pro II MVP -- 172.26.2.141;109;Lane 1;3/5/2012;15:15:00;100;15 Minutes;;;;;;48;12;66.500;0;8;2;0;0;75.000;0.539;A;55.215;0.270;0.867;
040548FF0211B521;IDS-01A -- ?????-?????? -- 1 -- None -- 77 -- 0 -- Solo Pro II MVP -- 172.26.2.141;110;Lane 2;3/5/2012;15:15:00;100;15 Minutes;;;;;;824;206;59.527;0;81;72;17;36;4.367;14.715;A;57.945;11.555;14.219;
040548FF0211B521;IDS-01A -- ?????-?????? -- 1 -- None -- 77 -- 0 -- Solo Pro II MVP -- 172.26.2.141;113;Total;3/5/2012;15:15:00;100;15 Minutes;;;;;;436;218;59.910;0;89;74;17;36;39.684;7.625;A;57.789;5.887;7.543;
040548FF0211B521;IDS-01A -- ?????-?????? -- 1 -- None -- 77 -- 0 -- Solo Pro II MVP -- 172.26.2.141;109;Lane 1;3/5/2012;15:30:00;100;15 Minutes;;;;;;44;11;63.816;0;5;4;1;0;81.816;0.742;A;61.398;0.355;0.715;
040548FF0211B521;IDS-01A -- ?????-?????? -- 1 -- None -- 77 -- 0 -- Solo Pro II MVP -- 172.26.2.141;110;Lane 2;3/5/2012;15:30:00;100;15 Minutes;;;;;;964;241;58.926;0;97;86;24;34;3.734;16.813;A;57.828;13.219;16.668;
040548FF0211B521;IDS-01A -- ?????-?????? -- 1 -- None -- 77 -- 0 -- Solo Pro II MVP -- 172.26.2.141;113;Total;3/5/2012;15:30:00;100;15 Minutes;;;;;;504;252;59.141;0;102;90;25;34;42.773;8.777;A;57.977;6.777;8.691;
040548FF0211B521;IDS-01A -- ?????-?????? -- 1 -- None -- 77 -- 0 -- Solo Pro II MVP -- 172.26.2.141;109;Lane 1;3/5/2012;15:45:00;100;15 Minutes;;;;;;32;8;71.750;0;5;1;0;1;112.500;0.352;A;67.465;0.254;0.473;
040548FF0211B521;IDS-01A -- ?????-?????? -- 1 -- None -- 77 -- 0 -- Solo Pro II MVP -- 172.26.2.141;110;Lane 2;3/5/2012;15:45:00;100;15 Minutes;;;;;;836;209;60.617;0;57;88;17;47;4.305;15.898;A;59.348;12.906;14.086;
040548FF0211B521;IDS-01A -- ?????-?????? -- 1 -- None -- 77 -- 0 -- Solo Pro II MVP -- 172.26.2.141;113;Total;3/5/2012;15:45:00;100;15 Minutes;;;;;;434;217;61.027;0;62;89;17;48;58.402;8.125;A;59.613;6.559;7.277;
040548FF0211B521;IDS-01A -- ?????-?????? -- 1 -- None -- 77 -- 0 -- Solo Pro II MVP -- 172.26.2.141;109;Lane 1;3/5/2012;16:00:00;100;15 Minutes;;;;;;32;8;59.625;0;5;1;0;0;112.500;0.422;A;54.742;0.172;0.582;
040548FF0211B521;IDS-01A -- ?????-?????? -- 1 -- None -- 77 -- 0 -- Solo Pro II MVP -- 172.26.2.141;110;Lane 2;3/5/2012;16:00:00;100;15 Minutes;;;;;;796;199;57.809;0;60;87;17;35;4.520;14.637;A;56.074;11.727;14.195;
040548FF0211B521;IDS-01A -- ?????-?????? -- 1 -- None -- 77 -- 0 -- Solo Pro II MVP -- 172.26.2.141;113;Total;3/5/2012;16:00:00;100;15 Minutes;;;;;;414;207;57.879;0;65;88;17;35;58.508;7.527;A;56.020;5.945;7.387;
040548FF0211B521;IDS-01A -- ?????-?????? -- 1 -- None -- 77 -- 0 -- Solo Pro II MVP -- 172.26.2.141;109;Lane 1;3/5/2012;16:15:00;100;15 Minutes;;;;;;44;11;58.090;0;6;2;0;0;81.816;0.566;A;54.418;0.277;0.805;
040548FF0211B521;IDS-01A -- ?????-?????? -- 1 -- None -- 77 -- 0 -- Solo Pro II MVP -- 172.26.2.141;110;Lane 2;3/5/2012;16:15:00;100;15 Minutes;;;;;;872;218;60.438;0;64;101;12;41;4.125;15.043;A;59.270;12.355;14.711;
040548FF0211B521;IDS-01A -- ?????-?????? -- 1 -- None -- 77 -- 0 -- Solo Pro II MVP -- 172.26.2.141;113;Total;3/5/2012;16:15:00;100;15 Minutes;;;;;;458;229;60.324;0;70;103;12;41;42.969;7.805;A;59.020;6.324;7.758;
040548FF0211B521;IDS-01A -- ?????-?????? -- 1 -- None -- 77 -- 0 -- Solo Pro II MVP -- 172.26.2.141;109;Lane 1;3/5/2012;16:30:00;100;15 Minutes;;;;;;68;17;67.176;0;5;3;3;1;52.938;0.773;A;63.078;0.477;1.074;
040548FF0211B521;IDS-01A -- ?????-?????? -- 1 -- None -- 77 -- 0 -- Solo Pro II MVP -- 172.26.2.141;110;Lane 2;3/5/2012;16:30:00;100;15 Minutes;;;;;;828;207;62.781;0;77;87;15;28;4.348;13.246;A;61.320;10.094;13.500;
040548FF0211B521;IDS-01A -- ?????-?????? -- 1 -- None -- 77 -- 0 -- Solo Pro II MVP -- 172.26.2.141;113;Total;3/5/2012;16:30:00;100;15 Minutes;;;;;;448;224;63.113;0;82;90;18;29;28.641;7.008;A;61.453;5.273;7.289;
040548FF0211B521;IDS-01A -- ?????-?????? -- 1 -- None -- 77 -- 0 -- Solo Pro II MVP -- 172.26.2.141;109;Lane 1;3/5/2012;16:45:00;100;15 Minutes;;;;;;132;33;58.270;0;17;8;2;4;27.270;1.406;A;55.695;0.000;2.367;
040548FF0211B521;IDS-01A -- ?????-?????? -- 1 -- None -- 77 -- 0 -- Solo Pro II MVP -- 172.26.2.141;110;Lane 2;3/5/2012;16:45:00;100;15 Minutes;;;;;;904;226;62.402;0;74;100;20;31;3.980;15.313;A;60.805;11.727;14.867;
040548FF0211B521;IDS-01A -- ?????-?????? -- 1 -- None -- 77 -- 0 -- Solo Pro II MVP -- 172.26.2.141;113;Total;3/5/2012;16:45:00;100;15 Minutes;;;;;;518;259;61.875;0;91;108;22;35;15.625;8.359;A;60.109;6.668;8.617;
040548FF0211B521;IDS-01A -- ?????-?????? -- 1 -- None -- 77 -- 0 -- Solo Pro II MVP -- 172.26.2.141;109;Lane 1;3/5/2012;17:00:00;100;15 Minutes;;;;;;180;45;60.820;0;21;13;1;2;20.000;1.457;A;57.566;1.398;3.125;
040548FF0211B521;IDS-01A -- ?????-?????? -- 1 -- None -- 77 -- 0 -- Solo Pro II MVP -- 172.26.2.141;110;Lane 2;3/5/2012;17:00:00;100;15 Minutes;;;;;;760;190;64.191;0;74;69;17;30;4.734;12.930;A;61.352;9.555;12.387;
040548FF0211B521;IDS-01A -- ?????-?????? -- 1 -- None -- 77 -- 0 -- Solo Pro II MVP -- 172.26.2.141;113;Total;3/5/2012;17:00:00;100;15 Minutes;;;;;;470;235;63.547;0;95;82;18;32;12.367;7.191;A;60.590;5.496;7.754;
040548FF0211B521;IDS-01A -- ?????-?????? -- 1 -- None -- 77 -- 0 -- Solo Pro II MVP -- 172.26.2.141;109;Lane 1;3/5/2012;17:15:00;100;15 Minutes;;;;;;292;73;63.531;0;30;22;7;2;12.328;2.953;A;60.664;2.262;4.813;
040548FF0211B521;IDS-01A -- ?????-?????? -- 1 -- None -- 77 -- 0 -- Solo Pro II MVP -- 172.26.2.141;110;Lane 2;3/5/2012;17:15:00;100;15 Minutes;;;;;;708;177;64.641;0;72;67;15;23;5.082;11.691;A;62.758;8.551;11.281;
040548FF0211B521;IDS-01A -- ?????-?????? -- 1 -- None -- 77 -- 0 -- Solo Pro II MVP -- 172.26.2.141;113;Total;3/5/2012;17:15:00;100;15 Minutes;;;;;;500;250;64.316;0;102;89;22;25;8.703;7.320;A;62.133;5.414;8.047;
040548FF0211B521;IDS-01A -- ?????-?????? -- 1 -- None -- 77 -- 0 -- Solo Pro II MVP -- 172.26.2.141;109;Lane 1;3/5/2012;17:30:00;100;15 Minutes;;;;;;236;59;65.641;0;30;4;3;1;15.254;2.258;A;61.605;1.168;3.828;
040548FF0211B521;IDS-01A -- ?????-?????? -- 1 -- None -- 77 -- 0 -- Solo Pro II MVP -- 172.26.2.141;110;Lane 2;3/5/2012;17:30:00;100;15 Minutes;;;;;;820;205;63.512;0;81;74;16;33;4.387;13.965;A;61.520;10.645;13.328;
040548FF0211B521;IDS-01A -- ?????-?????? -- 1 -- None -- 77 -- 0 -- Solo Pro II MVP -- 172.26.2.141;113;Total;3/5/2012;17:30:00;100;15 Minutes;;;;;;528;264;63.988;0;111;78;19;34;9.820;8.109;A;61.551;5.883;8.578;
040548FF0211B521;IDS-01A -- ?????-?????? -- 1 -- None -- 77 -- 0 -- Solo Pro II MVP -- 172.26.2.141;109;Lane 1;3/5/2012;17:45:00;100;15 Minutes;;;;;;312;78;66.152;0;44;16;2;4;11.535;2.762;A;63.152;2.332;4.938;
040548FF0211B521;IDS-01A -- ?????-?????? -- 1 -- None -- 77 -- 0 -- Solo Pro II MVP -- 172.26.2.141;110;Lane 2;3/5/2012;17:45:00;100;15 Minutes;;;;;;1024;256;65.180;0;137;83;11;25;3.516;15.004;A;63.316;10.531;16.172;
040548FF0211B521;IDS-01A -- ?????-?????? -- 1 -- None -- 77 -- 0 -- Solo Pro II MVP -- 172.26.2.141;113;Total;3/5/2012;17:45:00;100;15 Minutes;;;;;;668;334;65.406;0;181;99;13;29;7.523;8.883;A;63.289;6.426;10.555;
040548FF0211B521;IDS-01A -- ?????-?????? -- 1 -- None -- 77 -- 0 -- Solo Pro II MVP -- 172.26.2.141;109;Lane 1;3/5/2012;18:00:00;100;15 Minutes;;;;;;72;18;68.832;0;11;2;2;0;50.000;1.004;A;65.496;0.441;1.098;
040548FF0211B521;IDS-01A -- ?????-?????? -- 1 -- None -- 77 -- 0 -- Solo Pro II MVP -- 172.26.2.141;110;Lane 2;3/5/2012;18:00:00;100;15 Minutes;;;;;;828;207;67.066;0;119;62;7;19;4.348;11.762;A;64.961;8.188;12.746;
040548FF0211B521;IDS-01A -- ?????-?????? -- 1 -- None -- 77 -- 0 -- Solo Pro II MVP -- 172.26.2.141;113;Total;3/5/2012;18:00:00;100;15 Minutes;;;;;;450;225;67.207;0;130;64;9;19;27.172;6.383;A;65.004;4.313;6.922;
040548FF0211B521;IDS-01A -- ?????-?????? -- 1 -- None -- 77 -- 0 -- Solo Pro II MVP -- 172.26.2.141;109;Lane 1;3/5/2012;18:15:00;100;15 Minutes;;;;;;100;25;69.039;0;15;4;1;0;36.000;1.301;A;65.703;0.582;1.520;
040548FF0211B521;IDS-01A -- ?????-?????? -- 1 -- None -- 77 -- 0 -- Solo Pro II MVP -- 172.26.2.141;110;Lane 2;3/5/2012;18:15:00;100;15 Minutes;;;;;;808;202;64.641;0;94;65;16;27;4.453;12.184;A;62.848;9.422;12.855;
040548FF0211B521;IDS-01A -- ?????-?????? -- 1 -- None -- 77 -- 0 -- Solo Pro II MVP -- 172.26.2.141;113;Total;3/5/2012;18:15:00;100;15 Minutes;;;;;;454;227;65.125;0;109;69;17;27;20.227;6.742;A;63.152;4.984;7.188;
040548FF0211B521;IDS-01A -- ?????-?????? -- 1 -- None -- 77 -- 0 -- Solo Pro II MVP -- 172.26.2.141;109;Lane 1;3/5/2012;18:30:00;100;15 Minutes;;;;;;56;14;71.926;0;11;1;0;0;64.285;0.672;A;66.320;0.277;0.844;
040548FF0211B521;IDS-01A -- ?????-?????? -- 1 -- None -- 77 -- 0 -- Solo Pro II MVP -- 172.26.2.141;110;Lane 2;3/5/2012;18:30:00;100;15 Minutes;;;;;;784;196;66.375;0;101;59;10;26;4.590;11.684;A;63.695;8.805;12.309;
040548FF0211B521;IDS-01A -- ?????-?????? -- 1 -- None -- 77 -- 0 -- Solo Pro II MVP -- 172.26.2.141;113;Total;3/5/2012;18:30:00;100;15 Minutes;;;;;;420;210;66.746;0;112;60;10;26;34.438;6.176;A;63.863;4.527;6.574;
040548FF0211B521;IDS-01A -- ?????-?????? -- 1 -- None -- 77 -- 0 -- Solo Pro II MVP -- 172.26.2.141;109;Lane 1;3/5/2012;18:45:00;100;15 Minutes;;;;;;16;4;51.750;0;2;1;0;1;225.000;0.664;A;18.887;0.227;0.844;
040548FF0211B521;IDS-01A -- ?????-?????? -- 1 -- None -- 77 -- 0 -- Solo Pro II MVP -- 172.26.2.141;110;Lane 2;3/5/2012;18:45:00;100;15 Minutes;;;;;;752;188;63.004;0;104;52;12;20;4.785;10.977;A;60.770;8.391;12.371;
040548FF0211B521;IDS-01A -- ?????-?????? -- 1 -- None -- 77 -- 0 -- Solo Pro II MVP -- 172.26.2.141;113;Total;3/5/2012;18:45:00;100;15 Minutes;;;;;;384;192;62.770;0;106;53;12;21;114.891;5.820;A;58.086;4.301;6.609;
040548FF0211B521;IDS-01A -- ?????-?????? -- 1 -- None -- 77 -- 0 -- Solo Pro II MVP -- 172.26.2.141;109;Lane 1;3/5/2012;19:00:00;100;15 Minutes;;;;;;96;24;68.414;0;17;4;0;2;37.500;0.992;A;64.621;0.727;1.484;
040548FF0211B521;IDS-01A -- ?????-?????? -- 1 -- None -- 77 -- 0 -- Solo Pro II MVP -- 172.26.2.141;110;Lane 2;3/5/2012;19:00:00;100;15 Minutes;;;;;;836;209;55.734;0;102;78;18;11;4.305;15.055;A;53.340;9.520;15.672;
040548FF0211B521;IDS-01A -- ?????-?????? -- 1 -- None -- 77 -- 0 -- Solo Pro II MVP -- 172.26.2.141;113;Total;3/5/2012;19:00:00;100;15 Minutes;;;;;;466;233;57.039;0;119;82;18;13;20.902;8.023;A;54.316;5.086;8.578;
040548FF0211B521;IDS-01A -- ?????-?????? -- 1 -- None -- 77 -- 0 -- Solo Pro II MVP -- 172.26.2.141;109;Lane 1;3/5/2012;19:15:00;100;15 Minutes;;;;;;92;23;64.434;0;20;1;0;1;39.129;0.883;A;62.957;0.602;1.461;
040548FF0211B521;IDS-01A -- ?????-?????? -- 1 -- None -- 77 -- 0 -- Solo Pro II MVP -- 172.26.2.141;110;Lane 2;3/5/2012;19:15:00;100;15 Minutes;;;;;;756;189;54.379;0;95;68;12;13;4.762;13.496;A;52.438;8.961;14.414;
040548FF0211B521;IDS-01A -- ?????-?????? -- 1 -- None -- 77 -- 0 -- Solo Pro II MVP -- 172.26.2.141;113;Total;3/5/2012;19:15:00;100;15 Minutes;;;;;;424;212;55.469;0;115;69;12;14;21.945;7.188;A;53.406;4.742;7.938;
040548FF0211B521;IDS-01A -- ?????-?????? -- 1 -- None -- 77 -- 0 -- Solo Pro II MVP -- 172.26.2.141;109;Lane 1;3/5/2012;19:30:00;100;15 Minutes;;;;;;36;9;67.109;0;4;2;1;0;100.000;0.551;A;64.707;0.234;0.555;
040548FF0211B521;IDS-01A -- ?????-?????? -- 1 -- None -- 77 -- 0 -- Solo Pro II MVP -- 172.26.2.141;110;Lane 2;3/5/2012;19:30:00;100;15 Minutes;;;;;;712;178;58.137;0;101;57;10;8;5.055;12.316;A;55.469;7.477;12.836;
040548FF0211B521;IDS-01A -- ?????-?????? -- 1 -- None -- 77 -- 0 -- Solo Pro II MVP -- 172.26.2.141;113;Total;3/5/2012;19:30:00;100;15 Minutes;;;;;;374;187;58.570;0;105;59;11;8;52.527;6.434;A;55.852;3.844;6.695;
040548FF0211B521;IDS-01A -- ?????-?????? -- 1 -- None -- 77 -- 0 -- Solo Pro II MVP -- 172.26.2.141;109;Lane 1;3/5/2012;19:45:00;100;15 Minutes;;;;;;44;11;59.906;0;5;4;1;0;81.816;0.719;A;55.852;0.348;0.785;
040548FF0211B521;IDS-01A -- ?????-?????? -- 1 -- None -- 77 -- 0 -- Solo Pro II MVP -- 172.26.2.141;110;Lane 2;3/5/2012;19:45:00;100;15 Minutes;;;;;;712;178;59.949;0;100;61;8;9;5.055;12.297;A;57.754;7.152;12.328;
040548FF0211B521;IDS-01A -- ?????-?????? -- 1 -- None -- 77 -- 0 -- Solo Pro II MVP -- 172.26.2.141;113;Total;3/5/2012;19:45:00;100;15 Minutes;;;;;;378;189;59.945;0;105;65;9;9;43.434;6.508;A;57.641;3.750;6.555;
040548FF0211B521;IDS-01A -- ?????-?????? -- 1 -- None -- 77 -- 0 -- Solo Pro II MVP -- 172.26.2.141;109;Lane 1;3/5/2012;20:00:00;100;15 Minutes;;;;;;40;10;67.797;0;5;1;1;1;90.000;0.438;A;66.148;0.328;0.602;
040548FF0211B521;IDS-01A -- ?????-?????? -- 1 -- None -- 77 -- 0 -- Solo Pro II MVP -- 172.26.2.141;110;Lane 2;3/5/2012;20:00:00;100;15 Minutes;;;;;;760;190;58.398;0;104;70;6;10;4.734;13.102;A;55.766;7.703;13.625;
040548FF0211B521;IDS-01A -- ?????-?????? -- 1 -- None -- 77 -- 0 -- Solo Pro II MVP -- 172.26.2.141;113;Total;3/5/2012;20:00:00;100;15 Minutes;;;;;;400;200;58.867;0;109;71;7;11;47.367;6.770;A;56.207;4.012;7.113;
040548FF0211B521;IDS-01A -- ?????-?????? -- 1 -- None -- 77 -- 0 -- Solo Pro II MVP -- 172.26.2.141;109;Lane 1;3/5/2012;20:15:00;100;15 Minutes;;;;;;28;7;64.285;0;4;0;2;0;128.570;0.457;A;62.430;0.227;0.445;
040548FF0211B521;IDS-01A -- ?????-?????? -- 1 -- None -- 77 -- 0 -- Solo Pro II MVP -- 172.26.2.141;110;Lane 2;3/5/2012;20:15:00;100;15 Minutes;;;;;;744;186;59.258;0;97;72;13;4;4.836;12.590;A;56.520;7.273;13.160;
040548FF0211B521;IDS-01A -- ?????-?????? -- 1 -- None -- 77 -- 0 -- Solo Pro II MVP -- 172.26.2.141;113;Total;3/5/2012;20:15:00;100;15 Minutes;;;;;;386;193;59.438;0;101;72;15;4;66.703;6.523;A;56.715;3.750;6.805;
040548FF0211B521;IDS-01A -- ?????-?????? -- 1 -- None -- 77 -- 0 -- Solo Pro II MVP -- 172.26.2.141;109;Lane 1;3/5/2012;20:30:00;100;15 Minutes;;;;;;32;8;60.250;0;7;0;0;1;112.500;0.316;A;59.617;0.254;0.535;
040548FF0211B521;IDS-01A -- ?????-?????? -- 1 -- None -- 77 -- 0 -- Solo Pro II MVP -- 172.26.2.141;110;Lane 2;3/5/2012;20:30:00;100;15 Minutes;;;;;;508;127;58.070;0;66;40;8;11;7.086;9.160;A;55.422;5.770;9.164;
040548FF0211B521;IDS-01A -- ?????-?????? -- 1 -- None -- 77 -- 0 -- Solo Pro II MVP -- 172.26.2.141;113;Total;3/5/2012;20:30:00;100;15 Minutes;;;;;;270;135;58.199;0;73;40;8;12;59.793;4.738;A;55.652;3.008;4.848;
040548FF0211B521;IDS-01A -- ?????-?????? -- 1 -- None -- 77 -- 0 -- Solo Pro II MVP -- 172.26.2.141;109;Lane 1;3/5/2012;20:45:00;100;15 Minutes;;;;;;16;4;66.500;0;2;0;1;0;225.000;0.082;A;65.832;0.000;0.242;
040548FF0211B521;IDS-01A -- ?????-?????? -- 1 -- None -- 77 -- 0 -- Solo Pro II MVP -- 172.26.2.141;110;Lane 2;3/5/2012;20:45:00;100;15 Minutes;;;;;;528;132;60.605;0;60;57;10;5;6.816;8.824;A;58.430;5.473;9.035;
040548FF0211B521;IDS-01A -- ?????-?????? -- 1 -- None -- 77 -- 0 -- Solo Pro II MVP -- 172.26.2.141;113;Total;3/5/2012;20:45:00;100;15 Minutes;;;;;;272;136;60.777;0;62;57;11;5;115.906;4.453;A;58.625;2.789;4.637;
040548FF0211B521;IDS-01A -- ?????-?????? -- 1 -- None -- 77 -- 0 -- Solo Pro II MVP -- 172.26.2.141;109;Lane 1;3/5/2012;21:00:00;100;15 Minutes;;;;;;40;10;66.297;0;5;2;2;0;90.000;0.484;A;64.637;0.301;0.617;
040548FF0211B521;IDS-01A -- ?????-?????? -- 1 -- None -- 77 -- 0 -- Solo Pro II MVP -- 172.26.2.141;110;Lane 2;3/5/2012;21:00:00;100;15 Minutes;;;;;;496;124;58.078;0;63;41;5;15;7.258;9.141;A;55.113;6.141;8.996;
040548FF0211B521;IDS-01A -- ?????-?????? -- 1 -- None -- 77 -- 0 -- Solo Pro II MVP -- 172.26.2.141;113;Total;3/5/2012;21:00:00;100;15 Minutes;;;;;;268;134;58.691;0;68;43;7;15;48.629;4.813;A;55.723;3.211;4.809;
040548FF0211B521;IDS-01A -- ?????-?????? -- 1 -- None -- 77 -- 0 -- Solo Pro II MVP -- 172.26.2.141;109;Lane 1;3/5/2012;21:15:00;100;15 Minutes;;;;;;32;8;69.750;0;3;2;0;1;112.500;0.379;A;66.297;0.227;0.480;
040548FF0211B521;IDS-01A -- ?????-?????? -- 1 -- None -- 77 -- 0 -- Solo Pro II MVP -- 172.26.2.141;110;Lane 2;3/5/2012;21:15:00;100;15 Minutes;;;;;;460;115;61.867;0;58;40;8;9;7.824;8.051;A;59.492;4.898;7.730;
040548FF0211B521;IDS-01A -- ?????-?????? -- 1 -- None -- 77 -- 0 -- Solo Pro II MVP -- 172.26.2.141;113;Total;3/5/2012;21:15:00;100;15 Minutes;;;;;;246;123;62.379;0;61;42;8;10;60.160;4.215;A;59.895;2.555;4.105;
040548FF0211B521;IDS-01A -- ?????-?????? -- 1 -- None -- 77 -- 0 -- Solo Pro II MVP -- 172.26.2.141;109;Lane 1;3/5/2012;21:30:00;100;15 Minutes;;;;;;36;9;63.109;0;3;3;0;0;100.000;0.430;A;59.953;0.164;0.598;
040548FF0211B521;IDS-01A -- ?????-?????? -- 1 -- None -- 77 -- 0 -- Solo Pro II MVP -- 172.26.2.141;110;Lane 2;3/5/2012;21:30:00;100;15 Minutes;;;;;;440;110;65.098;0;51;46;6;7;8.180;7.313;A;61.539;4.293;7.148;
040548FF0211B521;IDS-01A -- ?????-?????? -- 1 -- None -- 77 -- 0 -- Solo Pro II MVP -- 172.26.2.141;113;Total;3/5/2012;21:30:00;100;15 Minutes;;;;;;238;119;64.949;0;54;49;6;7;54.090;3.871;A;61.418;2.230;3.875;
040548FF0211B521;IDS-01A -- ?????-?????? -- 1 -- None -- 77 -- 0 -- Solo Pro II MVP -- 172.26.2.141;109;Lane 1;3/5/2012;21:45:00;100;15 Minutes;;;;;;72;18;64.500;0;10;4;3;0;50.000;0.676;A;62.047;0.516;1.160;
040548FF0211B521;IDS-01A -- ?????-?????? -- 1 -- None -- 77 -- 0 -- Solo Pro II MVP -- 172.26.2.141;110;Lane 2;3/5/2012;21:45:00;100;15 Minutes;;;;;;412;103;59.621;0;44;41;7;11;8.734;7.922;A;57.637;5.109;7.145;
040548FF0211B521;IDS-01A -- ?????-?????? -- 1 -- None -- 77 -- 0 -- Solo Pro II MVP -- 172.26.2.141;113;Total;3/5/2012;21:45:00;100;15 Minutes;;;;;;242;121;60.344;0;54;45;10;11;29.367;4.297;A;58.250;2.801;4.152;
040548FF0211B521;IDS-01A -- ?????-?????? -- 1 -- None -- 77 -- 0 -- Solo Pro II MVP -- 172.26.2.141;109;Lane 1;3/5/2012;22:00:00;100;15 Minutes;;;;;;44;11;62.543;0;4;3;2;0;81.816;0.621;A;60.848;0.328;0.723;
040548FF0211B521;IDS-01A -- ?????-?????? -- 1 -- None -- 77 -- 0 -- Solo Pro II MVP -- 172.26.2.141;110;Lane 2;3/5/2012;22:00:00;100;15 Minutes;;;;;;380;95;60.715;0;38;45;5;6;9.473;6.832;A;58.570;4.039;6.484;
040548FF0211B521;IDS-01A -- ?????-?????? -- 1 -- None -- 77 -- 0 -- Solo Pro II MVP -- 172.26.2.141;113;Total;3/5/2012;22:00:00;100;15 Minutes;;;;;;212;106;60.902;0;42;48;7;6;45.645;3.727;A;58.801;2.184;3.602;
040548FF0211B521;IDS-01A -- ?????-?????? -- 1 -- None -- 77 -- 0 -- Solo Pro II MVP -- 172.26.2.141;109;Lane 1;3/5/2012;22:15:00;100;15 Minutes;;;;;;56;14;64.855;0;5;4;3;0;64.285;0.895;A;59.191;0.535;0.945;
040548FF0211B521;IDS-01A -- ?????-?????? -- 1 -- None -- 77 -- 0 -- Solo Pro II MVP -- 172.26.2.141;110;Lane 2;3/5/2012;22:15:00;100;15 Minutes;;;;;;388;97;60.637;0;45;41;4;7;9.277;7.211;A;58.281;4.168;6.656;
040548FF0211B521;IDS-01A -- ?????-?????? -- 1 -- None -- 77 -- 0 -- Solo Pro II MVP -- 172.26.2.141;113;Total;3/5/2012;22:15:00;100;15 Minutes;;;;;;222;111;61.168;0;50;45;7;7;36.781;4.051;A;58.395;2.348;3.801;
040548FF0211B521;IDS-01A -- ?????-?????? -- 1 -- None -- 77 -- 0 -- Solo Pro II MVP -- 172.26.2.141;109;Lane 1;3/5/2012;22:30:00;100;15 Minutes;;;;;;24;6;71.164;0;2;0;3;1;150.000;0.195;A;68.633;0.000;0.348;
040548FF0211B521;IDS-01A -- ?????-?????? -- 1 -- None -- 77 -- 0 -- Solo Pro II MVP -- 172.26.2.141;110;Lane 2;3/5/2012;22:30:00;100;15 Minutes;;;;;;360;90;62.766;0;35;34;11;10;10.000;6.754;A;60.266;4.402;5.973;
040548FF0211B521;IDS-01A -- ?????-?????? -- 1 -- None -- 77 -- 0 -- Solo Pro II MVP -- 172.26.2.141;113;Total;3/5/2012;22:30:00;100;15 Minutes;;;;;;192;96;63.289;0;37;34;14;11;80.000;3.473;A;60.727;2.344;3.160;
040548FF0211B521;IDS-01A -- ?????-?????? -- 1 -- None -- 77 -- 0 -- Solo Pro II MVP -- 172.26.2.141;109;Lane 1;3/5/2012;22:45:00;100;15 Minutes;;;;;;12;3;64.332;0;2;0;0;0;255.996;0.141;A;64.188;0.047;0.184;
040548FF0211B521;IDS-01A -- ?????-?????? -- 1 -- None -- 77 -- 0 -- Solo Pro II MVP -- 172.26.2.141;110;Lane 2;3/5/2012;22:45:00;100;15 Minutes;;;;;;308;77;63.699;0;28;36;6;7;11.688;5.574;A;60.219;3.590;5.113;
040548FF0211B521;IDS-01A -- ?????-?????? -- 1 -- None -- 77 -- 0 -- Solo Pro II MVP -- 172.26.2.141;113;Total;3/5/2012;22:45:00;100;15 Minutes;;;;;;160;80;63.723;0;30;36;6;7;155.844;2.855;A;60.359;1.816;2.648;
040548FF0211B521;IDS-01A -- ?????-?????? -- 1 -- None -- 77 -- 0 -- Solo Pro II MVP -- 172.26.2.141;109;Lane 1;3/5/2012;23:00:00;100;15 Minutes;;;;;;8;2;54.000;0;0;1;1;0;255.996;0.129;A;54.004;0.102;0.145;
040548FF0211B521;IDS-01A -- ?????-?????? -- 1 -- None -- 77 -- 0 -- Solo Pro II MVP -- 172.26.2.141;110;Lane 2;3/5/2012;23:00:00;100;15 Minutes;;;;;;332;83;64.973;0;31;35;5;11;10.840;6.074;A;60.902;3.828;5.449;
040548FF0211B521;IDS-01A -- ?????-?????? -- 1 -- None -- 77 -- 0 -- Solo Pro II MVP -- 172.26.2.141;113;Total;3/5/2012;23:00:00;100;15 Minutes;;;;;;170;85;64.715;0;31;36;6;11;230.418;3.102;A;60.719;1.965;2.797;
040548FF0211B521;IDS-01A -- ?????-?????? -- 1 -- None -- 77 -- 0 -- Solo Pro II MVP -- 172.26.2.141;109;Lane 1;3/5/2012;23:15:00;100;15 Minutes;;;;;;16;4;67.000;0;1;2;0;0;225.000;0.238;A;64.707;0.090;0.246;
040548FF0211B521;IDS-01A -- ?????-?????? -- 1 -- None -- 77 -- 0 -- Solo Pro II MVP -- 172.26.2.141;110;Lane 2;3/5/2012;23:15:00;100;15 Minutes;;;;;;276;69;63.563;0;29;25;3;11;13.043;5.098;A;59.922;3.285;4.605;
040548FF0211B521;IDS-01A -- ?????-?????? -- 1 -- None -- 77 -- 0 -- Solo Pro II MVP -- 172.26.2.141;113;Total;3/5/2012;23:15:00;100;15 Minutes;;;;;;146;73;63.750;0;30;27;3;11;119.020;2.668;A;60.168;1.684;2.426;
040548FF0211B521;IDS-01A -- ?????-?????? -- 1 -- None -- 77 -- 0 -- Solo Pro II MVP -- 172.26.2.141;109;Lane 1;3/5/2012;23:30:00;100;15 Minutes;;;;;;28;7;62.855;0;3;1;2;0;128.570;0.418;A;62.191;0.238;0.449;
040548FF0211B521;IDS-01A -- ?????-?????? -- 1 -- None -- 77 -- 0 -- Solo Pro II MVP -- 172.26.2.141;110;Lane 2;3/5/2012;23:30:00;100;15 Minutes;;;;;;272;68;61.984;0;23;34;3;7;13.234;5.230;A;59.164;3.195;4.594;
040548FF0211B521;IDS-01A -- ?????-?????? -- 1 -- None -- 77 -- 0 -- Solo Pro II MVP -- 172.26.2.141;113;Total;3/5/2012;23:30:00;100;15 Minutes;;;;;;150;75;62.066;0;26;35;5;7;70.902;2.824;A;59.434;1.715;2.523;
040548FF0211B521;IDS-01A -- ?????-?????? -- 1 -- None -- 77 -- 0 -- Solo Pro II MVP -- 172.26.2.141;109;Lane 1;3/5/2012;23:45:00;100;15 Minutes;;;;;;16;4;84.500;0;2;1;0;0;225.000;0.176;A;77.465;0.066;0.203;
040548FF0211B521;IDS-01A -- ?????-?????? -- 1 -- None -- 77 -- 0 -- Solo Pro II MVP -- 172.26.2.141;110;Lane 2;3/5/2012;23:45:00;100;15 Minutes;;;;;;252;63;61.047;0;22;22;6;13;14.285;4.867;A;56.867;3.484;4.430;
040548FF0211B521;IDS-01A -- ?????-?????? -- 1 -- None -- 77 -- 0 -- Solo Pro II MVP -- 172.26.2.141;113;Total;3/5/2012;23:45:00;100;15 Minutes;;;;;;134;67;62.445;0;24;23;6;13;119.641;2.520;A;57.785;1.750;2.316;
040548FF0211B521;IDS-01A -- ?????-?????? -- 1 -- None -- 77 -- 0 -- Solo Pro II MVP -- 172.26.2.141;109;Lane 1;4/5/2012;0:00:00;100;15 Minutes;;;;;;32;8;77.375;0;4;3;1;0;112.500;0.316;A;72.234;0.234;0.441;
040548FF0211B521;IDS-01A -- ?????-?????? -- 1 -- None -- 77 -- 0 -- Solo Pro II MVP -- 172.26.2.141;110;Lane 2;4/5/2012;0:00:00;100;15 Minutes;;;;;;208;52;60.902;0;20;17;6;9;17.305;4.211;A;58.430;3.066;3.559;
040548FF0211B521;IDS-01A -- ?????-?????? -- 1 -- None -- 77 -- 0 -- Solo Pro II MVP -- 172.26.2.141;113;Total;4/5/2012;0:00:00;100;15 Minutes;;;;;;120;60;63.098;0;24;20;7;9;64.902;2.262;A;59.957;1.625;2.000;
