CPU Identifier;Autoscope Description;Detector ID;Detector Title;Date;Time;Status;Data Interval;Ticks (millisec.);State;Speed;Length;Class;Average Flow Rate;Volume;Arithmetic Mean Speed;Class A Count;Class B Count;Class C Count;Class D Count;Class E Count;Average Time Headway;Average Time Occupancy;Level Of Service;Space Mean Speed;Space Occupancy;Density;
040549FFFDFAB421;IDS-05A -- ??????-????? -- 1 -- None -- 78 -- 0 -- Solo Pro II MVP -- 172.26.2.145;109;Lane 1;3/5/2012;0:00:00;100;15 Minutes;;;;;;0;0;0.000;0;0;0;0;0;255.996;0.000;A;0.000;100.000;0.000;
040549FFFDFAB421;IDS-05A -- ??????-????? -- 1 -- None -- 78 -- 0 -- Solo Pro II MVP -- 172.26.2.145;110;Lane 2;3/5/2012;0:00:00;100;15 Minutes;;;;;;224;56;67.586;0;33;17;0;5;16.070;3.566;A;65.277;1.934;3.430;
040549FFFDFAB421;IDS-05A -- ??????-????? -- 1 -- None -- 78 -- 0 -- Solo Pro II MVP -- 172.26.2.145;113;Total;3/5/2012;0:00:00;100;15 Minutes;;;;;;112;56;67.586;0;33;17;0;5;255.996;1.781;A;65.277;0.965;1.715;
040549FFFDFAB421;IDS-05A -- ??????-????? -- 1 -- None -- 78 -- 0 -- Solo Pro II MVP -- 172.26.2.145;109;Lane 1;3/5/2012;0:15:00;100;15 Minutes;;;;;;4;1;46.000;0;1;0;0;0;255.996;0.047;A;46.020;0.043;0.086;
040549FFFDFAB421;IDS-05A -- ??????-????? -- 1 -- None -- 78 -- 0 -- Solo Pro II MVP -- 172.26.2.145;110;Lane 2;3/5/2012;0:15:00;100;15 Minutes;;;;;;200;50;65.840;0;27;17;3;3;18.000;3.227;A;64.184;1.891;3.113;
040549FFFDFAB421;IDS-05A -- ??????-????? -- 1 -- None -- 78 -- 0 -- Solo Pro II MVP -- 172.26.2.145;113;Total;3/5/2012;0:15:00;100;15 Minutes;;;;;;102;51;65.449;0;28;17;3;3;255.996;1.637;A;63.691;0.965;1.598;
040549FFFDFAB421;IDS-05A -- ??????-????? -- 1 -- None -- 78 -- 0 -- Solo Pro II MVP -- 172.26.2.145;109;Lane 1;3/5/2012;0:30:00; 99;15 Minutes;;;;;;0;0;0.000;0;0;0;0;0;255.996;0.000;A;0.000;100.000;0.000;
040549FFFDFAB421;IDS-05A -- ??????-????? -- 1 -- None -- 78 -- 0 -- Solo Pro II MVP -- 172.26.2.145;110;Lane 2;3/5/2012;0:30:00; 99;15 Minutes;;;;;;236;59;64.945;0;34;21;2;1;15.254;3.672;A;62.699;1.930;3.762;
040549FFFDFAB421;IDS-05A -- ??????-????? -- 1 -- None -- 78 -- 0 -- Solo Pro II MVP -- 172.26.2.145;113;Total;3/5/2012;0:30:00; 99;15 Minutes;;;;;;118;59;64.945;0;34;21;2;1;255.996;1.836;A;62.699;0.965;1.879;
040549FFFDFAB421;IDS-05A -- ??????-????? -- 1 -- None -- 78 -- 0 -- Solo Pro II MVP -- 172.26.2.145;109;Lane 1;3/5/2012;0:45:00;100;15 Minutes;;;;;;0;0;0.000;0;0;0;0;0;255.996;0.000;A;0.000;100.000;0.000;
040549FFFDFAB421;IDS-05A -- ??????-????? -- 1 -- None -- 78 -- 0 -- Solo Pro II MVP -- 172.26.2.145;110;Lane 2;3/5/2012;0:45:00;100;15 Minutes;;;;;;184;46;60.758;0;30;15;1;0;19.563;3.039;A;59.258;1.516;3.102;
040549FFFDFAB421;IDS-05A -- ??????-????? -- 1 -- None -- 78 -- 0 -- Solo Pro II MVP -- 172.26.2.145;113;Total;3/5/2012;0:45:00;100;15 Minutes;;;;;;92;46;60.758;0;30;15;1;0;255.996;1.520;A;59.258;0.758;1.551;
040549FFFDFAB421;IDS-05A -- ??????-????? -- 1 -- None -- 78 -- 0 -- Solo Pro II MVP -- 172.26.2.145;109;Lane 1;3/5/2012;1:00:00;100;15 Minutes;;;;;;0;0;0.000;0;0;0;0;0;255.996;0.000;A;0.000;100.000;0.000;
040549FFFDFAB421;IDS-05A -- ??????-????? -- 1 -- None -- 78 -- 0 -- Solo Pro II MVP -- 172.26.2.145;110;Lane 2;3/5/2012;1:00:00;100;15 Minutes;;;;;;180;45;64.355;0;21;22;1;1;20.000;2.992;A;61.977;1.535;2.902;
040549FFFDFAB421;IDS-05A -- ??????-????? -- 1 -- None -- 78 -- 0 -- Solo Pro II MVP -- 172.26.2.145;113;Total;3/5/2012;1:00:00;100;15 Minutes;;;;;;90;45;64.355;0;21;22;1;1;255.996;1.496;A;61.977;0.766;1.449;
040549FFFDFAB421;IDS-05A -- ??????-????? -- 1 -- None -- 78 -- 0 -- Solo Pro II MVP -- 172.26.2.145;109;Lane 1;3/5/2012;1:15:00;100;15 Minutes;;;;;;0;0;0.000;0;0;0;0;0;255.996;0.000;A;0.000;100.000;0.000;
040549FFFDFAB421;IDS-05A -- ??????-????? -- 1 -- None -- 78 -- 0 -- Solo Pro II MVP -- 172.26.2.145;110;Lane 2;3/5/2012;1:15:00;100;15 Minutes;;;;;;148;37;62.621;0;20;16;0;1;24.324;2.516;A;60.086;1.332;2.461;
040549FFFDFAB421;IDS-05A -- ??????-????? -- 1 -- None -- 78 -- 0 -- Solo Pro II MVP -- 172.26.2.145;113;Total;3/5/2012;1:15:00;100;15 Minutes;;;;;;74;37;62.621;0;20;16;0;1;255.996;1.258;A;60.086;0.664;1.230;
040549FFFDFAB421;IDS-05A -- ??????-????? -- 1 -- None -- 78 -- 0 -- Solo Pro II MVP -- 172.26.2.145;109;Lane 1;3/5/2012;1:30:00;100;15 Minutes;;;;;;0;0;0.000;0;0;0;0;0;255.996;0.000;A;0.000;100.000;0.000;
040549FFFDFAB421;IDS-05A -- ??????-????? -- 1 -- None -- 78 -- 0 -- Solo Pro II MVP -- 172.26.2.145;110;Lane 2;3/5/2012;1:30:00;100;15 Minutes;;;;;;192;48;64.875;0;26;16;3;2;18.750;3.082;A;62.949;1.750;3.047;
040549FFFDFAB421;IDS-05A -- ??????-????? -- 1 -- None -- 78 -- 0 -- Solo Pro II MVP -- 172.26.2.145;113;Total;3/5/2012;1:30:00;100;15 Minutes;;;;;;96;48;64.875;0;26;16;3;2;255.996;1.539;A;62.949;0.875;1.523;
040549FFFDFAB421;IDS-05A -- ??????-????? -- 1 -- None -- 78 -- 0 -- Solo Pro II MVP -- 172.26.2.145;109;Lane 1;3/5/2012;1:45:00;100;15 Minutes;;;;;;0;0;0.000;0;0;0;0;0;255.996;0.000;A;0.000;100.000;0.000;
040549FFFDFAB421;IDS-05A -- ??????-????? -- 1 -- None -- 78 -- 0 -- Solo Pro II MVP -- 172.26.2.145;110;Lane 2;3/5/2012;1:45:00;100;15 Minutes;;;;;;164;41;60.852;0;22;14;2;2;21.949;2.969;A;58.379;1.520;2.809;
040549FFFDFAB421;IDS-05A -- ??????-????? -- 1 -- None -- 78 -- 0 -- Solo Pro II MVP -- 172.26.2.145;113;Total;3/5/2012;1:45:00;100;15 Minutes;;;;;;82;41;60.852;0;22;14;2;2;255.996;1.484;A;58.379;0.758;1.402;
040549FFFDFAB421;IDS-05A -- ??????-????? -- 1 -- None -- 78 -- 0 -- Solo Pro II MVP -- 172.26.2.145;109;Lane 1;3/5/2012;2:00:00;100;15 Minutes;;;;;;0;0;0.000;0;0;0;0;0;255.996;0.000;A;0.000;100.000;0.000;
040549FFFDFAB421;IDS-05A -- ??????-????? -- 1 -- None -- 78 -- 0 -- Solo Pro II MVP -- 172.26.2.145;110;Lane 2;3/5/2012;2:00:00;100;15 Minutes;;;;;;212;53;59.641;0;33;16;1;2;16.980;3.453;A;57.613;1.910;3.680;
040549FFFDFAB421;IDS-05A -- ??????-????? -- 1 -- None -- 78 -- 0 -- Solo Pro II MVP -- 172.26.2.145;113;Total;3/5/2012;2:00:00;100;15 Minutes;;;;;;106;53;59.641;0;33;16;1;2;255.996;1.727;A;57.613;0.953;1.840;
040549FFFDFAB421;IDS-05A -- ??????-????? -- 1 -- None -- 78 -- 0 -- Solo Pro II MVP -- 172.26.2.145;109;Lane 1;3/5/2012;2:15:00;100;15 Minutes;;;;;;0;0;0.000;0;0;0;0;0;255.996;0.000;A;0.000;100.000;0.000;
040549FFFDFAB421;IDS-05A -- ??????-????? -- 1 -- None -- 78 -- 0 -- Solo Pro II MVP -- 172.26.2.145;110;Lane 2;3/5/2012;2:15:00;100;15 Minutes;;;;;;196;49;61.262;0;26;23;0;0;18.367;2.980;A;59.191;1.574;3.309;
040549FFFDFAB421;IDS-05A -- ??????-????? -- 1 -- None -- 78 -- 0 -- Solo Pro II MVP -- 172.26.2.145;113;Total;3/5/2012;2:15:00;100;15 Minutes;;;;;;98;49;61.262;0;26;23;0;0;255.996;1.488;A;59.191;0.785;1.652;
040549FFFDFAB421;IDS-05A -- ??????-????? -- 1 -- None -- 78 -- 0 -- Solo Pro II MVP -- 172.26.2.145;109;Lane 1;3/5/2012;2:30:00;100;15 Minutes;;;;;;0;0;0.000;0;0;0;0;0;255.996;0.000;A;0.000;100.000;0.000;
040549FFFDFAB421;IDS-05A -- ??????-????? -- 1 -- None -- 78 -- 0 -- Solo Pro II MVP -- 172.26.2.145;110;Lane 2;3/5/2012;2:30:00;100;15 Minutes;;;;;;188;47;60.785;0;28;12;4;2;19.148;3.004;A;57.781;1.676;3.250;
040549FFFDFAB421;IDS-05A -- ??????-????? -- 1 -- None -- 78 -- 0 -- Solo Pro II MVP -- 172.26.2.145;113;Total;3/5/2012;2:30:00;100;15 Minutes;;;;;;94;47;60.785;0;28;12;4;2;255.996;1.500;A;57.781;0.836;1.625;
040549FFFDFAB421;IDS-05A -- ??????-????? -- 1 -- None -- 78 -- 0 -- Solo Pro II MVP -- 172.26.2.145;109;Lane 1;3/5/2012;2:45:00;100;15 Minutes;;;;;;0;0;0.000;0;0;0;0;0;255.996;0.000;A;0.000;100.000;0.000;
040549FFFDFAB421;IDS-05A -- ??????-????? -- 1 -- None -- 78 -- 0 -- Solo Pro II MVP -- 172.26.2.145;110;Lane 2;3/5/2012;2:45:00;100;15 Minutes;;;;;;148;37;62.242;0;21;14;0;2;24.324;2.574;A;59.516;1.262;2.484;
040549FFFDFAB421;IDS-05A -- ??????-????? -- 1 -- None -- 78 -- 0 -- Solo Pro II MVP -- 172.26.2.145;113;Total;3/5/2012;2:45:00;100;15 Minutes;;;;;;74;37;62.242;0;21;14;0;2;255.996;1.285;A;59.516;0.629;1.242;
040549FFFDFAB421;IDS-05A -- ??????-????? -- 1 -- None -- 78 -- 0 -- Solo Pro II MVP -- 172.26.2.145;109;Lane 1;3/5/2012;3:00:00;100;15 Minutes;;;;;;0;0;0.000;0;0;0;0;0;255.996;0.000;A;0.000;100.000;0.000;
040549FFFDFAB421;IDS-05A -- ??????-????? -- 1 -- None -- 78 -- 0 -- Solo Pro II MVP -- 172.26.2.145;110;Lane 2;3/5/2012;3:00:00;100;15 Minutes;;;;;;172;43;64.441;0;26;13;1;3;20.930;2.809;A;61.383;1.617;2.801;
040549FFFDFAB421;IDS-05A -- ??????-????? -- 1 -- None -- 78 -- 0 -- Solo Pro II MVP -- 172.26.2.145;113;Total;3/5/2012;3:00:00;100;15 Minutes;;;;;;86;43;64.441;0;26;13;1;3;255.996;1.402;A;61.383;0.809;1.398;
040549FFFDFAB421;IDS-05A -- ??????-????? -- 1 -- None -- 78 -- 0 -- Solo Pro II MVP -- 172.26.2.145;109;Lane 1;3/5/2012;3:15:00;100;15 Minutes;;;;;;0;0;0.000;0;0;0;0;0;255.996;0.000;A;0.000;100.000;0.000;
040549FFFDFAB421;IDS-05A -- ??????-????? -- 1 -- None -- 78 -- 0 -- Solo Pro II MVP -- 172.26.2.145;110;Lane 2;3/5/2012;3:15:00;100;15 Minutes;;;;;;168;42;66.402;0;20;19;0;1;21.426;2.793;A;64.352;1.266;2.609;
040549FFFDFAB421;IDS-05A -- ??????-????? -- 1 -- None -- 78 -- 0 -- Solo Pro II MVP -- 172.26.2.145;113;Total;3/5/2012;3:15:00;100;15 Minutes;;;;;;84;42;66.402;0;20;19;0;1;255.996;1.395;A;64.352;0.633;1.305;
040549FFFDFAB421;IDS-05A -- ??????-????? -- 1 -- None -- 78 -- 0 -- Solo Pro II MVP -- 172.26.2.145;109;Lane 1;3/5/2012;3:30:00;100;15 Minutes;;;;;;0;0;0.000;0;0;0;0;0;255.996;0.000;A;0.000;100.000;0.000;
040549FFFDFAB421;IDS-05A -- ??????-????? -- 1 -- None -- 78 -- 0 -- Solo Pro II MVP -- 172.26.2.145;110;Lane 2;3/5/2012;3:30:00;100;15 Minutes;;;;;;244;61;64.375;0;34;25;2;0;14.754;3.430;A;61.855;1.957;3.941;
040549FFFDFAB421;IDS-05A -- ??????-????? -- 1 -- None -- 78 -- 0 -- Solo Pro II MVP -- 172.26.2.145;113;Total;3/5/2012;3:30:00;100;15 Minutes;;;;;;122;61;64.375;0;34;25;2;0;255.996;1.715;A;61.855;0.977;1.969;
040549FFFDFAB421;IDS-05A -- ??????-????? -- 1 -- None -- 78 -- 0 -- Solo Pro II MVP -- 172.26.2.145;109;Lane 1;3/5/2012;3:45:00;100;15 Minutes;;;;;;0;0;0.000;0;0;0;0;0;255.996;0.000;A;0.000;100.000;0.000;
040549FFFDFAB421;IDS-05A -- ??????-????? -- 1 -- None -- 78 -- 0 -- Solo Pro II MVP -- 172.26.2.145;110;Lane 2;3/5/2012;3:45:00;100;15 Minutes;;;;;;192;48;61.125;0;32;11;0;5;18.750;3.254;A;58.703;1.902;3.270;
040549FFFDFAB421;IDS-05A -- ??????-????? -- 1 -- None -- 78 -- 0 -- Solo Pro II MVP -- 172.26.2.145;113;Total;3/5/2012;3:45:00;100;15 Minutes;;;;;;96;48;61.125;0;32;11;0;5;255.996;1.625;A;58.703;0.949;1.633;
040549FFFDFAB421;IDS-05A -- ??????-????? -- 1 -- None -- 78 -- 0 -- Solo Pro II MVP -- 172.26.2.145;109;Lane 1;3/5/2012;4:00:00;100;15 Minutes;;;;;;0;0;0.000;0;0;0;0;0;255.996;0.000;A;0.000;100.000;0.000;
040549FFFDFAB421;IDS-05A -- ??????-????? -- 1 -- None -- 78 -- 0 -- Solo Pro II MVP -- 172.26.2.145;110;Lane 2;3/5/2012;4:00:00;100;15 Minutes;;;;;;220;55;57.688;0;32;19;0;3;16.363;3.707;A;56.406;2.117;3.898;
040549FFFDFAB421;IDS-05A -- ??????-????? -- 1 -- None -- 78 -- 0 -- Solo Pro II MVP -- 172.26.2.145;113;Total;3/5/2012;4:00:00;100;15 Minutes;;;;;;110;55;57.688;0;32;19;0;3;255.996;1.852;A;56.406;1.059;1.949;
040549FFFDFAB421;IDS-05A -- ??????-????? -- 1 -- None -- 78 -- 0 -- Solo Pro II MVP -- 172.26.2.145;109;Lane 1;3/5/2012;4:15:00;100;15 Minutes;;;;;;0;0;0.000;0;0;0;0;0;255.996;0.000;A;0.000;100.000;0.000;
040549FFFDFAB421;IDS-05A -- ??????-????? -- 1 -- None -- 78 -- 0 -- Solo Pro II MVP -- 172.26.2.145;110;Lane 2;3/5/2012;4:15:00;100;15 Minutes;;;;;;244;61;59.621;0;41;16;2;2;14.754;4.145;A;57.969;2.031;4.207;
040549FFFDFAB421;IDS-05A -- ??????-????? -- 1 -- None -- 78 -- 0 -- Solo Pro II MVP -- 172.26.2.145;113;Total;3/5/2012;4:15:00;100;15 Minutes;;;;;;122;61;59.621;0;41;16;2;2;255.996;2.070;A;57.969;1.016;2.102;
040549FFFDFAB421;IDS-05A -- ??????-????? -- 1 -- None -- 78 -- 0 -- Solo Pro II MVP -- 172.26.2.145;109;Lane 1;3/5/2012;4:30:00;100;15 Minutes;;;;;;0;0;0.000;0;0;0;0;0;255.996;0.000;A;0.000;100.000;0.000;
040549FFFDFAB421;IDS-05A -- ??????-????? -- 1 -- None -- 78 -- 0 -- Solo Pro II MVP -- 172.26.2.145;110;Lane 2;3/5/2012;4:30:00;100;15 Minutes;;;;;;304;76;60.078;0;50;21;0;4;11.840;5.125;A;58.137;2.691;5.227;
040549FFFDFAB421;IDS-05A -- ??????-????? -- 1 -- None -- 78 -- 0 -- Solo Pro II MVP -- 172.26.2.145;113;Total;3/5/2012;4:30:00;100;15 Minutes;;;;;;152;76;60.078;0;50;21;0;4;255.996;2.563;A;58.137;1.344;2.613;
040549FFFDFAB421;IDS-05A -- ??????-????? -- 1 -- None -- 78 -- 0 -- Solo Pro II MVP -- 172.26.2.145;109;Lane 1;3/5/2012;4:45:00;100;15 Minutes;;;;;;0;0;0.000;0;0;0;0;0;255.996;0.000;A;0.000;100.000;0.000;
040549FFFDFAB421;IDS-05A -- ??????-????? -- 1 -- None -- 78 -- 0 -- Solo Pro II MVP -- 172.26.2.145;110;Lane 2;3/5/2012;4:45:00;100;15 Minutes;;;;;;304;76;62.707;0;46;26;3;1;11.840;4.750;A;60.813;2.465;4.996;
040549FFFDFAB421;IDS-05A -- ??????-????? -- 1 -- None -- 78 -- 0 -- Solo Pro II MVP -- 172.26.2.145;113;Total;3/5/2012;4:45:00;100;15 Minutes;;;;;;152;76;62.707;0;46;26;3;1;255.996;2.375;A;60.813;1.230;2.496;
040549FFFDFAB421;IDS-05A -- ??????-????? -- 1 -- None -- 78 -- 0 -- Solo Pro II MVP -- 172.26.2.145;109;Lane 1;3/5/2012;5:00:00;100;15 Minutes;;;;;;0;0;0.000;0;0;0;0;0;255.996;0.000;A;0.000;100.000;0.000;
040549FFFDFAB421;IDS-05A -- ??????-????? -- 1 -- None -- 78 -- 0 -- Solo Pro II MVP -- 172.26.2.145;110;Lane 2;3/5/2012;5:00:00;100;15 Minutes;;;;;;408;102;60.910;0;69;30;0;2;8.820;6.484;A;59.133;3.320;6.898;
040549FFFDFAB421;IDS-05A -- ??????-????? -- 1 -- None -- 78 -- 0 -- Solo Pro II MVP -- 172.26.2.145;113;Total;3/5/2012;5:00:00;100;15 Minutes;;;;;;204;102;60.910;0;69;30;0;2;255.996;3.242;A;59.133;1.660;3.449;
040549FFFDFAB421;IDS-05A -- ??????-????? -- 1 -- None -- 78 -- 0 -- Solo Pro II MVP -- 172.26.2.145;109;Lane 1;3/5/2012;5:15:00;100;15 Minutes;;;;;;0;0;0.000;0;0;0;0;0;255.996;0.000;A;0.000;100.000;0.000;
040549FFFDFAB421;IDS-05A -- ??????-????? -- 1 -- None -- 78 -- 0 -- Solo Pro II MVP -- 172.26.2.145;110;Lane 2;3/5/2012;5:15:00;100;15 Minutes;;;;;;408;102;59.340;0;62;32;4;4;8.820;7.016;A;58.266;3.703;7.000;
040549FFFDFAB421;IDS-05A -- ??????-????? -- 1 -- None -- 78 -- 0 -- Solo Pro II MVP -- 172.26.2.145;113;Total;3/5/2012;5:15:00;100;15 Minutes;;;;;;204;102;59.340;0;62;32;4;4;255.996;3.508;A;58.266;1.852;3.500;
040549FFFDFAB421;IDS-05A -- ??????-????? -- 1 -- None -- 78 -- 0 -- Solo Pro II MVP -- 172.26.2.145;109;Lane 1;3/5/2012;5:30:00;100;15 Minutes;;;;;;0;0;0.000;0;0;0;0;0;255.996;0.000;A;0.000;100.000;0.000;
040549FFFDFAB421;IDS-05A -- ??????-????? -- 1 -- None -- 78 -- 0 -- Solo Pro II MVP -- 172.26.2.145;110;Lane 2;3/5/2012;5:30:00;100;15 Minutes;;;;;;456;114;62.023;0;74;32;4;3;7.895;6.906;A;60.840;3.824;7.492;
040549FFFDFAB421;IDS-05A -- ??????-????? -- 1 -- None -- 78 -- 0 -- Solo Pro II MVP -- 172.26.2.145;113;Total;3/5/2012;5:30:00;100;15 Minutes;;;;;;228;114;62.023;0;74;32;4;3;255.996;3.453;A;60.840;1.910;3.746;
040549FFFDFAB421;IDS-05A -- ??????-????? -- 1 -- None -- 78 -- 0 -- Solo Pro II MVP -- 172.26.2.145;109;Lane 1;3/5/2012;5:45:00;100;15 Minutes;;;;;;0;0;0.000;0;0;0;0;0;255.996;0.000;A;0.000;100.000;0.000;
040549FFFDFAB421;IDS-05A -- ??????-????? -- 1 -- None -- 78 -- 0 -- Solo Pro II MVP -- 172.26.2.145;110;Lane 2;3/5/2012;5:45:00;100;15 Minutes;;;;;;396;99;64.676;0;74;21;3;1;9.090;5.469;A;62.813;2.871;6.301;
040549FFFDFAB421;IDS-05A -- ??????-????? -- 1 -- None -- 78 -- 0 -- Solo Pro II MVP -- 172.26.2.145;113;Total;3/5/2012;5:45:00;100;15 Minutes;;;;;;198;99;64.676;0;74;21;3;1;255.996;2.734;A;62.813;1.434;3.148;
040549FFFDFAB421;IDS-05A -- ??????-????? -- 1 -- None -- 78 -- 0 -- Solo Pro II MVP -- 172.26.2.145;109;Lane 1;3/5/2012;6:00:00;100;15 Minutes;;;;;;4;1;59.000;0;1;0;0;0;255.996;0.020;A;59.039;0.020;0.066;
040549FFFDFAB421;IDS-05A -- ??????-????? -- 1 -- None -- 78 -- 0 -- Solo Pro II MVP -- 172.26.2.145;110;Lane 2;3/5/2012;6:00:00;100;15 Minutes;;;;;;452;113;68.156;0;48;34;12;19;7.961;7.656;A;66.371;5.285;6.809;
040549FFFDFAB421;IDS-05A -- ??????-????? -- 1 -- None -- 78 -- 0 -- Solo Pro II MVP -- 172.26.2.145;113;Total;3/5/2012;6:00:00;100;15 Minutes;;;;;;228;114;68.078;0;49;34;12;19;255.996;3.836;A;66.297;2.652;3.438;
040549FFFDFAB421;IDS-05A -- ??????-????? -- 1 -- None -- 78 -- 0 -- Solo Pro II MVP -- 172.26.2.145;109;Lane 1;3/5/2012;6:15:00;100;15 Minutes;;;;;;0;0;0.000;0;0;0;0;0;255.996;0.000;A;0.000;100.000;0.000;
040549FFFDFAB421;IDS-05A -- ??????-????? -- 1 -- None -- 78 -- 0 -- Solo Pro II MVP -- 172.26.2.145;110;Lane 2;3/5/2012;6:15:00;100;15 Minutes;;;;;;448;112;68.051;0;31;45;17;18;8.035;7.754;A;66.438;5.777;6.742;
040549FFFDFAB421;IDS-05A -- ??????-????? -- 1 -- None -- 78 -- 0 -- Solo Pro II MVP -- 172.26.2.145;113;Total;3/5/2012;6:15:00;100;15 Minutes;;;;;;224;112;68.051;0;31;45;17;18;255.996;3.875;A;66.438;2.887;3.371;
040549FFFDFAB421;IDS-05A -- ??????-????? -- 1 -- None -- 78 -- 0 -- Solo Pro II MVP -- 172.26.2.145;109;Lane 1;3/5/2012;6:30:00;100;15 Minutes;;;;;;8;2;35.500;0;1;0;0;1;255.996;0.242;A;33.469;0.227;0.238;
040549FFFDFAB421;IDS-05A -- ??????-????? -- 1 -- None -- 78 -- 0 -- Solo Pro II MVP -- 172.26.2.145;110;Lane 2;3/5/2012;6:30:00;100;15 Minutes;;;;;;556;139;67.359;0;42;56;18;23;6.473;9.691;A;65.430;6.965;8.496;
040549FFFDFAB421;IDS-05A -- ??????-????? -- 1 -- None -- 78 -- 0 -- Solo Pro II MVP -- 172.26.2.145;113;Total;3/5/2012;6:30:00;100;15 Minutes;;;;;;282;141;66.906;0;43;56;18;24;228.234;4.965;A;64.555;3.566;4.367;
040549FFFDFAB421;IDS-05A -- ??????-????? -- 1 -- None -- 78 -- 0 -- Solo Pro II MVP -- 172.26.2.145;109;Lane 1;3/5/2012;6:45:00;100;15 Minutes;;;;;;92;23;61.605;0;5;1;2;1;39.129;1.020;A;53.277;0.500;1.727;
040549FFFDFAB421;IDS-05A -- ??????-????? -- 1 -- None -- 78 -- 0 -- Solo Pro II MVP -- 172.26.2.145;110;Lane 2;3/5/2012;6:45:00;100;15 Minutes;;;;;;648;162;66.664;0;71;56;13;22;5.555;10.469;A;64.773;7.582;10.004;
040549FFFDFAB421;IDS-05A -- ??????-????? -- 1 -- None -- 78 -- 0 -- Solo Pro II MVP -- 172.26.2.145;113;Total;3/5/2012;6:45:00;100;15 Minutes;;;;;;370;185;66.035;0;76;57;15;23;22.340;5.742;A;63.078;4.059;5.863;
040549FFFDFAB421;IDS-05A -- ??????-????? -- 1 -- None -- 78 -- 0 -- Solo Pro II MVP -- 172.26.2.145;109;Lane 1;3/5/2012;7:00:00;100;15 Minutes;;;;;;448;112;68.738;1;53;46;2;5;8.035;4.105;A;65.078;3.566;6.883;
040549FFFDFAB421;IDS-05A -- ??????-????? -- 1 -- None -- 78 -- 0 -- Solo Pro II MVP -- 172.26.2.145;110;Lane 2;3/5/2012;7:00:00;100;15 Minutes;;;;;;904;226;73.457;0;113;65;21;27;3.980;12.949;A;70.742;9.133;12.777;
040549FFFDFAB421;IDS-05A -- ??????-????? -- 1 -- None -- 78 -- 0 -- Solo Pro II MVP -- 172.26.2.145;113;Total;3/5/2012;7:00:00;100;15 Minutes;;;;;;676;338;71.895;1;166;111;23;32;6.008;8.527;A;68.781;6.371;9.828;
040549FFFDFAB421;IDS-05A -- ??????-????? -- 1 -- None -- 78 -- 0 -- Solo Pro II MVP -- 172.26.2.145;109;Lane 1;3/5/2012;7:15:00;100;15 Minutes;;;;;;552;138;61.543;2;56;67;1;9;6.520;6.313;A;59.406;5.320;9.289;
040549FFFDFAB421;IDS-05A -- ??????-????? -- 1 -- None -- 78 -- 0 -- Solo Pro II MVP -- 172.26.2.145;110;Lane 2;3/5/2012;7:15:00;100;15 Minutes;;;;;;956;239;70.641;0;126;70;23;20;3.766;12.910;A;67.781;9.500;14.102;
040549FFFDFAB421;IDS-05A -- ??????-????? -- 1 -- None -- 78 -- 0 -- Solo Pro II MVP -- 172.26.2.145;113;Total;3/5/2012;7:15:00;100;15 Minutes;;;;;;754;377;67.313;2;182;137;24;29;5.141;9.609;A;64.469;7.418;11.695;
040549FFFDFAB421;IDS-05A -- ??????-????? -- 1 -- None -- 78 -- 0 -- Solo Pro II MVP -- 172.26.2.145;109;Lane 1;3/5/2012;7:30:00;100;15 Minutes;;;;;;564;141;59.609;1;47;73;8;11;6.383;7.480;A;58.406;6.316;9.656;
040549FFFDFAB421;IDS-05A -- ??????-????? -- 1 -- None -- 78 -- 0 -- Solo Pro II MVP -- 172.26.2.145;110;Lane 2;3/5/2012;7:30:00;100;15 Minutes;;;;;;996;249;70.324;0;137;64;27;21;3.613;14.113;A;67.523;9.836;14.750;
040549FFFDFAB421;IDS-05A -- ??????-????? -- 1 -- None -- 78 -- 0 -- Solo Pro II MVP -- 172.26.2.145;113;Total;3/5/2012;7:30:00;100;15 Minutes;;;;;;780;390;66.449;1;184;137;35;32;4.996;10.797;A;63.918;8.039;12.203;
040549FFFDFAB421;IDS-05A -- ??????-????? -- 1 -- None -- 78 -- 0 -- Solo Pro II MVP -- 172.26.2.145;109;Lane 1;3/5/2012;7:45:00;100;15 Minutes;;;;;;292;73;61.859;1;22;37;8;3;12.328;5.273;A;60.613;2.949;4.816;
040549FFFDFAB421;IDS-05A -- ??????-????? -- 1 -- None -- 78 -- 0 -- Solo Pro II MVP -- 172.26.2.145;110;Lane 2;3/5/2012;7:45:00;100;15 Minutes;;;;;;912;228;70.270;0;138;59;23;8;3.945;11.539;A;67.859;7.820;13.438;
040549FFFDFAB421;IDS-05A -- ??????-????? -- 1 -- None -- 78 -- 0 -- Solo Pro II MVP -- 172.26.2.145;113;Total;3/5/2012;7:45:00;100;15 Minutes;;;;;;602;301;68.230;1;160;96;31;11;8.137;8.406;A;65.969;5.363;9.125;
040549FFFDFAB421;IDS-05A -- ??????-????? -- 1 -- None -- 78 -- 0 -- Solo Pro II MVP -- 172.26.2.145;109;Lane 1;3/5/2012;8:00:00;100;15 Minutes;;;;;;208;52;59.035;1;16;25;7;3;17.305;3.855;A;56.625;2.461;3.672;
040549FFFDFAB421;IDS-05A -- ??????-????? -- 1 -- None -- 78 -- 0 -- Solo Pro II MVP -- 172.26.2.145;110;Lane 2;3/5/2012;8:00:00;100;15 Minutes;;;;;;764;191;69.434;0;110;58;9;13;4.711;10.527;A;66.320;6.688;11.520;
040549FFFDFAB421;IDS-05A -- ??????-????? -- 1 -- None -- 78 -- 0 -- Solo Pro II MVP -- 172.26.2.145;113;Total;3/5/2012;8:00:00;100;15 Minutes;;;;;;486;243;67.207;1;126;83;16;16;11.008;7.191;A;63.977;4.535;7.594;
040549FFFDFAB421;IDS-05A -- ??????-????? -- 1 -- None -- 78 -- 0 -- Solo Pro II MVP -- 172.26.2.145;109;Lane 1;3/5/2012;8:15:00;100;15 Minutes;;;;;;240;60;59.914;1;13;33;12;1;15.000;4.750;A;58.355;2.848;4.109;
040549FFFDFAB421;IDS-05A -- ??????-????? -- 1 -- None -- 78 -- 0 -- Solo Pro II MVP -- 172.26.2.145;110;Lane 2;3/5/2012;8:15:00;100;15 Minutes;;;;;;752;188;66.957;0;90;65;18;15;4.785;11.715;A;64.348;7.875;11.684;
040549FFFDFAB421;IDS-05A -- ??????-????? -- 1 -- None -- 78 -- 0 -- Solo Pro II MVP -- 172.26.2.145;113;Total;3/5/2012;8:15:00;100;15 Minutes;;;;;;496;248;65.254;1;103;98;30;16;9.891;8.230;A;62.785;5.348;7.898;
040549FFFDFAB421;IDS-05A -- ??????-????? -- 1 -- None -- 78 -- 0 -- Solo Pro II MVP -- 172.26.2.145;109;Lane 1;3/5/2012;8:30:00;100;15 Minutes;;;;;;120;30;61.730;1;11;18;0;0;30.000;1.984;A;59.918;1.008;2.000;
040549FFFDFAB421;IDS-05A -- ??????-????? -- 1 -- None -- 78 -- 0 -- Solo Pro II MVP -- 172.26.2.145;110;Lane 2;3/5/2012;8:30:00;100;15 Minutes;;;;;;720;180;64.355;0;92;63;20;5;5.000;10.375;A;62.059;7.043;11.602;
040549FFFDFAB421;IDS-05A -- ??????-????? -- 1 -- None -- 78 -- 0 -- Solo Pro II MVP -- 172.26.2.145;113;Total;3/5/2012;8:30:00;100;15 Minutes;;;;;;420;210;63.980;1;103;81;20;5;17.500;6.180;A;61.742;4.027;6.801;
040549FFFDFAB421;IDS-05A -- ??????-????? -- 1 -- None -- 78 -- 0 -- Solo Pro II MVP -- 172.26.2.145;109;Lane 1;3/5/2012;8:45:00;100;15 Minutes;;;;;;120;30;51.863;0;12;12;4;0;30.000;2.410;A;49.773;1.375;2.410;
040549FFFDFAB421;IDS-05A -- ??????-????? -- 1 -- None -- 78 -- 0 -- Solo Pro II MVP -- 172.26.2.145;110;Lane 2;3/5/2012;8:45:00;100;15 Minutes;;;;;;796;199;62.109;0;79;88;15;17;4.520;13.520;A;59.277;9.105;13.426;
040549FFFDFAB421;IDS-05A -- ??????-????? -- 1 -- None -- 78 -- 0 -- Solo Pro II MVP -- 172.26.2.145;113;Total;3/5/2012;8:45:00;100;15 Minutes;;;;;;458;229;60.766;0;91;100;19;17;17.258;7.965;A;57.828;5.242;7.918;
040549FFFDFAB421;IDS-05A -- ??????-????? -- 1 -- None -- 78 -- 0 -- Solo Pro II MVP -- 172.26.2.145;109;Lane 1;3/5/2012;9:00:00;100;15 Minutes;;;;;;120;30;51.898;2;11;10;2;1;30.000;3.004;A;50.762;1.258;2.363;
040549FFFDFAB421;IDS-05A -- ??????-????? -- 1 -- None -- 78 -- 0 -- Solo Pro II MVP -- 172.26.2.145;110;Lane 2;3/5/2012;9:00:00;100;15 Minutes;;;;;;792;198;59.246;0;76;78;20;24;4.543;15.160;A;56.836;10.102;13.934;
040549FFFDFAB421;IDS-05A -- ??????-????? -- 1 -- None -- 78 -- 0 -- Solo Pro II MVP -- 172.26.2.145;113;Total;3/5/2012;9:00:00;100;15 Minutes;;;;;;456;228;58.277;2;87;88;22;25;17.270;9.082;A;55.953;5.695;8.148;
040549FFFDFAB421;IDS-05A -- ??????-????? -- 1 -- None -- 78 -- 0 -- Solo Pro II MVP -- 172.26.2.145;109;Lane 1;3/5/2012;9:15:00;100;15 Minutes;;;;;;40;10;51.297;0;6;3;0;0;90.000;0.777;A;50.914;0.383;0.785;
040549FFFDFAB421;IDS-05A -- ??????-????? -- 1 -- None -- 78 -- 0 -- Solo Pro II MVP -- 172.26.2.145;110;Lane 2;3/5/2012;9:15:00;100;15 Minutes;;;;;;872;218;59.180;0;75;102;19;21;4.125;15.523;A;57.098;10.758;15.270;
040549FFFDFAB421;IDS-05A -- ??????-????? -- 1 -- None -- 78 -- 0 -- Solo Pro II MVP -- 172.26.2.145;113;Total;3/5/2012;9:15:00;100;15 Minutes;;;;;;456;228;58.836;0;81;105;19;21;47.063;8.148;A;56.797;5.578;8.027;
040549FFFDFAB421;IDS-05A -- ??????-????? -- 1 -- None -- 78 -- 0 -- Solo Pro II MVP -- 172.26.2.145;109;Lane 1;3/5/2012;9:30:00;100;15 Minutes;;;;;;16;4;49.750;0;2;2;0;0;225.000;0.266;A;49.301;0.184;0.324;
040549FFFDFAB421;IDS-05A -- ??????-????? -- 1 -- None -- 78 -- 0 -- Solo Pro II MVP -- 172.26.2.145;110;Lane 2;3/5/2012;9:30:00;100;15 Minutes;;;;;;1020;255;56.473;0;76;125;30;24;3.527;18.648;A;54.949;13.254;18.563;
040549FFFDFAB421;IDS-05A -- ??????-????? -- 1 -- None -- 78 -- 0 -- Solo Pro II MVP -- 172.26.2.145;113;Total;3/5/2012;9:30:00;100;15 Minutes;;;;;;518;259;56.367;0;78;127;30;24;114.262;9.457;A;54.887;6.719;9.438;
040549FFFDFAB421;IDS-05A -- ??????-????? -- 1 -- None -- 78 -- 0 -- Solo Pro II MVP -- 172.26.2.145;109;Lane 1;3/5/2012;9:45:00;100;15 Minutes;;;;;;0;0;0.000;0;0;0;0;0;255.996;0.000;A;0.000;100.000;0.000;
040549FFFDFAB421;IDS-05A -- ??????-????? -- 1 -- None -- 78 -- 0 -- Solo Pro II MVP -- 172.26.2.145;110;Lane 2;3/5/2012;9:45:00;100;15 Minutes;;;;;;932;233;57.125;0;76;116;18;23;3.859;17.672;A;54.523;11.719;17.090;
040549FFFDFAB421;IDS-05A -- ??????-????? -- 1 -- None -- 78 -- 0 -- Solo Pro II MVP -- 172.26.2.145;113;Total;3/5/2012;9:45:00;100;15 Minutes;;;;;;466;233;57.125;0;76;116;18;23;255.996;8.836;A;54.523;5.859;8.543;
040549FFFDFAB421;IDS-05A -- ??????-????? -- 1 -- None -- 78 -- 0 -- Solo Pro II MVP -- 172.26.2.145;109;Lane 1;3/5/2012;10:00:00;100;15 Minutes;;;;;;12;3;45.332;0;2;1;0;0;255.996;0.516;A;24.320;0.141;0.492;
040549FFFDFAB421;IDS-05A -- ??????-????? -- 1 -- None -- 78 -- 0 -- Solo Pro II MVP -- 172.26.2.145;110;Lane 2;3/5/2012;10:00:00;100;15 Minutes;;;;;;968;242;55.922;0;74;105;36;26;3.719;19.820;A;54.547;13.355;17.746;
040549FFFDFAB421;IDS-05A -- ??????-????? -- 1 -- None -- 78 -- 0 -- Solo Pro II MVP -- 172.26.2.145;113;Total;3/5/2012;10:00:00;100;15 Minutes;;;;;;490;245;55.793;0;76;106;36;26;151.859;10.168;A;53.730;6.750;9.117;
040549FFFDFAB421;IDS-05A -- ??????-????? -- 1 -- None -- 78 -- 0 -- Solo Pro II MVP -- 172.26.2.145;109;Lane 1;3/5/2012;10:15:00;100;15 Minutes;;;;;;0;0;0.000;0;0;0;0;0;255.996;0.000;A;0.000;100.000;0.000;
040549FFFDFAB421;IDS-05A -- ??????-????? -- 1 -- None -- 78 -- 0 -- Solo Pro II MVP -- 172.26.2.145;110;Lane 2;3/5/2012;10:15:00;100;15 Minutes;;;;;;948;237;58.020;0;85;108;24;17;3.797;17.875;A;56.230;11.422;16.855;
040549FFFDFAB421;IDS-05A -- ??????-????? -- 1 -- None -- 78 -- 0 -- Solo Pro II MVP -- 172.26.2.145;113;Total;3/5/2012;10:15:00;100;15 Minutes;;;;;;474;237;58.020;0;85;108;24;17;255.996;8.938;A;56.230;5.711;8.426;
040549FFFDFAB421;IDS-05A -- ??????-????? -- 1 -- None -- 78 -- 0 -- Solo Pro II MVP -- 172.26.2.145;109;Lane 1;3/5/2012;10:30:00;100;15 Minutes;;;;;;4;1;34.000;0;1;0;0;0;255.996;0.090;A;34.008;0.055;0.117;
040549FFFDFAB421;IDS-05A -- ??????-????? -- 1 -- None -- 78 -- 0 -- Solo Pro II MVP -- 172.26.2.145;110;Lane 2;3/5/2012;10:30:00;100;15 Minutes;;;;;;1004;251;58.539;0;76;112;31;32;3.582;20.188;A;57.246;14.109;17.535;
040549FFFDFAB421;IDS-05A -- ??????-????? -- 1 -- None -- 78 -- 0 -- Solo Pro II MVP -- 172.26.2.145;113;Total;3/5/2012;10:30:00;100;15 Minutes;;;;;;504;252;58.441;0;77;112;31;32;255.996;10.137;A;57.090;7.082;8.828;
040549FFFDFAB421;IDS-05A -- ??????-????? -- 1 -- None -- 78 -- 0 -- Solo Pro II MVP -- 172.26.2.145;109;Lane 1;3/5/2012;10:45:00;100;15 Minutes;;;;;;8;2;59.000;0;1;1;0;0;255.996;0.078;A;59.039;0.070;0.133;
040549FFFDFAB421;IDS-05A -- ??????-????? -- 1 -- None -- 78 -- 0 -- Solo Pro II MVP -- 172.26.2.145;110;Lane 2;3/5/2012;10:45:00;100;15 Minutes;;;;;;952;238;57.152;0;84;103;27;23;3.781;18.637;A;55.723;12.383;17.082;
040549FFFDFAB421;IDS-05A -- ??????-????? -- 1 -- None -- 78 -- 0 -- Solo Pro II MVP -- 172.26.2.145;113;Total;3/5/2012;10:45:00;100;15 Minutes;;;;;;480;240;57.168;0;85;104;27;23;226.891;9.355;A;55.750;6.227;8.609;
040549FFFDFAB421;IDS-05A -- ??????-????? -- 1 -- None -- 78 -- 0 -- Solo Pro II MVP -- 172.26.2.145;109;Lane 1;3/5/2012;11:00:00;100;15 Minutes;;;;;;0;0;0.000;0;0;0;0;0;255.996;0.000;A;0.000;100.000;0.000;
040549FFFDFAB421;IDS-05A -- ??????-????? -- 1 -- None -- 78 -- 0 -- Solo Pro II MVP -- 172.26.2.145;110;Lane 2;3/5/2012;11:00:00;100;15 Minutes;;;;;;996;249;58.113;0;63;133;25;27;3.613;19.582;A;57.402;13.566;17.348;
040549FFFDFAB421;IDS-05A -- ??????-????? -- 1 -- None -- 78 -- 0 -- Solo Pro II MVP -- 172.26.2.145;113;Total;3/5/2012;11:00:00;100;15 Minutes;;;;;;498;249;58.113;0;63;133;25;27;255.996;9.789;A;57.402;6.781;8.672;
040549FFFDFAB421;IDS-05A -- ??????-????? -- 1 -- None -- 78 -- 0 -- Solo Pro II MVP -- 172.26.2.145;109;Lane 1;3/5/2012;11:15:00;100;15 Minutes;;;;;;12;3;76.332;0;2;1;0;0;255.996;0.117;A;75.125;0.070;0.156;
040549FFFDFAB421;IDS-05A -- ??????-????? -- 1 -- None -- 78 -- 0 -- Solo Pro II MVP -- 172.26.2.145;110;Lane 2;3/5/2012;11:15:00;100;15 Minutes;;;;;;960;240;59.723;0;65;119;25;31;3.750;18.949;A;58.563;12.902;16.391;
040549FFFDFAB421;IDS-05A -- ??????-????? -- 1 -- None -- 78 -- 0 -- Solo Pro II MVP -- 172.26.2.145;113;Total;3/5/2012;11:15:00;100;15 Minutes;;;;;;486;243;59.930;0;67;120;25;31;151.875;9.531;A;58.723;6.473;8.273;
040549FFFDFAB421;IDS-05A -- ??????-????? -- 1 -- None -- 78 -- 0 -- Solo Pro II MVP -- 172.26.2.145;109;Lane 1;3/5/2012;11:30:00;100;15 Minutes;;;;;;0;0;0.000;0;0;0;0;0;255.996;0.000;A;0.000;100.000;0.000;
040549FFFDFAB421;IDS-05A -- ??????-????? -- 1 -- None -- 78 -- 0 -- Solo Pro II MVP -- 172.26.2.145;110;Lane 2;3/5/2012;11:30:00;100;15 Minutes;;;;;;824;206;61.629;0;70;88;22;24;4.367;15.684;A;60.277;10.586;13.668;
040549FFFDFAB421;IDS-05A -- ??????-????? -- 1 -- None -- 78 -- 0 -- Solo Pro II MVP -- 172.26.2.145;113;Total;3/5/2012;11:30:00;100;15 Minutes;;;;;;412;206;61.629;0;70;88;22;24;255.996;7.840;A;60.277;5.293;6.832;
040549FFFDFAB421;IDS-05A -- ??????-????? -- 1 -- None -- 78 -- 0 -- Solo Pro II MVP -- 172.26.2.145;109;Lane 1;3/5/2012;11:45:00;100;15 Minutes;;;;;;4;1;49.000;0;1;0;0;0;255.996;0.066;A;49.016;0.039;0.078;
040549FFFDFAB421;IDS-05A -- ??????-????? -- 1 -- None -- 78 -- 0 -- Solo Pro II MVP -- 172.26.2.145;110;Lane 2;3/5/2012;11:45:00;100;15 Minutes;;;;;;852;213;59.902;0;66;108;23;16;4.223;15.980;A;58.633;10.121;14.527;
040549FFFDFAB421;IDS-05A -- ??????-????? -- 1 -- None -- 78 -- 0 -- Solo Pro II MVP -- 172.26.2.145;113;Total;3/5/2012;11:45:00;100;15 Minutes;;;;;;428;214;59.852;0;67;108;23;16;255.996;8.023;A;58.578;5.082;7.305;
040549FFFDFAB421;IDS-05A -- ??????-????? -- 1 -- None -- 78 -- 0 -- Solo Pro II MVP -- 172.26.2.145;109;Lane 1;3/5/2012;12:00:00; 99;15 Minutes;;;;;;4;1;40.000;0;0;1;0;0;255.996;0.086;A;40.008;0.059;0.098;
040549FFFDFAB421;IDS-05A -- ??????-????? -- 1 -- None -- 78 -- 0 -- Solo Pro II MVP -- 172.26.2.145;110;Lane 2;3/5/2012;12:00:00; 99;15 Minutes;;;;;;824;206;61.773;0;63;92;22;29;4.367;15.574;A;60.164;11.066;13.695;
040549FFFDFAB421;IDS-05A -- ??????-????? -- 1 -- None -- 78 -- 0 -- Solo Pro II MVP -- 172.26.2.145;113;Total;3/5/2012;12:00:00; 99;15 Minutes;;;;;;414;207;61.668;0;63;93;22;29;255.996;7.828;A;60.016;5.559;6.895;
040549FFFDFAB421;IDS-05A -- ??????-????? -- 1 -- None -- 78 -- 0 -- Solo Pro II MVP -- 172.26.2.145;109;Lane 1;3/5/2012;12:15:00;100;15 Minutes;;;;;;4;1;46.000;0;1;0;0;0;255.996;0.043;A;46.020;0.031;0.086;
040549FFFDFAB421;IDS-05A -- ??????-????? -- 1 -- None -- 78 -- 0 -- Solo Pro II MVP -- 172.26.2.145;110;Lane 2;3/5/2012;12:15:00;100;15 Minutes;;;;;;816;204;59.488;0;71;91;20;20;4.410;14.344;A;58.277;10.074;14.000;
040549FFFDFAB421;IDS-05A -- ??????-????? -- 1 -- None -- 78 -- 0 -- Solo Pro II MVP -- 172.26.2.145;113;Total;3/5/2012;12:15:00;100;15 Minutes;;;;;;410;205;59.422;0;72;91;20;20;255.996;7.191;A;58.199;5.055;7.043;
040549FFFDFAB421;IDS-05A -- ??????-????? -- 1 -- None -- 78 -- 0 -- Solo Pro II MVP -- 172.26.2.145;109;Lane 1;3/5/2012;12:30:00;100;15 Minutes;;;;;;0;0;0.000;0;0;0;0;0;255.996;0.000;A;0.000;100.000;0.000;
040549FFFDFAB421;IDS-05A -- ??????-????? -- 1 -- None -- 78 -- 0 -- Solo Pro II MVP -- 172.26.2.145;110;Lane 2;3/5/2012;12:30:00;100;15 Minutes;;;;;;856;214;60.883;0;82;87;21;23;4.203;14.883;A;59.387;10.547;14.410;
040549FFFDFAB421;IDS-05A -- ??????-????? -- 1 -- None -- 78 -- 0 -- Solo Pro II MVP -- 172.26.2.145;113;Total;3/5/2012;12:30:00;100;15 Minutes;;;;;;428;214;60.883;0;82;87;21;23;255.996;7.441;A;59.387;5.273;7.203;
040549FFFDFAB421;IDS-05A -- ??????-????? -- 1 -- None -- 78 -- 0 -- Solo Pro II MVP -- 172.26.2.145;109;Lane 1;3/5/2012;12:45:00;100;15 Minutes;;;;;;8;2;61.500;0;2;0;0;0;255.996;0.055;A;61.477;0.043;0.129;
040549FFFDFAB421;IDS-05A -- ??????-????? -- 1 -- None -- 78 -- 0 -- Solo Pro II MVP -- 172.26.2.145;110;Lane 2;3/5/2012;12:45:00;100;15 Minutes;;;;;;860;215;58.953;0;60;91;31;33;4.184;16.281;A;57.727;12.598;14.895;
040549FFFDFAB421;IDS-05A -- ??????-????? -- 1 -- None -- 78 -- 0 -- Solo Pro II MVP -- 172.26.2.145;113;Total;3/5/2012;12:45:00;100;15 Minutes;;;;;;434;217;58.977;0;62;91;31;33;227.090;8.168;A;57.758;6.320;7.512;
040549FFFDFAB421;IDS-05A -- ??????-????? -- 1 -- None -- 78 -- 0 -- Solo Pro II MVP -- 172.26.2.145;109;Lane 1;3/5/2012;13:00:00;100;15 Minutes;;;;;;0;0;0.000;0;0;0;0;0;255.996;0.000;A;0.000;100.000;0.000;
040549FFFDFAB421;IDS-05A -- ??????-????? -- 1 -- None -- 78 -- 0 -- Solo Pro II MVP -- 172.26.2.145;110;Lane 2;3/5/2012;13:00:00;100;15 Minutes;;;;;;816;204;63.262;0;82;79;19;24;4.410;12.785;A;61.688;9.523;13.227;
040549FFFDFAB421;IDS-05A -- ??????-????? -- 1 -- None -- 78 -- 0 -- Solo Pro II MVP -- 172.26.2.145;113;Total;3/5/2012;13:00:00;100;15 Minutes;;;;;;408;204;63.262;0;82;79;19;24;255.996;6.391;A;61.688;4.762;6.613;
040549FFFDFAB421;IDS-05A -- ??????-????? -- 1 -- None -- 78 -- 0 -- Solo Pro II MVP -- 172.26.2.145;109;Lane 1;3/5/2012;13:15:00;100;15 Minutes;;;;;;8;2;76.000;0;2;0;0;0;255.996;0.051;A;75.676;0.039;0.105;
040549FFFDFAB421;IDS-05A -- ??????-????? -- 1 -- None -- 78 -- 0 -- Solo Pro II MVP -- 172.26.2.145;110;Lane 2;3/5/2012;13:15:00;100;15 Minutes;;;;;;860;215;62.180;0;90;85;17;23;4.184;14.324;A;60.512;10.223;14.211;
040549FFFDFAB421;IDS-05A -- ??????-????? -- 1 -- None -- 78 -- 0 -- Solo Pro II MVP -- 172.26.2.145;113;Total;3/5/2012;13:15:00;100;15 Minutes;;;;;;434;217;62.309;0;92;85;17;23;227.090;7.188;A;60.625;5.125;7.156;
040549FFFDFAB421;IDS-05A -- ??????-????? -- 1 -- None -- 78 -- 0 -- Solo Pro II MVP -- 172.26.2.145;109;Lane 1;3/5/2012;13:30:00;100;15 Minutes;;;;;;4;1;101.000;0;1;0;0;0;255.996;0.027;A;101.133;0.020;0.039;
040549FFFDFAB421;IDS-05A -- ??????-????? -- 1 -- None -- 78 -- 0 -- Solo Pro II MVP -- 172.26.2.145;110;Lane 2;3/5/2012;13:30:00;100;15 Minutes;;;;;;800;200;63.875;0;77;74;19;30;4.500;13.852;A;62.629;10.102;12.773;
040549FFFDFAB421;IDS-05A -- ??????-????? -- 1 -- None -- 78 -- 0 -- Solo Pro II MVP -- 172.26.2.145;113;Total;3/5/2012;13:30:00;100;15 Minutes;;;;;;402;201;64.059;0;78;74;19;30;255.996;6.938;A;62.750;5.051;6.406;
040549FFFDFAB421;IDS-05A -- ??????-????? -- 1 -- None -- 78 -- 0 -- Solo Pro II MVP -- 172.26.2.145;109;Lane 1;3/5/2012;13:45:00;100;15 Minutes;;;;;;0;0;0.000;0;0;0;0;0;255.996;0.000;A;0.000;100.000;0.000;
040549FFFDFAB421;IDS-05A -- ??????-????? -- 1 -- None -- 78 -- 0 -- Solo Pro II MVP -- 172.26.2.145;110;Lane 2;3/5/2012;13:45:00;100;15 Minutes;;;;;;780;195;64.863;0;77;81;13;24;4.613;12.594;A;62.602;9.012;12.457;
040549FFFDFAB421;IDS-05A -- ??????-????? -- 1 -- None -- 78 -- 0 -- Solo Pro II MVP -- 172.26.2.145;113;Total;3/5/2012;13:45:00;100;15 Minutes;;;;;;390;195;64.863;0;77;81;13;24;255.996;6.297;A;62.602;4.504;6.227;
040549FFFDFAB421;IDS-05A -- ??????-????? -- 1 -- None -- 78 -- 0 -- Solo Pro II MVP -- 172.26.2.145;109;Lane 1;3/5/2012;14:00:00;100;15 Minutes;;;;;;8;2;74.500;1;0;1;0;0;255.996;0.098;A;66.500;0.035;0.117;
040549FFFDFAB421;IDS-05A -- ??????-????? -- 1 -- None -- 78 -- 0 -- Solo Pro II MVP -- 172.26.2.145;110;Lane 2;3/5/2012;14:00:00;100;15 Minutes;;;;;;856;214;64.004;0;86;88;14;26;4.203;13.668;A;62.820;9.895;13.625;
040549FFFDFAB421;IDS-05A -- ??????-????? -- 1 -- None -- 78 -- 0 -- Solo Pro II MVP -- 172.26.2.145;113;Total;3/5/2012;14:00:00;100;15 Minutes;;;;;;432;216;64.102;1;86;89;14;26;227.102;6.883;A;62.852;4.961;6.871;
040549FFFDFAB421;IDS-05A -- ??????-????? -- 1 -- None -- 78 -- 0 -- Solo Pro II MVP -- 172.26.2.145;109;Lane 1;3/5/2012;14:15:00;100;15 Minutes;;;;;;12;3;46.332;0;2;1;0;0;255.996;0.148;A;46.270;0.117;0.258;
040549FFFDFAB421;IDS-05A -- ??????-????? -- 1 -- None -- 78 -- 0 -- Solo Pro II MVP -- 172.26.2.145;110;Lane 2;3/5/2012;14:15:00;100;15 Minutes;;;;;;944;236;59.270;0;102;87;19;28;3.813;16.090;A;57.723;11.813;16.352;
040549FFFDFAB421;IDS-05A -- ??????-????? -- 1 -- None -- 78 -- 0 -- Solo Pro II MVP -- 172.26.2.145;113;Total;3/5/2012;14:15:00;100;15 Minutes;;;;;;478;239;59.105;0;104;88;19;28;151.906;8.117;A;57.543;5.965;8.305;
040549FFFDFAB421;IDS-05A -- ??????-????? -- 1 -- None -- 78 -- 0 -- Solo Pro II MVP -- 172.26.2.145;109;Lane 1;3/5/2012;14:30:00;100;15 Minutes;;;;;;4;1;48.000;0;1;0;0;0;255.996;0.039;A;48.012;0.000;0.082;
040549FFFDFAB421;IDS-05A -- ??????-????? -- 1 -- None -- 78 -- 0 -- Solo Pro II MVP -- 172.26.2.145;110;Lane 2;3/5/2012;14:30:00;100;15 Minutes;;;;;;924;231;59.180;0;89;84;25;33;3.895;16.094;A;58.152;12.578;15.887;
040549FFFDFAB421;IDS-05A -- ??????-????? -- 1 -- None -- 78 -- 0 -- Solo Pro II MVP -- 172.26.2.145;113;Total;3/5/2012;14:30:00;100;15 Minutes;;;;;;464;232;59.133;0;90;84;25;33;255.996;8.066;A;58.102;6.309;7.984;
040549FFFDFAB421;IDS-05A -- ??????-????? -- 1 -- None -- 78 -- 0 -- Solo Pro II MVP -- 172.26.2.145;109;Lane 1;3/5/2012;14:45:00;100;15 Minutes;;;;;;4;1;48.000;0;1;0;0;0;255.996;0.055;A;48.012;0.039;0.082;
040549FFFDFAB421;IDS-05A -- ??????-????? -- 1 -- None -- 78 -- 0 -- Solo Pro II MVP -- 172.26.2.145;110;Lane 2;3/5/2012;14:45:00;100;15 Minutes;;;;;;884;221;62.852;0;92;94;13;21;4.070;13.035;A;61.617;9.801;14.344;
040549FFFDFAB421;IDS-05A -- ??????-????? -- 1 -- None -- 78 -- 0 -- Solo Pro II MVP -- 172.26.2.145;113;Total;3/5/2012;14:45:00;100;15 Minutes;;;;;;444;222;62.785;0;93;94;13;21;255.996;6.543;A;61.539;4.922;7.215;
040549FFFDFAB421;IDS-05A -- ??????-????? -- 1 -- None -- 78 -- 0 -- Solo Pro II MVP -- 172.26.2.145;109;Lane 1;3/5/2012;15:00:00;100;15 Minutes;;;;;;4;1;95.000;0;1;0;0;0;255.996;0.020;A;95.117;0.020;0.039;
040549FFFDFAB421;IDS-05A -- ??????-????? -- 1 -- None -- 78 -- 0 -- Solo Pro II MVP -- 172.26.2.145;110;Lane 2;3/5/2012;15:00:00;100;15 Minutes;;;;;;836;209;61.820;0;88;80;13;27;4.305;12.895;A;60.430;9.688;13.832;
040549FFFDFAB421;IDS-05A -- ??????-????? -- 1 -- None -- 78 -- 0 -- Solo Pro II MVP -- 172.26.2.145;113;Total;3/5/2012;15:00:00;100;15 Minutes;;;;;;420;210;61.980;0;89;80;13;27;255.996;6.457;A;60.531;4.848;6.938;
040549FFFDFAB421;IDS-05A -- ??????-????? -- 1 -- None -- 78 -- 0 -- Solo Pro II MVP -- 172.26.2.145;109;Lane 1;3/5/2012;15:15:00;100;15 Minutes;;;;;;0;0;0.000;0;0;0;0;0;255.996;0.000;A;0.000;100.000;0.000;
040549FFFDFAB421;IDS-05A -- ??????-????? -- 1 -- None -- 78 -- 0 -- Solo Pro II MVP -- 172.26.2.145;110;Lane 2;3/5/2012;15:15:00;100;15 Minutes;;;;;;392;98;67.488;0;45;43;5;5;9.184;5.066;A;65.352;3.766;5.996;
040549FFFDFAB421;IDS-05A -- ??????-????? -- 1 -- None -- 78 -- 0 -- Solo Pro II MVP -- 172.26.2.145;113;Total;3/5/2012;15:15:00;100;15 Minutes;;;;;;196;98;67.488;0;45;43;5;5;255.996;2.531;A;65.352;1.883;2.996;
040549FFFDFAB421;IDS-05A -- ??????-????? -- 1 -- None -- 78 -- 0 -- Solo Pro II MVP -- 172.26.2.145;109;Lane 1;3/5/2012;15:30:00;100;15 Minutes;;;;;;32;8;67.625;0;7;1;0;0;112.500;0.305;A;65.320;0.203;0.488;
040549FFFDFAB421;IDS-05A -- ??????-????? -- 1 -- None -- 78 -- 0 -- Solo Pro II MVP -- 172.26.2.145;110;Lane 2;3/5/2012;15:30:00;100;15 Minutes;;;;;;1120;280;59.246;0;113;111;25;25;3.211;18.984;A;57.758;13.246;19.391;
040549FFFDFAB421;IDS-05A -- ??????-????? -- 1 -- None -- 78 -- 0 -- Solo Pro II MVP -- 172.26.2.145;113;Total;3/5/2012;15:30:00;100;15 Minutes;;;;;;576;288;59.477;0;120;112;25;25;57.855;9.645;A;57.914;6.711;9.945;
040549FFFDFAB421;IDS-05A -- ??????-????? -- 1 -- None -- 78 -- 0 -- Solo Pro II MVP -- 172.26.2.145;109;Lane 1;3/5/2012;15:45:00;100;15 Minutes;;;;;;4;1;56.000;0;0;0;0;1;255.996;0.164;A;56.012;0.145;0.070;
040549FFFDFAB421;IDS-05A -- ??????-????? -- 1 -- None -- 78 -- 0 -- Solo Pro II MVP -- 172.26.2.145;110;Lane 2;3/5/2012;15:45:00;100;15 Minutes;;;;;;968;242;61.801;0;111;80;28;22;3.719;16.148;A;60.699;11.523;15.945;
040549FFFDFAB421;IDS-05A -- ??????-????? -- 1 -- None -- 78 -- 0 -- Solo Pro II MVP -- 172.26.2.145;113;Total;3/5/2012;15:45:00;100;15 Minutes;;;;;;486;243;61.777;0;111;80;28;23;255.996;8.156;A;60.680;5.828;8.008;
040549FFFDFAB421;IDS-05A -- ??????-????? -- 1 -- None -- 78 -- 0 -- Solo Pro II MVP -- 172.26.2.145;109;Lane 1;3/5/2012;16:00:00;100;15 Minutes;;;;;;8;2;70.000;0;2;0;0;0;255.996;0.066;A;65.898;0.035;0.121;
040549FFFDFAB421;IDS-05A -- ??????-????? -- 1 -- None -- 78 -- 0 -- Solo Pro II MVP -- 172.26.2.145;110;Lane 2;3/5/2012;16:00:00;100;15 Minutes;;;;;;960;240;60.949;0;102;85;24;26;3.750;16.652;A;59.840;11.645;16.039;
040549FFFDFAB421;IDS-05A -- ??????-????? -- 1 -- None -- 78 -- 0 -- Solo Pro II MVP -- 172.26.2.145;113;Total;3/5/2012;16:00:00;100;15 Minutes;;;;;;484;242;61.023;0;104;85;24;26;226.875;8.359;A;59.887;5.836;8.078;
040549FFFDFAB421;IDS-05A -- ??????-????? -- 1 -- None -- 78 -- 0 -- Solo Pro II MVP -- 172.26.2.145;109;Lane 1;3/5/2012;16:15:00;100;15 Minutes;;;;;;8;2;61.500;0;1;0;0;1;255.996;0.152;A;61.477;0.109;0.129;
040549FFFDFAB421;IDS-05A -- ??????-????? -- 1 -- None -- 78 -- 0 -- Solo Pro II MVP -- 172.26.2.145;110;Lane 2;3/5/2012;16:15:00;100;15 Minutes;;;;;;1024;256;62.852;0;104;106;20;25;3.516;17.055;A;61.418;11.637;16.672;
040549FFFDFAB421;IDS-05A -- ??????-????? -- 1 -- None -- 78 -- 0 -- Solo Pro II MVP -- 172.26.2.145;113;Total;3/5/2012;16:15:00;100;15 Minutes;;;;;;516;258;62.840;0;105;106;20;26;226.758;8.602;A;61.438;5.871;8.398;
040549FFFDFAB421;IDS-05A -- ??????-????? -- 1 -- None -- 78 -- 0 -- Solo Pro II MVP -- 172.26.2.145;109;Lane 1;3/5/2012;16:30:00;100;15 Minutes;;;;;;0;0;0.000;0;0;0;0;0;255.996;0.000;A;0.000;100.000;0.000;
040549FFFDFAB421;IDS-05A -- ??????-????? -- 1 -- None -- 78 -- 0 -- Solo Pro II MVP -- 172.26.2.145;110;Lane 2;3/5/2012;16:30:00;100;15 Minutes;;;;;;900;225;61.008;0;109;68;23;25;4.000;15.043;A;59.469;10.977;15.133;
040549FFFDFAB421;IDS-05A -- ??????-????? -- 1 -- None -- 78 -- 0 -- Solo Pro II MVP -- 172.26.2.145;113;Total;3/5/2012;16:30:00;100;15 Minutes;;;;;;450;225;61.008;0;109;68;23;25;255.996;7.520;A;59.469;5.488;7.566;
040549FFFDFAB421;IDS-05A -- ??????-????? -- 1 -- None -- 78 -- 0 -- Solo Pro II MVP -- 172.26.2.145;109;Lane 1;3/5/2012;16:45:00;100;15 Minutes;;;;;;4;1;54.000;0;1;0;0;0;255.996;0.043;A;54.027;0.020;0.070;
040549FFFDFAB421;IDS-05A -- ??????-????? -- 1 -- None -- 78 -- 0 -- Solo Pro II MVP -- 172.26.2.145;110;Lane 2;3/5/2012;16:45:00;100;15 Minutes;;;;;;836;209;59.328;0;99;76;16;18;4.305;13.594;A;56.883;9.547;14.695;
040549FFFDFAB421;IDS-05A -- ??????-????? -- 1 -- None -- 78 -- 0 -- Solo Pro II MVP -- 172.26.2.145;113;Total;3/5/2012;16:45:00;100;15 Minutes;;;;;;420;210;59.305;0;100;76;16;18;255.996;6.816;A;56.867;4.785;7.383;
040549FFFDFAB421;IDS-05A -- ??????-????? -- 1 -- None -- 78 -- 0 -- Solo Pro II MVP -- 172.26.2.145;109;Lane 1;3/5/2012;17:00:00;100;15 Minutes;;;;;;12;3;66.664;1;2;0;0;0;255.996;0.109;A;58.512;0.051;0.203;
040549FFFDFAB421;IDS-05A -- ??????-????? -- 1 -- None -- 78 -- 0 -- Solo Pro II MVP -- 172.26.2.145;110;Lane 2;3/5/2012;17:00:00;100;15 Minutes;;;;;;992;248;58.797;0;122;81;26;19;3.629;16.652;A;56.641;11.586;17.512;
040549FFFDFAB421;IDS-05A -- ??????-????? -- 1 -- None -- 78 -- 0 -- Solo Pro II MVP -- 172.26.2.145;113;Total;3/5/2012;17:00:00;100;15 Minutes;;;;;;502;251;58.891;1;124;81;26;19;151.813;8.379;A;56.664;5.813;8.855;
040549FFFDFAB421;IDS-05A -- ??????-????? -- 1 -- None -- 78 -- 0 -- Solo Pro II MVP -- 172.26.2.145;109;Lane 1;3/5/2012;17:15:00;100;15 Minutes;;;;;;4;1;73.000;0;1;0;0;0;255.996;0.039;A;73.059;0.023;0.055;
040549FFFDFAB421;IDS-05A -- ??????-????? -- 1 -- None -- 78 -- 0 -- Solo Pro II MVP -- 172.26.2.145;110;Lane 2;3/5/2012;17:15:00;100;15 Minutes;;;;;;892;223;64.648;0;102;79;19;21;4.035;13.914;A;63.078;9.496;14.141;
040549FFFDFAB421;IDS-05A -- ??????-????? -- 1 -- None -- 78 -- 0 -- Solo Pro II MVP -- 172.26.2.145;113;Total;3/5/2012;17:15:00;100;15 Minutes;;;;;;448;224;64.688;0;103;79;19;21;255.996;6.977;A;63.117;4.758;7.098;
040549FFFDFAB421;IDS-05A -- ??????-????? -- 1 -- None -- 78 -- 0 -- Solo Pro II MVP -- 172.26.2.145;109;Lane 1;3/5/2012;17:30:00;100;15 Minutes;;;;;;16;4;67.250;1;1;2;0;0;225.000;0.211;A;50.820;0.098;0.313;
040549FFFDFAB421;IDS-05A -- ??????-????? -- 1 -- None -- 78 -- 0 -- Solo Pro II MVP -- 172.26.2.145;110;Lane 2;3/5/2012;17:30:00;100;15 Minutes;;;;;;880;220;63.590;0;101;85;11;23;4.090;13.328;A;62.273;9.730;14.129;
040549FFFDFAB421;IDS-05A -- ??????-????? -- 1 -- None -- 78 -- 0 -- Solo Pro II MVP -- 172.26.2.145;113;Total;3/5/2012;17:30:00;100;15 Minutes;;;;;;448;224;63.656;1;102;87;11;23;114.543;6.770;A;62.023;4.910;7.223;
040549FFFDFAB421;IDS-05A -- ??????-????? -- 1 -- None -- 78 -- 0 -- Solo Pro II MVP -- 172.26.2.145;109;Lane 1;3/5/2012;17:45:00;100;15 Minutes;;;;;;0;0;0.000;0;0;0;0;0;255.996;0.000;A;0.000;100.000;0.000;
040549FFFDFAB421;IDS-05A -- ??????-????? -- 1 -- None -- 78 -- 0 -- Solo Pro II MVP -- 172.26.2.145;110;Lane 2;3/5/2012;17:45:00;100;15 Minutes;;;;;;780;195;65.156;0;102;63;9;18;4.613;11.281;A;62.953;7.773;12.387;
040549FFFDFAB421;IDS-05A -- ??????-????? -- 1 -- None -- 78 -- 0 -- Solo Pro II MVP -- 172.26.2.145;113;Total;3/5/2012;17:45:00;100;15 Minutes;;;;;;390;195;65.156;0;102;63;9;18;255.996;5.641;A;62.953;3.887;6.191;
040549FFFDFAB421;IDS-05A -- ??????-????? -- 1 -- None -- 78 -- 0 -- Solo Pro II MVP -- 172.26.2.145;109;Lane 1;3/5/2012;18:00:00;100;15 Minutes;;;;;;20;5;70.199;0;5;0;0;0;180.000;0.199;A;68.535;0.109;0.289;
040549FFFDFAB421;IDS-05A -- ??????-????? -- 1 -- None -- 78 -- 0 -- Solo Pro II MVP -- 172.26.2.145;110;Lane 2;3/5/2012;18:00:00;100;15 Minutes;;;;;;888;222;67.730;0;126;68;13;15;4.051;11.188;A;65.746;8.336;13.504;
040549FFFDFAB421;IDS-05A -- ??????-????? -- 1 -- None -- 78 -- 0 -- Solo Pro II MVP -- 172.26.2.145;113;Total;3/5/2012;18:00:00;100;15 Minutes;;;;;;454;227;67.785;0;131;68;13;15;92.023;5.691;A;65.805;4.223;6.898;
040549FFFDFAB421;IDS-05A -- ??????-????? -- 1 -- None -- 78 -- 0 -- Solo Pro II MVP -- 172.26.2.145;109;Lane 1;3/5/2012;18:15:00;100;15 Minutes;;;;;;0;0;0.000;0;0;0;0;0;255.996;0.000;A;0.000;100.000;0.000;
040549FFFDFAB421;IDS-05A -- ??????-????? -- 1 -- None -- 78 -- 0 -- Solo Pro II MVP -- 172.26.2.145;110;Lane 2;3/5/2012;18:15:00;100;15 Minutes;;;;;;812;203;67.105;0;115;55;12;21;4.430;10.504;A;65.328;7.934;12.426;
040549FFFDFAB421;IDS-05A -- ??????-????? -- 1 -- None -- 78 -- 0 -- Solo Pro II MVP -- 172.26.2.145;113;Total;3/5/2012;18:15:00;100;15 Minutes;;;;;;406;203;67.105;0;115;55;12;21;255.996;5.250;A;65.328;3.965;6.211;
040549FFFDFAB421;IDS-05A -- ??????-????? -- 1 -- None -- 78 -- 0 -- Solo Pro II MVP -- 172.26.2.145;109;Lane 1;3/5/2012;18:30:00;100;15 Minutes;;;;;;8;2;69.500;0;1;1;0;0;255.996;0.086;A;65.602;0.059;0.121;
040549FFFDFAB421;IDS-05A -- ??????-????? -- 1 -- None -- 78 -- 0 -- Solo Pro II MVP -- 172.26.2.145;110;Lane 2;3/5/2012;18:30:00;100;15 Minutes;;;;;;780;195;68.633;0;105;59;13;18;4.613;10.270;A;66.117;7.750;11.797;
040549FFFDFAB421;IDS-05A -- ??????-????? -- 1 -- None -- 78 -- 0 -- Solo Pro II MVP -- 172.26.2.145;113;Total;3/5/2012;18:30:00;100;15 Minutes;;;;;;394;197;68.645;0;106;60;13;18;227.305;5.176;A;66.109;3.902;5.957;
040549FFFDFAB421;IDS-05A -- ??????-????? -- 1 -- None -- 78 -- 0 -- Solo Pro II MVP -- 172.26.2.145;109;Lane 1;3/5/2012;18:45:00;100;15 Minutes;;;;;;12;3;67.000;0;3;0;0;0;255.996;0.121;A;65.121;0.066;0.184;
040549FFFDFAB421;IDS-05A -- ??????-????? -- 1 -- None -- 78 -- 0 -- Solo Pro II MVP -- 172.26.2.145;110;Lane 2;3/5/2012;18:45:00;100;15 Minutes;;;;;;760;190;65.500;0;114;50;12;14;4.734;10.316;A;62.785;7.250;12.102;
040549FFFDFAB421;IDS-05A -- ??????-????? -- 1 -- None -- 78 -- 0 -- Solo Pro II MVP -- 172.26.2.145;113;Total;3/5/2012;18:45:00;100;15 Minutes;;;;;;386;193;65.520;0;117;50;12;14;152.367;5.219;A;62.820;3.656;6.141;
040549FFFDFAB421;IDS-05A -- ??????-????? -- 1 -- None -- 78 -- 0 -- Solo Pro II MVP -- 172.26.2.145;109;Lane 1;3/5/2012;19:00:00;100;15 Minutes;;;;;;16;4;73.250;0;3;0;0;0;225.000;0.250;A;68.316;0.055;0.230;
040549FFFDFAB421;IDS-05A -- ??????-????? -- 1 -- None -- 78 -- 0 -- Solo Pro II MVP -- 172.26.2.145;110;Lane 2;3/5/2012;19:00:00;100;15 Minutes;;;;;;668;167;62.242;0;97;57;6;6;5.387;10.316;A;60.262;5.945;11.082;
040549FFFDFAB421;IDS-05A -- ??????-????? -- 1 -- None -- 78 -- 0 -- Solo Pro II MVP -- 172.26.2.145;113;Total;3/5/2012;19:00:00;100;15 Minutes;;;;;;342;171;62.500;0;100;57;6;6;115.191;5.281;A;60.430;2.992;5.656;
040549FFFDFAB421;IDS-05A -- ??????-????? -- 1 -- None -- 78 -- 0 -- Solo Pro II MVP -- 172.26.2.145;109;Lane 1;3/5/2012;19:15:00;100;15 Minutes;;;;;;8;2;46.000;0;2;0;0;0;255.996;0.090;A;45.227;0.051;0.176;
040549FFFDFAB421;IDS-05A -- ??????-????? -- 1 -- None -- 78 -- 0 -- Solo Pro II MVP -- 172.26.2.145;110;Lane 2;3/5/2012;19:15:00;100;15 Minutes;;;;;;828;207;60.379;0;110;87;4;4;4.348;12.625;A;58.082;7.227;14.254;
040549FFFDFAB421;IDS-05A -- ??????-????? -- 1 -- None -- 78 -- 0 -- Solo Pro II MVP -- 172.26.2.145;113;Total;3/5/2012;19:15:00;100;15 Minutes;;;;;;418;209;60.242;0;112;87;4;4;227.172;6.355;A;57.926;3.641;7.215;
040549FFFDFAB421;IDS-05A -- ??????-????? -- 1 -- None -- 78 -- 0 -- Solo Pro II MVP -- 172.26.2.145;109;Lane 1;3/5/2012;19:30:00;100;15 Minutes;;;;;;8;2;82.500;0;2;0;0;0;255.996;0.055;A;82.484;0.027;0.094;
040549FFFDFAB421;IDS-05A -- ??????-????? -- 1 -- None -- 78 -- 0 -- Solo Pro II MVP -- 172.26.2.145;110;Lane 2;3/5/2012;19:30:00;100;15 Minutes;;;;;;720;180;58.832;0;110;60;6;4;5.000;11.926;A;56.504;6.590;12.742;
040549FFFDFAB421;IDS-05A -- ??????-????? -- 1 -- None -- 78 -- 0 -- Solo Pro II MVP -- 172.26.2.145;113;Total;3/5/2012;19:30:00;100;15 Minutes;;;;;;364;182;59.090;0;112;60;6;4;227.500;5.988;A;56.703;3.301;6.418;
040549FFFDFAB421;IDS-05A -- ??????-????? -- 1 -- None -- 78 -- 0 -- Solo Pro II MVP -- 172.26.2.145;109;Lane 1;3/5/2012;19:45:00;100;15 Minutes;;;;;;12;3;62.664;0;1;2;0;0;255.996;0.113;A;61.746;0.000;0.191;
040549FFFDFAB421;IDS-05A -- ??????-????? -- 1 -- None -- 78 -- 0 -- Solo Pro II MVP -- 172.26.2.145;110;Lane 2;3/5/2012;19:45:00;100;15 Minutes;;;;;;616;154;59.090;0;77;67;4;6;5.844;10.855;A;57.125;6.129;10.781;
040549FFFDFAB421;IDS-05A -- ??????-????? -- 1 -- None -- 78 -- 0 -- Solo Pro II MVP -- 172.26.2.145;113;Total;3/5/2012;19:45:00;100;15 Minutes;;;;;;314;157;59.156;0;78;69;4;6;152.922;5.484;A;57.207;3.125;5.488;
040549FFFDFAB421;IDS-05A -- ??????-????? -- 1 -- None -- 78 -- 0 -- Solo Pro II MVP -- 172.26.2.145;109;Lane 1;3/5/2012;20:00:00;100;15 Minutes;;;;;;12;3;61.332;0;3;0;0;0;255.996;0.113;A;58.969;0.082;0.203;
040549FFFDFAB421;IDS-05A -- ??????-????? -- 1 -- None -- 78 -- 0 -- Solo Pro II MVP -- 172.26.2.145;110;Lane 2;3/5/2012;20:00:00;100;15 Minutes;;;;;;648;162;59.535;0;98;52;4;7;5.555;10.355;A;57.691;5.941;11.230;
040549FFFDFAB421;IDS-05A -- ??????-????? -- 1 -- None -- 78 -- 0 -- Solo Pro II MVP -- 172.26.2.145;113;Total;3/5/2012;20:00:00;100;15 Minutes;;;;;;330;165;59.566;0;101;52;4;7;152.777;5.234;A;57.715;3.012;5.715;
040549FFFDFAB421;IDS-05A -- ??????-????? -- 1 -- None -- 78 -- 0 -- Solo Pro II MVP -- 172.26.2.145;109;Lane 1;3/5/2012;20:15:00;100;15 Minutes;;;;;;4;1;40.000;0;1;0;0;0;255.996;0.066;A;40.008;0.027;0.098;
040549FFFDFAB421;IDS-05A -- ??????-????? -- 1 -- None -- 78 -- 0 -- Solo Pro II MVP -- 172.26.2.145;110;Lane 2;3/5/2012;20:15:00;100;15 Minutes;;;;;;664;166;61.578;0;89;64;8;5;5.418;10.914;A;59.492;6.051;11.160;
040549FFFDFAB421;IDS-05A -- ??????-????? -- 1 -- None -- 78 -- 0 -- Solo Pro II MVP -- 172.26.2.145;113;Total;3/5/2012;20:15:00;100;15 Minutes;;;;;;334;167;61.445;0;90;64;8;5;255.996;5.488;A;59.320;3.039;5.629;
040549FFFDFAB421;IDS-05A -- ??????-????? -- 1 -- None -- 78 -- 0 -- Solo Pro II MVP -- 172.26.2.145;109;Lane 1;3/5/2012;20:30:00;100;15 Minutes;;;;;;12;3;45.664;0;1;1;0;0;255.996;0.090;A;43.449;0.070;0.273;
040549FFFDFAB421;IDS-05A -- ??????-????? -- 1 -- None -- 78 -- 0 -- Solo Pro II MVP -- 172.26.2.145;110;Lane 2;3/5/2012;20:30:00;100;15 Minutes;;;;;;604;151;60.672;0;88;51;5;5;5.957;10.742;A;58.016;5.355;10.410;
040549FFFDFAB421;IDS-05A -- ??????-????? -- 1 -- None -- 78 -- 0 -- Solo Pro II MVP -- 172.26.2.145;113;Total;3/5/2012;20:30:00;100;15 Minutes;;;;;;308;154;60.383;0;89;52;5;5;152.977;5.414;A;57.641;2.715;5.340;
040549FFFDFAB421;IDS-05A -- ??????-????? -- 1 -- None -- 78 -- 0 -- Solo Pro II MVP -- 172.26.2.145;109;Lane 1;3/5/2012;20:45:00;100;15 Minutes;;;;;;4;1;79.000;0;0;0;0;0;255.996;0.043;A;79.051;0.000;0.047;
040549FFFDFAB421;IDS-05A -- ??????-????? -- 1 -- None -- 78 -- 0 -- Solo Pro II MVP -- 172.26.2.145;110;Lane 2;3/5/2012;20:45:00;100;15 Minutes;;;;;;560;140;62.750;0;80;53;2;5;6.426;9.344;A;59.855;4.906;9.355;
040549FFFDFAB421;IDS-05A -- ??????-????? -- 1 -- None -- 78 -- 0 -- Solo Pro II MVP -- 172.26.2.145;113;Total;3/5/2012;20:45:00;100;15 Minutes;;;;;;282;141;62.863;0;80;53;2;5;255.996;4.691;A;59.961;2.445;4.699;
040549FFFDFAB421;IDS-05A -- ??????-????? -- 1 -- None -- 78 -- 0 -- Solo Pro II MVP -- 172.26.2.145;109;Lane 1;3/5/2012;21:00:00;100;15 Minutes;;;;;;0;0;0.000;0;0;0;0;0;255.996;0.000;A;0.000;100.000;0.000;
040549FFFDFAB421;IDS-05A -- ??????-????? -- 1 -- None -- 78 -- 0 -- Solo Pro II MVP -- 172.26.2.145;110;Lane 2;3/5/2012;21:00:00;100;15 Minutes;;;;;;544;136;63.945;0;80;48;5;2;6.617;8.574;A;61.383;4.445;8.859;
040549FFFDFAB421;IDS-05A -- ??????-????? -- 1 -- None -- 78 -- 0 -- Solo Pro II MVP -- 172.26.2.145;113;Total;3/5/2012;21:00:00;100;15 Minutes;;;;;;272;136;63.945;0;80;48;5;2;255.996;4.285;A;61.383;2.223;4.430;
040549FFFDFAB421;IDS-05A -- ??????-????? -- 1 -- None -- 78 -- 0 -- Solo Pro II MVP -- 172.26.2.145;109;Lane 1;3/5/2012;21:15:00;100;15 Minutes;;;;;;8;2;64.500;0;1;0;0;0;255.996;0.051;A;63.656;0.020;0.125;
040549FFFDFAB421;IDS-05A -- ??????-????? -- 1 -- None -- 78 -- 0 -- Solo Pro II MVP -- 172.26.2.145;110;Lane 2;3/5/2012;21:15:00;100;15 Minutes;;;;;;484;121;61.484;0;68;47;1;4;7.438;8.301;A;59.039;4.184;8.195;
040549FFFDFAB421;IDS-05A -- ??????-????? -- 1 -- None -- 78 -- 0 -- Solo Pro II MVP -- 172.26.2.145;113;Total;3/5/2012;21:15:00;100;15 Minutes;;;;;;246;123;61.535;0;69;47;1;4;228.719;4.176;A;59.109;2.102;4.160;
040549FFFDFAB421;IDS-05A -- ??????-????? -- 1 -- None -- 78 -- 0 -- Solo Pro II MVP -- 172.26.2.145;109;Lane 1;3/5/2012;21:30:00;100;15 Minutes;;;;;;0;0;0.000;0;0;0;0;0;255.996;0.000;A;0.000;100.000;0.000;
040549FFFDFAB421;IDS-05A -- ??????-????? -- 1 -- None -- 78 -- 0 -- Solo Pro II MVP -- 172.26.2.145;110;Lane 2;3/5/2012;21:30:00;100;15 Minutes;;;;;;452;113;63.793;0;66;36;3;7;7.961;7.746;A;61.172;4.250;7.387;
040549FFFDFAB421;IDS-05A -- ??????-????? -- 1 -- None -- 78 -- 0 -- Solo Pro II MVP -- 172.26.2.145;113;Total;3/5/2012;21:30:00;100;15 Minutes;;;;;;226;113;63.793;0;66;36;3;7;255.996;3.871;A;61.172;2.125;3.691;
040549FFFDFAB421;IDS-05A -- ??????-????? -- 1 -- None -- 78 -- 0 -- Solo Pro II MVP -- 172.26.2.145;109;Lane 1;3/5/2012;21:45:00;100;15 Minutes;;;;;;8;2;57.000;0;1;0;0;0;255.996;0.199;A;56.738;0.023;0.141;
040549FFFDFAB421;IDS-05A -- ??????-????? -- 1 -- None -- 78 -- 0 -- Solo Pro II MVP -- 172.26.2.145;110;Lane 2;3/5/2012;21:45:00;100;15 Minutes;;;;;;392;98;64.059;0;56;31;5;6;9.184;6.340;A;61.102;3.461;6.414;
040549FFFDFAB421;IDS-05A -- ??????-????? -- 1 -- None -- 78 -- 0 -- Solo Pro II MVP -- 172.26.2.145;113;Total;3/5/2012;21:45:00;100;15 Minutes;;;;;;200;100;63.918;0;57;31;5;6;229.590;3.270;A;61.008;1.742;3.277;
040549FFFDFAB421;IDS-05A -- ??????-????? -- 1 -- None -- 78 -- 0 -- Solo Pro II MVP -- 172.26.2.145;109;Lane 1;3/5/2012;22:00:00;100;15 Minutes;;;;;;4;1;60.000;0;0;0;1;0;255.996;0.074;A;60.012;0.059;0.066;
040549FFFDFAB421;IDS-05A -- ??????-????? -- 1 -- None -- 78 -- 0 -- Solo Pro II MVP -- 172.26.2.145;110;Lane 2;3/5/2012;22:00:00;100;15 Minutes;;;;;;476;119;61.898;0;67;39;2;9;7.563;7.859;A;59.488;4.594;8.000;
040549FFFDFAB421;IDS-05A -- ??????-????? -- 1 -- None -- 78 -- 0 -- Solo Pro II MVP -- 172.26.2.145;113;Total;3/5/2012;22:00:00;100;15 Minutes;;;;;;240;120;61.883;0;67;39;3;9;255.996;3.965;A;59.492;2.324;4.031;
040549FFFDFAB421;IDS-05A -- ??????-????? -- 1 -- None -- 78 -- 0 -- Solo Pro II MVP -- 172.26.2.145;109;Lane 1;3/5/2012;22:15:00;100;15 Minutes;;;;;;8;2;59.500;0;0;1;0;0;255.996;0.055;A;59.309;0.035;0.133;
040549FFFDFAB421;IDS-05A -- ??????-????? -- 1 -- None -- 78 -- 0 -- Solo Pro II MVP -- 172.26.2.145;110;Lane 2;3/5/2012;22:15:00;100;15 Minutes;;;;;;432;108;64.063;0;67;31;5;5;8.332;6.984;A;62.402;3.777;6.922;
040549FFFDFAB421;IDS-05A -- ??????-????? -- 1 -- None -- 78 -- 0 -- Solo Pro II MVP -- 172.26.2.145;113;Total;3/5/2012;22:15:00;100;15 Minutes;;;;;;220;110;63.980;0;67;32;5;5;229.164;3.520;A;62.344;1.910;3.527;
040549FFFDFAB421;IDS-05A -- ??????-????? -- 1 -- None -- 78 -- 0 -- Solo Pro II MVP -- 172.26.2.145;109;Lane 1;3/5/2012;22:30:00;100;15 Minutes;;;;;;0;0;0.000;0;0;0;0;0;255.996;0.000;A;0.000;100.000;0.000;
040549FFFDFAB421;IDS-05A -- ??????-????? -- 1 -- None -- 78 -- 0 -- Solo Pro II MVP -- 172.26.2.145;110;Lane 2;3/5/2012;22:30:00;100;15 Minutes;;;;;;392;98;65.102;0;58;32;1;4;9.184;6.785;A;62.480;3.305;6.273;
040549FFFDFAB421;IDS-05A -- ??????-????? -- 1 -- None -- 78 -- 0 -- Solo Pro II MVP -- 172.26.2.145;113;Total;3/5/2012;22:30:00;100;15 Minutes;;;;;;196;98;65.102;0;58;32;1;4;255.996;3.391;A;62.480;1.652;3.137;
040549FFFDFAB421;IDS-05A -- ??????-????? -- 1 -- None -- 78 -- 0 -- Solo Pro II MVP -- 172.26.2.145;109;Lane 1;3/5/2012;22:45:00;100;15 Minutes;;;;;;0;0;0.000;0;0;0;0;0;255.996;0.000;A;0.000;100.000;0.000;
040549FFFDFAB421;IDS-05A -- ??????-????? -- 1 -- None -- 78 -- 0 -- Solo Pro II MVP -- 172.26.2.145;110;Lane 2;3/5/2012;22:45:00;100;15 Minutes;;;;;;360;90;62.785;0;39;43;2;3;10.000;6.625;A;60.359;3.305;5.961;
040549FFFDFAB421;IDS-05A -- ??????-????? -- 1 -- None -- 78 -- 0 -- Solo Pro II MVP -- 172.26.2.145;113;Total;3/5/2012;22:45:00;100;15 Minutes;;;;;;180;90;62.785;0;39;43;2;3;255.996;3.313;A;60.359;1.652;2.980;
040549FFFDFAB421;IDS-05A -- ??????-????? -- 1 -- None -- 78 -- 0 -- Solo Pro II MVP -- 172.26.2.145;109;Lane 1;3/5/2012;23:00:00;100;15 Minutes;;;;;;0;0;0.000;0;0;0;0;0;255.996;0.000;A;0.000;100.000;0.000;
040549FFFDFAB421;IDS-05A -- ??????-????? -- 1 -- None -- 78 -- 0 -- Solo Pro II MVP -- 172.26.2.145;110;Lane 2;3/5/2012;23:00:00;100;15 Minutes;;;;;;292;73;64.805;0;45;22;2;4;12.328;4.660;A;62.102;2.555;4.699;
040549FFFDFAB421;IDS-05A -- ??????-????? -- 1 -- None -- 78 -- 0 -- Solo Pro II MVP -- 172.26.2.145;113;Total;3/5/2012;23:00:00;100;15 Minutes;;;;;;146;73;64.805;0;45;22;2;4;255.996;2.328;A;62.102;1.277;2.348;
040549FFFDFAB421;IDS-05A -- ??????-????? -- 1 -- None -- 78 -- 0 -- Solo Pro II MVP -- 172.26.2.145;109;Lane 1;3/5/2012;23:15:00;100;15 Minutes;;;;;;0;0;0.000;0;0;0;0;0;255.996;0.000;A;0.000;100.000;0.000;
040549FFFDFAB421;IDS-05A -- ??????-????? -- 1 -- None -- 78 -- 0 -- Solo Pro II MVP -- 172.26.2.145;110;Lane 2;3/5/2012;23:15:00;100;15 Minutes;;;;;;316;79;73.961;0;48;27;3;1;11.391;4.309;A;68.051;2.199;4.641;
040549FFFDFAB421;IDS-05A -- ??????-????? -- 1 -- None -- 78 -- 0 -- Solo Pro II MVP -- 172.26.2.145;113;Total;3/5/2012;23:15:00;100;15 Minutes;;;;;;158;79;73.961;0;48;27;3;1;255.996;2.152;A;68.051;1.098;2.320;
040549FFFDFAB421;IDS-05A -- ??????-????? -- 1 -- None -- 78 -- 0 -- Solo Pro II MVP -- 172.26.2.145;109;Lane 1;3/5/2012;23:30:00;100;15 Minutes;;;;;;0;0;0.000;0;0;0;0;0;255.996;0.000;A;0.000;100.000;0.000;
040549FFFDFAB421;IDS-05A -- ??????-????? -- 1 -- None -- 78 -- 0 -- Solo Pro II MVP -- 172.26.2.145;110;Lane 2;3/5/2012;23:30:00;100;15 Minutes;;;;;;320;80;63.160;0;54;19;3;2;11.250;5.156;A;60.934;2.582;5.250;
040549FFFDFAB421;IDS-05A -- ??????-????? -- 1 -- None -- 78 -- 0 -- Solo Pro II MVP -- 172.26.2.145;113;Total;3/5/2012;23:30:00;100;15 Minutes;;;;;;160;80;63.160;0;54;19;3;2;255.996;2.578;A;60.934;1.289;2.625;
040549FFFDFAB421;IDS-05A -- ??????-????? -- 1 -- None -- 78 -- 0 -- Solo Pro II MVP -- 172.26.2.145;109;Lane 1;3/5/2012;23:45:00;100;15 Minutes;;;;;;0;0;0.000;0;0;0;0;0;255.996;0.000;A;0.000;100.000;0.000;
040549FFFDFAB421;IDS-05A -- ??????-????? -- 1 -- None -- 78 -- 0 -- Solo Pro II MVP -- 172.26.2.145;110;Lane 2;3/5/2012;23:45:00;100;15 Minutes;;;;;;220;55;62.453;0;33;15;2;4;16.363;3.898;A;61.086;2.180;3.598;
040549FFFDFAB421;IDS-05A -- ??????-????? -- 1 -- None -- 78 -- 0 -- Solo Pro II MVP -- 172.26.2.145;113;Total;3/5/2012;23:45:00;100;15 Minutes;;;;;;110;55;62.453;0;33;15;2;4;255.996;1.949;A;61.086;1.090;1.797;
040549FFFDFAB421;IDS-05A -- ??????-????? -- 1 -- None -- 78 -- 0 -- Solo Pro II MVP -- 172.26.2.145;109;Lane 1;4/5/2012;0:00:00;100;15 Minutes;;;;;;0;0;0.000;0;0;0;0;0;255.996;0.000;A;0.000;100.000;0.000;
040549FFFDFAB421;IDS-05A -- ??????-????? -- 1 -- None -- 78 -- 0 -- Solo Pro II MVP -- 172.26.2.145;110;Lane 2;4/5/2012;0:00:00;100;15 Minutes;;;;;;252;63;63.809;0;30;26;1;5;14.285;4.598;A;61.918;2.465;4.066;
040549FFFDFAB421;IDS-05A -- ??????-????? -- 1 -- None -- 78 -- 0 -- Solo Pro II MVP -- 172.26.2.145;113;Total;4/5/2012;0:00:00;100;15 Minutes;;;;;;126;63;63.809;0;30;26;1;5;255.996;2.297;A;61.918;1.230;2.031;
