Image Sensing Systems, Inc. Data Collector File, Version 8.3.2
Detector ID List; 118;119;105;106;120;121;112;115;116;117;104;102;111;114;109;110;113;108;101;
0;1;2;3;4;5;7;8;9;10;11;12;13;14;15;16;17;18;19;20;21;22;23;24;25;26;27;
CPU Identifier;Autoscope Description;Detector ID;Detector Title;Date;Time;Status;Data Interval;Ticks (millisec.);State;Speed;Length;Class;Average Flow Rate;Volume;Arithmetic Mean Speed;Class A Count;Class B Count;Class C Count;Class D Count;Class E Count;Average Time Headway;Average Time Occupancy;Level Of Service;Space Mean Speed;Space Occupancy;Density;
040549FF2C0EB521;IDS-11A -- ?????-??????? -- 1 -- None -- 81 -- 0 -- Solo Pro II MVP -- 172.26.2.151;110;Lane 2;3/5/2012;23:22:00;100;1 Minute;;;;;;420;7;58.570;0;7;0;0;0;8.570;3.668;A;57.871;2.766;7.254;
040549FF2C0EB521;IDS-11A -- ?????-??????? -- 1 -- None -- 81 -- 0 -- Solo Pro II MVP -- 172.26.2.151;113;Total;3/5/2012;23:22:00;100;1 Minute;;;;;;210;7;58.570;0;7;0;0;0;34.285;1.832;A;57.871;1.383;3.625;
040549FF2C0EB521;IDS-11A -- ?????-??????? -- 1 -- None -- 81 -- 0 -- Solo Pro II MVP -- 172.26.2.151;109;Lane 1;3/5/2012;23:23:00; 99;1 Minute;;;;;;120;2;48.500;0;1;1;0;0;30.000;1.531;A;47.352;1.258;2.531;
040549FF2C0EB521;IDS-11A -- ?????-??????? -- 1 -- None -- 81 -- 0 -- Solo Pro II MVP -- 172.26.2.151;110;Lane 2;3/5/2012;23:23:00; 99;1 Minute;;;;;;180;3;54.664;0;3;0;0;0;20.000;2.266;A;51.766;1.500;3.477;
040549FF2C0EB521;IDS-11A -- ?????-??????? -- 1 -- None -- 81 -- 0 -- Solo Pro II MVP -- 172.26.2.151;113;Total;3/5/2012;23:23:00; 99;1 Minute;;;;;;150;5;52.199;0;4;1;0;0;25.000;1.898;A;49.902;1.371;3.004;
040549FF2C0EB521;IDS-11A -- ?????-??????? -- 1 -- None -- 81 -- 0 -- Solo Pro II MVP -- 172.26.2.151;109;Lane 1;3/5/2012;23:24:00;100;1 Minute;;;;;;0;0;0.000;0;0;0;0;0;60.000;0.000;A;0.000;100.000;0.000;
040549FF2C0EB521;IDS-11A -- ?????-??????? -- 1 -- None -- 81 -- 0 -- Solo Pro II MVP -- 172.26.2.151;110;Lane 2;3/5/2012;23:24:00;100;1 Minute;;;;;;180;3;84.000;0;2;0;1;0;20.000;1.465;A;79.402;0.988;2.266;
040549FF2C0EB521;IDS-11A -- ?????-??????? -- 1 -- None -- 81 -- 0 -- Solo Pro II MVP -- 172.26.2.151;113;Total;3/5/2012;23:24:00;100;1 Minute;;;;;;90;3;84.000;0;2;0;1;0;40.000;0.730;A;79.402;0.492;1.133;
040549FF2C0EB521;IDS-11A -- ?????-??????? -- 1 -- None -- 81 -- 0 -- Solo Pro II MVP -- 172.26.2.151;109;Lane 1;3/5/2012;23:25:00;100;1 Minute;;;;;;60;1;47.000;0;1;0;0;0;60.000;0.664;A;47.012;0.508;1.273;
040549FF2C0EB521;IDS-11A -- ?????-??????? -- 1 -- None -- 81 -- 0 -- Solo Pro II MVP -- 172.26.2.151;109;Lane 1;3/5/2012;23:25:00; 99;5 Minutes;;;;;;72;6;48.332;0;5;1;0;0;50.000;0.824;A;47.840;0.676;1.504;
040549FF2C0EB521;IDS-11A -- ?????-??????? -- 1 -- None -- 81 -- 0 -- Solo Pro II MVP -- 172.26.2.151;110;Lane 2;3/5/2012;23:25:00;100;1 Minute;;;;;;180;3;73.664;0;3;0;0;0;20.000;1.598;A;72.762;1.203;2.473;
040549FF2C0EB521;IDS-11A -- ?????-??????? -- 1 -- None -- 81 -- 0 -- Solo Pro II MVP -- 172.26.2.151;110;Lane 2;3/5/2012;23:25:00; 99;5 Minutes;;;;;;264;22;63.406;0;21;0;1;0;13.633;2.453;A;60.613;1.797;4.355;
040549FF2C0EB521;IDS-11A -- ?????-??????? -- 1 -- None -- 81 -- 0 -- Solo Pro II MVP -- 172.26.2.151;113;Total;3/5/2012;23:25:00;100;1 Minute;;;;;;120;4;67.000;0;4;0;0;0;40.000;1.129;A;64.000;0.840;1.875;
040549FF2C0EB521;IDS-11A -- ?????-??????? -- 1 -- None -- 81 -- 0 -- Solo Pro II MVP -- 172.26.2.151;113;Total;3/5/2012;23:25:00; 99;5 Minutes;;;;;;168;28;60.176;0;26;1;1;0;31.816;1.637;A;57.332;1.219;2.930;
040549FF2C0EB521;IDS-11A -- ?????-??????? -- 1 -- None -- 81 -- 0 -- Solo Pro II MVP -- 172.26.2.151;109;Lane 1;3/5/2012;23:26:00;100;1 Minute;;;;;;60;1;42.000;0;1;0;0;0;60.000;0.598;A;42.008;0.000;1.426;
040549FF2C0EB521;IDS-11A -- ?????-??????? -- 1 -- None -- 81 -- 0 -- Solo Pro II MVP -- 172.26.2.151;110;Lane 2;3/5/2012;23:26:00;100;1 Minute;;;;;;60;1;69.000;0;0;1;0;0;60.000;0.730;A;69.055;0.504;0.867;
040549FF2C0EB521;IDS-11A -- ?????-??????? -- 1 -- None -- 81 -- 0 -- Solo Pro II MVP -- 172.26.2.151;113;Total;3/5/2012;23:26:00;100;1 Minute;;;;;;60;2;55.500;0;1;1;0;0;60.000;0.664;A;52.238;0.574;1.148;
040549FF2C0EB521;IDS-11A -- ?????-??????? -- 1 -- None -- 81 -- 0 -- Solo Pro II MVP -- 172.26.2.151;109;Lane 1;3/5/2012;23:27:00;100;1 Minute;;;;;;180;3;57.332;0;3;0;0;0;20.000;1.797;A;56.414;1.168;3.188;
040549FF2C0EB521;IDS-11A -- ?????-??????? -- 1 -- None -- 81 -- 0 -- Solo Pro II MVP -- 172.26.2.151;110;Lane 2;3/5/2012;23:27:00;100;1 Minute;;;;;;240;4;55.250;0;4;0;0;0;15.000;2.531;A;52.891;1.844;4.535;
040549FF2C0EB521;IDS-11A -- ?????-??????? -- 1 -- None -- 81 -- 0 -- Solo Pro II MVP -- 172.26.2.151;113;Total;3/5/2012;23:27:00;100;1 Minute;;;;;;210;7;56.141;0;7;0;0;0;17.500;2.164;A;54.348;1.504;3.863;
040549FF2C0EB521;IDS-11A -- ?????-??????? -- 1 -- None -- 81 -- 0 -- Solo Pro II MVP -- 172.26.2.151;109;Lane 1;3/5/2012;23:28:00;100;1 Minute;;;;;;0;0;0.000;0;0;0;0;0;60.000;0.000;A;0.000;100.000;0.000;
040549FF2C0EB521;IDS-11A -- ?????-??????? -- 1 -- None -- 81 -- 0 -- Solo Pro II MVP -- 172.26.2.151;110;Lane 2;3/5/2012;23:28:00;100;1 Minute;;;;;;120;2;49.000;0;2;0;0;0;30.000;1.598;A;49.016;1.227;2.445;
040549FF2C0EB521;IDS-11A -- ?????-??????? -- 1 -- None -- 81 -- 0 -- Solo Pro II MVP -- 172.26.2.151;113;Total;3/5/2012;23:28:00;100;1 Minute;;;;;;60;2;49.000;0;2;0;0;0;45.000;0.797;A;49.016;0.613;1.223;
040549FF2C0EB521;IDS-11A -- ?????-??????? -- 1 -- None -- 81 -- 0 -- Solo Pro II MVP -- 172.26.2.151;109;Lane 1;3/5/2012;23:29:00; 99;1 Minute;;;;;;0;0;0.000;0;0;0;0;0;60.000;0.000;A;0.000;100.000;0.000;
040549FF2C0EB521;IDS-11A -- ?????-??????? -- 1 -- None -- 81 -- 0 -- Solo Pro II MVP -- 172.26.2.151;110;Lane 2;3/5/2012;23:29:00; 99;1 Minute;;;;;;240;4;66.750;0;4;0;0;0;15.000;1.668;A;65.176;1.207;3.680;
040549FF2C0EB521;IDS-11A -- ?????-??????? -- 1 -- None -- 81 -- 0 -- Solo Pro II MVP -- 172.26.2.151;113;Total;3/5/2012;23:29:00; 99;1 Minute;;;;;;120;4;66.750;0;4;0;0;0;37.500;0.832;A;65.176;0.602;1.840;
040549FF2C0EB521;IDS-11A -- ?????-??????? -- 1 -- None -- 81 -- 0 -- Solo Pro II MVP -- 172.26.2.151;109;Lane 1;3/5/2012;23:30:00;100;1 Minute;;;;;;0;0;0.000;0;0;0;0;0;60.000;0.000;A;0.000;100.000;0.000;
040549FF2C0EB521;IDS-11A -- ?????-??????? -- 1 -- None -- 81 -- 0 -- Solo Pro II MVP -- 172.26.2.151;109;Lane 1;3/5/2012;23:30:00;100;5 Minutes;;;;;;48;4;53.500;0;4;0;0;0;75.000;0.477;A;51.961;0.355;0.922;
040549FF2C0EB521;IDS-11A -- ?????-??????? -- 1 -- None -- 81 -- 0 -- Solo Pro II MVP -- 172.26.2.151;109;Lane 1;3/5/2012;23:30:00;100;10 Minutes;;;;;;60;10;50.398;0;9;1;0;0;60.000;0.652;A;49.406;0.512;1.211;
040549FF2C0EB521;IDS-11A -- ?????-??????? -- 1 -- None -- 81 -- 0 -- Solo Pro II MVP -- 172.26.2.151;109;Lane 1;3/5/2012;23:30:00;100;15 Minutes;;;;;;44;11;49.727;0;10;1;0;0;81.816;0.492;A;48.746;0.387;0.902;
040549FF2C0EB521;IDS-11A -- ?????-??????? -- 1 -- None -- 81 -- 0 -- Solo Pro II MVP -- 172.26.2.151;110;Lane 2;3/5/2012;23:30:00;100;1 Minute;;;;;;420;7;59.570;0;7;0;0;0;8.570;4.668;A;58.453;2.816;7.184;
040549FF2C0EB521;IDS-11A -- ?????-??????? -- 1 -- None -- 81 -- 0 -- Solo Pro II MVP -- 172.26.2.151;110;Lane 2;3/5/2012;23:30:00;100;5 Minutes;;;;;;216;18;59.555;0;17;1;0;0;16.664;2.238;A;57.684;1.496;3.742;
040549FF2C0EB521;IDS-11A -- ?????-??????? -- 1 -- None -- 81 -- 0 -- Solo Pro II MVP -- 172.26.2.151;110;Lane 2;3/5/2012;23:30:00;100;10 Minutes;;;;;;240;40;61.672;0;38;1;1;0;15.000;2.348;A;59.258;1.645;4.047;
040549FF2C0EB521;IDS-11A -- ?????-??????? -- 1 -- None -- 81 -- 0 -- Solo Pro II MVP -- 172.26.2.151;110;Lane 2;3/5/2012;23:30:00;100;15 Minutes;;;;;;220;55;62.125;0;53;1;1;0;16.363;2.301;A;59.813;1.473;3.676;
040549FF2C0EB521;IDS-11A -- ?????-??????? -- 1 -- None -- 81 -- 0 -- Solo Pro II MVP -- 172.26.2.151;113;Total;3/5/2012;23:30:00;100;1 Minute;;;;;;210;7;59.570;0;7;0;0;0;34.285;2.332;A;58.453;1.406;3.590;
040549FF2C0EB521;IDS-11A -- ?????-??????? -- 1 -- None -- 81 -- 0 -- Solo Pro II MVP -- 172.26.2.151;113;Total;3/5/2012;23:30:00;100;5 Minutes;;;;;;132;22;58.453;0;21;1;0;0;45.832;1.355;A;56.551;0.926;2.332;
040549FF2C0EB521;IDS-11A -- ?????-??????? -- 1 -- None -- 81 -- 0 -- Solo Pro II MVP -- 172.26.2.151;113;Total;3/5/2012;23:30:00;100;10 Minutes;;;;;;150;50;59.418;0;47;2;1;0;37.500;1.500;A;56.988;1.070;2.629;
040549FF2C0EB521;IDS-11A -- ?????-??????? -- 1 -- None -- 81 -- 0 -- Solo Pro II MVP -- 172.26.2.151;113;Total;3/5/2012;23:30:00;100;15 Minutes;;;;;;132;66;60.059;0;63;2;1;0;49.090;1.395;A;57.633;0.922;2.289;
040549FF2C0EB521;IDS-11A -- ?????-??????? -- 1 -- None -- 81 -- 0 -- Solo Pro II MVP -- 172.26.2.151;109;Lane 1;3/5/2012;23:31:00; 99;1 Minute;;;;;;0;0;0.000;0;0;0;0;0;60.000;0.000;A;0.000;100.000;0.000;
040549FF2C0EB521;IDS-11A -- ?????-??????? -- 1 -- None -- 81 -- 0 -- Solo Pro II MVP -- 172.26.2.151;110;Lane 2;3/5/2012;23:31:00; 99;1 Minute;;;;;;240;4;74.000;0;4;0;0;0;15.000;1.867;A;73.406;1.309;3.266;
040549FF2C0EB521;IDS-11A -- ?????-??????? -- 1 -- None -- 81 -- 0 -- Solo Pro II MVP -- 172.26.2.151;113;Total;3/5/2012;23:31:00; 99;1 Minute;;;;;;120;4;74.000;0;4;0;0;0;37.500;0.934;A;73.406;0.652;1.633;
040549FF2C0EB521;IDS-11A -- ?????-??????? -- 1 -- None -- 81 -- 0 -- Solo Pro II MVP -- 172.26.2.151;109;Lane 1;3/5/2012;23:32:00;100;1 Minute;;;;;;0;0;0.000;0;0;0;0;0;60.000;0.000;A;0.000;100.000;0.000;
040549FF2C0EB521;IDS-11A -- ?????-??????? -- 1 -- None -- 81 -- 0 -- Solo Pro II MVP -- 172.26.2.151;110;Lane 2;3/5/2012;23:32:00;100;1 Minute;;;;;;60;1;67.000;0;1;0;0;0;60.000;0.398;A;67.008;0.000;0.895;
040549FF2C0EB521;IDS-11A -- ?????-??????? -- 1 -- None -- 81 -- 0 -- Solo Pro II MVP -- 172.26.2.151;113;Total;3/5/2012;23:32:00;100;1 Minute;;;;;;30;1;67.000;0;1;0;0;0;60.000;0.199;A;67.008;0.000;0.445;
040549FF2C0EB521;IDS-11A -- ?????-??????? -- 1 -- None -- 81 -- 0 -- Solo Pro II MVP -- 172.26.2.151;109;Lane 1;3/5/2012;23:33:00;100;1 Minute;;;;;;0;0;0.000;0;0;0;0;0;60.000;0.000;A;0.000;100.000;0.000;
040549FF2C0EB521;IDS-11A -- ?????-??????? -- 1 -- None -- 81 -- 0 -- Solo Pro II MVP -- 172.26.2.151;110;Lane 2;3/5/2012;23:33:00;100;1 Minute;;;;;;60;1;79.000;0;0;1;0;0;60.000;0.398;A;79.051;0.000;0.758;
040549FF2C0EB521;IDS-11A -- ?????-??????? -- 1 -- None -- 81 -- 0 -- Solo Pro II MVP -- 172.26.2.151;113;Total;3/5/2012;23:33:00;100;1 Minute;;;;;;30;1;79.000;0;0;1;0;0;60.000;0.199;A;79.051;0.000;0.379;
040549FF2C0EB521;IDS-11A -- ?????-??????? -- 1 -- None -- 81 -- 0 -- Solo Pro II MVP -- 172.26.2.151;109;Lane 1;3/5/2012;23:34:00;100;1 Minute;;;;;;120;2;51.500;0;2;0;0;0;30.000;1.797;A;50.938;1.035;2.355;
040549FF2C0EB521;IDS-11A -- ?????-??????? -- 1 -- None -- 81 -- 0 -- Solo Pro II MVP -- 172.26.2.151;110;Lane 2;3/5/2012;23:34:00;100;1 Minute;;;;;;360;6;55.332;0;5;1;0;0;10.000;5.133;A;53.961;3.137;6.668;
040549FF2C0EB521;IDS-11A -- ?????-??????? -- 1 -- None -- 81 -- 0 -- Solo Pro II MVP -- 172.26.2.151;113;Total;3/5/2012;23:34:00;100;1 Minute;;;;;;240;8;54.375;0;7;1;0;0;20.000;3.465;A;53.172;2.086;4.512;
040549FF2C0EB521;IDS-11A -- ?????-??????? -- 1 -- None -- 81 -- 0 -- Solo Pro II MVP -- 172.26.2.151;109;Lane 1;3/5/2012;23:35:00;100;1 Minute;;;;;;120;2;59.000;0;2;0;0;0;30.000;1.133;A;58.961;0.902;2.035;
040549FF2C0EB521;IDS-11A -- ?????-??????? -- 1 -- None -- 81 -- 0 -- Solo Pro II MVP -- 172.26.2.151;109;Lane 1;3/5/2012;23:35:00;100;5 Minutes;;;;;;48;4;55.250;0;4;0;0;0;75.000;0.586;A;54.656;0.383;0.875;
040549FF2C0EB521;IDS-11A -- ?????-??????? -- 1 -- None -- 81 -- 0 -- Solo Pro II MVP -- 172.26.2.151;110;Lane 2;3/5/2012;23:35:00;100;1 Minute;;;;;;120;2;80.500;0;2;0;0;0;30.000;1.266;A;77.969;0.590;1.539;
040549FF2C0EB521;IDS-11A -- ?????-??????? -- 1 -- None -- 81 -- 0 -- Solo Pro II MVP -- 172.26.2.151;110;Lane 2;3/5/2012;23:35:00;100;5 Minutes;;;;;;168;14;66.785;0;12;2;0;0;21.426;1.813;A;63.953;1.148;2.625;
040549FF2C0EB521;IDS-11A -- ?????-??????? -- 1 -- None -- 81 -- 0 -- Solo Pro II MVP -- 172.26.2.151;113;Total;3/5/2012;23:35:00;100;1 Minute;;;;;;120;4;69.750;0;4;0;0;0;30.000;1.199;A;67.145;0.723;1.785;
040549FF2C0EB521;IDS-11A -- ?????-??????? -- 1 -- None -- 81 -- 0 -- Solo Pro II MVP -- 172.26.2.151;113;Total;3/5/2012;23:35:00;100;5 Minutes;;;;;;108;18;64.219;0;16;2;0;0;48.211;1.199;A;61.625;0.762;1.750;
040549FF2C0EB521;IDS-11A -- ?????-??????? -- 1 -- None -- 81 -- 0 -- Solo Pro II MVP -- 172.26.2.151;109;Lane 1;3/5/2012;23:36:00; 99;1 Minute;;;;;;60;1;59.000;0;1;0;0;0;60.000;0.465;A;59.039;0.359;1.016;
040549FF2C0EB521;IDS-11A -- ?????-??????? -- 1 -- None -- 81 -- 0 -- Solo Pro II MVP -- 172.26.2.151;110;Lane 2;3/5/2012;23:36:00; 99;1 Minute;;;;;;180;3;63.000;0;3;0;0;0;20.000;1.668;A;61.172;1.395;2.941;
040549FF2C0EB521;IDS-11A -- ?????-??????? -- 1 -- None -- 81 -- 0 -- Solo Pro II MVP -- 172.26.2.151;113;Total;3/5/2012;23:36:00; 99;1 Minute;;;;;;120;4;62.000;0;4;0;0;0;40.000;1.066;A;60.625;0.879;1.977;
040549FF2C0EB521;IDS-11A -- ?????-??????? -- 1 -- None -- 81 -- 0 -- Solo Pro II MVP -- 172.26.2.151;109;Lane 1;3/5/2012;23:37:00;100;1 Minute;;;;;;60;1;56.000;0;1;0;0;0;60.000;0.531;A;56.012;0.242;1.070;
040549FF2C0EB521;IDS-11A -- ?????-??????? -- 1 -- None -- 81 -- 0 -- Solo Pro II MVP -- 172.26.2.151;110;Lane 2;3/5/2012;23:37:00;100;1 Minute;;;;;;180;3;75.000;0;3;0;0;0;20.000;3.066;A;74.781;1.129;2.406;
040549FF2C0EB521;IDS-11A -- ?????-??????? -- 1 -- None -- 81 -- 0 -- Solo Pro II MVP -- 172.26.2.151;113;Total;3/5/2012;23:37:00;100;1 Minute;;;;;;120;4;70.250;0;4;0;0;0;40.000;1.797;A;69.000;0.699;1.738;
040549FF2C0EB521;IDS-11A -- ?????-??????? -- 1 -- None -- 81 -- 0 -- Solo Pro II MVP -- 172.26.2.151;109;Lane 1;3/5/2012;23:38:00; 99;1 Minute;;;;;;60;1;48.000;0;1;0;0;0;60.000;0.664;A;48.012;0.574;1.246;
040549FF2C0EB521;IDS-11A -- ?????-??????? -- 1 -- None -- 81 -- 0 -- Solo Pro II MVP -- 172.26.2.151;110;Lane 2;3/5/2012;23:38:00; 99;1 Minute;;;;;;60;1;74.000;0;1;0;0;0;60.000;0.598;A;74.051;0.363;0.809;
040549FF2C0EB521;IDS-11A -- ?????-??????? -- 1 -- None -- 81 -- 0 -- Solo Pro II MVP -- 172.26.2.151;113;Total;3/5/2012;23:38:00; 99;1 Minute;;;;;;60;2;61.000;0;2;0;0;0;60.000;0.629;A;58.254;0.445;1.027;
040549FF2C0EB521;IDS-11A -- ?????-??????? -- 1 -- None -- 81 -- 0 -- Solo Pro II MVP -- 172.26.2.151;109;Lane 1;3/5/2012;23:39:00;100;1 Minute;;;;;;0;0;0.000;0;0;0;0;0;60.000;0.000;A;0.000;100.000;0.000;
040549FF2C0EB521;IDS-11A -- ?????-??????? -- 1 -- None -- 81 -- 0 -- Solo Pro II MVP -- 172.26.2.151;110;Lane 2;3/5/2012;23:39:00;100;1 Minute;;;;;;240;4;71.250;0;3;1;0;0;15.000;1.867;A;70.617;1.688;3.398;
040549FF2C0EB521;IDS-11A -- ?????-??????? -- 1 -- None -- 81 -- 0 -- Solo Pro II MVP -- 172.26.2.151;113;Total;3/5/2012;23:39:00;100;1 Minute;;;;;;120;4;71.250;0;3;1;0;0;37.500;0.934;A;70.617;0.844;1.699;
040549FF2C0EB521;IDS-11A -- ?????-??????? -- 1 -- None -- 81 -- 0 -- Solo Pro II MVP -- 172.26.2.151;109;Lane 1;3/5/2012;23:40:00;100;1 Minute;;;;;;60;1;51.000;0;1;0;0;0;60.000;0.531;A;51.000;0.000;1.176;
040549FF2C0EB521;IDS-11A -- ?????-??????? -- 1 -- None -- 81 -- 0 -- Solo Pro II MVP -- 172.26.2.151;109;Lane 1;3/5/2012;23:40:00; 99;5 Minutes;;;;;;48;4;53.500;0;4;0;0;0;75.000;0.438;A;53.172;0.340;0.902;
040549FF2C0EB521;IDS-11A -- ?????-??????? -- 1 -- None -- 81 -- 0 -- Solo Pro II MVP -- 172.26.2.151;109;Lane 1;3/5/2012;23:40:00;100;10 Minutes;;;;;;48;8;54.375;0;8;0;0;0;75.000;0.512;A;53.902;0.363;0.887;
040549FF2C0EB521;IDS-11A -- ?????-??????? -- 1 -- None -- 81 -- 0 -- Solo Pro II MVP -- 172.26.2.151;110;Lane 2;3/5/2012;23:40:00;100;1 Minute;;;;;;60;1;105.000;0;1;0;0;0;60.000;0.531;A;105.023;0.230;0.570;
040549FF2C0EB521;IDS-11A -- ?????-??????? -- 1 -- None -- 81 -- 0 -- Solo Pro II MVP -- 172.26.2.151;110;Lane 2;3/5/2012;23:40:00; 99;5 Minutes;;;;;;144;12;73.164;0;11;1;0;0;25.000;1.547;A;71.078;0.941;2.023;
040549FF2C0EB521;IDS-11A -- ?????-??????? -- 1 -- None -- 81 -- 0 -- Solo Pro II MVP -- 172.26.2.151;110;Lane 2;3/5/2012;23:40:00;100;10 Minutes;;;;;;156;26;69.730;0;23;3;0;0;23.074;1.680;A;67.055;1.043;2.324;
040549FF2C0EB521;IDS-11A -- ?????-??????? -- 1 -- None -- 81 -- 0 -- Solo Pro II MVP -- 172.26.2.151;113;Total;3/5/2012;23:40:00;100;1 Minute;;;;;;60;2;78.000;0;2;0;0;0;60.000;0.531;A;68.656;0.340;0.871;
040549FF2C0EB521;IDS-11A -- ?????-??????? -- 1 -- None -- 81 -- 0 -- Solo Pro II MVP -- 172.26.2.151;113;Total;3/5/2012;23:40:00; 99;5 Minutes;;;;;;96;16;68.250;0;15;1;0;0;50.000;0.992;A;65.559;0.637;1.461;
040549FF2C0EB521;IDS-11A -- ?????-??????? -- 1 -- None -- 81 -- 0 -- Solo Pro II MVP -- 172.26.2.151;113;Total;3/5/2012;23:40:00;100;10 Minutes;;;;;;102;34;66.117;0;31;3;0;0;49.035;1.094;A;63.414;0.699;1.605;
040549FF2C0EB521;IDS-11A -- ?????-??????? -- 1 -- None -- 81 -- 0 -- Solo Pro II MVP -- 172.26.2.151;109;Lane 1;3/5/2012;23:41:00;100;1 Minute;;;;;;0;0;0.000;0;0;0;0;0;60.000;0.000;A;0.000;100.000;0.000;
040549FF2C0EB521;IDS-11A -- ?????-??????? -- 1 -- None -- 81 -- 0 -- Solo Pro II MVP -- 172.26.2.151;110;Lane 2;3/5/2012;23:41:00;100;1 Minute;;;;;;240;4;71.750;0;1;3;0;0;15.000;2.867;A;67.629;1.969;3.547;
040549FF2C0EB521;IDS-11A -- ?????-??????? -- 1 -- None -- 81 -- 0 -- Solo Pro II MVP -- 172.26.2.151;113;Total;3/5/2012;23:41:00;100;1 Minute;;;;;;120;4;71.750;0;1;3;0;0;37.500;1.434;A;67.629;0.984;1.773;
040549FF2C0EB521;IDS-11A -- ?????-??????? -- 1 -- None -- 81 -- 0 -- Solo Pro II MVP -- 172.26.2.151;109;Lane 1;3/5/2012;23:42:00;100;1 Minute;;;;;;60;1;90.000;0;0;1;0;0;60.000;0.398;A;90.020;0.367;0.664;
040549FF2C0EB521;IDS-11A -- ?????-??????? -- 1 -- None -- 81 -- 0 -- Solo Pro II MVP -- 172.26.2.151;110;Lane 2;3/5/2012;23:42:00;100;1 Minute;;;;;;180;3;60.000;0;2;1;0;0;20.000;2.465;A;59.867;1.473;3.004;
040549FF2C0EB521;IDS-11A -- ?????-??????? -- 1 -- None -- 81 -- 0 -- Solo Pro II MVP -- 172.26.2.151;113;Total;3/5/2012;23:42:00;100;1 Minute;;;;;;120;4;67.500;0;2;2;0;0;40.000;1.430;A;65.340;0.898;1.836;
040549FF2C0EB521;IDS-11A -- ?????-??????? -- 1 -- None -- 81 -- 0 -- Solo Pro II MVP -- 172.26.2.151;109;Lane 1;3/5/2012;23:43:00;100;1 Minute;;;;;;240;4;47.750;0;4;0;0;0;15.000;2.730;A;47.590;1.980;5.043;
040549FF2C0EB521;IDS-11A -- ?????-??????? -- 1 -- None -- 81 -- 0 -- Solo Pro II MVP -- 172.26.2.151;110;Lane 2;3/5/2012;23:43:00;100;1 Minute;;;;;;240;4;64.750;0;4;0;0;0;15.000;2.063;A;62.891;1.469;3.813;
040549FF2C0EB521;IDS-11A -- ?????-??????? -- 1 -- None -- 81 -- 0 -- Solo Pro II MVP -- 172.26.2.151;113;Total;3/5/2012;23:43:00;100;1 Minute;;;;;;240;8;56.250;0;8;0;0;0;15.000;2.395;A;54.184;1.684;4.426;
040549FF2C0EB521;IDS-11A -- ?????-??????? -- 1 -- None -- 81 -- 0 -- Solo Pro II MVP -- 172.26.2.151;109;Lane 1;3/5/2012;23:44:00;100;1 Minute;;;;;;120;2;65.500;0;2;0;0;0;30.000;1.332;A;65.047;0.836;1.844;
040549FF2C0EB521;IDS-11A -- ?????-??????? -- 1 -- None -- 81 -- 0 -- Solo Pro II MVP -- 172.26.2.151;110;Lane 2;3/5/2012;23:44:00;100;1 Minute;;;;;;180;3;62.332;0;2;1;0;0;20.000;1.332;A;62.313;1.027;2.887;
040549FF2C0EB521;IDS-11A -- ?????-??????? -- 1 -- None -- 81 -- 0 -- Solo Pro II MVP -- 172.26.2.151;113;Total;3/5/2012;23:44:00;100;1 Minute;;;;;;150;5;63.598;0;4;1;0;0;25.000;1.332;A;63.379;0.934;2.363;
040549FF2C0EB521;IDS-11A -- ?????-??????? -- 1 -- None -- 81 -- 0 -- Solo Pro II MVP -- 172.26.2.151;109;Lane 1;3/5/2012;23:45:00; 99;1 Minute;;;;;;0;0;0.000;0;0;0;0;0;60.000;0.000;A;0.000;100.000;0.000;
040549FF2C0EB521;IDS-11A -- ?????-??????? -- 1 -- None -- 81 -- 0 -- Solo Pro II MVP -- 172.26.2.151;109;Lane 1;3/5/2012;23:45:00;100;5 Minutes;;;;;;84;7;58.855;0;6;1;0;0;42.855;0.891;A;55.598;0.617;1.508;
040549FF2C0EB521;IDS-11A -- ?????-??????? -- 1 -- None -- 81 -- 0 -- Solo Pro II MVP -- 172.26.2.151;109;Lane 1;3/5/2012;23:45:00;100;15 Minutes;;;;;;60;15;56.465;0;14;1;0;0;60.000;0.637;A;54.680;0.449;1.094;
040549FF2C0EB521;IDS-11A -- ?????-??????? -- 1 -- None -- 81 -- 0 -- Solo Pro II MVP -- 172.26.2.151;110;Lane 2;3/5/2012;23:45:00; 99;1 Minute;;;;;;120;2;54.000;0;2;0;0;0;30.000;1.199;A;52.828;1.070;2.270;
040549FF2C0EB521;IDS-11A -- ?????-??????? -- 1 -- None -- 81 -- 0 -- Solo Pro II MVP -- 172.26.2.151;110;Lane 2;3/5/2012;23:45:00;100;5 Minutes;;;;;;192;16;63.813;0;11;5;0;0;18.750;1.984;A;61.809;1.398;3.105;
040549FF2C0EB521;IDS-11A -- ?????-??????? -- 1 -- None -- 81 -- 0 -- Solo Pro II MVP -- 172.26.2.151;110;Lane 2;3/5/2012;23:45:00;100;15 Minutes;;;;;;168;42;67.473;0;34;8;0;0;21.426;1.781;A;64.957;1.160;2.586;
040549FF2C0EB521;IDS-11A -- ?????-??????? -- 1 -- None -- 81 -- 0 -- Solo Pro II MVP -- 172.26.2.151;113;Total;3/5/2012;23:45:00; 99;1 Minute;;;;;;60;2;54.000;0;2;0;0;0;45.000;0.598;A;52.828;0.535;1.133;
040549FF2C0EB521;IDS-11A -- ?????-??????? -- 1 -- None -- 81 -- 0 -- Solo Pro II MVP -- 172.26.2.151;113;Total;3/5/2012;23:45:00;100;5 Minutes;;;;;;138;23;62.301;0;17;6;0;0;30.801;1.438;A;59.777;1.008;2.305;
040549FF2C0EB521;IDS-11A -- ?????-??????? -- 1 -- None -- 81 -- 0 -- Solo Pro II MVP -- 172.26.2.151;113;Total;3/5/2012;23:45:00;100;15 Minutes;;;;;;114;57;64.578;0;48;9;0;0;40.711;1.207;A;61.895;0.801;1.840;
040549FF2C0EB521;IDS-11A -- ?????-??????? -- 1 -- None -- 81 -- 0 -- Solo Pro II MVP -- 172.26.2.151;109;Lane 1;3/5/2012;23:46:00;100;1 Minute;;;;;;60;1;61.000;0;1;0;0;0;60.000;0.598;A;61.020;0.473;0.980;
040549FF2C0EB521;IDS-11A -- ?????-??????? -- 1 -- None -- 81 -- 0 -- Solo Pro II MVP -- 172.26.2.151;110;Lane 2;3/5/2012;23:46:00;100;1 Minute;;;;;;180;3;82.332;0;3;0;0;0;20.000;2.066;A;80.676;1.047;2.230;
040549FF2C0EB521;IDS-11A -- ?????-??????? -- 1 -- None -- 81 -- 0 -- Solo Pro II MVP -- 172.26.2.151;113;Total;3/5/2012;23:46:00;100;1 Minute;;;;;;120;4;77.000;0;4;0;0;0;40.000;1.332;A;74.660;0.746;1.605;
040549FF2C0EB521;IDS-11A -- ?????-??????? -- 1 -- None -- 81 -- 0 -- Solo Pro II MVP -- 172.26.2.151;109;Lane 1;3/5/2012;23:47:00;100;1 Minute;;;;;;120;2;53.500;0;2;0;0;0;30.000;1.398;A;52.469;1.117;2.285;
040549FF2C0EB521;IDS-11A -- ?????-??????? -- 1 -- None -- 81 -- 0 -- Solo Pro II MVP -- 172.26.2.151;110;Lane 2;3/5/2012;23:47:00;100;1 Minute;;;;;;60;1;64.000;0;1;0;0;0;60.000;0.797;A;64.000;0.441;0.938;
040549FF2C0EB521;IDS-11A -- ?????-??????? -- 1 -- None -- 81 -- 0 -- Solo Pro II MVP -- 172.26.2.151;113;Total;3/5/2012;23:47:00;100;1 Minute;;;;;;90;3;57.000;0;3;0;0;0;45.000;1.098;A;55.820;0.770;1.609;
040549FF2C0EB521;IDS-11A -- ?????-??????? -- 1 -- None -- 81 -- 0 -- Solo Pro II MVP -- 172.26.2.151;109;Lane 1;3/5/2012;23:48:00;100;1 Minute;;;;;;60;1;69.000;0;1;0;0;0;60.000;0.531;A;69.055;0.445;0.867;
040549FF2C0EB521;IDS-11A -- ?????-??????? -- 1 -- None -- 81 -- 0 -- Solo Pro II MVP -- 172.26.2.151;110;Lane 2;3/5/2012;23:48:00;100;1 Minute;;;;;;180;3;58.332;0;3;0;0;0;20.000;1.598;A;58.168;1.285;3.094;
040549FF2C0EB521;IDS-11A -- ?????-??????? -- 1 -- None -- 81 -- 0 -- Solo Pro II MVP -- 172.26.2.151;113;Total;3/5/2012;23:48:00;100;1 Minute;;;;;;120;4;61.000;0;4;0;0;0;40.000;1.063;A;60.555;0.867;1.980;
040549FF2C0EB521;IDS-11A -- ?????-??????? -- 1 -- None -- 81 -- 0 -- Solo Pro II MVP -- 172.26.2.151;109;Lane 1;3/5/2012;23:49:00;100;1 Minute;;;;;;120;2;68.500;0;2;0;0;0;30.000;0.863;A;67.910;0.684;1.766;
040549FF2C0EB521;IDS-11A -- ?????-??????? -- 1 -- None -- 81 -- 0 -- Solo Pro II MVP -- 172.26.2.151;110;Lane 2;3/5/2012;23:49:00;100;1 Minute;;;;;;240;4;64.500;0;3;1;0;0;15.000;2.664;A;62.355;1.594;3.848;
040549FF2C0EB521;IDS-11A -- ?????-??????? -- 1 -- None -- 81 -- 0 -- Solo Pro II MVP -- 172.26.2.151;113;Total;3/5/2012;23:49:00;100;1 Minute;;;;;;180;6;65.832;0;5;1;0;0;22.500;1.762;A;64.102;1.137;2.805;
040549FF2C0EB521;IDS-11A -- ?????-??????? -- 1 -- None -- 81 -- 0 -- Solo Pro II MVP -- 172.26.2.151;109;Lane 1;3/5/2012;23:50:00;100;1 Minute;;;;;;0;0;0.000;0;0;0;0;0;60.000;0.000;A;0.000;100.000;0.000;
040549FF2C0EB521;IDS-11A -- ?????-??????? -- 1 -- None -- 81 -- 0 -- Solo Pro II MVP -- 172.26.2.151;109;Lane 1;3/5/2012;23:50:00;100;5 Minutes;;;;;;72;6;62.332;0;6;0;0;0;50.000;0.676;A;60.953;0.535;1.180;
040549FF2C0EB521;IDS-11A -- ?????-??????? -- 1 -- None -- 81 -- 0 -- Solo Pro II MVP -- 172.26.2.151;109;Lane 1;3/5/2012;23:50:00;100;10 Minutes;;;;;;78;13;60.461;0;12;1;0;0;46.152;0.785;A;57.945;0.574;1.344;
040549FF2C0EB521;IDS-11A -- ?????-??????? -- 1 -- None -- 81 -- 0 -- Solo Pro II MVP -- 172.26.2.151;110;Lane 2;3/5/2012;23:50:00;100;1 Minute;;;;;;240;4;66.250;0;4;0;0;0;15.000;2.465;A;65.109;1.418;3.684;
040549FF2C0EB521;IDS-11A -- ?????-??????? -- 1 -- None -- 81 -- 0 -- Solo Pro II MVP -- 172.26.2.151;110;Lane 2;3/5/2012;23:50:00;100;5 Minutes;;;;;;180;15;67.266;0;14;1;0;0;20.000;1.918;A;65.227;1.148;2.758;
040549FF2C0EB521;IDS-11A -- ?????-??????? -- 1 -- None -- 81 -- 0 -- Solo Pro II MVP -- 172.26.2.151;110;Lane 2;3/5/2012;23:50:00;100;10 Minutes;;;;;;186;31;65.480;0;25;6;0;0;19.352;1.953;A;63.418;1.270;2.930;
040549FF2C0EB521;IDS-11A -- ?????-??????? -- 1 -- None -- 81 -- 0 -- Solo Pro II MVP -- 172.26.2.151;113;Total;3/5/2012;23:50:00;100;1 Minute;;;;;;120;4;66.250;0;4;0;0;0;37.500;1.230;A;65.109;0.707;1.840;
040549FF2C0EB521;IDS-11A -- ?????-??????? -- 1 -- None -- 81 -- 0 -- Solo Pro II MVP -- 172.26.2.151;113;Total;3/5/2012;23:50:00;100;5 Minutes;;;;;;126;21;65.855;0;20;1;0;0;35.000;1.297;A;63.945;0.840;1.969;
040549FF2C0EB521;IDS-11A -- ?????-??????? -- 1 -- None -- 81 -- 0 -- Solo Pro II MVP -- 172.26.2.151;113;Total;3/5/2012;23:50:00;100;10 Minutes;;;;;;132;44;64.000;0;37;7;0;0;32.750;1.367;A;61.695;0.922;2.137;
040549FF2C0EB521;IDS-11A -- ?????-??????? -- 1 -- None -- 81 -- 0 -- Solo Pro II MVP -- 172.26.2.151;109;Lane 1;3/5/2012;23:51:00;100;1 Minute;;;;;;60;1;63.000;0;1;0;0;0;60.000;0.664;A;63.012;0.516;0.949;
040549FF2C0EB521;IDS-11A -- ?????-??????? -- 1 -- None -- 81 -- 0 -- Solo Pro II MVP -- 172.26.2.151;110;Lane 2;3/5/2012;23:51:00;100;1 Minute;;;;;;180;3;61.664;0;3;0;0;0;20.000;1.535;A;61.648;1.215;2.918;
040549FF2C0EB521;IDS-11A -- ?????-??????? -- 1 -- None -- 81 -- 0 -- Solo Pro II MVP -- 172.26.2.151;113;Total;3/5/2012;23:51:00;100;1 Minute;;;;;;120;4;62.000;0;4;0;0;0;40.000;1.098;A;61.984;0.867;1.934;
040549FF2C0EB521;IDS-11A -- ?????-??????? -- 1 -- None -- 81 -- 0 -- Solo Pro II MVP -- 172.26.2.151;109;Lane 1;3/5/2012;23:52:00; 99;1 Minute;;;;;;120;2;47.000;0;2;0;0;0;30.000;1.000;A;46.477;0.844;2.578;
040549FF2C0EB521;IDS-11A -- ?????-??????? -- 1 -- None -- 81 -- 0 -- Solo Pro II MVP -- 172.26.2.151;110;Lane 2;3/5/2012;23:52:00; 99;1 Minute;;;;;;240;4;74.250;0;2;2;0;0;15.000;2.199;A;72.035;1.633;3.328;
040549FF2C0EB521;IDS-11A -- ?????-??????? -- 1 -- None -- 81 -- 0 -- Solo Pro II MVP -- 172.26.2.151;113;Total;3/5/2012;23:52:00; 99;1 Minute;;;;;;180;6;65.164;0;4;2;0;0;22.500;1.598;A;60.875;1.234;2.953;
040549FF2C0EB521;IDS-11A -- ?????-??????? -- 1 -- None -- 81 -- 0 -- Solo Pro II MVP -- 172.26.2.151;109;Lane 1;3/5/2012;23:53:00;100;1 Minute;;;;;;120;2;64.500;0;2;0;0;0;30.000;1.465;A;61.680;0.906;1.945;
040549FF2C0EB521;IDS-11A -- ?????-??????? -- 1 -- None -- 81 -- 0 -- Solo Pro II MVP -- 172.26.2.151;110;Lane 2;3/5/2012;23:53:00;100;1 Minute;;;;;;120;2;82.000;0;2;0;0;0;30.000;0.730;A;81.969;0.719;1.461;
040549FF2C0EB521;IDS-11A -- ?????-??????? -- 1 -- None -- 81 -- 0 -- Solo Pro II MVP -- 172.26.2.151;113;Total;3/5/2012;23:53:00;100;1 Minute;;;;;;120;4;73.250;0;4;0;0;0;30.000;1.098;A;70.391;0.801;1.703;
040549FF2C0EB521;IDS-11A -- ?????-??????? -- 1 -- None -- 81 -- 0 -- Solo Pro II MVP -- 172.26.2.151;109;Lane 1;3/5/2012;23:54:00;100;1 Minute;;;;;;120;2;54.500;0;2;0;0;0;30.000;1.465;A;53.738;1.047;2.230;
040549FF2C0EB521;IDS-11A -- ?????-??????? -- 1 -- None -- 81 -- 0 -- Solo Pro II MVP -- 172.26.2.151;110;Lane 2;3/5/2012;23:54:00;100;1 Minute;;;;;;0;0;0.000;0;0;0;0;0;60.000;0.000;A;0.000;100.000;0.000;
040549FF2C0EB521;IDS-11A -- ?????-??????? -- 1 -- None -- 81 -- 0 -- Solo Pro II MVP -- 172.26.2.151;113;Total;3/5/2012;23:54:00;100;1 Minute;;;;;;60;2;54.500;0;2;0;0;0;45.000;0.730;A;53.738;0.523;1.113;
040549FF2C0EB521;IDS-11A -- ?????-??????? -- 1 -- None -- 81 -- 0 -- Solo Pro II MVP -- 172.26.2.151;109;Lane 1;3/5/2012;23:55:00; 99;1 Minute;;;;;;0;0;0.000;0;0;0;0;0;60.000;0.000;A;0.000;100.000;0.000;
040549FF2C0EB521;IDS-11A -- ?????-??????? -- 1 -- None -- 81 -- 0 -- Solo Pro II MVP -- 172.26.2.151;109;Lane 1;3/5/2012;23:55:00; 99;5 Minutes;;;;;;84;7;56.426;0;7;0;0;0;42.855;0.918;A;54.457;0.664;1.539;
040549FF2C0EB521;IDS-11A -- ?????-??????? -- 1 -- None -- 81 -- 0 -- Solo Pro II MVP -- 172.26.2.151;110;Lane 2;3/5/2012;23:55:00; 99;1 Minute;;;;;;120;2;78.000;0;2;0;0;0;30.000;1.602;A;77.926;0.828;1.539;
040549FF2C0EB521;IDS-11A -- ?????-??????? -- 1 -- None -- 81 -- 0 -- Solo Pro II MVP -- 172.26.2.151;110;Lane 2;3/5/2012;23:55:00; 99;5 Minutes;;;;;;132;11;72.906;0;9;2;0;0;27.270;1.215;A;71.309;0.875;1.848;
040549FF2C0EB521;IDS-11A -- ?????-??????? -- 1 -- None -- 81 -- 0 -- Solo Pro II MVP -- 172.26.2.151;113;Total;3/5/2012;23:55:00; 99;1 Minute;;;;;;60;2;78.000;0;2;0;0;0;45.000;0.801;A;77.926;0.414;0.770;
040549FF2C0EB521;IDS-11A -- ?????-??????? -- 1 -- None -- 81 -- 0 -- Solo Pro II MVP -- 172.26.2.151;113;Total;3/5/2012;23:55:00; 99;5 Minutes;;;;;;108;18;66.500;0;16;2;0;0;35.063;1.066;A;63.648;0.762;1.695;
040549FF2C0EB521;IDS-11A -- ?????-??????? -- 1 -- None -- 81 -- 0 -- Solo Pro II MVP -- 172.26.2.151;109;Lane 1;3/5/2012;23:56:00;100;1 Minute;;;;;;60;1;65.000;0;1;0;0;0;60.000;0.664;A;65.016;0.336;0.922;
040549FF2C0EB521;IDS-11A -- ?????-??????? -- 1 -- None -- 81 -- 0 -- Solo Pro II MVP -- 172.26.2.151;110;Lane 2;3/5/2012;23:56:00;100;1 Minute;;;;;;180;3;71.664;0;3;0;0;0;20.000;1.398;A;70.543;1.063;2.551;
040549FF2C0EB521;IDS-11A -- ?????-??????? -- 1 -- None -- 81 -- 0 -- Solo Pro II MVP -- 172.26.2.151;113;Total;3/5/2012;23:56:00;100;1 Minute;;;;;;120;4;70.000;0;4;0;0;0;40.000;1.031;A;69.074;0.699;1.734;
040549FF2C0EB521;IDS-11A -- ?????-??????? -- 1 -- None -- 81 -- 0 -- Solo Pro II MVP -- 172.26.2.151;109;Lane 1;3/5/2012;23:57:00;100;1 Minute;;;;;;60;1;59.000;0;1;0;0;0;60.000;0.664;A;59.039;0.477;1.016;
040549FF2C0EB521;IDS-11A -- ?????-??????? -- 1 -- None -- 81 -- 0 -- Solo Pro II MVP -- 172.26.2.151;110;Lane 2;3/5/2012;23:57:00;100;1 Minute;;;;;;120;2;65.000;0;1;1;0;0;30.000;1.797;A;65.016;1.035;1.844;
040549FF2C0EB521;IDS-11A -- ?????-??????? -- 1 -- None -- 81 -- 0 -- Solo Pro II MVP -- 172.26.2.151;113;Total;3/5/2012;23:57:00;100;1 Minute;;;;;;90;3;63.000;0;2;1;0;0;45.000;1.230;A;62.891;0.758;1.430;
040549FF2C0EB521;IDS-11A -- ?????-??????? -- 1 -- None -- 81 -- 0 -- Solo Pro II MVP -- 172.26.2.151;109;Lane 1;3/5/2012;23:58:00; 99;1 Minute;;;;;;0;0;0.000;0;0;0;0;0;60.000;0.000;A;0.000;100.000;0.000;
040549FF2C0EB521;IDS-11A -- ?????-??????? -- 1 -- None -- 81 -- 0 -- Solo Pro II MVP -- 172.26.2.151;110;Lane 2;3/5/2012;23:58:00; 99;1 Minute;;;;;;60;1;58.000;0;0;1;0;0;60.000;1.000;A;58.047;0.586;1.031;
040549FF2C0EB521;IDS-11A -- ?????-??????? -- 1 -- None -- 81 -- 0 -- Solo Pro II MVP -- 172.26.2.151;113;Total;3/5/2012;23:58:00; 99;1 Minute;;;;;;30;1;58.000;0;0;1;0;0;60.000;0.500;A;58.047;0.293;0.516;
040549FF2C0EB521;IDS-11A -- ?????-??????? -- 1 -- None -- 81 -- 0 -- Solo Pro II MVP -- 172.26.2.151;109;Lane 1;3/5/2012;23:59:00;100;1 Minute;;;;;;60;1;55.000;0;1;0;0;0;60.000;0.734;A;55.023;0.457;1.090;
040549FF2C0EB521;IDS-11A -- ?????-??????? -- 1 -- None -- 81 -- 0 -- Solo Pro II MVP -- 172.26.2.151;110;Lane 2;3/5/2012;23:59:00;100;1 Minute;;;;;;180;3;67.332;0;3;0;0;0;20.000;1.535;A;64.801;1.102;2.777;
040549FF2C0EB521;IDS-11A -- ?????-??????? -- 1 -- None -- 81 -- 0 -- Solo Pro II MVP -- 172.26.2.151;113;Total;3/5/2012;23:59:00;100;1 Minute;;;;;;120;4;64.250;0;4;0;0;0;40.000;1.133;A;62.043;0.773;1.934;
040549FF2C0EB521;IDS-11A -- ?????-??????? -- 1 -- None -- 81 -- 0 -- Solo Pro II MVP -- 172.26.2.151;109;Lane 1;4/5/2012;0:00:00;100;1 Minute;;;;;;60;1;64.000;0;1;0;0;0;60.000;0.266;A;64.000;0.000;0.938;
040549FF2C0EB521;IDS-11A -- ?????-??????? -- 1 -- None -- 81 -- 0 -- Solo Pro II MVP -- 172.26.2.151;109;Lane 1;4/5/2012;0:00:00; 99;5 Minutes;;;;;;48;4;60.750;0;4;0;0;0;75.000;0.465;A;60.496;0.320;0.793;
040549FF2C0EB521;IDS-11A -- ?????-??????? -- 1 -- None -- 81 -- 0 -- Solo Pro II MVP -- 172.26.2.151;109;Lane 1;4/5/2012;0:00:00; 99;10 Minutes;;;;;;66;11;58.000;0;11;0;0;0;54.543;0.691;A;56.508;0.492;1.168;
040549FF2C0EB521;IDS-11A -- ?????-??????? -- 1 -- None -- 81 -- 0 -- Solo Pro II MVP -- 172.26.2.151;109;Lane 1;4/5/2012;0:00:00;100;15 Minutes;;;;;;68;17;59.527;0;17;0;0;0;52.938;0.688;A;58.000;0.504;1.172;
040549FF2C0EB521;IDS-11A -- ?????-??????? -- 1 -- None -- 81 -- 0 -- Solo Pro II MVP -- 172.26.2.151;110;Lane 2;4/5/2012;0:00:00;100;1 Minute;;;;;;120;2;55.000;0;2;0;0;0;30.000;1.266;A;54.953;1.000;2.184;
040549FF2C0EB521;IDS-11A -- ?????-??????? -- 1 -- None -- 81 -- 0 -- Solo Pro II MVP -- 172.26.2.151;110;Lane 2;4/5/2012;0:00:00; 99;5 Minutes;;;;;;132;11;65.000;0;9;2;0;0;27.270;1.398;A;63.508;0.945;2.078;
040549FF2C0EB521;IDS-11A -- ?????-??????? -- 1 -- None -- 81 -- 0 -- Solo Pro II MVP -- 172.26.2.151;110;Lane 2;4/5/2012;0:00:00; 99;10 Minutes;;;;;;132;22;68.953;0;18;4;0;0;27.270;1.305;A;67.184;0.910;1.961;
040549FF2C0EB521;IDS-11A -- ?????-??????? -- 1 -- None -- 81 -- 0 -- Solo Pro II MVP -- 172.26.2.151;110;Lane 2;4/5/2012;0:00:00;100;15 Minutes;;;;;;148;37;68.270;0;32;5;0;0;24.324;1.512;A;66.375;0.988;2.227;
040549FF2C0EB521;IDS-11A -- ?????-??????? -- 1 -- None -- 81 -- 0 -- Solo Pro II MVP -- 172.26.2.151;113;Total;4/5/2012;0:00:00;100;1 Minute;;;;;;90;3;58.000;0;3;0;0;0;45.000;0.766;A;57.672;0.668;1.559;
040549FF2C0EB521;IDS-11A -- ?????-??????? -- 1 -- None -- 81 -- 0 -- Solo Pro II MVP -- 172.26.2.151;113;Total;4/5/2012;0:00:00; 99;5 Minutes;;;;;;90;15;63.863;0;13;2;0;0;51.133;0.930;A;62.676;0.633;1.434;
040549FF2C0EB521;IDS-11A -- ?????-??????? -- 1 -- None -- 81 -- 0 -- Solo Pro II MVP -- 172.26.2.151;113;Total;4/5/2012;0:00:00; 99;10 Minutes;;;;;;99;33;65.301;0;29;4;0;0;40.906;0.996;A;63.203;0.699;1.563;
040549FF2C0EB521;IDS-11A -- ?????-??????? -- 1 -- None -- 81 -- 0 -- Solo Pro II MVP -- 172.26.2.151;113;Total;4/5/2012;0:00:00;100;15 Minutes;;;;;;108;54;65.516;0;49;5;0;0;38.629;1.098;A;63.488;0.746;1.699;
Image Sensing Systems, Inc. Data Collector File, Version 8.3.2
Detector ID List; 118;119;105;106;120;121;112;115;116;117;104;102;111;114;109;110;113;108;101;
0;1;2;3;4;5;7;8;9;10;11;12;13;14;15;16;17;18;19;20;21;22;23;24;25;26;27;
CPU Identifier;Autoscope Description;Detector ID;Detector Title;Date;Time;Status;Data Interval;Ticks (millisec.);State;Speed;Length;Class;Average Flow Rate;Volume;Arithmetic Mean Speed;Class A Count;Class B Count;Class C Count;Class D Count;Class E Count;Average Time Headway;Average Time Occupancy;Level Of Service;Space Mean Speed;Space Occupancy;Density;
040549FF2C0EB521;IDS-11A -- ?????-??????? -- 1 -- None -- 81 -- 0 -- Solo Pro II MVP -- 172.26.2.151;110;Lane 2;3/5/2012;23:22:00;100;1 Minute;;;;;;420;7;58.570;0;7;0;0;0;8.570;3.668;A;57.871;2.766;7.254;
040549FF2C0EB521;IDS-11A -- ?????-??????? -- 1 -- None -- 81 -- 0 -- Solo Pro II MVP -- 172.26.2.151;113;Total;3/5/2012;23:22:00;100;1 Minute;;;;;;210;7;58.570;0;7;0;0;0;34.285;1.832;A;57.871;1.383;3.625;
040549FF2C0EB521;IDS-11A -- ?????-??????? -- 1 -- None -- 81 -- 0 -- Solo Pro II MVP -- 172.26.2.151;109;Lane 1;3/5/2012;23:23:00; 99;1 Minute;;;;;;120;2;48.500;0;1;1;0;0;30.000;1.531;A;47.352;1.258;2.531;
040549FF2C0EB521;IDS-11A -- ?????-??????? -- 1 -- None -- 81 -- 0 -- Solo Pro II MVP -- 172.26.2.151;110;Lane 2;3/5/2012;23:23:00; 99;1 Minute;;;;;;180;3;54.664;0;3;0;0;0;20.000;2.266;A;51.766;1.500;3.477;
040549FF2C0EB521;IDS-11A -- ?????-??????? -- 1 -- None -- 81 -- 0 -- Solo Pro II MVP -- 172.26.2.151;113;Total;3/5/2012;23:23:00; 99;1 Minute;;;;;;150;5;52.199;0;4;1;0;0;25.000;1.898;A;49.902;1.371;3.004;
040549FF2C0EB521;IDS-11A -- ?????-??????? -- 1 -- None -- 81 -- 0 -- Solo Pro II MVP -- 172.26.2.151;109;Lane 1;3/5/2012;23:24:00;100;1 Minute;;;;;;0;0;0.000;0;0;0;0;0;60.000;0.000;A;0.000;100.000;0.000;
040549FF2C0EB521;IDS-11A -- ?????-??????? -- 1 -- None -- 81 -- 0 -- Solo Pro II MVP -- 172.26.2.151;110;Lane 2;3/5/2012;23:24:00;100;1 Minute;;;;;;180;3;84.000;0;2;0;1;0;20.000;1.465;A;79.402;0.988;2.266;
040549FF2C0EB521;IDS-11A -- ?????-??????? -- 1 -- None -- 81 -- 0 -- Solo Pro II MVP -- 172.26.2.151;113;Total;3/5/2012;23:24:00;100;1 Minute;;;;;;90;3;84.000;0;2;0;1;0;40.000;0.730;A;79.402;0.492;1.133;
040549FF2C0EB521;IDS-11A -- ?????-??????? -- 1 -- None -- 81 -- 0 -- Solo Pro II MVP -- 172.26.2.151;109;Lane 1;3/5/2012;23:25:00;100;1 Minute;;;;;;60;1;47.000;0;1;0;0;0;60.000;0.664;A;47.012;0.508;1.273;
040549FF2C0EB521;IDS-11A -- ?????-??????? -- 1 -- None -- 81 -- 0 -- Solo Pro II MVP -- 172.26.2.151;109;Lane 1;3/5/2012;23:25:00; 99;5 Minutes;;;;;;72;6;48.332;0;5;1;0;0;50.000;0.824;A;47.840;0.676;1.504;
040549FF2C0EB521;IDS-11A -- ?????-??????? -- 1 -- None -- 81 -- 0 -- Solo Pro II MVP -- 172.26.2.151;110;Lane 2;3/5/2012;23:25:00;100;1 Minute;;;;;;180;3;73.664;0;3;0;0;0;20.000;1.598;A;72.762;1.203;2.473;
040549FF2C0EB521;IDS-11A -- ?????-??????? -- 1 -- None -- 81 -- 0 -- Solo Pro II MVP -- 172.26.2.151;110;Lane 2;3/5/2012;23:25:00; 99;5 Minutes;;;;;;264;22;63.406;0;21;0;1;0;13.633;2.453;A;60.613;1.797;4.355;
040549FF2C0EB521;IDS-11A -- ?????-??????? -- 1 -- None -- 81 -- 0 -- Solo Pro II MVP -- 172.26.2.151;113;Total;3/5/2012;23:25:00;100;1 Minute;;;;;;120;4;67.000;0;4;0;0;0;40.000;1.129;A;64.000;0.840;1.875;
040549FF2C0EB521;IDS-11A -- ?????-??????? -- 1 -- None -- 81 -- 0 -- Solo Pro II MVP -- 172.26.2.151;113;Total;3/5/2012;23:25:00; 99;5 Minutes;;;;;;168;28;60.176;0;26;1;1;0;31.816;1.637;A;57.332;1.219;2.930;
040549FF2C0EB521;IDS-11A -- ?????-??????? -- 1 -- None -- 81 -- 0 -- Solo Pro II MVP -- 172.26.2.151;109;Lane 1;3/5/2012;23:26:00;100;1 Minute;;;;;;60;1;42.000;0;1;0;0;0;60.000;0.598;A;42.008;0.000;1.426;
040549FF2C0EB521;IDS-11A -- ?????-??????? -- 1 -- None -- 81 -- 0 -- Solo Pro II MVP -- 172.26.2.151;110;Lane 2;3/5/2012;23:26:00;100;1 Minute;;;;;;60;1;69.000;0;0;1;0;0;60.000;0.730;A;69.055;0.504;0.867;
040549FF2C0EB521;IDS-11A -- ?????-??????? -- 1 -- None -- 81 -- 0 -- Solo Pro II MVP -- 172.26.2.151;113;Total;3/5/2012;23:26:00;100;1 Minute;;;;;;60;2;55.500;0;1;1;0;0;60.000;0.664;A;52.238;0.574;1.148;
040549FF2C0EB521;IDS-11A -- ?????-??????? -- 1 -- None -- 81 -- 0 -- Solo Pro II MVP -- 172.26.2.151;109;Lane 1;3/5/2012;23:27:00;100;1 Minute;;;;;;180;3;57.332;0;3;0;0;0;20.000;1.797;A;56.414;1.168;3.188;
040549FF2C0EB521;IDS-11A -- ?????-??????? -- 1 -- None -- 81 -- 0 -- Solo Pro II MVP -- 172.26.2.151;110;Lane 2;3/5/2012;23:27:00;100;1 Minute;;;;;;240;4;55.250;0;4;0;0;0;15.000;2.531;A;52.891;1.844;4.535;
040549FF2C0EB521;IDS-11A -- ?????-??????? -- 1 -- None -- 81 -- 0 -- Solo Pro II MVP -- 172.26.2.151;113;Total;3/5/2012;23:27:00;100;1 Minute;;;;;;210;7;56.141;0;7;0;0;0;17.500;2.164;A;54.348;1.504;3.863;
040549FF2C0EB521;IDS-11A -- ?????-??????? -- 1 -- None -- 81 -- 0 -- Solo Pro II MVP -- 172.26.2.151;109;Lane 1;3/5/2012;23:28:00;100;1 Minute;;;;;;0;0;0.000;0;0;0;0;0;60.000;0.000;A;0.000;100.000;0.000;
040549FF2C0EB521;IDS-11A -- ?????-??????? -- 1 -- None -- 81 -- 0 -- Solo Pro II MVP -- 172.26.2.151;110;Lane 2;3/5/2012;23:28:00;100;1 Minute;;;;;;120;2;49.000;0;2;0;0;0;30.000;1.598;A;49.016;1.227;2.445;
040549FF2C0EB521;IDS-11A -- ?????-??????? -- 1 -- None -- 81 -- 0 -- Solo Pro II MVP -- 172.26.2.151;113;Total;3/5/2012;23:28:00;100;1 Minute;;;;;;60;2;49.000;0;2;0;0;0;45.000;0.797;A;49.016;0.613;1.223;
040549FF2C0EB521;IDS-11A -- ?????-??????? -- 1 -- None -- 81 -- 0 -- Solo Pro II MVP -- 172.26.2.151;109;Lane 1;3/5/2012;23:29:00; 99;1 Minute;;;;;;0;0;0.000;0;0;0;0;0;60.000;0.000;A;0.000;100.000;0.000;
040549FF2C0EB521;IDS-11A -- ?????-??????? -- 1 -- None -- 81 -- 0 -- Solo Pro II MVP -- 172.26.2.151;110;Lane 2;3/5/2012;23:29:00; 99;1 Minute;;;;;;240;4;66.750;0;4;0;0;0;15.000;1.668;A;65.176;1.207;3.680;
040549FF2C0EB521;IDS-11A -- ?????-??????? -- 1 -- None -- 81 -- 0 -- Solo Pro II MVP -- 172.26.2.151;113;Total;3/5/2012;23:29:00; 99;1 Minute;;;;;;120;4;66.750;0;4;0;0;0;37.500;0.832;A;65.176;0.602;1.840;
040549FF2C0EB521;IDS-11A -- ?????-??????? -- 1 -- None -- 81 -- 0 -- Solo Pro II MVP -- 172.26.2.151;109;Lane 1;3/5/2012;23:30:00;100;1 Minute;;;;;;0;0;0.000;0;0;0;0;0;60.000;0.000;A;0.000;100.000;0.000;
040549FF2C0EB521;IDS-11A -- ?????-??????? -- 1 -- None -- 81 -- 0 -- Solo Pro II MVP -- 172.26.2.151;109;Lane 1;3/5/2012;23:30:00;100;5 Minutes;;;;;;48;4;53.500;0;4;0;0;0;75.000;0.477;A;51.961;0.355;0.922;
040549FF2C0EB521;IDS-11A -- ?????-??????? -- 1 -- None -- 81 -- 0 -- Solo Pro II MVP -- 172.26.2.151;109;Lane 1;3/5/2012;23:30:00;100;10 Minutes;;;;;;60;10;50.398;0;9;1;0;0;60.000;0.652;A;49.406;0.512;1.211;
040549FF2C0EB521;IDS-11A -- ?????-??????? -- 1 -- None -- 81 -- 0 -- Solo Pro II MVP -- 172.26.2.151;109;Lane 1;3/5/2012;23:30:00;100;15 Minutes;;;;;;44;11;49.727;0;10;1;0;0;81.816;0.492;A;48.746;0.387;0.902;
040549FF2C0EB521;IDS-11A -- ?????-??????? -- 1 -- None -- 81 -- 0 -- Solo Pro II MVP -- 172.26.2.151;110;Lane 2;3/5/2012;23:30:00;100;1 Minute;;;;;;420;7;59.570;0;7;0;0;0;8.570;4.668;A;58.453;2.816;7.184;
040549FF2C0EB521;IDS-11A -- ?????-??????? -- 1 -- None -- 81 -- 0 -- Solo Pro II MVP -- 172.26.2.151;110;Lane 2;3/5/2012;23:30:00;100;5 Minutes;;;;;;216;18;59.555;0;17;1;0;0;16.664;2.238;A;57.684;1.496;3.742;
040549FF2C0EB521;IDS-11A -- ?????-??????? -- 1 -- None -- 81 -- 0 -- Solo Pro II MVP -- 172.26.2.151;110;Lane 2;3/5/2012;23:30:00;100;10 Minutes;;;;;;240;40;61.672;0;38;1;1;0;15.000;2.348;A;59.258;1.645;4.047;
040549FF2C0EB521;IDS-11A -- ?????-??????? -- 1 -- None -- 81 -- 0 -- Solo Pro II MVP -- 172.26.2.151;110;Lane 2;3/5/2012;23:30:00;100;15 Minutes;;;;;;220;55;62.125;0;53;1;1;0;16.363;2.301;A;59.813;1.473;3.676;
040549FF2C0EB521;IDS-11A -- ?????-??????? -- 1 -- None -- 81 -- 0 -- Solo Pro II MVP -- 172.26.2.151;113;Total;3/5/2012;23:30:00;100;1 Minute;;;;;;210;7;59.570;0;7;0;0;0;34.285;2.332;A;58.453;1.406;3.590;
040549FF2C0EB521;IDS-11A -- ?????-??????? -- 1 -- None -- 81 -- 0 -- Solo Pro II MVP -- 172.26.2.151;113;Total;3/5/2012;23:30:00;100;5 Minutes;;;;;;132;22;58.453;0;21;1;0;0;45.832;1.355;A;56.551;0.926;2.332;
040549FF2C0EB521;IDS-11A -- ?????-??????? -- 1 -- None -- 81 -- 0 -- Solo Pro II MVP -- 172.26.2.151;113;Total;3/5/2012;23:30:00;100;10 Minutes;;;;;;150;50;59.418;0;47;2;1;0;37.500;1.500;A;56.988;1.070;2.629;
040549FF2C0EB521;IDS-11A -- ?????-??????? -- 1 -- None -- 81 -- 0 -- Solo Pro II MVP -- 172.26.2.151;113;Total;3/5/2012;23:30:00;100;15 Minutes;;;;;;132;66;60.059;0;63;2;1;0;49.090;1.395;A;57.633;0.922;2.289;
040549FF2C0EB521;IDS-11A -- ?????-??????? -- 1 -- None -- 81 -- 0 -- Solo Pro II MVP -- 172.26.2.151;109;Lane 1;3/5/2012;23:31:00; 99;1 Minute;;;;;;0;0;0.000;0;0;0;0;0;60.000;0.000;A;0.000;100.000;0.000;
040549FF2C0EB521;IDS-11A -- ?????-??????? -- 1 -- None -- 81 -- 0 -- Solo Pro II MVP -- 172.26.2.151;110;Lane 2;3/5/2012;23:31:00; 99;1 Minute;;;;;;240;4;74.000;0;4;0;0;0;15.000;1.867;A;73.406;1.309;3.266;
040549FF2C0EB521;IDS-11A -- ?????-??????? -- 1 -- None -- 81 -- 0 -- Solo Pro II MVP -- 172.26.2.151;113;Total;3/5/2012;23:31:00; 99;1 Minute;;;;;;120;4;74.000;0;4;0;0;0;37.500;0.934;A;73.406;0.652;1.633;
040549FF2C0EB521;IDS-11A -- ?????-??????? -- 1 -- None -- 81 -- 0 -- Solo Pro II MVP -- 172.26.2.151;109;Lane 1;3/5/2012;23:32:00;100;1 Minute;;;;;;0;0;0.000;0;0;0;0;0;60.000;0.000;A;0.000;100.000;0.000;
040549FF2C0EB521;IDS-11A -- ?????-??????? -- 1 -- None -- 81 -- 0 -- Solo Pro II MVP -- 172.26.2.151;110;Lane 2;3/5/2012;23:32:00;100;1 Minute;;;;;;60;1;67.000;0;1;0;0;0;60.000;0.398;A;67.008;0.000;0.895;
040549FF2C0EB521;IDS-11A -- ?????-??????? -- 1 -- None -- 81 -- 0 -- Solo Pro II MVP -- 172.26.2.151;113;Total;3/5/2012;23:32:00;100;1 Minute;;;;;;30;1;67.000;0;1;0;0;0;60.000;0.199;A;67.008;0.000;0.445;
040549FF2C0EB521;IDS-11A -- ?????-??????? -- 1 -- None -- 81 -- 0 -- Solo Pro II MVP -- 172.26.2.151;109;Lane 1;3/5/2012;23:33:00;100;1 Minute;;;;;;0;0;0.000;0;0;0;0;0;60.000;0.000;A;0.000;100.000;0.000;
040549FF2C0EB521;IDS-11A -- ?????-??????? -- 1 -- None -- 81 -- 0 -- Solo Pro II MVP -- 172.26.2.151;110;Lane 2;3/5/2012;23:33:00;100;1 Minute;;;;;;60;1;79.000;0;0;1;0;0;60.000;0.398;A;79.051;0.000;0.758;
040549FF2C0EB521;IDS-11A -- ?????-??????? -- 1 -- None -- 81 -- 0 -- Solo Pro II MVP -- 172.26.2.151;113;Total;3/5/2012;23:33:00;100;1 Minute;;;;;;30;1;79.000;0;0;1;0;0;60.000;0.199;A;79.051;0.000;0.379;
040549FF2C0EB521;IDS-11A -- ?????-??????? -- 1 -- None -- 81 -- 0 -- Solo Pro II MVP -- 172.26.2.151;109;Lane 1;3/5/2012;23:34:00;100;1 Minute;;;;;;120;2;51.500;0;2;0;0;0;30.000;1.797;A;50.938;1.035;2.355;
040549FF2C0EB521;IDS-11A -- ?????-??????? -- 1 -- None -- 81 -- 0 -- Solo Pro II MVP -- 172.26.2.151;110;Lane 2;3/5/2012;23:34:00;100;1 Minute;;;;;;360;6;55.332;0;5;1;0;0;10.000;5.133;A;53.961;3.137;6.668;
040549FF2C0EB521;IDS-11A -- ?????-??????? -- 1 -- None -- 81 -- 0 -- Solo Pro II MVP -- 172.26.2.151;113;Total;3/5/2012;23:34:00;100;1 Minute;;;;;;240;8;54.375;0;7;1;0;0;20.000;3.465;A;53.172;2.086;4.512;
040549FF2C0EB521;IDS-11A -- ?????-??????? -- 1 -- None -- 81 -- 0 -- Solo Pro II MVP -- 172.26.2.151;109;Lane 1;3/5/2012;23:35:00;100;1 Minute;;;;;;120;2;59.000;0;2;0;0;0;30.000;1.133;A;58.961;0.902;2.035;
040549FF2C0EB521;IDS-11A -- ?????-??????? -- 1 -- None -- 81 -- 0 -- Solo Pro II MVP -- 172.26.2.151;109;Lane 1;3/5/2012;23:35:00;100;5 Minutes;;;;;;48;4;55.250;0;4;0;0;0;75.000;0.586;A;54.656;0.383;0.875;
040549FF2C0EB521;IDS-11A -- ?????-??????? -- 1 -- None -- 81 -- 0 -- Solo Pro II MVP -- 172.26.2.151;110;Lane 2;3/5/2012;23:35:00;100;1 Minute;;;;;;120;2;80.500;0;2;0;0;0;30.000;1.266;A;77.969;0.590;1.539;
040549FF2C0EB521;IDS-11A -- ?????-??????? -- 1 -- None -- 81 -- 0 -- Solo Pro II MVP -- 172.26.2.151;110;Lane 2;3/5/2012;23:35:00;100;5 Minutes;;;;;;168;14;66.785;0;12;2;0;0;21.426;1.813;A;63.953;1.148;2.625;
040549FF2C0EB521;IDS-11A -- ?????-??????? -- 1 -- None -- 81 -- 0 -- Solo Pro II MVP -- 172.26.2.151;113;Total;3/5/2012;23:35:00;100;1 Minute;;;;;;120;4;69.750;0;4;0;0;0;30.000;1.199;A;67.145;0.723;1.785;
040549FF2C0EB521;IDS-11A -- ?????-??????? -- 1 -- None -- 81 -- 0 -- Solo Pro II MVP -- 172.26.2.151;113;Total;3/5/2012;23:35:00;100;5 Minutes;;;;;;108;18;64.219;0;16;2;0;0;48.211;1.199;A;61.625;0.762;1.750;
040549FF2C0EB521;IDS-11A -- ?????-??????? -- 1 -- None -- 81 -- 0 -- Solo Pro II MVP -- 172.26.2.151;109;Lane 1;3/5/2012;23:36:00; 99;1 Minute;;;;;;60;1;59.000;0;1;0;0;0;60.000;0.465;A;59.039;0.359;1.016;
040549FF2C0EB521;IDS-11A -- ?????-??????? -- 1 -- None -- 81 -- 0 -- Solo Pro II MVP -- 172.26.2.151;110;Lane 2;3/5/2012;23:36:00; 99;1 Minute;;;;;;180;3;63.000;0;3;0;0;0;20.000;1.668;A;61.172;1.395;2.941;
040549FF2C0EB521;IDS-11A -- ?????-??????? -- 1 -- None -- 81 -- 0 -- Solo Pro II MVP -- 172.26.2.151;113;Total;3/5/2012;23:36:00; 99;1 Minute;;;;;;120;4;62.000;0;4;0;0;0;40.000;1.066;A;60.625;0.879;1.977;
040549FF2C0EB521;IDS-11A -- ?????-??????? -- 1 -- None -- 81 -- 0 -- Solo Pro II MVP -- 172.26.2.151;109;Lane 1;3/5/2012;23:37:00;100;1 Minute;;;;;;60;1;56.000;0;1;0;0;0;60.000;0.531;A;56.012;0.242;1.070;
040549FF2C0EB521;IDS-11A -- ?????-??????? -- 1 -- None -- 81 -- 0 -- Solo Pro II MVP -- 172.26.2.151;110;Lane 2;3/5/2012;23:37:00;100;1 Minute;;;;;;180;3;75.000;0;3;0;0;0;20.000;3.066;A;74.781;1.129;2.406;
040549FF2C0EB521;IDS-11A -- ?????-??????? -- 1 -- None -- 81 -- 0 -- Solo Pro II MVP -- 172.26.2.151;113;Total;3/5/2012;23:37:00;100;1 Minute;;;;;;120;4;70.250;0;4;0;0;0;40.000;1.797;A;69.000;0.699;1.738;
040549FF2C0EB521;IDS-11A -- ?????-??????? -- 1 -- None -- 81 -- 0 -- Solo Pro II MVP -- 172.26.2.151;109;Lane 1;3/5/2012;23:38:00; 99;1 Minute;;;;;;60;1;48.000;0;1;0;0;0;60.000;0.664;A;48.012;0.574;1.246;
040549FF2C0EB521;IDS-11A -- ?????-??????? -- 1 -- None -- 81 -- 0 -- Solo Pro II MVP -- 172.26.2.151;110;Lane 2;3/5/2012;23:38:00; 99;1 Minute;;;;;;60;1;74.000;0;1;0;0;0;60.000;0.598;A;74.051;0.363;0.809;
040549FF2C0EB521;IDS-11A -- ?????-??????? -- 1 -- None -- 81 -- 0 -- Solo Pro II MVP -- 172.26.2.151;113;Total;3/5/2012;23:38:00; 99;1 Minute;;;;;;60;2;61.000;0;2;0;0;0;60.000;0.629;A;58.254;0.445;1.027;
040549FF2C0EB521;IDS-11A -- ?????-??????? -- 1 -- None -- 81 -- 0 -- Solo Pro II MVP -- 172.26.2.151;109;Lane 1;3/5/2012;23:39:00;100;1 Minute;;;;;;0;0;0.000;0;0;0;0;0;60.000;0.000;A;0.000;100.000;0.000;
040549FF2C0EB521;IDS-11A -- ?????-??????? -- 1 -- None -- 81 -- 0 -- Solo Pro II MVP -- 172.26.2.151;110;Lane 2;3/5/2012;23:39:00;100;1 Minute;;;;;;240;4;71.250;0;3;1;0;0;15.000;1.867;A;70.617;1.688;3.398;
040549FF2C0EB521;IDS-11A -- ?????-??????? -- 1 -- None -- 81 -- 0 -- Solo Pro II MVP -- 172.26.2.151;113;Total;3/5/2012;23:39:00;100;1 Minute;;;;;;120;4;71.250;0;3;1;0;0;37.500;0.934;A;70.617;0.844;1.699;
040549FF2C0EB521;IDS-11A -- ?????-??????? -- 1 -- None -- 81 -- 0 -- Solo Pro II MVP -- 172.26.2.151;109;Lane 1;3/5/2012;23:40:00;100;1 Minute;;;;;;60;1;51.000;0;1;0;0;0;60.000;0.531;A;51.000;0.000;1.176;
040549FF2C0EB521;IDS-11A -- ?????-??????? -- 1 -- None -- 81 -- 0 -- Solo Pro II MVP -- 172.26.2.151;109;Lane 1;3/5/2012;23:40:00; 99;5 Minutes;;;;;;48;4;53.500;0;4;0;0;0;75.000;0.438;A;53.172;0.340;0.902;
040549FF2C0EB521;IDS-11A -- ?????-??????? -- 1 -- None -- 81 -- 0 -- Solo Pro II MVP -- 172.26.2.151;109;Lane 1;3/5/2012;23:40:00;100;10 Minutes;;;;;;48;8;54.375;0;8;0;0;0;75.000;0.512;A;53.902;0.363;0.887;
040549FF2C0EB521;IDS-11A -- ?????-??????? -- 1 -- None -- 81 -- 0 -- Solo Pro II MVP -- 172.26.2.151;110;Lane 2;3/5/2012;23:40:00;100;1 Minute;;;;;;60;1;105.000;0;1;0;0;0;60.000;0.531;A;105.023;0.230;0.570;
040549FF2C0EB521;IDS-11A -- ?????-??????? -- 1 -- None -- 81 -- 0 -- Solo Pro II MVP -- 172.26.2.151;110;Lane 2;3/5/2012;23:40:00; 99;5 Minutes;;;;;;144;12;73.164;0;11;1;0;0;25.000;1.547;A;71.078;0.941;2.023;
040549FF2C0EB521;IDS-11A -- ?????-??????? -- 1 -- None -- 81 -- 0 -- Solo Pro II MVP -- 172.26.2.151;110;Lane 2;3/5/2012;23:40:00;100;10 Minutes;;;;;;156;26;69.730;0;23;3;0;0;23.074;1.680;A;67.055;1.043;2.324;
040549FF2C0EB521;IDS-11A -- ?????-??????? -- 1 -- None -- 81 -- 0 -- Solo Pro II MVP -- 172.26.2.151;113;Total;3/5/2012;23:40:00;100;1 Minute;;;;;;60;2;78.000;0;2;0;0;0;60.000;0.531;A;68.656;0.340;0.871;
040549FF2C0EB521;IDS-11A -- ?????-??????? -- 1 -- None -- 81 -- 0 -- Solo Pro II MVP -- 172.26.2.151;113;Total;3/5/2012;23:40:00; 99;5 Minutes;;;;;;96;16;68.250;0;15;1;0;0;50.000;0.992;A;65.559;0.637;1.461;
040549FF2C0EB521;IDS-11A -- ?????-??????? -- 1 -- None -- 81 -- 0 -- Solo Pro II MVP -- 172.26.2.151;113;Total;3/5/2012;23:40:00;100;10 Minutes;;;;;;102;34;66.117;0;31;3;0;0;49.035;1.094;A;63.414;0.699;1.605;
040549FF2C0EB521;IDS-11A -- ?????-??????? -- 1 -- None -- 81 -- 0 -- Solo Pro II MVP -- 172.26.2.151;109;Lane 1;3/5/2012;23:41:00;100;1 Minute;;;;;;0;0;0.000;0;0;0;0;0;60.000;0.000;A;0.000;100.000;0.000;
040549FF2C0EB521;IDS-11A -- ?????-??????? -- 1 -- None -- 81 -- 0 -- Solo Pro II MVP -- 172.26.2.151;110;Lane 2;3/5/2012;23:41:00;100;1 Minute;;;;;;240;4;71.750;0;1;3;0;0;15.000;2.867;A;67.629;1.969;3.547;
040549FF2C0EB521;IDS-11A -- ?????-??????? -- 1 -- None -- 81 -- 0 -- Solo Pro II MVP -- 172.26.2.151;113;Total;3/5/2012;23:41:00;100;1 Minute;;;;;;120;4;71.750;0;1;3;0;0;37.500;1.434;A;67.629;0.984;1.773;
040549FF2C0EB521;IDS-11A -- ?????-??????? -- 1 -- None -- 81 -- 0 -- Solo Pro II MVP -- 172.26.2.151;109;Lane 1;3/5/2012;23:42:00;100;1 Minute;;;;;;60;1;90.000;0;0;1;0;0;60.000;0.398;A;90.020;0.367;0.664;
040549FF2C0EB521;IDS-11A -- ?????-??????? -- 1 -- None -- 81 -- 0 -- Solo Pro II MVP -- 172.26.2.151;110;Lane 2;3/5/2012;23:42:00;100;1 Minute;;;;;;180;3;60.000;0;2;1;0;0;20.000;2.465;A;59.867;1.473;3.004;
040549FF2C0EB521;IDS-11A -- ?????-??????? -- 1 -- None -- 81 -- 0 -- Solo Pro II MVP -- 172.26.2.151;113;Total;3/5/2012;23:42:00;100;1 Minute;;;;;;120;4;67.500;0;2;2;0;0;40.000;1.430;A;65.340;0.898;1.836;
040549FF2C0EB521;IDS-11A -- ?????-??????? -- 1 -- None -- 81 -- 0 -- Solo Pro II MVP -- 172.26.2.151;109;Lane 1;3/5/2012;23:43:00;100;1 Minute;;;;;;240;4;47.750;0;4;0;0;0;15.000;2.730;A;47.590;1.980;5.043;
040549FF2C0EB521;IDS-11A -- ?????-??????? -- 1 -- None -- 81 -- 0 -- Solo Pro II MVP -- 172.26.2.151;110;Lane 2;3/5/2012;23:43:00;100;1 Minute;;;;;;240;4;64.750;0;4;0;0;0;15.000;2.063;A;62.891;1.469;3.813;
040549FF2C0EB521;IDS-11A -- ?????-??????? -- 1 -- None -- 81 -- 0 -- Solo Pro II MVP -- 172.26.2.151;113;Total;3/5/2012;23:43:00;100;1 Minute;;;;;;240;8;56.250;0;8;0;0;0;15.000;2.395;A;54.184;1.684;4.426;
040549FF2C0EB521;IDS-11A -- ?????-??????? -- 1 -- None -- 81 -- 0 -- Solo Pro II MVP -- 172.26.2.151;109;Lane 1;3/5/2012;23:44:00;100;1 Minute;;;;;;120;2;65.500;0;2;0;0;0;30.000;1.332;A;65.047;0.836;1.844;
040549FF2C0EB521;IDS-11A -- ?????-??????? -- 1 -- None -- 81 -- 0 -- Solo Pro II MVP -- 172.26.2.151;110;Lane 2;3/5/2012;23:44:00;100;1 Minute;;;;;;180;3;62.332;0;2;1;0;0;20.000;1.332;A;62.313;1.027;2.887;
040549FF2C0EB521;IDS-11A -- ?????-??????? -- 1 -- None -- 81 -- 0 -- Solo Pro II MVP -- 172.26.2.151;113;Total;3/5/2012;23:44:00;100;1 Minute;;;;;;150;5;63.598;0;4;1;0;0;25.000;1.332;A;63.379;0.934;2.363;
040549FF2C0EB521;IDS-11A -- ?????-??????? -- 1 -- None -- 81 -- 0 -- Solo Pro II MVP -- 172.26.2.151;109;Lane 1;3/5/2012;23:45:00; 99;1 Minute;;;;;;0;0;0.000;0;0;0;0;0;60.000;0.000;A;0.000;100.000;0.000;
040549FF2C0EB521;IDS-11A -- ?????-??????? -- 1 -- None -- 81 -- 0 -- Solo Pro II MVP -- 172.26.2.151;109;Lane 1;3/5/2012;23:45:00;100;5 Minutes;;;;;;84;7;58.855;0;6;1;0;0;42.855;0.891;A;55.598;0.617;1.508;
040549FF2C0EB521;IDS-11A -- ?????-??????? -- 1 -- None -- 81 -- 0 -- Solo Pro II MVP -- 172.26.2.151;109;Lane 1;3/5/2012;23:45:00;100;15 Minutes;;;;;;60;15;56.465;0;14;1;0;0;60.000;0.637;A;54.680;0.449;1.094;
040549FF2C0EB521;IDS-11A -- ?????-??????? -- 1 -- None -- 81 -- 0 -- Solo Pro II MVP -- 172.26.2.151;110;Lane 2;3/5/2012;23:45:00; 99;1 Minute;;;;;;120;2;54.000;0;2;0;0;0;30.000;1.199;A;52.828;1.070;2.270;
040549FF2C0EB521;IDS-11A -- ?????-??????? -- 1 -- None -- 81 -- 0 -- Solo Pro II MVP -- 172.26.2.151;110;Lane 2;3/5/2012;23:45:00;100;5 Minutes;;;;;;192;16;63.813;0;11;5;0;0;18.750;1.984;A;61.809;1.398;3.105;
040549FF2C0EB521;IDS-11A -- ?????-??????? -- 1 -- None -- 81 -- 0 -- Solo Pro II MVP -- 172.26.2.151;110;Lane 2;3/5/2012;23:45:00;100;15 Minutes;;;;;;168;42;67.473;0;34;8;0;0;21.426;1.781;A;64.957;1.160;2.586;
040549FF2C0EB521;IDS-11A -- ?????-??????? -- 1 -- None -- 81 -- 0 -- Solo Pro II MVP -- 172.26.2.151;113;Total;3/5/2012;23:45:00; 99;1 Minute;;;;;;60;2;54.000;0;2;0;0;0;45.000;0.598;A;52.828;0.535;1.133;
040549FF2C0EB521;IDS-11A -- ?????-??????? -- 1 -- None -- 81 -- 0 -- Solo Pro II MVP -- 172.26.2.151;113;Total;3/5/2012;23:45:00;100;5 Minutes;;;;;;138;23;62.301;0;17;6;0;0;30.801;1.438;A;59.777;1.008;2.305;
040549FF2C0EB521;IDS-11A -- ?????-??????? -- 1 -- None -- 81 -- 0 -- Solo Pro II MVP -- 172.26.2.151;113;Total;3/5/2012;23:45:00;100;15 Minutes;;;;;;114;57;64.578;0;48;9;0;0;40.711;1.207;A;61.895;0.801;1.840;
040549FF2C0EB521;IDS-11A -- ?????-??????? -- 1 -- None -- 81 -- 0 -- Solo Pro II MVP -- 172.26.2.151;109;Lane 1;3/5/2012;23:46:00;100;1 Minute;;;;;;60;1;61.000;0;1;0;0;0;60.000;0.598;A;61.020;0.473;0.980;
040549FF2C0EB521;IDS-11A -- ?????-??????? -- 1 -- None -- 81 -- 0 -- Solo Pro II MVP -- 172.26.2.151;110;Lane 2;3/5/2012;23:46:00;100;1 Minute;;;;;;180;3;82.332;0;3;0;0;0;20.000;2.066;A;80.676;1.047;2.230;
040549FF2C0EB521;IDS-11A -- ?????-??????? -- 1 -- None -- 81 -- 0 -- Solo Pro II MVP -- 172.26.2.151;113;Total;3/5/2012;23:46:00;100;1 Minute;;;;;;120;4;77.000;0;4;0;0;0;40.000;1.332;A;74.660;0.746;1.605;
040549FF2C0EB521;IDS-11A -- ?????-??????? -- 1 -- None -- 81 -- 0 -- Solo Pro II MVP -- 172.26.2.151;109;Lane 1;3/5/2012;23:47:00;100;1 Minute;;;;;;120;2;53.500;0;2;0;0;0;30.000;1.398;A;52.469;1.117;2.285;
040549FF2C0EB521;IDS-11A -- ?????-??????? -- 1 -- None -- 81 -- 0 -- Solo Pro II MVP -- 172.26.2.151;110;Lane 2;3/5/2012;23:47:00;100;1 Minute;;;;;;60;1;64.000;0;1;0;0;0;60.000;0.797;A;64.000;0.441;0.938;
040549FF2C0EB521;IDS-11A -- ?????-??????? -- 1 -- None -- 81 -- 0 -- Solo Pro II MVP -- 172.26.2.151;113;Total;3/5/2012;23:47:00;100;1 Minute;;;;;;90;3;57.000;0;3;0;0;0;45.000;1.098;A;55.820;0.770;1.609;
040549FF2C0EB521;IDS-11A -- ?????-??????? -- 1 -- None -- 81 -- 0 -- Solo Pro II MVP -- 172.26.2.151;109;Lane 1;3/5/2012;23:48:00;100;1 Minute;;;;;;60;1;69.000;0;1;0;0;0;60.000;0.531;A;69.055;0.445;0.867;
040549FF2C0EB521;IDS-11A -- ?????-??????? -- 1 -- None -- 81 -- 0 -- Solo Pro II MVP -- 172.26.2.151;110;Lane 2;3/5/2012;23:48:00;100;1 Minute;;;;;;180;3;58.332;0;3;0;0;0;20.000;1.598;A;58.168;1.285;3.094;
040549FF2C0EB521;IDS-11A -- ?????-??????? -- 1 -- None -- 81 -- 0 -- Solo Pro II MVP -- 172.26.2.151;113;Total;3/5/2012;23:48:00;100;1 Minute;;;;;;120;4;61.000;0;4;0;0;0;40.000;1.063;A;60.555;0.867;1.980;
040549FF2C0EB521;IDS-11A -- ?????-??????? -- 1 -- None -- 81 -- 0 -- Solo Pro II MVP -- 172.26.2.151;109;Lane 1;3/5/2012;23:49:00;100;1 Minute;;;;;;120;2;68.500;0;2;0;0;0;30.000;0.863;A;67.910;0.684;1.766;
040549FF2C0EB521;IDS-11A -- ?????-??????? -- 1 -- None -- 81 -- 0 -- Solo Pro II MVP -- 172.26.2.151;110;Lane 2;3/5/2012;23:49:00;100;1 Minute;;;;;;240;4;64.500;0;3;1;0;0;15.000;2.664;A;62.355;1.594;3.848;
040549FF2C0EB521;IDS-11A -- ?????-??????? -- 1 -- None -- 81 -- 0 -- Solo Pro II MVP -- 172.26.2.151;113;Total;3/5/2012;23:49:00;100;1 Minute;;;;;;180;6;65.832;0;5;1;0;0;22.500;1.762;A;64.102;1.137;2.805;
040549FF2C0EB521;IDS-11A -- ?????-??????? -- 1 -- None -- 81 -- 0 -- Solo Pro II MVP -- 172.26.2.151;109;Lane 1;3/5/2012;23:50:00;100;1 Minute;;;;;;0;0;0.000;0;0;0;0;0;60.000;0.000;A;0.000;100.000;0.000;
040549FF2C0EB521;IDS-11A -- ?????-??????? -- 1 -- None -- 81 -- 0 -- Solo Pro II MVP -- 172.26.2.151;109;Lane 1;3/5/2012;23:50:00;100;5 Minutes;;;;;;72;6;62.332;0;6;0;0;0;50.000;0.676;A;60.953;0.535;1.180;
040549FF2C0EB521;IDS-11A -- ?????-??????? -- 1 -- None -- 81 -- 0 -- Solo Pro II MVP -- 172.26.2.151;109;Lane 1;3/5/2012;23:50:00;100;10 Minutes;;;;;;78;13;60.461;0;12;1;0;0;46.152;0.785;A;57.945;0.574;1.344;
040549FF2C0EB521;IDS-11A -- ?????-??????? -- 1 -- None -- 81 -- 0 -- Solo Pro II MVP -- 172.26.2.151;110;Lane 2;3/5/2012;23:50:00;100;1 Minute;;;;;;240;4;66.250;0;4;0;0;0;15.000;2.465;A;65.109;1.418;3.684;
040549FF2C0EB521;IDS-11A -- ?????-??????? -- 1 -- None -- 81 -- 0 -- Solo Pro II MVP -- 172.26.2.151;110;Lane 2;3/5/2012;23:50:00;100;5 Minutes;;;;;;180;15;67.266;0;14;1;0;0;20.000;1.918;A;65.227;1.148;2.758;
040549FF2C0EB521;IDS-11A -- ?????-??????? -- 1 -- None -- 81 -- 0 -- Solo Pro II MVP -- 172.26.2.151;110;Lane 2;3/5/2012;23:50:00;100;10 Minutes;;;;;;186;31;65.480;0;25;6;0;0;19.352;1.953;A;63.418;1.270;2.930;
040549FF2C0EB521;IDS-11A -- ?????-??????? -- 1 -- None -- 81 -- 0 -- Solo Pro II MVP -- 172.26.2.151;113;Total;3/5/2012;23:50:00;100;1 Minute;;;;;;120;4;66.250;0;4;0;0;0;37.500;1.230;A;65.109;0.707;1.840;
040549FF2C0EB521;IDS-11A -- ?????-??????? -- 1 -- None -- 81 -- 0 -- Solo Pro II MVP -- 172.26.2.151;113;Total;3/5/2012;23:50:00;100;5 Minutes;;;;;;126;21;65.855;0;20;1;0;0;35.000;1.297;A;63.945;0.840;1.969;
040549FF2C0EB521;IDS-11A -- ?????-??????? -- 1 -- None -- 81 -- 0 -- Solo Pro II MVP -- 172.26.2.151;113;Total;3/5/2012;23:50:00;100;10 Minutes;;;;;;132;44;64.000;0;37;7;0;0;32.750;1.367;A;61.695;0.922;2.137;
040549FF2C0EB521;IDS-11A -- ?????-??????? -- 1 -- None -- 81 -- 0 -- Solo Pro II MVP -- 172.26.2.151;109;Lane 1;3/5/2012;23:51:00;100;1 Minute;;;;;;60;1;63.000;0;1;0;0;0;60.000;0.664;A;63.012;0.516;0.949;
040549FF2C0EB521;IDS-11A -- ?????-??????? -- 1 -- None -- 81 -- 0 -- Solo Pro II MVP -- 172.26.2.151;110;Lane 2;3/5/2012;23:51:00;100;1 Minute;;;;;;180;3;61.664;0;3;0;0;0;20.000;1.535;A;61.648;1.215;2.918;
040549FF2C0EB521;IDS-11A -- ?????-??????? -- 1 -- None -- 81 -- 0 -- Solo Pro II MVP -- 172.26.2.151;113;Total;3/5/2012;23:51:00;100;1 Minute;;;;;;120;4;62.000;0;4;0;0;0;40.000;1.098;A;61.984;0.867;1.934;
040549FF2C0EB521;IDS-11A -- ?????-??????? -- 1 -- None -- 81 -- 0 -- Solo Pro II MVP -- 172.26.2.151;109;Lane 1;3/5/2012;23:52:00; 99;1 Minute;;;;;;120;2;47.000;0;2;0;0;0;30.000;1.000;A;46.477;0.844;2.578;
040549FF2C0EB521;IDS-11A -- ?????-??????? -- 1 -- None -- 81 -- 0 -- Solo Pro II MVP -- 172.26.2.151;110;Lane 2;3/5/2012;23:52:00; 99;1 Minute;;;;;;240;4;74.250;0;2;2;0;0;15.000;2.199;A;72.035;1.633;3.328;
040549FF2C0EB521;IDS-11A -- ?????-??????? -- 1 -- None -- 81 -- 0 -- Solo Pro II MVP -- 172.26.2.151;113;Total;3/5/2012;23:52:00; 99;1 Minute;;;;;;180;6;65.164;0;4;2;0;0;22.500;1.598;A;60.875;1.234;2.953;
040549FF2C0EB521;IDS-11A -- ?????-??????? -- 1 -- None -- 81 -- 0 -- Solo Pro II MVP -- 172.26.2.151;109;Lane 1;3/5/2012;23:53:00;100;1 Minute;;;;;;120;2;64.500;0;2;0;0;0;30.000;1.465;A;61.680;0.906;1.945;
040549FF2C0EB521;IDS-11A -- ?????-??????? -- 1 -- None -- 81 -- 0 -- Solo Pro II MVP -- 172.26.2.151;110;Lane 2;3/5/2012;23:53:00;100;1 Minute;;;;;;120;2;82.000;0;2;0;0;0;30.000;0.730;A;81.969;0.719;1.461;
040549FF2C0EB521;IDS-11A -- ?????-??????? -- 1 -- None -- 81 -- 0 -- Solo Pro II MVP -- 172.26.2.151;113;Total;3/5/2012;23:53:00;100;1 Minute;;;;;;120;4;73.250;0;4;0;0;0;30.000;1.098;A;70.391;0.801;1.703;
040549FF2C0EB521;IDS-11A -- ?????-??????? -- 1 -- None -- 81 -- 0 -- Solo Pro II MVP -- 172.26.2.151;109;Lane 1;3/5/2012;23:54:00;100;1 Minute;;;;;;120;2;54.500;0;2;0;0;0;30.000;1.465;A;53.738;1.047;2.230;
040549FF2C0EB521;IDS-11A -- ?????-??????? -- 1 -- None -- 81 -- 0 -- Solo Pro II MVP -- 172.26.2.151;110;Lane 2;3/5/2012;23:54:00;100;1 Minute;;;;;;0;0;0.000;0;0;0;0;0;60.000;0.000;A;0.000;100.000;0.000;
040549FF2C0EB521;IDS-11A -- ?????-??????? -- 1 -- None -- 81 -- 0 -- Solo Pro II MVP -- 172.26.2.151;113;Total;3/5/2012;23:54:00;100;1 Minute;;;;;;60;2;54.500;0;2;0;0;0;45.000;0.730;A;53.738;0.523;1.113;
040549FF2C0EB521;IDS-11A -- ?????-??????? -- 1 -- None -- 81 -- 0 -- Solo Pro II MVP -- 172.26.2.151;109;Lane 1;3/5/2012;23:55:00; 99;1 Minute;;;;;;0;0;0.000;0;0;0;0;0;60.000;0.000;A;0.000;100.000;0.000;
040549FF2C0EB521;IDS-11A -- ?????-??????? -- 1 -- None -- 81 -- 0 -- Solo Pro II MVP -- 172.26.2.151;109;Lane 1;3/5/2012;23:55:00; 99;5 Minutes;;;;;;84;7;56.426;0;7;0;0;0;42.855;0.918;A;54.457;0.664;1.539;
040549FF2C0EB521;IDS-11A -- ?????-??????? -- 1 -- None -- 81 -- 0 -- Solo Pro II MVP -- 172.26.2.151;110;Lane 2;3/5/2012;23:55:00; 99;1 Minute;;;;;;120;2;78.000;0;2;0;0;0;30.000;1.602;A;77.926;0.828;1.539;
040549FF2C0EB521;IDS-11A -- ?????-??????? -- 1 -- None -- 81 -- 0 -- Solo Pro II MVP -- 172.26.2.151;110;Lane 2;3/5/2012;23:55:00; 99;5 Minutes;;;;;;132;11;72.906;0;9;2;0;0;27.270;1.215;A;71.309;0.875;1.848;
040549FF2C0EB521;IDS-11A -- ?????-??????? -- 1 -- None -- 81 -- 0 -- Solo Pro II MVP -- 172.26.2.151;113;Total;3/5/2012;23:55:00; 99;1 Minute;;;;;;60;2;78.000;0;2;0;0;0;45.000;0.801;A;77.926;0.414;0.770;
040549FF2C0EB521;IDS-11A -- ?????-??????? -- 1 -- None -- 81 -- 0 -- Solo Pro II MVP -- 172.26.2.151;113;Total;3/5/2012;23:55:00; 99;5 Minutes;;;;;;108;18;66.500;0;16;2;0;0;35.063;1.066;A;63.648;0.762;1.695;
040549FF2C0EB521;IDS-11A -- ?????-??????? -- 1 -- None -- 81 -- 0 -- Solo Pro II MVP -- 172.26.2.151;109;Lane 1;3/5/2012;23:56:00;100;1 Minute;;;;;;60;1;65.000;0;1;0;0;0;60.000;0.664;A;65.016;0.336;0.922;
040549FF2C0EB521;IDS-11A -- ?????-??????? -- 1 -- None -- 81 -- 0 -- Solo Pro II MVP -- 172.26.2.151;110;Lane 2;3/5/2012;23:56:00;100;1 Minute;;;;;;180;3;71.664;0;3;0;0;0;20.000;1.398;A;70.543;1.063;2.551;
040549FF2C0EB521;IDS-11A -- ?????-??????? -- 1 -- None -- 81 -- 0 -- Solo Pro II MVP -- 172.26.2.151;113;Total;3/5/2012;23:56:00;100;1 Minute;;;;;;120;4;70.000;0;4;0;0;0;40.000;1.031;A;69.074;0.699;1.734;
040549FF2C0EB521;IDS-11A -- ?????-??????? -- 1 -- None -- 81 -- 0 -- Solo Pro II MVP -- 172.26.2.151;109;Lane 1;3/5/2012;23:57:00;100;1 Minute;;;;;;60;1;59.000;0;1;0;0;0;60.000;0.664;A;59.039;0.477;1.016;
040549FF2C0EB521;IDS-11A -- ?????-??????? -- 1 -- None -- 81 -- 0 -- Solo Pro II MVP -- 172.26.2.151;110;Lane 2;3/5/2012;23:57:00;100;1 Minute;;;;;;120;2;65.000;0;1;1;0;0;30.000;1.797;A;65.016;1.035;1.844;
040549FF2C0EB521;IDS-11A -- ?????-??????? -- 1 -- None -- 81 -- 0 -- Solo Pro II MVP -- 172.26.2.151;113;Total;3/5/2012;23:57:00;100;1 Minute;;;;;;90;3;63.000;0;2;1;0;0;45.000;1.230;A;62.891;0.758;1.430;
040549FF2C0EB521;IDS-11A -- ?????-??????? -- 1 -- None -- 81 -- 0 -- Solo Pro II MVP -- 172.26.2.151;109;Lane 1;3/5/2012;23:58:00; 99;1 Minute;;;;;;0;0;0.000;0;0;0;0;0;60.000;0.000;A;0.000;100.000;0.000;
040549FF2C0EB521;IDS-11A -- ?????-??????? -- 1 -- None -- 81 -- 0 -- Solo Pro II MVP -- 172.26.2.151;110;Lane 2;3/5/2012;23:58:00; 99;1 Minute;;;;;;60;1;58.000;0;0;1;0;0;60.000;1.000;A;58.047;0.586;1.031;
040549FF2C0EB521;IDS-11A -- ?????-??????? -- 1 -- None -- 81 -- 0 -- Solo Pro II MVP -- 172.26.2.151;113;Total;3/5/2012;23:58:00; 99;1 Minute;;;;;;30;1;58.000;0;0;1;0;0;60.000;0.500;A;58.047;0.293;0.516;
040549FF2C0EB521;IDS-11A -- ?????-??????? -- 1 -- None -- 81 -- 0 -- Solo Pro II MVP -- 172.26.2.151;109;Lane 1;3/5/2012;23:59:00;100;1 Minute;;;;;;60;1;55.000;0;1;0;0;0;60.000;0.734;A;55.023;0.457;1.090;
040549FF2C0EB521;IDS-11A -- ?????-??????? -- 1 -- None -- 81 -- 0 -- Solo Pro II MVP -- 172.26.2.151;110;Lane 2;3/5/2012;23:59:00;100;1 Minute;;;;;;180;3;67.332;0;3;0;0;0;20.000;1.535;A;64.801;1.102;2.777;
040549FF2C0EB521;IDS-11A -- ?????-??????? -- 1 -- None -- 81 -- 0 -- Solo Pro II MVP -- 172.26.2.151;113;Total;3/5/2012;23:59:00;100;1 Minute;;;;;;120;4;64.250;0;4;0;0;0;40.000;1.133;A;62.043;0.773;1.934;
040549FF2C0EB521;IDS-11A -- ?????-??????? -- 1 -- None -- 81 -- 0 -- Solo Pro II MVP -- 172.26.2.151;109;Lane 1;4/5/2012;0:00:00;100;1 Minute;;;;;;60;1;64.000;0;1;0;0;0;60.000;0.266;A;64.000;0.000;0.938;
040549FF2C0EB521;IDS-11A -- ?????-??????? -- 1 -- None -- 81 -- 0 -- Solo Pro II MVP -- 172.26.2.151;109;Lane 1;4/5/2012;0:00:00; 99;5 Minutes;;;;;;48;4;60.750;0;4;0;0;0;75.000;0.465;A;60.496;0.320;0.793;
040549FF2C0EB521;IDS-11A -- ?????-??????? -- 1 -- None -- 81 -- 0 -- Solo Pro II MVP -- 172.26.2.151;109;Lane 1;4/5/2012;0:00:00; 99;10 Minutes;;;;;;66;11;58.000;0;11;0;0;0;54.543;0.691;A;56.508;0.492;1.168;
040549FF2C0EB521;IDS-11A -- ?????-??????? -- 1 -- None -- 81 -- 0 -- Solo Pro II MVP -- 172.26.2.151;109;Lane 1;4/5/2012;0:00:00;100;15 Minutes;;;;;;68;17;59.527;0;17;0;0;0;52.938;0.688;A;58.000;0.504;1.172;
040549FF2C0EB521;IDS-11A -- ?????-??????? -- 1 -- None -- 81 -- 0 -- Solo Pro II MVP -- 172.26.2.151;110;Lane 2;4/5/2012;0:00:00;100;1 Minute;;;;;;120;2;55.000;0;2;0;0;0;30.000;1.266;A;54.953;1.000;2.184;
040549FF2C0EB521;IDS-11A -- ?????-??????? -- 1 -- None -- 81 -- 0 -- Solo Pro II MVP -- 172.26.2.151;110;Lane 2;4/5/2012;0:00:00; 99;5 Minutes;;;;;;132;11;65.000;0;9;2;0;0;27.270;1.398;A;63.508;0.945;2.078;
040549FF2C0EB521;IDS-11A -- ?????-??????? -- 1 -- None -- 81 -- 0 -- Solo Pro II MVP -- 172.26.2.151;110;Lane 2;4/5/2012;0:00:00; 99;10 Minutes;;;;;;132;22;68.953;0;18;4;0;0;27.270;1.305;A;67.184;0.910;1.961;
040549FF2C0EB521;IDS-11A -- ?????-??????? -- 1 -- None -- 81 -- 0 -- Solo Pro II MVP -- 172.26.2.151;110;Lane 2;4/5/2012;0:00:00;100;15 Minutes;;;;;;148;37;68.270;0;32;5;0;0;24.324;1.512;A;66.375;0.988;2.227;
040549FF2C0EB521;IDS-11A -- ?????-??????? -- 1 -- None -- 81 -- 0 -- Solo Pro II MVP -- 172.26.2.151;113;Total;4/5/2012;0:00:00;100;1 Minute;;;;;;90;3;58.000;0;3;0;0;0;45.000;0.766;A;57.672;0.668;1.559;
040549FF2C0EB521;IDS-11A -- ?????-??????? -- 1 -- None -- 81 -- 0 -- Solo Pro II MVP -- 172.26.2.151;113;Total;4/5/2012;0:00:00; 99;5 Minutes;;;;;;90;15;63.863;0;13;2;0;0;51.133;0.930;A;62.676;0.633;1.434;
040549FF2C0EB521;IDS-11A -- ?????-??????? -- 1 -- None -- 81 -- 0 -- Solo Pro II MVP -- 172.26.2.151;113;Total;4/5/2012;0:00:00; 99;10 Minutes;;;;;;99;33;65.301;0;29;4;0;0;40.906;0.996;A;63.203;0.699;1.563;
040549FF2C0EB521;IDS-11A -- ?????-??????? -- 1 -- None -- 81 -- 0 -- Solo Pro II MVP -- 172.26.2.151;113;Total;4/5/2012;0:00:00;100;15 Minutes;;;;;;108;54;65.516;0;49;5;0;0;38.629;1.098;A;63.488;0.746;1.699;
