CPU Identifier;Autoscope Description;Detector ID;Detector Title;Date;Time;Status;Data Interval;Ticks (millisec.);State;Speed;Length;Class;Average Flow Rate;Volume;Arithmetic Mean Speed;Class A Count;Class B Count;Class C Count;Class D Count;Class E Count;Average Time Headway;Average Time Occupancy;Level Of Service;Space Mean Speed;Space Occupancy;Density;
040548FF7504B521;IDS-10A -- ?????-????? (????????) -- 1 -- None -- 80 -- 0 -- Solo Pro II MVP -- 172.26.2.150;109;Lane 1;3/5/2012;12:15:00;100;15 Minutes;;;;;;924;231;72.207;0;190;19;14;8;3.895;10.777;A;70.750;7.379;13.059;
040548FF7504B521;IDS-10A -- ?????-????? (????????) -- 1 -- None -- 80 -- 0 -- Solo Pro II MVP -- 172.26.2.150;110;Lane 2;3/5/2012;12:15:00;100;15 Minutes;;;;;;1140;285;85.797;0;285;0;0;0;3.156;9.332;A;84.637;5.668;13.469;
040548FF7504B521;IDS-10A -- ?????-????? (????????) -- 1 -- None -- 80 -- 0 -- Solo Pro II MVP -- 172.26.2.150;113;Total;3/5/2012;12:15:00;100;15 Minutes;;;;;;1032;516;79.715;0;475;19;14;8;3.523;10.055;A;77.793;6.395;13.266;
040548FF7504B521;IDS-10A -- ?????-????? (????????) -- 1 -- None -- 80 -- 0 -- Solo Pro II MVP -- 172.26.2.150;109;Lane 1;3/5/2012;12:30:00;100;15 Minutes;;;;;;944;236;71.758;0;199;13;16;8;3.813;11.426;A;69.891;7.352;13.504;
040548FF7504B521;IDS-10A -- ?????-????? (????????) -- 1 -- None -- 80 -- 0 -- Solo Pro II MVP -- 172.26.2.150;110;Lane 2;3/5/2012;12:30:00;100;15 Minutes;;;;;;1156;289;86.332;0;287;0;1;1;3.113;9.633;A;84.746;5.805;13.641;
040548FF7504B521;IDS-10A -- ?????-????? (????????) -- 1 -- None -- 80 -- 0 -- Solo Pro II MVP -- 172.26.2.150;113;Total;3/5/2012;12:30:00;100;15 Minutes;;;;;;1050;525;79.777;0;486;13;17;9;3.461;10.527;A;77.371;6.445;13.570;
040548FF7504B521;IDS-10A -- ?????-????? (????????) -- 1 -- None -- 80 -- 0 -- Solo Pro II MVP -- 172.26.2.150;109;Lane 1;3/5/2012;12:45:00;100;15 Minutes;;;;;;840;210;73.402;0;183;9;8;10;4.285;9.801;A;72.039;6.297;11.660;
040548FF7504B521;IDS-10A -- ?????-????? (????????) -- 1 -- None -- 80 -- 0 -- Solo Pro II MVP -- 172.26.2.150;110;Lane 2;3/5/2012;12:45:00;100;15 Minutes;;;;;;1256;314;87.523;0;308;3;2;1;2.863;10.223;A;86.340;6.418;14.547;
040548FF7504B521;IDS-10A -- ?????-????? (????????) -- 1 -- None -- 80 -- 0 -- Solo Pro II MVP -- 172.26.2.150;113;Total;3/5/2012;12:45:00;100;15 Minutes;;;;;;1048;524;81.863;0;491;12;10;11;3.574;10.012;A;79.988;6.254;13.102;
040548FF7504B521;IDS-10A -- ?????-????? (????????) -- 1 -- None -- 80 -- 0 -- Solo Pro II MVP -- 172.26.2.150;109;Lane 1;3/5/2012;13:00:00;100;15 Minutes;;;;;;968;242;69.648;0;199;19;13;10;3.719;12.527;A;68.105;7.832;14.211;
040548FF7504B521;IDS-10A -- ?????-????? (????????) -- 1 -- None -- 80 -- 0 -- Solo Pro II MVP -- 172.26.2.150;110;Lane 2;3/5/2012;13:00:00;100;15 Minutes;;;;;;1356;339;83.828;0;332;3;2;2;2.652;11.340;A;82.887;7.133;16.359;
040548FF7504B521;IDS-10A -- ?????-????? (????????) -- 1 -- None -- 80 -- 0 -- Solo Pro II MVP -- 172.26.2.150;113;Total;3/5/2012;13:00:00;100;15 Minutes;;;;;;1162;581;77.922;0;531;22;15;12;3.184;11.934;A;76.000;7.336;15.289;
040548FF7504B521;IDS-10A -- ?????-????? (????????) -- 1 -- None -- 80 -- 0 -- Solo Pro II MVP -- 172.26.2.150;109;Lane 1;3/5/2012;13:15:00;100;15 Minutes;;;;;;912;228;72.840;0;198;12;11;7;3.945;10.340;A;71.422;6.664;12.766;
040548FF7504B521;IDS-10A -- ?????-????? (????????) -- 1 -- None -- 80 -- 0 -- Solo Pro II MVP -- 172.26.2.150;110;Lane 2;3/5/2012;13:15:00;100;15 Minutes;;;;;;1300;325;88.176;0;321;3;0;1;2.766;10.238;A;87.301;6.250;14.891;
040548FF7504B521;IDS-10A -- ?????-????? (????????) -- 1 -- None -- 80 -- 0 -- Solo Pro II MVP -- 172.26.2.150;113;Total;3/5/2012;13:15:00;100;15 Minutes;;;;;;1106;553;81.852;0;519;15;11;8;3.355;10.289;A;79.934;6.332;13.836;
040548FF7504B521;IDS-10A -- ?????-????? (????????) -- 1 -- None -- 80 -- 0 -- Solo Pro II MVP -- 172.26.2.150;109;Lane 1;3/5/2012;13:30:00;100;15 Minutes;;;;;;920;230;73.867;0;189;17;16;8;3.910;10.793;A;72.336;7.102;12.715;
040548FF7504B521;IDS-10A -- ?????-????? (????????) -- 1 -- None -- 80 -- 0 -- Solo Pro II MVP -- 172.26.2.150;110;Lane 2;3/5/2012;13:30:00;100;15 Minutes;;;;;;1336;334;87.496;0;333;0;0;1;2.691;10.582;A;86.715;6.504;15.406;
040548FF7504B521;IDS-10A -- ?????-????? (????????) -- 1 -- None -- 80 -- 0 -- Solo Pro II MVP -- 172.26.2.150;113;Total;3/5/2012;13:30:00;100;15 Minutes;;;;;;1128;564;81.938;0;522;17;16;9;3.301;10.688;A;80.211;6.676;14.063;
040548FF7504B521;IDS-10A -- ?????-????? (????????) -- 1 -- None -- 80 -- 0 -- Solo Pro II MVP -- 172.26.2.150;109;Lane 1;3/5/2012;13:45:00;100;15 Minutes;;;;;;812;203;76.145;0;181;8;7;6;4.430;8.363;A;74.625;5.508;10.879;
040548FF7504B521;IDS-10A -- ?????-????? (????????) -- 1 -- None -- 80 -- 0 -- Solo Pro II MVP -- 172.26.2.150;110;Lane 2;3/5/2012;13:45:00;100;15 Minutes;;;;;;1236;309;90.281;0;308;0;1;0;2.910;9.410;A;89.281;5.824;13.844;
040548FF7504B521;IDS-10A -- ?????-????? (????????) -- 1 -- None -- 80 -- 0 -- Solo Pro II MVP -- 172.26.2.150;113;Total;3/5/2012;13:45:00;100;15 Minutes;;;;;;1024;512;84.680;0;489;8;8;6;3.668;8.887;A;82.852;5.582;12.359;
040548FF7504B521;IDS-10A -- ?????-????? (????????) -- 1 -- None -- 80 -- 0 -- Solo Pro II MVP -- 172.26.2.150;109;Lane 1;3/5/2012;14:00:00;100;15 Minutes;;;;;;980;245;76.797;0;220;13;7;5;3.672;10.000;A;75.617;6.645;12.957;
040548FF7504B521;IDS-10A -- ?????-????? (????????) -- 1 -- None -- 80 -- 0 -- Solo Pro II MVP -- 172.26.2.150;110;Lane 2;3/5/2012;14:00:00;100;15 Minutes;;;;;;1264;316;90.082;0;310;1;3;2;2.848;9.625;A;89.289;6.254;14.156;
040548FF7504B521;IDS-10A -- ?????-????? (????????) -- 1 -- None -- 80 -- 0 -- Solo Pro II MVP -- 172.26.2.150;113;Total;3/5/2012;14:00:00;100;15 Minutes;;;;;;1122;561;84.281;0;530;14;10;7;3.258;9.813;A;82.727;6.367;13.563;
040548FF7504B521;IDS-10A -- ?????-????? (????????) -- 1 -- None -- 80 -- 0 -- Solo Pro II MVP -- 172.26.2.150;109;Lane 1;3/5/2012;14:15:00;100;15 Minutes;;;;;;984;246;73.715;0;225;12;2;7;3.656;10.512;A;72.031;6.727;13.660;
040548FF7504B521;IDS-10A -- ?????-????? (????????) -- 1 -- None -- 80 -- 0 -- Solo Pro II MVP -- 172.26.2.150;110;Lane 2;3/5/2012;14:15:00;100;15 Minutes;;;;;;1412;353;88.273;0;351;0;1;1;2.547;11.297;A;87.141;7.172;16.203;
040548FF7504B521;IDS-10A -- ?????-????? (????????) -- 1 -- None -- 80 -- 0 -- Solo Pro II MVP -- 172.26.2.150;113;Total;3/5/2012;14:15:00;100;15 Minutes;;;;;;1198;599;82.293;0;576;12;3;8;3.102;10.902;A;80.199;6.859;14.938;
040548FF7504B521;IDS-10A -- ?????-????? (????????) -- 1 -- None -- 80 -- 0 -- Solo Pro II MVP -- 172.26.2.150;109;Lane 1;3/5/2012;14:30:00;100;15 Minutes;;;;;;1044;261;71.223;0;213;13;16;18;3.445;13.016;A;69.961;8.801;14.922;
040548FF7504B521;IDS-10A -- ?????-????? (????????) -- 1 -- None -- 80 -- 0 -- Solo Pro II MVP -- 172.26.2.150;110;Lane 2;3/5/2012;14:30:00;100;15 Minutes;;;;;;1564;391;83.656;0;385;0;5;1;2.301;12.941;A;82.926;8.203;18.859;
040548FF7504B521;IDS-10A -- ?????-????? (????????) -- 1 -- None -- 80 -- 0 -- Solo Pro II MVP -- 172.26.2.150;113;Total;3/5/2012;14:30:00;100;15 Minutes;;;;;;1304;652;78.680;0;598;13;21;19;2.871;12.977;A;77.199;8.344;16.891;
040548FF7504B521;IDS-10A -- ?????-????? (????????) -- 1 -- None -- 80 -- 0 -- Solo Pro II MVP -- 172.26.2.150;109;Lane 1;3/5/2012;14:45:00;100;15 Minutes;;;;;;1028;257;74.719;0;217;15;15;8;3.500;11.625;A;73.262;7.605;14.031;
040548FF7504B521;IDS-10A -- ?????-????? (????????) -- 1 -- None -- 80 -- 0 -- Solo Pro II MVP -- 172.26.2.150;110;Lane 2;3/5/2012;14:45:00;100;15 Minutes;;;;;;1308;327;88.004;0;323;1;2;1;2.750;10.340;A;86.926;6.508;15.047;
040548FF7504B521;IDS-10A -- ?????-????? (????????) -- 1 -- None -- 80 -- 0 -- Solo Pro II MVP -- 172.26.2.150;113;Total;3/5/2012;14:45:00;100;15 Minutes;;;;;;1168;584;82.156;0;540;16;17;9;3.125;10.980;A;80.332;6.945;14.539;
040548FF7504B521;IDS-10A -- ?????-????? (????????) -- 1 -- None -- 80 -- 0 -- Solo Pro II MVP -- 172.26.2.150;109;Lane 1;3/5/2012;15:00:00;100;15 Minutes;;;;;;1016;254;76.551;0;232;9;6;7;3.543;10.383;A;75.078;6.840;13.531;
040548FF7504B521;IDS-10A -- ?????-????? (????????) -- 1 -- None -- 80 -- 0 -- Solo Pro II MVP -- 172.26.2.150;110;Lane 2;3/5/2012;15:00:00;100;15 Minutes;;;;;;1336;334;90.723;0;332;1;1;0;2.691;10.148;A;90.004;6.477;14.844;
040548FF7504B521;IDS-10A -- ?????-????? (????????) -- 1 -- None -- 80 -- 0 -- Solo Pro II MVP -- 172.26.2.150;113;Total;3/5/2012;15:00:00;100;15 Minutes;;;;;;1176;588;84.602;0;564;10;7;7;3.117;10.266;A;82.887;6.566;14.188;
040548FF7504B521;IDS-10A -- ?????-????? (????????) -- 1 -- None -- 80 -- 0 -- Solo Pro II MVP -- 172.26.2.150;109;Lane 1;3/5/2012;15:15:00;100;15 Minutes;;;;;;568;142;81.855;0;113;9;12;8;6.336;6.219;A;79.422;4.242;7.148;
040548FF7504B521;IDS-10A -- ?????-????? (????????) -- 1 -- None -- 80 -- 0 -- Solo Pro II MVP -- 172.26.2.150;110;Lane 2;3/5/2012;15:15:00;100;15 Minutes;;;;;;564;141;96.801;0;138;0;3;0;6.383;4.223;A;95.164;2.660;5.926;
040548FF7504B521;IDS-10A -- ?????-????? (????????) -- 1 -- None -- 80 -- 0 -- Solo Pro II MVP -- 172.26.2.150;113;Total;3/5/2012;15:15:00;100;15 Minutes;;;;;;566;283;89.301;0;251;9;15;8;6.359;5.219;A;86.660;3.387;6.531;
040548FF7504B521;IDS-10A -- ?????-????? (????????) -- 1 -- None -- 80 -- 0 -- Solo Pro II MVP -- 172.26.2.150;109;Lane 1;3/5/2012;15:30:00;100;15 Minutes;;;;;;976;244;75.492;0;215;10;6;11;3.688;9.777;A;73.867;6.621;13.211;
040548FF7504B521;IDS-10A -- ?????-????? (????????) -- 1 -- None -- 80 -- 0 -- Solo Pro II MVP -- 172.26.2.150;110;Lane 2;3/5/2012;15:30:00;100;15 Minutes;;;;;;1464;366;87.824;0;364;0;1;1;2.457;11.574;A;86.434;7.227;16.938;
040548FF7504B521;IDS-10A -- ?????-????? (????????) -- 1 -- None -- 80 -- 0 -- Solo Pro II MVP -- 172.26.2.150;113;Total;3/5/2012;15:30:00;100;15 Minutes;;;;;;1220;610;82.895;0;579;10;7;12;3.070;10.676;A;80.953;6.844;15.070;
040548FF7504B521;IDS-10A -- ?????-????? (????????) -- 1 -- None -- 80 -- 0 -- Solo Pro II MVP -- 172.26.2.150;109;Lane 1;3/5/2012;15:45:00;100;15 Minutes;;;;;;1188;297;67.465;0;248;20;12;16;3.027;14.453;A;66.285;10.234;17.922;
040548FF7504B521;IDS-10A -- ?????-????? (????????) -- 1 -- None -- 80 -- 0 -- Solo Pro II MVP -- 172.26.2.150;110;Lane 2;3/5/2012;15:45:00;100;15 Minutes;;;;;;1912;478;76.320;0;464;6;6;2;1.883;17.391;A;75.441;11.133;25.344;
040548FF7504B521;IDS-10A -- ?????-????? (????????) -- 1 -- None -- 80 -- 0 -- Solo Pro II MVP -- 172.26.2.150;113;Total;3/5/2012;15:45:00;100;15 Minutes;;;;;;1550;775;72.926;0;712;26;18;18;2.453;15.922;A;71.648;10.559;21.633;
040548FF7504B521;IDS-10A -- ?????-????? (????????) -- 1 -- None -- 80 -- 0 -- Solo Pro II MVP -- 172.26.2.150;109;Lane 1;3/5/2012;16:00:00;100;15 Minutes;;;;;;1188;297;71.984;0;250;10;21;14;3.027;14.230;A;70.398;9.367;16.875;
040548FF7504B521;IDS-10A -- ?????-????? (????????) -- 1 -- None -- 80 -- 0 -- Solo Pro II MVP -- 172.26.2.150;110;Lane 2;3/5/2012;16:00:00;100;15 Minutes;;;;;;1660;415;84.668;0;402;4;4;5;2.168;14.129;A;83.785;8.789;19.813;
040548FF7504B521;IDS-10A -- ?????-????? (????????) -- 1 -- None -- 80 -- 0 -- Solo Pro II MVP -- 172.26.2.150;113;Total;3/5/2012;16:00:00;100;15 Minutes;;;;;;1424;712;79.379;0;652;14;25;19;2.598;14.180;A;77.594;8.934;18.352;
040548FF7504B521;IDS-10A -- ?????-????? (????????) -- 1 -- None -- 80 -- 0 -- Solo Pro II MVP -- 172.26.2.150;109;Lane 1;3/5/2012;16:15:00;100;15 Minutes;;;;;;1044;261;74.250;0;230;9;11;10;3.445;12.566;A;72.781;7.734;14.344;
040548FF7504B521;IDS-10A -- ?????-????? (????????) -- 1 -- None -- 80 -- 0 -- Solo Pro II MVP -- 172.26.2.150;110;Lane 2;3/5/2012;16:15:00;100;15 Minutes;;;;;;1784;446;83.320;0;434;3;3;6;2.016;15.359;A;82.613;9.680;21.594;
040548FF7504B521;IDS-10A -- ?????-????? (????????) -- 1 -- None -- 80 -- 0 -- Solo Pro II MVP -- 172.26.2.150;113;Total;3/5/2012;16:15:00;100;15 Minutes;;;;;;1414;707;79.973;0;664;12;14;16;2.730;13.961;A;78.656;8.633;17.977;
040548FF7504B521;IDS-10A -- ?????-????? (????????) -- 1 -- None -- 80 -- 0 -- Solo Pro II MVP -- 172.26.2.150;109;Lane 1;3/5/2012;16:30:00;100;15 Minutes;;;;;;1108;277;75.066;0;257;5;8;7;3.246;12.500;A;73.254;7.586;15.125;
040548FF7504B521;IDS-10A -- ?????-????? (????????) -- 1 -- None -- 80 -- 0 -- Solo Pro II MVP -- 172.26.2.150;110;Lane 2;3/5/2012;16:30:00;100;15 Minutes;;;;;;1612;403;86.305;0;396;4;1;2;2.230;13.262;A;85.402;8.168;18.875;
040548FF7504B521;IDS-10A -- ?????-????? (????????) -- 1 -- None -- 80 -- 0 -- Solo Pro II MVP -- 172.26.2.150;113;Total;3/5/2012;16:30:00;100;15 Minutes;;;;;;1360;680;81.727;0;653;9;9;9;2.738;12.879;A;80.000;7.797;17.000;
040548FF7504B521;IDS-10A -- ?????-????? (????????) -- 1 -- None -- 80 -- 0 -- Solo Pro II MVP -- 172.26.2.150;109;Lane 1;3/5/2012;16:45:00;100;15 Minutes;;;;;;1040;260;74.117;0;226;5;15;9;3.461;11.320;A;72.820;7.625;14.281;
040548FF7504B521;IDS-10A -- ?????-????? (????????) -- 1 -- None -- 80 -- 0 -- Solo Pro II MVP -- 172.26.2.150;110;Lane 2;3/5/2012;16:45:00;100;15 Minutes;;;;;;1584;396;85.824;0;389;4;1;1;2.270;12.438;A;84.973;8.055;18.641;
040548FF7504B521;IDS-10A -- ?????-????? (????????) -- 1 -- None -- 80 -- 0 -- Solo Pro II MVP -- 172.26.2.150;113;Total;3/5/2012;16:45:00;100;15 Minutes;;;;;;1312;656;81.184;0;615;9;16;10;2.863;11.879;A;79.664;7.738;16.469;
040548FF7504B521;IDS-10A -- ?????-????? (????????) -- 1 -- None -- 80 -- 0 -- Solo Pro II MVP -- 172.26.2.150;109;Lane 1;3/5/2012;17:00:00;100;15 Minutes;;;;;;888;222;76.758;0;202;5;4;9;4.051;9.430;A;75.254;5.980;11.797;
040548FF7504B521;IDS-10A -- ?????-????? (????????) -- 1 -- None -- 80 -- 0 -- Solo Pro II MVP -- 172.26.2.150;110;Lane 2;3/5/2012;17:00:00;100;15 Minutes;;;;;;1540;385;87.547;0;376;6;1;1;2.336;12.457;A;86.152;7.855;17.875;
040548FF7504B521;IDS-10A -- ?????-????? (????????) -- 1 -- None -- 80 -- 0 -- Solo Pro II MVP -- 172.26.2.150;113;Total;3/5/2012;17:00:00;100;15 Minutes;;;;;;1214;607;83.602;0;578;11;5;10;3.191;10.941;A;81.828;6.859;14.836;
040548FF7504B521;IDS-10A -- ?????-????? (????????) -- 1 -- None -- 80 -- 0 -- Solo Pro II MVP -- 172.26.2.150;109;Lane 1;3/5/2012;17:15:00;100;15 Minutes;;;;;;1208;302;71.867;0;277;12;10;2;2.977;13.711;A;70.090;8.148;17.234;
040548FF7504B521;IDS-10A -- ?????-????? (????????) -- 1 -- None -- 80 -- 0 -- Solo Pro II MVP -- 172.26.2.150;110;Lane 2;3/5/2012;17:15:00;100;15 Minutes;;;;;;1784;446;81.652;0;441;3;1;1;2.016;16.395;A;80.402;9.289;22.188;
040548FF7504B521;IDS-10A -- ?????-????? (????????) -- 1 -- None -- 80 -- 0 -- Solo Pro II MVP -- 172.26.2.150;113;Total;3/5/2012;17:15:00;100;15 Minutes;;;;;;1496;748;77.703;0;718;15;11;3;2.496;15.051;A;75.863;8.648;19.719;
040548FF7504B521;IDS-10A -- ?????-????? (????????) -- 1 -- None -- 80 -- 0 -- Solo Pro II MVP -- 172.26.2.150;109;Lane 1;3/5/2012;17:30:00;100;15 Minutes;;;;;;1036;259;76.844;0;240;6;6;7;3.473;10.746;A;75.602;6.785;13.703;
040548FF7504B521;IDS-10A -- ?????-????? (????????) -- 1 -- None -- 80 -- 0 -- Solo Pro II MVP -- 172.26.2.150;110;Lane 2;3/5/2012;17:30:00;100;15 Minutes;;;;;;1616;404;85.129;0;402;1;0;1;2.227;13.445;A;84.152;8.168;19.203;
040548FF7504B521;IDS-10A -- ?????-????? (????????) -- 1 -- None -- 80 -- 0 -- Solo Pro II MVP -- 172.26.2.150;113;Total;3/5/2012;17:30:00;100;15 Minutes;;;;;;1326;663;81.891;0;642;7;6;8;2.848;12.094;A;80.551;7.430;16.461;
040548FF7504B521;IDS-10A -- ?????-????? (????????) -- 1 -- None -- 80 -- 0 -- Solo Pro II MVP -- 172.26.2.150;109;Lane 1;3/5/2012;17:45:00;100;15 Minutes;;;;;;1152;288;75.504;0;276;5;3;4;3.125;10.715;A;74.246;7.070;15.516;
040548FF7504B521;IDS-10A -- ?????-????? (????????) -- 1 -- None -- 80 -- 0 -- Solo Pro II MVP -- 172.26.2.150;110;Lane 2;3/5/2012;17:45:00;100;15 Minutes;;;;;;1680;420;84.016;0;417;2;0;1;2.141;13.609;A;82.898;8.719;20.266;
040548FF7504B521;IDS-10A -- ?????-????? (????????) -- 1 -- None -- 80 -- 0 -- Solo Pro II MVP -- 172.26.2.150;113;Total;3/5/2012;17:45:00;100;15 Minutes;;;;;;1416;708;80.555;0;693;7;3;5;2.633;12.160;A;79.109;7.859;17.898;
040548FF7504B521;IDS-10A -- ?????-????? (????????) -- 1 -- None -- 80 -- 0 -- Solo Pro II MVP -- 172.26.2.150;109;Lane 1;3/5/2012;18:00:00;100;15 Minutes;;;;;;960;240;78.266;0;223;6;9;2;3.750;9.098;A;76.480;5.992;12.551;
040548FF7504B521;IDS-10A -- ?????-????? (????????) -- 1 -- None -- 80 -- 0 -- Solo Pro II MVP -- 172.26.2.150;110;Lane 2;3/5/2012;18:00:00;100;15 Minutes;;;;;;1528;382;87.855;0;375;2;1;3;2.355;12.066;A;87.156;7.645;17.531;
040548FF7504B521;IDS-10A -- ?????-????? (????????) -- 1 -- None -- 80 -- 0 -- Solo Pro II MVP -- 172.26.2.150;113;Total;3/5/2012;18:00:00;100;15 Minutes;;;;;;1244;622;84.156;0;598;8;10;5;3.051;10.582;A;82.672;6.777;15.047;
040548FF7504B521;IDS-10A -- ?????-????? (????????) -- 1 -- None -- 80 -- 0 -- Solo Pro II MVP -- 172.26.2.150;109;Lane 1;3/5/2012;18:15:00;100;15 Minutes;;;;;;1140;285;75.891;0;270;6;3;5;3.156;10.473;A;74.598;6.988;15.281;
040548FF7504B521;IDS-10A -- ?????-????? (????????) -- 1 -- None -- 80 -- 0 -- Solo Pro II MVP -- 172.26.2.150;110;Lane 2;3/5/2012;18:15:00;100;15 Minutes;;;;;;1596;399;85.027;0;396;1;2;0;2.254;12.629;A;83.859;8.137;19.031;
040548FF7504B521;IDS-10A -- ?????-????? (????????) -- 1 -- None -- 80 -- 0 -- Solo Pro II MVP -- 172.26.2.150;113;Total;3/5/2012;18:15:00;100;15 Minutes;;;;;;1368;684;81.219;0;666;7;5;5;2.703;11.551;A;79.734;7.523;17.156;
