CPU Identifier;Autoscope Description;Detector ID;Detector Title;Date;Time;Status;Data Interval;Ticks (millisec.);State;Speed;Length;Class;Average Flow Rate;Volume;Arithmetic Mean Speed;Class A Count;Class B Count;Class C Count;Class D Count;Class E Count;Average Time Headway;Average Time Occupancy;Level Of Service;Space Mean Speed;Space Occupancy;Density;
040549FFA819B521;IDS-02B -- ??????-????? -- 1 -- None -- 81 -- 0 -- Solo Pro II MVP -- 172.26.2.162;109;Lane 1;3/5/2012;0:00:00;100;15 Minutes;;;;;;272;68;94.277;0;63;5;0;0;13.234;2.621;A;91.746;1.266;2.961;
040549FFA819B521;IDS-02B -- ??????-????? -- 1 -- None -- 81 -- 0 -- Solo Pro II MVP -- 172.26.2.162;110;Lane 2;3/5/2012;0:00:00;100;15 Minutes;;;;;;136;34;118.234;0;34;0;0;0;26.469;1.207;A;116.410;0.523;1.168;
040549FFA819B521;IDS-02B -- ??????-????? -- 1 -- None -- 81 -- 0 -- Solo Pro II MVP -- 172.26.2.162;113;Total;3/5/2012;0:00:00;100;15 Minutes;;;;;;204;102;102.262;0;97;5;0;0;19.852;1.914;A;98.719;0.887;2.066;
040549FFA819B521;IDS-02B -- ??????-????? -- 1 -- None -- 81 -- 0 -- Solo Pro II MVP -- 172.26.2.162;109;Lane 1;3/5/2012;0:15:00;100;15 Minutes;;;;;;236;59;97.082;0;55;2;0;2;15.254;2.492;A;94.176;1.121;2.504;
040549FFA819B521;IDS-02B -- ??????-????? -- 1 -- None -- 81 -- 0 -- Solo Pro II MVP -- 172.26.2.162;110;Lane 2;3/5/2012;0:15:00;100;15 Minutes;;;;;;96;24;129.375;0;24;0;0;0;37.500;0.848;A;126.395;0.336;0.758;
040549FFA819B521;IDS-02B -- ??????-????? -- 1 -- None -- 81 -- 0 -- Solo Pro II MVP -- 172.26.2.162;113;Total;3/5/2012;0:15:00;100;15 Minutes;;;;;;166;83;106.418;0;79;2;0;2;26.375;1.668;A;101.668;0.719;1.629;
040549FFA819B521;IDS-02B -- ??????-????? -- 1 -- None -- 81 -- 0 -- Solo Pro II MVP -- 172.26.2.162;109;Lane 1;3/5/2012;0:30:00;100;15 Minutes;;;;;;184;46;97.672;0;43;1;2;0;19.563;2.055;A;94.367;0.859;1.949;
040549FFA819B521;IDS-02B -- ??????-????? -- 1 -- None -- 81 -- 0 -- Solo Pro II MVP -- 172.26.2.162;110;Lane 2;3/5/2012;0:30:00;100;15 Minutes;;;;;;60;15;115.730;0;15;0;0;0;60.000;0.555;A;113.434;0.219;0.527;
040549FFA819B521;IDS-02B -- ??????-????? -- 1 -- None -- 81 -- 0 -- Solo Pro II MVP -- 172.26.2.162;113;Total;3/5/2012;0:30:00;100;15 Minutes;;;;;;122;61;102.113;0;58;1;2;0;39.781;1.305;A;98.438;0.535;1.238;
040549FFA819B521;IDS-02B -- ??????-????? -- 1 -- None -- 81 -- 0 -- Solo Pro II MVP -- 172.26.2.162;109;Lane 1;3/5/2012;0:45:00;100;15 Minutes;;;;;;196;49;96.488;0;47;1;1;0;18.367;1.793;A;93.066;0.883;2.105;
040549FFA819B521;IDS-02B -- ??????-????? -- 1 -- None -- 81 -- 0 -- Solo Pro II MVP -- 172.26.2.162;110;Lane 2;3/5/2012;0:45:00;100;15 Minutes;;;;;;52;13;114.691;0;13;0;0;0;69.230;0.492;A;113.641;0.199;0.457;
040549FFA819B521;IDS-02B -- ??????-????? -- 1 -- None -- 81 -- 0 -- Solo Pro II MVP -- 172.26.2.162;113;Total;3/5/2012;0:45:00;100;15 Minutes;;;;;;124;62;100.305;0;60;1;1;0;43.797;1.141;A;96.738;0.535;1.281;
040549FFA819B521;IDS-02B -- ??????-????? -- 1 -- None -- 81 -- 0 -- Solo Pro II MVP -- 172.26.2.162;109;Lane 1;3/5/2012;1:00:00;100;15 Minutes;;;;;;192;48;96.457;0;44;2;1;1;18.750;2.043;A;91.707;0.965;2.090;
040549FFA819B521;IDS-02B -- ??????-????? -- 1 -- None -- 81 -- 0 -- Solo Pro II MVP -- 172.26.2.162;110;Lane 2;3/5/2012;1:00:00;100;15 Minutes;;;;;;72;18;116.000;0;18;0;0;0;50.000;0.617;A;113.004;0.262;0.637;
040549FFA819B521;IDS-02B -- ??????-????? -- 1 -- None -- 81 -- 0 -- Solo Pro II MVP -- 172.26.2.162;113;Total;3/5/2012;1:00:00;100;15 Minutes;;;;;;132;66;101.785;0;62;2;1;1;34.375;1.328;A;96.676;0.605;1.363;
040549FFA819B521;IDS-02B -- ??????-????? -- 1 -- None -- 81 -- 0 -- Solo Pro II MVP -- 172.26.2.162;109;Lane 1;3/5/2012;1:15:00;100;15 Minutes;;;;;;160;40;93.375;0;38;1;0;1;22.500;1.715;A;90.254;0.777;1.770;
040549FFA819B521;IDS-02B -- ??????-????? -- 1 -- None -- 81 -- 0 -- Solo Pro II MVP -- 172.26.2.162;110;Lane 2;3/5/2012;1:15:00;100;15 Minutes;;;;;;44;11;111.363;0;10;1;0;0;81.816;0.410;A;107.578;0.180;0.406;
040549FFA819B521;IDS-02B -- ??????-????? -- 1 -- None -- 81 -- 0 -- Solo Pro II MVP -- 172.26.2.162;113;Total;3/5/2012;1:15:00;100;15 Minutes;;;;;;102;51;97.254;0;48;2;0;1;52.156;1.063;A;93.500;0.477;1.090;
040549FFA819B521;IDS-02B -- ??????-????? -- 1 -- None -- 81 -- 0 -- Solo Pro II MVP -- 172.26.2.162;109;Lane 1;3/5/2012;1:30:00;100;15 Minutes;;;;;;132;33;87.301;0;31;2;0;0;27.270;1.617;A;85.117;0.688;1.551;
040549FFA819B521;IDS-02B -- ??????-????? -- 1 -- None -- 81 -- 0 -- Solo Pro II MVP -- 172.26.2.162;110;Lane 2;3/5/2012;1:30:00;100;15 Minutes;;;;;;40;10;119.098;0;10;0;0;0;90.000;0.395;A;117.656;0.145;0.340;
040549FFA819B521;IDS-02B -- ??????-????? -- 1 -- None -- 81 -- 0 -- Solo Pro II MVP -- 172.26.2.162;113;Total;3/5/2012;1:30:00;100;15 Minutes;;;;;;86;43;94.695;0;41;2;0;0;58.633;1.004;A;90.969;0.410;0.945;
040549FFA819B521;IDS-02B -- ??????-????? -- 1 -- None -- 81 -- 0 -- Solo Pro II MVP -- 172.26.2.162;109;Lane 1;3/5/2012;1:45:00;100;15 Minutes;;;;;;176;44;95.227;0;41;1;1;1;20.453;2.113;A;92.367;0.844;1.902;
040549FFA819B521;IDS-02B -- ??????-????? -- 1 -- None -- 81 -- 0 -- Solo Pro II MVP -- 172.26.2.162;110;Lane 2;3/5/2012;1:45:00;100;15 Minutes;;;;;;20;5;135.598;0;5;0;0;0;180.000;0.145;A;134.957;0.055;0.145;
040549FFA819B521;IDS-02B -- ??????-????? -- 1 -- None -- 81 -- 0 -- Solo Pro II MVP -- 172.26.2.162;113;Total;3/5/2012;1:45:00;100;15 Minutes;;;;;;98;49;99.344;0;46;1;1;1;100.227;1.129;A;95.441;0.441;1.023;
040549FFA819B521;IDS-02B -- ??????-????? -- 1 -- None -- 81 -- 0 -- Solo Pro II MVP -- 172.26.2.162;109;Lane 1;3/5/2012;2:00:00;100;15 Minutes;;;;;;140;35;101.055;0;31;3;0;1;25.711;1.383;A;98.219;0.672;1.422;
040549FFA819B521;IDS-02B -- ??????-????? -- 1 -- None -- 81 -- 0 -- Solo Pro II MVP -- 172.26.2.162;110;Lane 2;3/5/2012;2:00:00;100;15 Minutes;;;;;;56;14;118.355;0;14;0;0;0;64.285;0.445;A;115.699;0.184;0.480;
040549FFA819B521;IDS-02B -- ??????-????? -- 1 -- None -- 81 -- 0 -- Solo Pro II MVP -- 172.26.2.162;113;Total;3/5/2012;2:00:00;100;15 Minutes;;;;;;98;49;106.000;0;45;3;0;1;44.996;0.914;A;102.648;0.422;0.953;
040549FFA819B521;IDS-02B -- ??????-????? -- 1 -- None -- 81 -- 0 -- Solo Pro II MVP -- 172.26.2.162;109;Lane 1;3/5/2012;2:15:00;100;15 Minutes;;;;;;116;29;91.516;0;29;0;0;0;31.031;1.234;A;87.980;0.543;1.316;
040549FFA819B521;IDS-02B -- ??????-????? -- 1 -- None -- 81 -- 0 -- Solo Pro II MVP -- 172.26.2.162;110;Lane 2;3/5/2012;2:15:00;100;15 Minutes;;;;;;52;13;114.230;0;12;1;0;0;69.230;0.438;A;112.902;0.188;0.457;
040549FFA819B521;IDS-02B -- ??????-????? -- 1 -- None -- 81 -- 0 -- Solo Pro II MVP -- 172.26.2.162;113;Total;3/5/2012;2:15:00;100;15 Minutes;;;;;;84;42;98.547;0;41;1;0;0;50.129;0.836;A;94.434;0.359;0.887;
040549FFA819B521;IDS-02B -- ??????-????? -- 1 -- None -- 81 -- 0 -- Solo Pro II MVP -- 172.26.2.162;109;Lane 1;3/5/2012;2:30:00;100;15 Minutes;;;;;;160;40;93.848;0;36;2;2;0;22.500;1.738;A;91.168;0.809;1.754;
040549FFA819B521;IDS-02B -- ??????-????? -- 1 -- None -- 81 -- 0 -- Solo Pro II MVP -- 172.26.2.162;110;Lane 2;3/5/2012;2:30:00;100;15 Minutes;;;;;;60;15;122.598;0;15;0;0;0;60.000;0.527;A;119.473;0.230;0.500;
040549FFA819B521;IDS-02B -- ??????-????? -- 1 -- None -- 81 -- 0 -- Solo Pro II MVP -- 172.26.2.162;113;Total;3/5/2012;2:30:00;100;15 Minutes;;;;;;110;55;101.688;0;51;2;2;0;41.250;1.133;A;97.465;0.512;1.125;
040549FFA819B521;IDS-02B -- ??????-????? -- 1 -- None -- 81 -- 0 -- Solo Pro II MVP -- 172.26.2.162;109;Lane 1;3/5/2012;2:45:00;100;15 Minutes;;;;;;116;29;99.137;0;25;4;0;0;31.031;1.188;A;93.156;0.535;1.242;
040549FFA819B521;IDS-02B -- ??????-????? -- 1 -- None -- 81 -- 0 -- Solo Pro II MVP -- 172.26.2.162;110;Lane 2;3/5/2012;2:45:00;100;15 Minutes;;;;;;68;17;115.645;0;15;2;0;0;52.938;0.609;A;112.273;0.270;0.605;
040549FFA819B521;IDS-02B -- ??????-????? -- 1 -- None -- 81 -- 0 -- Solo Pro II MVP -- 172.26.2.162;113;Total;3/5/2012;2:45:00;100;15 Minutes;;;;;;92;46;105.238;0;40;6;0;0;41.984;0.898;A;99.414;0.402;0.922;
040549FFA819B521;IDS-02B -- ??????-????? -- 1 -- None -- 81 -- 0 -- Solo Pro II MVP -- 172.26.2.162;109;Lane 1;3/5/2012;3:00:00;100;15 Minutes;;;;;;136;34;93.879;0;31;2;0;1;26.469;1.477;A;91.605;0.688;1.484;
040549FFA819B521;IDS-02B -- ??????-????? -- 1 -- None -- 81 -- 0 -- Solo Pro II MVP -- 172.26.2.162;110;Lane 2;3/5/2012;3:00:00;100;15 Minutes;;;;;;32;8;120.750;0;7;0;1;0;112.500;0.262;A;117.184;0.137;0.270;
040549FFA819B521;IDS-02B -- ??????-????? -- 1 -- None -- 81 -- 0 -- Solo Pro II MVP -- 172.26.2.162;113;Total;3/5/2012;3:00:00;100;15 Minutes;;;;;;84;42;99.000;0;38;2;1;1;69.484;0.867;A;95.578;0.406;0.875;
040549FFA819B521;IDS-02B -- ??????-????? -- 1 -- None -- 81 -- 0 -- Solo Pro II MVP -- 172.26.2.162;109;Lane 1;3/5/2012;3:15:00;100;15 Minutes;;;;;;160;40;94.500;0;37;2;1;0;22.500;1.602;A;91.629;0.746;1.746;
040549FFA819B521;IDS-02B -- ??????-????? -- 1 -- None -- 81 -- 0 -- Solo Pro II MVP -- 172.26.2.162;110;Lane 2;3/5/2012;3:15:00;100;15 Minutes;;;;;;44;11;120.363;0;11;0;0;0;81.816;0.313;A;117.734;0.172;0.371;
040549FFA819B521;IDS-02B -- ??????-????? -- 1 -- None -- 81 -- 0 -- Solo Pro II MVP -- 172.26.2.162;113;Total;3/5/2012;3:15:00;100;15 Minutes;;;;;;102;51;100.078;0;48;2;1;0;52.156;0.957;A;96.230;0.457;1.059;
040549FFA819B521;IDS-02B -- ??????-????? -- 1 -- None -- 81 -- 0 -- Solo Pro II MVP -- 172.26.2.162;109;Lane 1;3/5/2012;3:30:00;100;15 Minutes;;;;;;116;29;93.379;0;26;2;1;0;31.031;1.199;A;90.941;0.598;1.273;
040549FFA819B521;IDS-02B -- ??????-????? -- 1 -- None -- 81 -- 0 -- Solo Pro II MVP -- 172.26.2.162;110;Lane 2;3/5/2012;3:30:00;100;15 Minutes;;;;;;96;24;119.457;0;23;0;1;0;37.500;0.770;A;116.801;0.375;0.820;
040549FFA819B521;IDS-02B -- ??????-????? -- 1 -- None -- 81 -- 0 -- Solo Pro II MVP -- 172.26.2.162;113;Total;3/5/2012;3:30:00;100;15 Minutes;;;;;;106;53;105.188;0;49;2;2;0;34.266;0.984;A;101.074;0.480;1.047;
040549FFA819B521;IDS-02B -- ??????-????? -- 1 -- None -- 81 -- 0 -- Solo Pro II MVP -- 172.26.2.162;109;Lane 1;3/5/2012;3:45:00;100;15 Minutes;;;;;;180;45;93.977;0;43;0;1;1;20.000;1.820;A;89.250;0.828;2.016;
040549FFA819B521;IDS-02B -- ??????-????? -- 1 -- None -- 81 -- 0 -- Solo Pro II MVP -- 172.26.2.162;110;Lane 2;3/5/2012;3:45:00;100;15 Minutes;;;;;;48;12;117.000;0;11;1;0;0;75.000;0.441;A;115.566;0.176;0.414;
040549FFA819B521;IDS-02B -- ??????-????? -- 1 -- None -- 81 -- 0 -- Solo Pro II MVP -- 172.26.2.162;113;Total;3/5/2012;3:45:00;100;15 Minutes;;;;;;114;57;98.824;0;54;1;1;1;47.500;1.129;A;93.742;0.496;1.215;
040549FFA819B521;IDS-02B -- ??????-????? -- 1 -- None -- 81 -- 0 -- Solo Pro II MVP -- 172.26.2.162;109;Lane 1;3/5/2012;4:00:00;100;15 Minutes;;;;;;188;47;93.488;0;44;3;0;0;19.148;2.059;A;90.887;0.918;2.066;
040549FFA819B521;IDS-02B -- ??????-????? -- 1 -- None -- 81 -- 0 -- Solo Pro II MVP -- 172.26.2.162;110;Lane 2;3/5/2012;4:00:00;100;15 Minutes;;;;;;40;10;117.098;0;10;0;0;0;90.000;0.344;A;115.969;0.152;0.344;
040549FFA819B521;IDS-02B -- ??????-????? -- 1 -- None -- 81 -- 0 -- Solo Pro II MVP -- 172.26.2.162;113;Total;3/5/2012;4:00:00;100;15 Minutes;;;;;;114;57;97.629;0;54;3;0;0;54.574;1.199;A;94.473;0.531;1.203;
040549FFA819B521;IDS-02B -- ??????-????? -- 1 -- None -- 81 -- 0 -- Solo Pro II MVP -- 172.26.2.162;109;Lane 1;3/5/2012;4:15:00;100;15 Minutes;;;;;;224;56;93.910;0;52;1;2;1;16.070;2.301;A;90.957;1.117;2.461;
040549FFA819B521;IDS-02B -- ??????-????? -- 1 -- None -- 81 -- 0 -- Solo Pro II MVP -- 172.26.2.162;110;Lane 2;3/5/2012;4:15:00;100;15 Minutes;;;;;;104;26;117.191;0;24;1;0;0;34.613;0.828;A;114.379;0.398;0.906;
040549FFA819B521;IDS-02B -- ??????-????? -- 1 -- None -- 81 -- 0 -- Solo Pro II MVP -- 172.26.2.162;113;Total;3/5/2012;4:15:00;100;15 Minutes;;;;;;164;82;101.289;0;76;2;2;1;25.340;1.563;A;97.273;0.746;1.684;
040549FFA819B521;IDS-02B -- ??????-????? -- 1 -- None -- 81 -- 0 -- Solo Pro II MVP -- 172.26.2.162;109;Lane 1;3/5/2012;4:30:00;100;15 Minutes;;;;;;208;52;92.133;0;43;6;3;0;17.305;2.238;A;88.699;1.090;2.344;
040549FFA819B521;IDS-02B -- ??????-????? -- 1 -- None -- 81 -- 0 -- Solo Pro II MVP -- 172.26.2.162;110;Lane 2;3/5/2012;4:30:00;100;15 Minutes;;;;;;120;30;115.363;0;30;0;0;0;30.000;0.957;A;113.289;0.434;1.059;
040549FFA819B521;IDS-02B -- ??????-????? -- 1 -- None -- 81 -- 0 -- Solo Pro II MVP -- 172.26.2.162;113;Total;3/5/2012;4:30:00;100;15 Minutes;;;;;;164;82;100.633;0;73;6;3;0;23.652;1.598;A;96.352;0.750;1.699;
040549FFA819B521;IDS-02B -- ??????-????? -- 1 -- None -- 81 -- 0 -- Solo Pro II MVP -- 172.26.2.162;109;Lane 1;3/5/2012;4:45:00;100;15 Minutes;;;;;;256;64;90.063;0;60;2;2;0;14.063;2.637;A;86.707;1.238;2.949;
040549FFA819B521;IDS-02B -- ??????-????? -- 1 -- None -- 81 -- 0 -- Solo Pro II MVP -- 172.26.2.162;110;Lane 2;3/5/2012;4:45:00;100;15 Minutes;;;;;;156;39;111.691;0;37;1;1;0;23.074;1.270;A;110.117;0.648;1.414;
040549FFA819B521;IDS-02B -- ??????-????? -- 1 -- None -- 81 -- 0 -- Solo Pro II MVP -- 172.26.2.162;113;Total;3/5/2012;4:45:00;100;15 Minutes;;;;;;206;103;98.250;0;97;3;3;0;18.566;1.953;A;94.297;0.938;2.184;
040549FFA819B521;IDS-02B -- ??????-????? -- 1 -- None -- 81 -- 0 -- Solo Pro II MVP -- 172.26.2.162;109;Lane 1;3/5/2012;5:00:00;100;15 Minutes;;;;;;292;73;92.137;0;69;0;3;1;12.328;2.949;A;89.016;1.438;3.277;
040549FFA819B521;IDS-02B -- ??????-????? -- 1 -- None -- 81 -- 0 -- Solo Pro II MVP -- 172.26.2.162;110;Lane 2;3/5/2012;5:00:00;100;15 Minutes;;;;;;164;41;120.730;0;40;1;0;0;21.949;1.328;A;118.824;0.613;1.379;
040549FFA819B521;IDS-02B -- ??????-????? -- 1 -- None -- 81 -- 0 -- Solo Pro II MVP -- 172.26.2.162;113;Total;3/5/2012;5:00:00;100;15 Minutes;;;;;;228;114;102.418;0;109;1;3;1;17.137;2.137;A;97.844;1.008;2.328;
040549FFA819B521;IDS-02B -- ??????-????? -- 1 -- None -- 81 -- 0 -- Solo Pro II MVP -- 172.26.2.162;109;Lane 1;3/5/2012;5:15:00;100;15 Minutes;;;;;;352;88;86.965;0;79;5;2;2;10.227;3.930;A;83.875;1.930;4.195;
040549FFA819B521;IDS-02B -- ??????-????? -- 1 -- None -- 81 -- 0 -- Solo Pro II MVP -- 172.26.2.162;110;Lane 2;3/5/2012;5:15:00;100;15 Minutes;;;;;;272;68;114.570;0;65;2;0;1;13.234;2.398;A;111.977;1.152;2.426;
040549FFA819B521;IDS-02B -- ??????-????? -- 1 -- None -- 81 -- 0 -- Solo Pro II MVP -- 172.26.2.162;113;Total;3/5/2012;5:15:00;100;15 Minutes;;;;;;312;156;99.000;0;144;7;2;3;11.730;3.164;A;94.180;1.516;3.313;
040549FFA819B521;IDS-02B -- ??????-????? -- 1 -- None -- 81 -- 0 -- Solo Pro II MVP -- 172.26.2.162;109;Lane 1;3/5/2012;5:30:00;100;15 Minutes;;;;;;404;101;89.168;0;92;5;3;1;8.910;4.250;A;86.289;2.016;4.680;
040549FFA819B521;IDS-02B -- ??????-????? -- 1 -- None -- 81 -- 0 -- Solo Pro II MVP -- 172.26.2.162;110;Lane 2;3/5/2012;5:30:00;100;15 Minutes;;;;;;380;95;110.703;0;92;2;1;0;9.473;3.133;A;108.988;1.473;3.484;
040549FFA819B521;IDS-02B -- ??????-????? -- 1 -- None -- 81 -- 0 -- Solo Pro II MVP -- 172.26.2.162;113;Total;3/5/2012;5:30:00;100;15 Minutes;;;;;;392;196;99.605;0;184;7;4;1;9.191;3.691;A;95.980;1.719;4.082;
040549FFA819B521;IDS-02B -- ??????-????? -- 1 -- None -- 81 -- 0 -- Solo Pro II MVP -- 172.26.2.162;109;Lane 1;3/5/2012;5:45:00;100;15 Minutes;;;;;;492;123;91.867;0;116;2;4;1;7.316;4.152;A;89.234;2.324;5.512;
040549FFA819B521;IDS-02B -- ??????-????? -- 1 -- None -- 81 -- 0 -- Solo Pro II MVP -- 172.26.2.162;110;Lane 2;3/5/2012;5:45:00;100;15 Minutes;;;;;;464;116;116.379;0;114;2;0;0;7.758;3.102;A;114.891;1.617;4.035;
040549FFA819B521;IDS-02B -- ??????-????? -- 1 -- None -- 81 -- 0 -- Solo Pro II MVP -- 172.26.2.162;113;Total;3/5/2012;5:45:00;100;15 Minutes;;;;;;478;239;103.766;0;230;4;4;1;7.535;3.625;A;100.082;1.934;4.773;
040549FFA819B521;IDS-02B -- ??????-????? -- 1 -- None -- 81 -- 0 -- Solo Pro II MVP -- 172.26.2.162;109;Lane 1;3/5/2012;6:00:00;100;15 Minutes;;;;;;652;163;90.426;0;142;5;6;10;5.520;6.348;A;88.633;3.988;7.355;
040549FFA819B521;IDS-02B -- ??????-????? -- 1 -- None -- 81 -- 0 -- Solo Pro II MVP -- 172.26.2.162;110;Lane 2;3/5/2012;6:00:00;100;15 Minutes;;;;;;728;182;110.082;0;174;3;1;2;4.941;5.008;A;108.555;2.949;6.703;
040549FFA819B521;IDS-02B -- ??????-????? -- 1 -- None -- 81 -- 0 -- Solo Pro II MVP -- 172.26.2.162;113;Total;3/5/2012;6:00:00;100;15 Minutes;;;;;;690;345;100.797;0;316;8;7;12;5.230;5.676;A;98.242;3.398;7.023;
040549FFA819B521;IDS-02B -- ??????-????? -- 1 -- None -- 81 -- 0 -- Solo Pro II MVP -- 172.26.2.162;109;Lane 1;3/5/2012;6:15:00;100;15 Minutes;;;;;;660;165;95.301;0;148;7;5;4;5.453;5.703;A;93.035;3.457;7.094;
040549FFA819B521;IDS-02B -- ??????-????? -- 1 -- None -- 81 -- 0 -- Solo Pro II MVP -- 172.26.2.162;110;Lane 2;3/5/2012;6:15:00;100;15 Minutes;;;;;;724;181;117.555;0;174;5;0;2;4.969;4.813;A;116.184;2.781;6.230;
040549FFA819B521;IDS-02B -- ??????-????? -- 1 -- None -- 81 -- 0 -- Solo Pro II MVP -- 172.26.2.162;113;Total;3/5/2012;6:15:00;100;15 Minutes;;;;;;692;346;106.941;0;322;12;5;6;5.211;5.258;A;103.961;3.070;6.656;
040549FFA819B521;IDS-02B -- ??????-????? -- 1 -- None -- 81 -- 0 -- Solo Pro II MVP -- 172.26.2.162;109;Lane 1;3/5/2012;6:30:00;100;15 Minutes;;;;;;920;230;93.145;0;214;4;1;11;3.910;7.836;A;91.738;4.852;10.027;
040549FFA819B521;IDS-02B -- ??????-????? -- 1 -- None -- 81 -- 0 -- Solo Pro II MVP -- 172.26.2.162;110;Lane 2;3/5/2012;6:30:00;100;15 Minutes;;;;;;1028;257;111.566;0;250;5;1;1;3.500;7.219;A;111.133;4.137;9.250;
040549FFA819B521;IDS-02B -- ??????-????? -- 1 -- None -- 81 -- 0 -- Solo Pro II MVP -- 172.26.2.162;113;Total;3/5/2012;6:30:00;100;15 Minutes;;;;;;974;487;102.867;0;464;9;2;12;3.703;7.527;A;101.109;4.441;9.633;
040549FFA819B521;IDS-02B -- ??????-????? -- 1 -- None -- 81 -- 0 -- Solo Pro II MVP -- 172.26.2.162;109;Lane 1;3/5/2012;6:45:00;100;15 Minutes;;;;;;1204;301;91.746;0;275;6;8;11;2.988;11.234;A;90.121;6.688;13.359;
040549FFA819B521;IDS-02B -- ??????-????? -- 1 -- None -- 81 -- 0 -- Solo Pro II MVP -- 172.26.2.162;110;Lane 2;3/5/2012;6:45:00;100;15 Minutes;;;;;;1572;393;107.883;0;379;9;0;5;2.289;11.844;A;107.027;6.703;14.688;
040549FFA819B521;IDS-02B -- ??????-????? -- 1 -- None -- 81 -- 0 -- Solo Pro II MVP -- 172.26.2.162;113;Total;3/5/2012;6:45:00;100;15 Minutes;;;;;;1388;694;100.883;0;654;15;8;16;2.637;11.539;A;98.922;6.625;14.031;
040549FFA819B521;IDS-02B -- ??????-????? -- 1 -- None -- 81 -- 0 -- Solo Pro II MVP -- 172.26.2.162;109;Lane 1;3/5/2012;7:00:00;100;15 Minutes;;;;;;1480;370;92.965;0;348;11;5;5;2.430;13.535;A;91.516;7.313;16.172;
040549FFA819B521;IDS-02B -- ??????-????? -- 1 -- None -- 81 -- 0 -- Solo Pro II MVP -- 172.26.2.162;110;Lane 2;3/5/2012;7:00:00;100;15 Minutes;;;;;;1876;469;105.480;0;452;15;0;2;1.918;14.414;A;104.676;7.828;17.922;
040549FFA819B521;IDS-02B -- ??????-????? -- 1 -- None -- 81 -- 0 -- Solo Pro II MVP -- 172.26.2.162;113;Total;3/5/2012;7:00:00;100;15 Minutes;;;;;;1678;839;99.961;0;800;26;5;7;2.172;13.973;A;98.434;7.531;17.047;
040549FFA819B521;IDS-02B -- ??????-????? -- 1 -- None -- 81 -- 0 -- Solo Pro II MVP -- 172.26.2.162;109;Lane 1;3/5/2012;7:15:00;100;15 Minutes;;;;;;1628;407;89.672;0;382;15;6;4;2.211;15.668;A;88.297;8.172;18.438;
040549FFA819B521;IDS-02B -- ??????-????? -- 1 -- None -- 81 -- 0 -- Solo Pro II MVP -- 172.26.2.162;110;Lane 2;3/5/2012;7:15:00;100;15 Minutes;;;;;;2084;521;99.934;0;509;10;0;2;1.727;16.066;A;99.164;8.816;21.016;
040549FFA819B521;IDS-02B -- ??????-????? -- 1 -- None -- 81 -- 0 -- Solo Pro II MVP -- 172.26.2.162;113;Total;3/5/2012;7:15:00;100;15 Minutes;;;;;;1856;928;95.434;0;891;25;6;6;1.969;15.867;A;94.086;8.457;19.727;
040549FFA819B521;IDS-02B -- ??????-????? -- 1 -- None -- 81 -- 0 -- Solo Pro II MVP -- 172.26.2.162;109;Lane 1;3/5/2012;7:30:00;100;15 Minutes;;;;;;1668;417;86.934;0;394;15;5;2;2.156;15.656;A;85.398;8.707;19.531;
040549FFA819B521;IDS-02B -- ??????-????? -- 1 -- None -- 81 -- 0 -- Solo Pro II MVP -- 172.26.2.162;110;Lane 2;3/5/2012;7:30:00;100;15 Minutes;;;;;;2088;522;99.027;0;492;28;1;1;1.723;16.840;A;97.824;9.332;21.344;
040549FFA819B521;IDS-02B -- ??????-????? -- 1 -- None -- 81 -- 0 -- Solo Pro II MVP -- 172.26.2.162;113;Total;3/5/2012;7:30:00;100;15 Minutes;;;;;;1878;939;93.656;0;886;43;6;3;1.938;16.246;A;91.887;8.973;20.438;
040549FFA819B521;IDS-02B -- ??????-????? -- 1 -- None -- 81 -- 0 -- Solo Pro II MVP -- 172.26.2.162;109;Lane 1;3/5/2012;7:45:00;100;15 Minutes;;;;;;1616;404;86.234;0;391;4;3;2;2.227;12.914;A;84.773;8.055;19.063;
040549FFA819B521;IDS-02B -- ??????-????? -- 1 -- None -- 81 -- 0 -- Solo Pro II MVP -- 172.26.2.162;110;Lane 2;3/5/2012;7:45:00;100;15 Minutes;;;;;;2072;518;97.625;0;495;17;1;0;1.734;15.242;A;95.535;8.832;21.688;
040549FFA819B521;IDS-02B -- ??????-????? -- 1 -- None -- 81 -- 0 -- Solo Pro II MVP -- 172.26.2.162;113;Total;3/5/2012;7:45:00;100;15 Minutes;;;;;;1844;922;92.633;0;886;21;4;2;1.980;14.078;A;90.465;8.402;20.383;
040549FFA819B521;IDS-02B -- ??????-????? -- 1 -- None -- 81 -- 0 -- Solo Pro II MVP -- 172.26.2.162;109;Lane 1;3/5/2012;8:00:00;100;15 Minutes;;;;;;1464;366;91.840;0;355;3;3;2;2.457;11.746;A;90.438;6.797;16.188;
040549FFA819B521;IDS-02B -- ??????-????? -- 1 -- None -- 81 -- 0 -- Solo Pro II MVP -- 172.26.2.162;110;Lane 2;3/5/2012;8:00:00;100;15 Minutes;;;;;;1828;457;101.770;0;449;3;2;2;1.969;13.102;A;100.941;7.629;18.109;
040549FFA819B521;IDS-02B -- ??????-????? -- 1 -- None -- 81 -- 0 -- Solo Pro II MVP -- 172.26.2.162;113;Total;3/5/2012;8:00:00;100;15 Minutes;;;;;;1646;823;97.355;0;804;6;5;4;2.211;12.422;A;95.941;7.195;17.156;
040549FFA819B521;IDS-02B -- ??????-????? -- 1 -- None -- 81 -- 0 -- Solo Pro II MVP -- 172.26.2.162;109;Lane 1;3/5/2012;8:15:00;100;15 Minutes;;;;;;1448;362;87.113;0;356;2;0;2;2.484;11.852;A;85.488;6.957;16.938;
040549FFA819B521;IDS-02B -- ??????-????? -- 1 -- None -- 81 -- 0 -- Solo Pro II MVP -- 172.26.2.162;110;Lane 2;3/5/2012;8:15:00;100;15 Minutes;;;;;;1852;463;100.801;0;459;2;2;0;1.941;13.805;A;99.770;7.738;18.563;
040549FFA819B521;IDS-02B -- ??????-????? -- 1 -- None -- 81 -- 0 -- Solo Pro II MVP -- 172.26.2.162;113;Total;3/5/2012;8:15:00;100;15 Minutes;;;;;;1650;825;94.793;0;815;4;2;2;2.211;12.828;A;92.957;7.313;17.750;
040549FFA819B521;IDS-02B -- ??????-????? -- 1 -- None -- 81 -- 0 -- Solo Pro II MVP -- 172.26.2.162;109;Lane 1;3/5/2012;8:30:00;100;15 Minutes;;;;;;1444;361;88.320;0;347;4;5;2;2.492;12.113;A;86.855;7.172;16.625;
040549FFA819B521;IDS-02B -- ??????-????? -- 1 -- None -- 81 -- 0 -- Solo Pro II MVP -- 172.26.2.162;110;Lane 2;3/5/2012;8:30:00;100;15 Minutes;;;;;;1824;456;100.355;0;450;5;1;0;1.973;13.461;A;99.348;7.672;18.359;
040549FFA819B521;IDS-02B -- ??????-????? -- 1 -- None -- 81 -- 0 -- Solo Pro II MVP -- 172.26.2.162;113;Total;3/5/2012;8:30:00;100;15 Minutes;;;;;;1634;817;95.039;0;797;9;6;2;2.230;12.785;A;93.371;7.383;17.500;
040549FFA819B521;IDS-02B -- ??????-????? -- 1 -- None -- 81 -- 0 -- Solo Pro II MVP -- 172.26.2.162;109;Lane 1;3/5/2012;8:45:00;100;15 Minutes;;;;;;1364;341;85.703;0;329;5;3;4;2.637;11.453;A;84.180;7.039;16.203;
040549FFA819B521;IDS-02B -- ??????-????? -- 1 -- None -- 81 -- 0 -- Solo Pro II MVP -- 172.26.2.162;110;Lane 2;3/5/2012;8:45:00;100;15 Minutes;;;;;;1680;420;97.082;0;415;4;1;0;2.141;12.703;A;95.402;7.387;17.609;
040549FFA819B521;IDS-02B -- ??????-????? -- 1 -- None -- 81 -- 0 -- Solo Pro II MVP -- 172.26.2.162;113;Total;3/5/2012;8:45:00;100;15 Minutes;;;;;;1522;761;91.984;0;744;9;4;4;2.387;12.078;A;89.980;7.176;16.914;
040549FFA819B521;IDS-02B -- ??????-????? -- 1 -- None -- 81 -- 0 -- Solo Pro II MVP -- 172.26.2.162;109;Lane 1;3/5/2012;9:00:00;100;15 Minutes;;;;;;1292;323;89.293;0;311;10;1;1;2.785;10.395;A;87.871;6.426;14.703;
040549FFA819B521;IDS-02B -- ??????-????? -- 1 -- None -- 81 -- 0 -- Solo Pro II MVP -- 172.26.2.162;110;Lane 2;3/5/2012;9:00:00;100;15 Minutes;;;;;;1672;418;104.313;0;414;3;0;1;2.152;11.914;A;103.387;6.922;16.172;
040549FFA819B521;IDS-02B -- ??????-????? -- 1 -- None -- 81 -- 0 -- Solo Pro II MVP -- 172.26.2.162;113;Total;3/5/2012;9:00:00;100;15 Minutes;;;;;;1482;741;97.766;0;725;13;1;2;2.469;11.152;A;95.949;6.625;15.445;
040549FFA819B521;IDS-02B -- ??????-????? -- 1 -- None -- 81 -- 0 -- Solo Pro II MVP -- 172.26.2.162;109;Lane 1;3/5/2012;9:15:00;100;15 Minutes;;;;;;1376;344;87.520;0;322;9;8;4;2.613;11.773;A;86.250;7.457;15.953;
040549FFA819B521;IDS-02B -- ??????-????? -- 1 -- None -- 81 -- 0 -- Solo Pro II MVP -- 172.26.2.162;110;Lane 2;3/5/2012;9:15:00;100;15 Minutes;;;;;;1680;420;102.012;0;415;3;2;0;2.141;12.078;A;101.051;7.148;16.625;
040549FFA819B521;IDS-02B -- ??????-????? -- 1 -- None -- 81 -- 0 -- Solo Pro II MVP -- 172.26.2.162;113;Total;3/5/2012;9:15:00;100;15 Minutes;;;;;;1528;764;95.484;0;737;12;10;4;2.375;11.926;A;93.758;7.238;16.297;
040549FFA819B521;IDS-02B -- ??????-????? -- 1 -- None -- 81 -- 0 -- Solo Pro II MVP -- 172.26.2.162;109;Lane 1;3/5/2012;9:30:00;100;15 Minutes;;;;;;1352;338;83.926;0;322;7;5;4;2.660;12.250;A;82.563;7.387;16.375;
040549FFA819B521;IDS-02B -- ??????-????? -- 1 -- None -- 81 -- 0 -- Solo Pro II MVP -- 172.26.2.162;110;Lane 2;3/5/2012;9:30:00;100;15 Minutes;;;;;;1804;451;96.980;0;444;6;0;1;1.992;13.586;A;95.973;8.082;18.797;
040549FFA819B521;IDS-02B -- ??????-????? -- 1 -- None -- 81 -- 0 -- Solo Pro II MVP -- 172.26.2.162;113;Total;3/5/2012;9:30:00;100;15 Minutes;;;;;;1578;789;91.387;0;766;13;5;5;2.324;12.918;A;89.730;7.680;17.586;
040549FFA819B521;IDS-02B -- ??????-????? -- 1 -- None -- 81 -- 0 -- Solo Pro II MVP -- 172.26.2.162;109;Lane 1;3/5/2012;9:45:00;100;15 Minutes;;;;;;1268;317;85.637;0;304;7;6;0;2.836;11.141;A;84.270;6.645;15.047;
040549FFA819B521;IDS-02B -- ??????-????? -- 1 -- None -- 81 -- 0 -- Solo Pro II MVP -- 172.26.2.162;110;Lane 2;3/5/2012;9:45:00;100;15 Minutes;;;;;;1564;391;99.250;0;386;4;0;1;2.301;11.293;A;98.227;6.809;15.922;
040549FFA819B521;IDS-02B -- ??????-????? -- 1 -- None -- 81 -- 0 -- Solo Pro II MVP -- 172.26.2.162;113;Total;3/5/2012;9:45:00;100;15 Minutes;;;;;;1416;708;93.156;0;690;11;6;1;2.566;11.215;A;91.445;6.680;15.484;
040549FFA819B521;IDS-02B -- ??????-????? -- 1 -- None -- 81 -- 0 -- Solo Pro II MVP -- 172.26.2.162;109;Lane 1;3/5/2012;10:00:00;100;15 Minutes;;;;;;1224;306;86.426;0;292;7;5;2;2.938;10.793;A;84.867;6.461;14.422;
040549FFA819B521;IDS-02B -- ??????-????? -- 1 -- None -- 81 -- 0 -- Solo Pro II MVP -- 172.26.2.162;110;Lane 2;3/5/2012;10:00:00;100;15 Minutes;;;;;;1512;378;99.848;0;372;3;2;1;2.379;11.160;A;97.941;6.723;15.438;
040549FFA819B521;IDS-02B -- ??????-????? -- 1 -- None -- 81 -- 0 -- Solo Pro II MVP -- 172.26.2.162;113;Total;3/5/2012;10:00:00;100;15 Minutes;;;;;;1368;684;93.844;0;664;10;7;3;2.656;10.977;A;91.629;6.551;14.930;
040549FFA819B521;IDS-02B -- ??????-????? -- 1 -- None -- 81 -- 0 -- Solo Pro II MVP -- 172.26.2.162;109;Lane 1;3/5/2012;10:15:00;100;15 Minutes;;;;;;1296;324;85.566;0;304;6;7;6;2.777;11.953;A;84.207;7.406;15.391;
040549FFA819B521;IDS-02B -- ??????-????? -- 1 -- None -- 81 -- 0 -- Solo Pro II MVP -- 172.26.2.162;110;Lane 2;3/5/2012;10:15:00;100;15 Minutes;;;;;;1556;389;98.398;0;384;2;3;0;2.313;11.617;A;96.871;6.980;16.063;
040549FFA819B521;IDS-02B -- ??????-????? -- 1 -- None -- 81 -- 0 -- Solo Pro II MVP -- 172.26.2.162;113;Total;3/5/2012;10:15:00;100;15 Minutes;;;;;;1426;713;92.566;0;688;8;10;6;2.543;11.785;A;90.629;7.133;15.734;
