CPU Identifier;Autoscope Description;Detector ID;Detector Title;Date;Time;Status;Data Interval;Ticks (millisec.);State;Speed;Length;Class;Average Flow Rate;Volume;Arithmetic Mean Speed;Class A Count;Class B Count;Class C Count;Class D Count;Class E Count;Average Time Headway;Average Time Occupancy;Level Of Service;Space Mean Speed;Space Occupancy;Density;
040549FF0402B521;IDS-03B -- ??????-?????? -- 1 -- None -- 80 -- 0 -- Solo Pro II MVP -- 172.26.2.163;109;Lane 1;3/5/2012;0:00:00;100;15 Minutes;;;;;;4;1;68.000;0;1;0;0;0;255.996;0.012;A;68.051;0.012;0.059;
040549FF0402B521;IDS-03B -- ??????-?????? -- 1 -- None -- 80 -- 0 -- Solo Pro II MVP -- 172.26.2.163;110;Lane 2;3/5/2012;0:00:00;100;15 Minutes;;;;;;204;51;70.078;0;28;15;2;6;17.645;3.488;A;65.957;2.172;3.090;
040549FF0402B521;IDS-03B -- ??????-?????? -- 1 -- None -- 80 -- 0 -- Solo Pro II MVP -- 172.26.2.163;113;Total;3/5/2012;0:00:00;100;15 Minutes;;;;;;104;52;70.035;0;29;15;2;6;255.996;1.750;A;65.996;1.090;1.574;
040549FF0402B521;IDS-03B -- ??????-?????? -- 1 -- None -- 80 -- 0 -- Solo Pro II MVP -- 172.26.2.163;109;Lane 1;3/5/2012;0:15:00;100;15 Minutes;;;;;;8;2;62.500;0;1;0;0;0;255.996;0.164;A;61.855;0.027;0.129;
040549FF0402B521;IDS-03B -- ??????-?????? -- 1 -- None -- 80 -- 0 -- Solo Pro II MVP -- 172.26.2.163;110;Lane 2;3/5/2012;0:15:00;100;15 Minutes;;;;;;232;58;60.945;0;29;20;4;5;15.516;4.703;A;58.773;2.551;3.945;
040549FF0402B521;IDS-03B -- ??????-?????? -- 1 -- None -- 80 -- 0 -- Solo Pro II MVP -- 172.26.2.163;113;Total;3/5/2012;0:15:00;100;15 Minutes;;;;;;120;60;61.000;0;30;20;4;5;232.758;2.434;A;58.871;1.289;2.035;
040549FF0402B521;IDS-03B -- ??????-?????? -- 1 -- None -- 80 -- 0 -- Solo Pro II MVP -- 172.26.2.163;109;Lane 1;3/5/2012;0:30:00;100;15 Minutes;;;;;;12;3;66.332;0;2;0;1;0;255.996;0.109;A;65.930;0.094;0.180;
040549FF0402B521;IDS-03B -- ??????-?????? -- 1 -- None -- 80 -- 0 -- Solo Pro II MVP -- 172.26.2.163;110;Lane 2;3/5/2012;0:30:00;100;15 Minutes;;;;;;212;53;61.828;0;32;14;4;3;16.980;3.855;A;59.527;2.074;3.559;
040549FF0402B521;IDS-03B -- ??????-?????? -- 1 -- None -- 80 -- 0 -- Solo Pro II MVP -- 172.26.2.163;113;Total;3/5/2012;0:30:00;100;15 Minutes;;;;;;112;56;62.070;0;34;14;5;3;158.488;1.980;A;59.840;1.082;1.871;
040549FF0402B521;IDS-03B -- ??????-?????? -- 1 -- None -- 80 -- 0 -- Solo Pro II MVP -- 172.26.2.163;109;Lane 1;3/5/2012;0:45:00;100;15 Minutes;;;;;;16;4;61.500;0;2;2;0;0;225.000;0.156;A;59.820;0.117;0.266;
040549FF0402B521;IDS-03B -- ??????-?????? -- 1 -- None -- 80 -- 0 -- Solo Pro II MVP -- 172.26.2.163;110;Lane 2;3/5/2012;0:45:00;100;15 Minutes;;;;;;200;50;63.078;0;25;14;5;6;18.000;3.754;A;60.008;2.398;3.332;
040549FF0402B521;IDS-03B -- ??????-?????? -- 1 -- None -- 80 -- 0 -- Solo Pro II MVP -- 172.26.2.163;113;Total;3/5/2012;0:45:00;100;15 Minutes;;;;;;108;54;62.961;0;27;16;5;6;121.500;1.953;A;59.996;1.258;1.797;
040549FF0402B521;IDS-03B -- ??????-?????? -- 1 -- None -- 80 -- 0 -- Solo Pro II MVP -- 172.26.2.163;109;Lane 1;3/5/2012;1:00:00;100;15 Minutes;;;;;;20;5;58.598;0;2;1;1;0;180.000;0.336;A;56.777;0.133;0.352;
040549FF0402B521;IDS-03B -- ??????-?????? -- 1 -- None -- 80 -- 0 -- Solo Pro II MVP -- 172.26.2.163;110;Lane 2;3/5/2012;1:00:00;100;15 Minutes;;;;;;200;50;58.617;0;35;10;1;3;18.000;3.660;A;57.031;1.938;3.504;
040549FF0402B521;IDS-03B -- ??????-?????? -- 1 -- None -- 80 -- 0 -- Solo Pro II MVP -- 172.26.2.163;113;Total;3/5/2012;1:00:00;100;15 Minutes;;;;;;110;55;58.617;0;37;11;2;3;99.000;1.996;A;57.008;1.035;1.926;
040549FF0402B521;IDS-03B -- ??????-?????? -- 1 -- None -- 80 -- 0 -- Solo Pro II MVP -- 172.26.2.163;109;Lane 1;3/5/2012;1:15:00;100;15 Minutes;;;;;;20;5;53.000;0;2;2;0;0;180.000;0.359;A;52.152;0.160;0.383;
040549FF0402B521;IDS-03B -- ??????-?????? -- 1 -- None -- 80 -- 0 -- Solo Pro II MVP -- 172.26.2.163;110;Lane 2;3/5/2012;1:15:00;100;15 Minutes;;;;;;224;56;63.750;0;31;17;3;4;16.070;4.590;A;60.848;2.195;3.680;
040549FF0402B521;IDS-03B -- ??????-?????? -- 1 -- None -- 80 -- 0 -- Solo Pro II MVP -- 172.26.2.163;113;Total;3/5/2012;1:15:00;100;15 Minutes;;;;;;122;61;62.867;0;33;19;3;4;98.035;2.473;A;60.027;1.184;2.031;
040549FF0402B521;IDS-03B -- ??????-?????? -- 1 -- None -- 80 -- 0 -- Solo Pro II MVP -- 172.26.2.163;109;Lane 1;3/5/2012;1:30:00;100;15 Minutes;;;;;;4;1;37.000;0;1;0;0;0;255.996;0.059;A;37.004;0.055;0.105;
040549FF0402B521;IDS-03B -- ??????-?????? -- 1 -- None -- 80 -- 0 -- Solo Pro II MVP -- 172.26.2.163;110;Lane 2;3/5/2012;1:30:00;100;15 Minutes;;;;;;164;41;59.680;0;19;12;3;6;21.949;3.477;A;56.219;2.156;2.914;
040549FF0402B521;IDS-03B -- ??????-?????? -- 1 -- None -- 80 -- 0 -- Solo Pro II MVP -- 172.26.2.163;113;Total;3/5/2012;1:30:00;100;15 Minutes;;;;;;84;42;59.141;0;20;12;3;6;255.996;1.766;A;55.531;1.105;1.512;
040549FF0402B521;IDS-03B -- ??????-?????? -- 1 -- None -- 80 -- 0 -- Solo Pro II MVP -- 172.26.2.163;109;Lane 1;3/5/2012;1:45:00;100;15 Minutes;;;;;;12;3;63.332;0;1;1;1;0;255.996;0.141;A;58.828;0.113;0.203;
040549FF0402B521;IDS-03B -- ??????-?????? -- 1 -- None -- 80 -- 0 -- Solo Pro II MVP -- 172.26.2.163;110;Lane 2;3/5/2012;1:45:00;100;15 Minutes;;;;;;216;54;65.555;0;32;17;3;2;16.664;3.867;A;62.953;1.891;3.430;
040549FF0402B521;IDS-03B -- ??????-?????? -- 1 -- None -- 80 -- 0 -- Solo Pro II MVP -- 172.26.2.163;113;Total;3/5/2012;1:45:00;100;15 Minutes;;;;;;114;57;65.438;0;33;18;4;2;158.332;2.004;A;62.719;1.004;1.816;
040549FF0402B521;IDS-03B -- ??????-?????? -- 1 -- None -- 80 -- 0 -- Solo Pro II MVP -- 172.26.2.163;109;Lane 1;3/5/2012;2:00:00;100;15 Minutes;;;;;;20;5;65.199;0;3;0;2;0;180.000;0.203;A;61.559;0.180;0.324;
040549FF0402B521;IDS-03B -- ??????-?????? -- 1 -- None -- 80 -- 0 -- Solo Pro II MVP -- 172.26.2.163;110;Lane 2;3/5/2012;2:00:00;100;15 Minutes;;;;;;212;53;63.715;0;30;16;3;3;16.980;4.039;A;61.191;2.078;3.461;
040549FF0402B521;IDS-03B -- ??????-?????? -- 1 -- None -- 80 -- 0 -- Solo Pro II MVP -- 172.26.2.163;113;Total;3/5/2012;2:00:00;100;15 Minutes;;;;;;116;58;63.844;0;33;16;5;3;98.488;2.121;A;61.223;1.129;1.895;
040549FF0402B521;IDS-03B -- ??????-?????? -- 1 -- None -- 80 -- 0 -- Solo Pro II MVP -- 172.26.2.163;109;Lane 1;3/5/2012;2:15:00;100;15 Minutes;;;;;;4;1;70.000;0;1;0;0;0;255.996;0.027;A;70.016;0.027;0.055;
040549FF0402B521;IDS-03B -- ??????-?????? -- 1 -- None -- 80 -- 0 -- Solo Pro II MVP -- 172.26.2.163;110;Lane 2;3/5/2012;2:15:00;100;15 Minutes;;;;;;200;50;70.098;0;26;18;1;3;18.000;3.441;A;64.563;1.672;3.098;
040549FF0402B521;IDS-03B -- ??????-?????? -- 1 -- None -- 80 -- 0 -- Solo Pro II MVP -- 172.26.2.163;113;Total;3/5/2012;2:15:00;100;15 Minutes;;;;;;102;51;70.098;0;27;18;1;3;255.996;1.734;A;64.660;0.848;1.574;
040549FF0402B521;IDS-03B -- ??????-?????? -- 1 -- None -- 80 -- 0 -- Solo Pro II MVP -- 172.26.2.163;109;Lane 1;3/5/2012;2:30:00;100;15 Minutes;;;;;;16;4;55.750;0;4;0;0;0;225.000;0.086;A;55.082;0.074;0.289;
040549FF0402B521;IDS-03B -- ??????-?????? -- 1 -- None -- 80 -- 0 -- Solo Pro II MVP -- 172.26.2.163;110;Lane 2;3/5/2012;2:30:00;100;15 Minutes;;;;;;204;51;61.957;0;28;14;2;7;17.645;3.813;A;58.824;2.293;3.465;
040549FF0402B521;IDS-03B -- ??????-?????? -- 1 -- None -- 80 -- 0 -- Solo Pro II MVP -- 172.26.2.163;113;Total;3/5/2012;2:30:00;100;15 Minutes;;;;;;110;55;61.508;0;32;14;2;7;121.320;1.949;A;58.535;1.188;1.879;
040549FF0402B521;IDS-03B -- ??????-?????? -- 1 -- None -- 80 -- 0 -- Solo Pro II MVP -- 172.26.2.163;109;Lane 1;3/5/2012;2:45:00;100;15 Minutes;;;;;;0;0;0.000;0;0;0;0;0;255.996;0.000;A;0.000;100.000;0.000;
040549FF0402B521;IDS-03B -- ??????-?????? -- 1 -- None -- 80 -- 0 -- Solo Pro II MVP -- 172.26.2.163;110;Lane 2;3/5/2012;2:45:00;100;15 Minutes;;;;;;224;56;65.551;0;28;21;4;3;16.070;3.602;A;63.117;2.215;3.547;
040549FF0402B521;IDS-03B -- ??????-?????? -- 1 -- None -- 80 -- 0 -- Solo Pro II MVP -- 172.26.2.163;113;Total;3/5/2012;2:45:00;100;15 Minutes;;;;;;112;56;65.551;0;28;21;4;3;255.996;1.801;A;63.117;1.105;1.773;
040549FF0402B521;IDS-03B -- ??????-?????? -- 1 -- None -- 80 -- 0 -- Solo Pro II MVP -- 172.26.2.163;109;Lane 1;3/5/2012;3:00:00;100;15 Minutes;;;;;;4;1;58.000;0;0;0;1;0;255.996;0.098;A;58.047;0.070;0.066;
040549FF0402B521;IDS-03B -- ??????-?????? -- 1 -- None -- 80 -- 0 -- Solo Pro II MVP -- 172.26.2.163;110;Lane 2;3/5/2012;3:00:00;100;15 Minutes;;;;;;156;39;63.973;0;22;16;0;1;23.074;2.664;A;61.176;1.285;2.547;
040549FF0402B521;IDS-03B -- ??????-?????? -- 1 -- None -- 80 -- 0 -- Solo Pro II MVP -- 172.26.2.163;113;Total;3/5/2012;3:00:00;100;15 Minutes;;;;;;80;40;63.824;0;22;16;1;1;255.996;1.379;A;61.094;0.676;1.309;
040549FF0402B521;IDS-03B -- ??????-?????? -- 1 -- None -- 80 -- 0 -- Solo Pro II MVP -- 172.26.2.163;109;Lane 1;3/5/2012;3:15:00;100;15 Minutes;;;;;;8;2;63.000;0;1;1;0;0;255.996;0.086;A;61.738;0.074;0.129;
040549FF0402B521;IDS-03B -- ??????-?????? -- 1 -- None -- 80 -- 0 -- Solo Pro II MVP -- 172.26.2.163;110;Lane 2;3/5/2012;3:15:00;100;15 Minutes;;;;;;168;42;65.188;0;28;9;2;3;21.426;2.891;A;62.578;1.563;2.684;
040549FF0402B521;IDS-03B -- ??????-?????? -- 1 -- None -- 80 -- 0 -- Solo Pro II MVP -- 172.26.2.163;113;Total;3/5/2012;3:15:00;100;15 Minutes;;;;;;88;44;65.090;0;29;10;2;3;235.711;1.488;A;62.539;0.820;1.406;
040549FF0402B521;IDS-03B -- ??????-?????? -- 1 -- None -- 80 -- 0 -- Solo Pro II MVP -- 172.26.2.163;109;Lane 1;3/5/2012;3:30:00;100;15 Minutes;;;;;;16;4;65.250;0;0;2;1;0;225.000;0.203;A;63.938;0.141;0.250;
040549FF0402B521;IDS-03B -- ??????-?????? -- 1 -- None -- 80 -- 0 -- Solo Pro II MVP -- 172.26.2.163;110;Lane 2;3/5/2012;3:30:00;100;15 Minutes;;;;;;200;50;62.598;0;30;13;3;4;18.000;3.793;A;59.836;2.125;3.340;
040549FF0402B521;IDS-03B -- ??????-?????? -- 1 -- None -- 80 -- 0 -- Solo Pro II MVP -- 172.26.2.163;113;Total;3/5/2012;3:30:00;100;15 Minutes;;;;;;108;54;62.793;0;30;15;4;4;121.500;1.996;A;60.121;1.133;1.793;
040549FF0402B521;IDS-03B -- ??????-?????? -- 1 -- None -- 80 -- 0 -- Solo Pro II MVP -- 172.26.2.163;109;Lane 1;3/5/2012;3:45:00;100;15 Minutes;;;;;;12;3;61.332;0;3;0;0;0;255.996;0.098;A;61.094;0.090;0.195;
040549FF0402B521;IDS-03B -- ??????-?????? -- 1 -- None -- 80 -- 0 -- Solo Pro II MVP -- 172.26.2.163;110;Lane 2;3/5/2012;3:45:00;100;15 Minutes;;;;;;220;55;61.523;0;32;12;4;5;16.363;4.270;A;58.918;2.414;3.730;
040549FF0402B521;IDS-03B -- ??????-?????? -- 1 -- None -- 80 -- 0 -- Solo Pro II MVP -- 172.26.2.163;113;Total;3/5/2012;3:45:00;100;15 Minutes;;;;;;116;58;61.516;0;35;12;4;5;158.180;2.184;A;59.027;1.254;1.965;
040549FF0402B521;IDS-03B -- ??????-?????? -- 1 -- None -- 80 -- 0 -- Solo Pro II MVP -- 172.26.2.163;109;Lane 1;3/5/2012;4:00:00;100;15 Minutes;;;;;;16;4;62.250;0;4;0;0;0;225.000;0.098;A;60.918;0.094;0.262;
040549FF0402B521;IDS-03B -- ??????-?????? -- 1 -- None -- 80 -- 0 -- Solo Pro II MVP -- 172.26.2.163;110;Lane 2;3/5/2012;4:00:00;100;15 Minutes;;;;;;232;58;59.965;0;34;14;5;4;15.516;4.664;A;58.047;2.559;3.996;
040549FF0402B521;IDS-03B -- ??????-?????? -- 1 -- None -- 80 -- 0 -- Solo Pro II MVP -- 172.26.2.163;113;Total;3/5/2012;4:00:00;100;15 Minutes;;;;;;124;62;60.109;0;38;14;5;4;120.258;2.379;A;58.227;1.324;2.129;
040549FF0402B521;IDS-03B -- ??????-?????? -- 1 -- None -- 80 -- 0 -- Solo Pro II MVP -- 172.26.2.163;109;Lane 1;3/5/2012;4:15:00;100;15 Minutes;;;;;;12;3;67.332;0;1;1;1;0;255.996;0.148;A;66.871;0.121;0.176;
040549FF0402B521;IDS-03B -- ??????-?????? -- 1 -- None -- 80 -- 0 -- Solo Pro II MVP -- 172.26.2.163;110;Lane 2;3/5/2012;4:15:00;100;15 Minutes;;;;;;248;62;61.387;0;31;22;3;5;14.516;4.805;A;59.828;2.633;4.145;
040549FF0402B521;IDS-03B -- ??????-?????? -- 1 -- None -- 80 -- 0 -- Solo Pro II MVP -- 172.26.2.163;113;Total;3/5/2012;4:15:00;100;15 Minutes;;;;;;130;65;61.660;0;32;23;4;5;157.258;2.477;A;60.121;1.379;2.160;
040549FF0402B521;IDS-03B -- ??????-?????? -- 1 -- None -- 80 -- 0 -- Solo Pro II MVP -- 172.26.2.163;109;Lane 1;3/5/2012;4:30:00;100;15 Minutes;;;;;;12;3;66.664;0;2;0;1;0;255.996;0.129;A;66.441;0.109;0.180;
040549FF0402B521;IDS-03B -- ??????-?????? -- 1 -- None -- 80 -- 0 -- Solo Pro II MVP -- 172.26.2.163;110;Lane 2;3/5/2012;4:30:00;100;15 Minutes;;;;;;288;72;59.402;0;47;19;3;3;12.500;5.363;A;57.484;2.738;5.008;
040549FF0402B521;IDS-03B -- ??????-?????? -- 1 -- None -- 80 -- 0 -- Solo Pro II MVP -- 172.26.2.163;113;Total;3/5/2012;4:30:00;100;15 Minutes;;;;;;150;75;59.691;0;49;19;4;3;156.250;2.746;A;57.797;1.422;2.594;
040549FF0402B521;IDS-03B -- ??????-?????? -- 1 -- None -- 80 -- 0 -- Solo Pro II MVP -- 172.26.2.163;109;Lane 1;3/5/2012;4:45:00;100;15 Minutes;;;;;;8;2;64.000;0;0;1;0;0;255.996;0.078;A;64.000;0.039;0.125;
040549FF0402B521;IDS-03B -- ??????-?????? -- 1 -- None -- 80 -- 0 -- Solo Pro II MVP -- 172.26.2.163;110;Lane 2;3/5/2012;4:45:00;100;15 Minutes;;;;;;284;71;62.082;0;44;21;4;2;12.676;4.984;A;59.953;2.590;4.734;
040549FF0402B521;IDS-03B -- ??????-?????? -- 1 -- None -- 80 -- 0 -- Solo Pro II MVP -- 172.26.2.163;113;Total;3/5/2012;4:45:00;100;15 Minutes;;;;;;146;73;62.137;0;44;22;4;2;231.336;2.531;A;60.059;1.316;2.430;
040549FF0402B521;IDS-03B -- ??????-?????? -- 1 -- None -- 80 -- 0 -- Solo Pro II MVP -- 172.26.2.163;109;Lane 1;3/5/2012;5:00:00;100;15 Minutes;;;;;;16;4;58.000;0;3;1;0;0;225.000;0.148;A;55.188;0.137;0.289;
040549FF0402B521;IDS-03B -- ??????-?????? -- 1 -- None -- 80 -- 0 -- Solo Pro II MVP -- 172.26.2.163;110;Lane 2;3/5/2012;5:00:00;100;15 Minutes;;;;;;328;82;60.191;0;51;26;2;1;10.973;5.715;A;58.688;2.840;5.586;
040549FF0402B521;IDS-03B -- ??????-?????? -- 1 -- None -- 80 -- 0 -- Solo Pro II MVP -- 172.26.2.163;113;Total;3/5/2012;5:00:00;100;15 Minutes;;;;;;172;86;60.090;0;54;27;2;1;117.984;2.930;A;58.516;1.488;2.938;
040549FF0402B521;IDS-03B -- ??????-?????? -- 1 -- None -- 80 -- 0 -- Solo Pro II MVP -- 172.26.2.163;109;Lane 1;3/5/2012;5:15:00;100;15 Minutes;;;;;;24;6;57.164;0;4;1;1;0;150.000;0.266;A;56.656;0.230;0.422;
040549FF0402B521;IDS-03B -- ??????-?????? -- 1 -- None -- 80 -- 0 -- Solo Pro II MVP -- 172.26.2.163;110;Lane 2;3/5/2012;5:15:00;100;15 Minutes;;;;;;372;93;59.902;0;50;31;7;5;9.676;7.113;A;57.867;4.012;6.426;
040549FF0402B521;IDS-03B -- ??????-?????? -- 1 -- None -- 80 -- 0 -- Solo Pro II MVP -- 172.26.2.163;113;Total;3/5/2012;5:15:00;100;15 Minutes;;;;;;198;99;59.734;0;54;32;8;5;79.836;3.688;A;57.793;2.121;3.426;
040549FF0402B521;IDS-03B -- ??????-?????? -- 1 -- None -- 80 -- 0 -- Solo Pro II MVP -- 172.26.2.163;109;Lane 1;3/5/2012;5:30:00;100;15 Minutes;;;;;;4;1;64.000;0;1;0;0;0;255.996;0.023;A;64.000;0.023;0.063;
040549FF0402B521;IDS-03B -- ??????-?????? -- 1 -- None -- 80 -- 0 -- Solo Pro II MVP -- 172.26.2.163;110;Lane 2;3/5/2012;5:30:00;100;15 Minutes;;;;;;432;108;60.535;0;73;23;8;4;8.332;7.922;A;58.863;4.168;7.336;
040549FF0402B521;IDS-03B -- ??????-?????? -- 1 -- None -- 80 -- 0 -- Solo Pro II MVP -- 172.26.2.163;113;Total;3/5/2012;5:30:00;100;15 Minutes;;;;;;218;109;60.566;0;74;23;8;4;255.996;3.973;A;58.906;2.098;3.699;
040549FF0402B521;IDS-03B -- ??????-?????? -- 1 -- None -- 80 -- 0 -- Solo Pro II MVP -- 172.26.2.163;109;Lane 1;3/5/2012;5:45:00;100;15 Minutes;;;;;;0;0;0.000;0;0;0;0;0;255.996;0.000;A;0.000;100.000;0.000;
040549FF0402B521;IDS-03B -- ??????-?????? -- 1 -- None -- 80 -- 0 -- Solo Pro II MVP -- 172.26.2.163;110;Lane 2;3/5/2012;5:45:00;100;15 Minutes;;;;;;432;108;65.859;0;63;35;4;6;8.332;6.766;A;63.191;4.027;6.836;
040549FF0402B521;IDS-03B -- ??????-?????? -- 1 -- None -- 80 -- 0 -- Solo Pro II MVP -- 172.26.2.163;113;Total;3/5/2012;5:45:00;100;15 Minutes;;;;;;216;108;65.859;0;63;35;4;6;255.996;3.383;A;63.191;2.012;3.418;
040549FF0402B521;IDS-03B -- ??????-?????? -- 1 -- None -- 80 -- 0 -- Solo Pro II MVP -- 172.26.2.163;109;Lane 1;3/5/2012;6:00:00;100;15 Minutes;;;;;;0;0;0.000;0;0;0;0;0;255.996;0.000;A;0.000;100.000;0.000;
040549FF0402B521;IDS-03B -- ??????-?????? -- 1 -- None -- 80 -- 0 -- Solo Pro II MVP -- 172.26.2.163;110;Lane 2;3/5/2012;6:00:00;100;15 Minutes;;;;;;472;118;69.313;0;73;24;11;10;7.625;6.113;A;66.945;4.531;7.047;
040549FF0402B521;IDS-03B -- ??????-?????? -- 1 -- None -- 80 -- 0 -- Solo Pro II MVP -- 172.26.2.163;113;Total;3/5/2012;6:00:00;100;15 Minutes;;;;;;236;118;69.313;0;73;24;11;10;255.996;3.055;A;66.945;2.266;3.523;
040549FF0402B521;IDS-03B -- ??????-?????? -- 1 -- None -- 80 -- 0 -- Solo Pro II MVP -- 172.26.2.163;109;Lane 1;3/5/2012;6:15:00;100;15 Minutes;;;;;;0;0;0.000;0;0;0;0;0;255.996;0.000;A;0.000;100.000;0.000;
040549FF0402B521;IDS-03B -- ??????-?????? -- 1 -- None -- 80 -- 0 -- Solo Pro II MVP -- 172.26.2.163;110;Lane 2;3/5/2012;6:15:00;100;15 Minutes;;;;;;504;126;67.762;0;56;38;21;11;7.141;7.484;A;66.359;5.781;7.594;
040549FF0402B521;IDS-03B -- ??????-?????? -- 1 -- None -- 80 -- 0 -- Solo Pro II MVP -- 172.26.2.163;113;Total;3/5/2012;6:15:00;100;15 Minutes;;;;;;252;126;67.762;0;56;38;21;11;255.996;3.742;A;66.359;2.891;3.797;
040549FF0402B521;IDS-03B -- ??????-?????? -- 1 -- None -- 80 -- 0 -- Solo Pro II MVP -- 172.26.2.163;109;Lane 1;3/5/2012;6:30:00;100;15 Minutes;;;;;;24;6;49.164;0;4;2;0;0;150.000;0.262;A;39.449;0.188;0.605;
040549FF0402B521;IDS-03B -- ??????-?????? -- 1 -- None -- 80 -- 0 -- Solo Pro II MVP -- 172.26.2.163;110;Lane 2;3/5/2012;6:30:00;100;15 Minutes;;;;;;516;129;69.992;0;62;35;20;11;6.977;6.953;A;67.863;5.590;7.602;
040549FF0402B521;IDS-03B -- ??????-?????? -- 1 -- None -- 80 -- 0 -- Solo Pro II MVP -- 172.26.2.163;113;Total;3/5/2012;6:30:00;100;15 Minutes;;;;;;270;135;69.066;0;66;37;20;11;78.488;3.605;A;65.758;2.898;4.105;
040549FF0402B521;IDS-03B -- ??????-?????? -- 1 -- None -- 80 -- 0 -- Solo Pro II MVP -- 172.26.2.163;109;Lane 1;3/5/2012;6:45:00;100;15 Minutes;;;;;;4;1;44.000;0;0;1;0;0;255.996;0.070;A;44.012;0.051;0.090;
040549FF0402B521;IDS-03B -- ??????-?????? -- 1 -- None -- 80 -- 0 -- Solo Pro II MVP -- 172.26.2.163;110;Lane 2;3/5/2012;6:45:00;100;15 Minutes;;;;;;504;126;72.801;0;65;35;18;7;7.141;6.613;A;71.164;4.598;7.082;
040549FF0402B521;IDS-03B -- ??????-?????? -- 1 -- None -- 80 -- 0 -- Solo Pro II MVP -- 172.26.2.163;113;Total;3/5/2012;6:45:00;100;15 Minutes;;;;;;254;127;72.574;0;65;36;18;7;255.996;3.340;A;70.820;2.320;3.586;
040549FF0402B521;IDS-03B -- ??????-?????? -- 1 -- None -- 80 -- 0 -- Solo Pro II MVP -- 172.26.2.163;109;Lane 1;3/5/2012;7:00:00;100;15 Minutes;;;;;;0;0;0.000;0;0;0;0;0;255.996;0.000;A;0.000;100.000;0.000;
040549FF0402B521;IDS-03B -- ??????-?????? -- 1 -- None -- 80 -- 0 -- Solo Pro II MVP -- 172.26.2.163;110;Lane 2;3/5/2012;7:00:00;100;15 Minutes;;;;;;596;149;75.113;0;92;33;12;12;6.039;7.297;A;72.820;5.391;8.184;
040549FF0402B521;IDS-03B -- ??????-?????? -- 1 -- None -- 80 -- 0 -- Solo Pro II MVP -- 172.26.2.163;113;Total;3/5/2012;7:00:00;100;15 Minutes;;;;;;298;149;75.113;0;92;33;12;12;255.996;3.648;A;72.820;2.695;4.090;
040549FF0402B521;IDS-03B -- ??????-?????? -- 1 -- None -- 80 -- 0 -- Solo Pro II MVP -- 172.26.2.163;109;Lane 1;3/5/2012;7:15:00;100;15 Minutes;;;;;;0;0;0.000;0;0;0;0;0;255.996;0.000;A;0.000;100.000;0.000;
040549FF0402B521;IDS-03B -- ??????-?????? -- 1 -- None -- 80 -- 0 -- Solo Pro II MVP -- 172.26.2.163;110;Lane 2;3/5/2012;7:15:00;100;15 Minutes;;;;;;576;144;74.797;0;80;39;13;12;6.250;7.742;A;71.691;5.328;8.031;
040549FF0402B521;IDS-03B -- ??????-?????? -- 1 -- None -- 80 -- 0 -- Solo Pro II MVP -- 172.26.2.163;113;Total;3/5/2012;7:15:00;100;15 Minutes;;;;;;288;144;74.797;0;80;39;13;12;255.996;3.871;A;71.691;2.664;4.016;
040549FF0402B521;IDS-03B -- ??????-?????? -- 1 -- None -- 80 -- 0 -- Solo Pro II MVP -- 172.26.2.163;109;Lane 1;3/5/2012;7:30:00;100;15 Minutes;;;;;;8;2;106.500;0;2;0;0;0;255.996;0.066;A;105.957;0.027;0.074;
040549FF0402B521;IDS-03B -- ??????-?????? -- 1 -- None -- 80 -- 0 -- Solo Pro II MVP -- 172.26.2.163;110;Lane 2;3/5/2012;7:30:00;100;15 Minutes;;;;;;612;153;78.992;0;98;38;8;9;5.879;7.695;A;75.609;4.734;8.094;
040549FF0402B521;IDS-03B -- ??????-?????? -- 1 -- None -- 80 -- 0 -- Solo Pro II MVP -- 172.26.2.163;113;Total;3/5/2012;7:30:00;100;15 Minutes;;;;;;310;155;79.348;0;100;38;8;9;227.938;3.879;A;75.891;2.375;4.082;
040549FF0402B521;IDS-03B -- ??????-?????? -- 1 -- None -- 80 -- 0 -- Solo Pro II MVP -- 172.26.2.163;109;Lane 1;3/5/2012;7:45:00;100;15 Minutes;;;;;;8;2;87.000;0;1;1;0;0;255.996;0.082;A;86.457;0.047;0.090;
040549FF0402B521;IDS-03B -- ??????-?????? -- 1 -- None -- 80 -- 0 -- Solo Pro II MVP -- 172.26.2.163;110;Lane 2;3/5/2012;7:45:00;100;15 Minutes;;;;;;684;171;75.324;0;111;43;6;9;5.262;9.141;A;72.785;5.055;9.395;
040549FF0402B521;IDS-03B -- ??????-?????? -- 1 -- None -- 80 -- 0 -- Solo Pro II MVP -- 172.26.2.163;113;Total;3/5/2012;7:45:00;100;15 Minutes;;;;;;346;173;75.461;0;112;44;6;9;227.629;4.609;A;72.918;2.551;4.742;
040549FF0402B521;IDS-03B -- ??????-?????? -- 1 -- None -- 80 -- 0 -- Solo Pro II MVP -- 172.26.2.163;109;Lane 1;3/5/2012;8:00:00;100;15 Minutes;;;;;;0;0;0.000;0;0;0;0;0;255.996;0.000;A;0.000;100.000;0.000;
040549FF0402B521;IDS-03B -- ??????-?????? -- 1 -- None -- 80 -- 0 -- Solo Pro II MVP -- 172.26.2.163;110;Lane 2;3/5/2012;8:00:00;100;15 Minutes;;;;;;544;136;79.625;0;81;31;13;11;6.617;7.945;A;76.813;4.617;7.082;
040549FF0402B521;IDS-03B -- ??????-?????? -- 1 -- None -- 80 -- 0 -- Solo Pro II MVP -- 172.26.2.163;113;Total;3/5/2012;8:00:00;100;15 Minutes;;;;;;272;136;79.625;0;81;31;13;11;255.996;3.973;A;76.813;2.309;3.539;
040549FF0402B521;IDS-03B -- ??????-?????? -- 1 -- None -- 80 -- 0 -- Solo Pro II MVP -- 172.26.2.163;109;Lane 1;3/5/2012;8:15:00;100;15 Minutes;;;;;;0;0;0.000;0;0;0;0;0;255.996;0.000;A;0.000;100.000;0.000;
040549FF0402B521;IDS-03B -- ??????-?????? -- 1 -- None -- 80 -- 0 -- Solo Pro II MVP -- 172.26.2.163;110;Lane 2;3/5/2012;8:15:00;100;15 Minutes;;;;;;720;180;73.871;0;113;34;16;15;5.000;10.906;A;70.512;6.344;10.211;
040549FF0402B521;IDS-03B -- ??????-?????? -- 1 -- None -- 80 -- 0 -- Solo Pro II MVP -- 172.26.2.163;113;Total;3/5/2012;8:15:00;100;15 Minutes;;;;;;360;180;73.871;0;113;34;16;15;255.996;5.453;A;70.512;3.172;5.105;
040549FF0402B521;IDS-03B -- ??????-?????? -- 1 -- None -- 80 -- 0 -- Solo Pro II MVP -- 172.26.2.163;109;Lane 1;3/5/2012;8:30:00;100;15 Minutes;;;;;;0;0;0.000;0;0;0;0;0;255.996;0.000;A;0.000;100.000;0.000;
040549FF0402B521;IDS-03B -- ??????-?????? -- 1 -- None -- 80 -- 0 -- Solo Pro II MVP -- 172.26.2.163;110;Lane 2;3/5/2012;8:30:00;100;15 Minutes;;;;;;632;158;74.637;0;95;35;17;10;5.695;8.652;A;72.160;5.266;8.758;
040549FF0402B521;IDS-03B -- ??????-?????? -- 1 -- None -- 80 -- 0 -- Solo Pro II MVP -- 172.26.2.163;113;Total;3/5/2012;8:30:00;100;15 Minutes;;;;;;316;158;74.637;0;95;35;17;10;255.996;4.324;A;72.160;2.633;4.379;
040549FF0402B521;IDS-03B -- ??????-?????? -- 1 -- None -- 80 -- 0 -- Solo Pro II MVP -- 172.26.2.163;109;Lane 1;3/5/2012;8:45:00;100;15 Minutes;;;;;;4;1;54.000;0;1;0;0;0;255.996;0.055;A;54.027;0.035;0.070;
040549FF0402B521;IDS-03B -- ??????-?????? -- 1 -- None -- 80 -- 0 -- Solo Pro II MVP -- 172.26.2.163;110;Lane 2;3/5/2012;8:45:00;100;15 Minutes;;;;;;668;167;71.254;0;86;55;14;10;5.387;9.594;A;67.367;5.836;9.914;
040549FF0402B521;IDS-03B -- ??????-?????? -- 1 -- None -- 80 -- 0 -- Solo Pro II MVP -- 172.26.2.163;113;Total;3/5/2012;8:45:00;100;15 Minutes;;;;;;336;168;71.152;0;87;55;14;10;255.996;4.824;A;67.270;2.934;4.992;
040549FF0402B521;IDS-03B -- ??????-?????? -- 1 -- None -- 80 -- 0 -- Solo Pro II MVP -- 172.26.2.163;109;Lane 1;3/5/2012;9:00:00;100;15 Minutes;;;;;;4;1;75.000;0;1;0;0;0;255.996;0.023;A;75.066;0.023;0.051;
040549FF0402B521;IDS-03B -- ??????-?????? -- 1 -- None -- 80 -- 0 -- Solo Pro II MVP -- 172.26.2.163;110;Lane 2;3/5/2012;9:00:00;100;15 Minutes;;;;;;688;172;71.500;0;94;48;14;11;5.230;9.781;A;68.352;5.785;10.063;
040549FF0402B521;IDS-03B -- ??????-?????? -- 1 -- None -- 80 -- 0 -- Solo Pro II MVP -- 172.26.2.163;113;Total;3/5/2012;9:00:00;100;15 Minutes;;;;;;346;173;71.520;0;95;48;14;11;255.996;4.902;A;68.387;2.902;5.059;
040549FF0402B521;IDS-03B -- ??????-?????? -- 1 -- None -- 80 -- 0 -- Solo Pro II MVP -- 172.26.2.163;109;Lane 1;3/5/2012;9:15:00;100;15 Minutes;;;;;;0;0;0.000;0;0;0;0;0;255.996;0.000;A;0.000;100.000;0.000;
040549FF0402B521;IDS-03B -- ??????-?????? -- 1 -- None -- 80 -- 0 -- Solo Pro II MVP -- 172.26.2.163;110;Lane 2;3/5/2012;9:15:00;100;15 Minutes;;;;;;764;191;68.223;0;114;52;8;15;4.711;10.363;A;61.988;6.887;12.324;
040549FF0402B521;IDS-03B -- ??????-?????? -- 1 -- None -- 80 -- 0 -- Solo Pro II MVP -- 172.26.2.163;113;Total;3/5/2012;9:15:00;100;15 Minutes;;;;;;382;191;68.223;0;114;52;8;15;255.996;5.180;A;61.988;3.441;6.160;
040549FF0402B521;IDS-03B -- ??????-?????? -- 1 -- None -- 80 -- 0 -- Solo Pro II MVP -- 172.26.2.163;109;Lane 1;3/5/2012;9:30:00;100;15 Minutes;;;;;;8;2;67.500;0;2;0;0;0;255.996;0.074;A;62.441;0.047;0.125;
040549FF0402B521;IDS-03B -- ??????-?????? -- 1 -- None -- 80 -- 0 -- Solo Pro II MVP -- 172.26.2.163;110;Lane 2;3/5/2012;9:30:00;100;15 Minutes;;;;;;736;184;69.031;0;107;57;8;12;4.891;8.883;A;67.152;6.695;10.957;
040549FF0402B521;IDS-03B -- ??????-?????? -- 1 -- None -- 80 -- 0 -- Solo Pro II MVP -- 172.26.2.163;113;Total;3/5/2012;9:30:00;100;15 Minutes;;;;;;372;186;69.016;0;109;57;8;12;227.445;4.477;A;67.098;3.371;5.543;
040549FF0402B521;IDS-03B -- ??????-?????? -- 1 -- None -- 80 -- 0 -- Solo Pro II MVP -- 172.26.2.163;109;Lane 1;3/5/2012;9:45:00;100;15 Minutes;;;;;;0;0;0.000;0;0;0;0;0;255.996;0.000;A;0.000;100.000;0.000;
040549FF0402B521;IDS-03B -- ??????-?????? -- 1 -- None -- 80 -- 0 -- Solo Pro II MVP -- 172.26.2.163;110;Lane 2;3/5/2012;9:45:00;100;15 Minutes;;;;;;796;199;64.742;0;110;63;14;11;4.520;10.109;A;62.695;7.816;12.695;
040549FF0402B521;IDS-03B -- ??????-?????? -- 1 -- None -- 80 -- 0 -- Solo Pro II MVP -- 172.26.2.163;113;Total;3/5/2012;9:45:00;100;15 Minutes;;;;;;398;199;64.742;0;110;63;14;11;255.996;5.055;A;62.695;3.906;6.348;
040549FF0402B521;IDS-03B -- ??????-?????? -- 1 -- None -- 80 -- 0 -- Solo Pro II MVP -- 172.26.2.163;109;Lane 1;3/5/2012;10:00:00;100;15 Minutes;;;;;;4;1;52.000;0;1;0;0;0;255.996;0.043;A;52.012;0.035;0.074;
040549FF0402B521;IDS-03B -- ??????-?????? -- 1 -- None -- 80 -- 0 -- Solo Pro II MVP -- 172.26.2.163;110;Lane 2;3/5/2012;10:00:00;100;15 Minutes;;;;;;848;212;65.598;0;111;63;22;16;4.242;11.426;A;63.801;8.945;13.289;
040549FF0402B521;IDS-03B -- ??????-?????? -- 1 -- None -- 80 -- 0 -- Solo Pro II MVP -- 172.26.2.163;113;Total;3/5/2012;10:00:00;100;15 Minutes;;;;;;426;213;65.535;0;112;63;22;16;255.996;5.734;A;63.734;4.492;6.684;
040549FF0402B521;IDS-03B -- ??????-?????? -- 1 -- None -- 80 -- 0 -- Solo Pro II MVP -- 172.26.2.163;109;Lane 1;3/5/2012;10:15:00;100;15 Minutes;;;;;;0;0;0.000;0;0;0;0;0;255.996;0.000;A;0.000;100.000;0.000;
040549FF0402B521;IDS-03B -- ??????-?????? -- 1 -- None -- 80 -- 0 -- Solo Pro II MVP -- 172.26.2.163;110;Lane 2;3/5/2012;10:15:00;100;15 Minutes;;;;;;828;207;63.375;0;109;58;23;15;4.348;12.844;A;61.445;8.992;13.473;
040549FF0402B521;IDS-03B -- ??????-?????? -- 1 -- None -- 80 -- 0 -- Solo Pro II MVP -- 172.26.2.163;113;Total;3/5/2012;10:15:00;100;15 Minutes;;;;;;414;207;63.375;0;109;58;23;15;255.996;6.422;A;61.445;4.496;6.734;
040549FF0402B521;IDS-03B -- ??????-?????? -- 1 -- None -- 80 -- 0 -- Solo Pro II MVP -- 172.26.2.163;109;Lane 1;3/5/2012;10:30:00;100;15 Minutes;;;;;;4;1;51.000;0;1;0;0;0;255.996;0.047;A;51.000;0.031;0.078;
040549FF0402B521;IDS-03B -- ??????-?????? -- 1 -- None -- 80 -- 0 -- Solo Pro II MVP -- 172.26.2.163;110;Lane 2;3/5/2012;10:30:00;100;15 Minutes;;;;;;768;192;65.164;0;92;68;21;11;4.688;11.262;A;63.848;8.008;12.027;
040549FF0402B521;IDS-03B -- ??????-?????? -- 1 -- None -- 80 -- 0 -- Solo Pro II MVP -- 172.26.2.163;113;Total;3/5/2012;10:30:00;100;15 Minutes;;;;;;386;193;65.090;0;93;68;21;11;255.996;5.652;A;63.766;4.020;6.051;
040549FF0402B521;IDS-03B -- ??????-?????? -- 1 -- None -- 80 -- 0 -- Solo Pro II MVP -- 172.26.2.163;109;Lane 1;3/5/2012;10:45:00;100;15 Minutes;;;;;;4;1;36.000;0;1;0;0;0;255.996;0.109;A;36.008;0.051;0.109;
040549FF0402B521;IDS-03B -- ??????-?????? -- 1 -- None -- 80 -- 0 -- Solo Pro II MVP -- 172.26.2.163;110;Lane 2;3/5/2012;10:45:00;100;15 Minutes;;;;;;872;218;62.277;0;114;64;23;14;4.125;13.004;A;60.715;9.238;14.359;
040549FF0402B521;IDS-03B -- ??????-?????? -- 1 -- None -- 80 -- 0 -- Solo Pro II MVP -- 172.26.2.163;113;Total;3/5/2012;10:45:00;100;15 Minutes;;;;;;438;219;62.156;0;115;64;23;14;255.996;6.555;A;60.523;4.641;7.234;
040549FF0402B521;IDS-03B -- ??????-?????? -- 1 -- None -- 80 -- 0 -- Solo Pro II MVP -- 172.26.2.163;109;Lane 1;3/5/2012;11:00:00;100;15 Minutes;;;;;;4;1;14.000;0;1;0;0;0;255.996;0.156;A;14.000;0.129;0.285;
040549FF0402B521;IDS-03B -- ??????-?????? -- 1 -- None -- 80 -- 0 -- Solo Pro II MVP -- 172.26.2.163;110;Lane 2;3/5/2012;11:00:00;100;15 Minutes;;;;;;788;197;61.148;0;90;66;20;21;4.566;13.590;A;59.551;9.715;13.230;
040549FF0402B521;IDS-03B -- ??????-?????? -- 1 -- None -- 80 -- 0 -- Solo Pro II MVP -- 172.26.2.163;113;Total;3/5/2012;11:00:00;100;15 Minutes;;;;;;396;198;60.914;0;91;66;20;21;255.996;6.871;A;58.590;4.891;6.758;
040549FF0402B521;IDS-03B -- ??????-?????? -- 1 -- None -- 80 -- 0 -- Solo Pro II MVP -- 172.26.2.163;109;Lane 1;3/5/2012;11:15:00;100;15 Minutes;;;;;;0;0;0.000;0;0;0;0;0;255.996;0.000;A;0.000;100.000;0.000;
040549FF0402B521;IDS-03B -- ??????-?????? -- 1 -- None -- 80 -- 0 -- Solo Pro II MVP -- 172.26.2.163;110;Lane 2;3/5/2012;11:15:00;100;15 Minutes;;;;;;868;217;61.250;0;117;55;25;19;4.145;13.152;A;59.852;9.762;14.500;
040549FF0402B521;IDS-03B -- ??????-?????? -- 1 -- None -- 80 -- 0 -- Solo Pro II MVP -- 172.26.2.163;113;Total;3/5/2012;11:15:00;100;15 Minutes;;;;;;434;217;61.250;0;117;55;25;19;255.996;6.574;A;59.852;4.879;7.250;
040549FF0402B521;IDS-03B -- ??????-?????? -- 1 -- None -- 80 -- 0 -- Solo Pro II MVP -- 172.26.2.163;109;Lane 1;3/5/2012;11:30:00;100;15 Minutes;;;;;;4;1;82.000;0;0;1;0;0;255.996;0.039;A;82.020;0.023;0.047;
040549FF0402B521;IDS-03B -- ??????-?????? -- 1 -- None -- 80 -- 0 -- Solo Pro II MVP -- 172.26.2.163;110;Lane 2;3/5/2012;11:30:00;100;15 Minutes;;;;;;816;204;63.547;0;95;71;18;20;4.410;13.078;A;62.012;9.324;13.156;
040549FF0402B521;IDS-03B -- ??????-?????? -- 1 -- None -- 80 -- 0 -- Solo Pro II MVP -- 172.26.2.163;113;Total;3/5/2012;11:30:00;100;15 Minutes;;;;;;410;205;63.637;0;95;72;18;20;255.996;6.559;A;62.086;4.672;6.602;
040549FF0402B521;IDS-03B -- ??????-?????? -- 1 -- None -- 80 -- 0 -- Solo Pro II MVP -- 172.26.2.163;109;Lane 1;3/5/2012;11:45:00;100;15 Minutes;;;;;;12;3;82.000;0;3;0;0;0;255.996;0.105;A;68.766;0.055;0.172;
040549FF0402B521;IDS-03B -- ??????-?????? -- 1 -- None -- 80 -- 0 -- Solo Pro II MVP -- 172.26.2.163;110;Lane 2;3/5/2012;11:45:00;100;15 Minutes;;;;;;888;222;61.500;0;102;75;27;18;4.051;14.688;A;60.516;10.258;14.672;
040549FF0402B521;IDS-03B -- ??????-?????? -- 1 -- None -- 80 -- 0 -- Solo Pro II MVP -- 172.26.2.163;113;Total;3/5/2012;11:45:00;100;15 Minutes;;;;;;450;225;61.770;0;105;75;27;18;152.023;7.395;A;60.613;5.145;7.422;
040549FF0402B521;IDS-03B -- ??????-?????? -- 1 -- None -- 80 -- 0 -- Solo Pro II MVP -- 172.26.2.163;109;Lane 1;3/5/2012;12:00:00;100;15 Minutes;;;;;;4;1;41.000;0;1;0;0;0;255.996;0.078;A;41.008;0.039;0.094;
040549FF0402B521;IDS-03B -- ??????-?????? -- 1 -- None -- 80 -- 0 -- Solo Pro II MVP -- 172.26.2.163;110;Lane 2;3/5/2012;12:00:00;100;15 Minutes;;;;;;828;207;59.270;0;104;66;17;19;4.348;13.859;A;58.066;9.738;14.258;
040549FF0402B521;IDS-03B -- ??????-?????? -- 1 -- None -- 80 -- 0 -- Solo Pro II MVP -- 172.26.2.163;113;Total;3/5/2012;12:00:00;100;15 Minutes;;;;;;416;208;59.180;0;105;66;17;19;255.996;6.969;A;57.949;4.891;7.176;
040549FF0402B521;IDS-03B -- ??????-?????? -- 1 -- None -- 80 -- 0 -- Solo Pro II MVP -- 172.26.2.163;109;Lane 1;3/5/2012;12:15:00;100;15 Minutes;;;;;;0;0;0.000;0;0;0;0;0;255.996;0.000;A;0.000;100.000;0.000;
040549FF0402B521;IDS-03B -- ??????-?????? -- 1 -- None -- 80 -- 0 -- Solo Pro II MVP -- 172.26.2.163;110;Lane 2;3/5/2012;12:15:00;100;15 Minutes;;;;;;768;192;62.160;0;94;69;12;17;4.688;11.672;A;61.066;8.273;12.574;
040549FF0402B521;IDS-03B -- ??????-?????? -- 1 -- None -- 80 -- 0 -- Solo Pro II MVP -- 172.26.2.163;113;Total;3/5/2012;12:15:00;100;15 Minutes;;;;;;384;192;62.160;0;94;69;12;17;255.996;5.836;A;61.066;4.137;6.285;
040549FF0402B521;IDS-03B -- ??????-?????? -- 1 -- None -- 80 -- 0 -- Solo Pro II MVP -- 172.26.2.163;109;Lane 1;3/5/2012;12:30:00;100;15 Minutes;;;;;;0;0;0.000;0;0;0;0;0;255.996;0.000;A;0.000;100.000;0.000;
040549FF0402B521;IDS-03B -- ??????-?????? -- 1 -- None -- 80 -- 0 -- Solo Pro II MVP -- 172.26.2.163;110;Lane 2;3/5/2012;12:30:00;100;15 Minutes;;;;;;784;196;60.059;0;88;68;19;20;4.590;13.086;A;58.613;9.355;13.375;
040549FF0402B521;IDS-03B -- ??????-?????? -- 1 -- None -- 80 -- 0 -- Solo Pro II MVP -- 172.26.2.163;113;Total;3/5/2012;12:30:00;100;15 Minutes;;;;;;392;196;60.059;0;88;68;19;20;255.996;6.543;A;58.613;4.676;6.688;
040549FF0402B521;IDS-03B -- ??????-?????? -- 1 -- None -- 80 -- 0 -- Solo Pro II MVP -- 172.26.2.163;109;Lane 1;3/5/2012;12:45:00;100;15 Minutes;;;;;;4;1;31.000;0;1;0;0;0;255.996;0.078;A;31.000;0.047;0.129;
040549FF0402B521;IDS-03B -- ??????-?????? -- 1 -- None -- 80 -- 0 -- Solo Pro II MVP -- 172.26.2.163;110;Lane 2;3/5/2012;12:45:00;100;15 Minutes;;;;;;764;191;62.621;0;82;73;17;19;4.711;12.402;A;60.957;8.773;12.531;
040549FF0402B521;IDS-03B -- ??????-?????? -- 1 -- None -- 80 -- 0 -- Solo Pro II MVP -- 172.26.2.163;113;Total;3/5/2012;12:45:00;100;15 Minutes;;;;;;384;192;62.457;0;83;73;17;19;255.996;6.238;A;60.652;4.410;6.328;
040549FF0402B521;IDS-03B -- ??????-?????? -- 1 -- None -- 80 -- 0 -- Solo Pro II MVP -- 172.26.2.163;109;Lane 1;3/5/2012;13:00:00;100;15 Minutes;;;;;;4;1;75.000;0;1;0;0;0;255.996;0.020;A;75.066;0.020;0.051;
040549FF0402B521;IDS-03B -- ??????-?????? -- 1 -- None -- 80 -- 0 -- Solo Pro II MVP -- 172.26.2.163;110;Lane 2;3/5/2012;13:00:00;100;15 Minutes;;;;;;724;181;61.160;0;69;73;21;17;4.969;13.004;A;59.813;8.957;12.102;
040549FF0402B521;IDS-03B -- ??????-?????? -- 1 -- None -- 80 -- 0 -- Solo Pro II MVP -- 172.26.2.163;113;Total;3/5/2012;13:00:00;100;15 Minutes;;;;;;364;182;61.234;0;70;73;21;17;255.996;6.512;A;59.879;4.484;6.078;
040549FF0402B521;IDS-03B -- ??????-?????? -- 1 -- None -- 80 -- 0 -- Solo Pro II MVP -- 172.26.2.163;109;Lane 1;3/5/2012;13:15:00; 99;15 Minutes;;;;;;4;1;29.000;0;0;1;0;0;255.996;0.117;A;29.008;0.086;0.137;
040549FF0402B521;IDS-03B -- ??????-?????? -- 1 -- None -- 80 -- 0 -- Solo Pro II MVP -- 172.26.2.163;110;Lane 2;3/5/2012;13:15:00; 99;15 Minutes;;;;;;688;172;61.766;0;70;60;23;19;5.230;11.938;A;59.672;8.816;11.527;
040549FF0402B521;IDS-03B -- ??????-?????? -- 1 -- None -- 80 -- 0 -- Solo Pro II MVP -- 172.26.2.163;113;Total;3/5/2012;13:15:00; 99;15 Minutes;;;;;;346;173;61.574;0;70;61;23;19;255.996;6.027;A;59.313;4.441;5.832;
040549FF0402B521;IDS-03B -- ??????-?????? -- 1 -- None -- 80 -- 0 -- Solo Pro II MVP -- 172.26.2.163;109;Lane 1;3/5/2012;13:30:00;100;15 Minutes;;;;;;4;1;54.000;0;1;0;0;0;255.996;0.043;A;54.027;0.027;0.070;
040549FF0402B521;IDS-03B -- ??????-?????? -- 1 -- None -- 80 -- 0 -- Solo Pro II MVP -- 172.26.2.163;110;Lane 2;3/5/2012;13:30:00;100;15 Minutes;;;;;;680;170;59.855;0;69;62;16;23;5.293;12.922;A;58.445;9.090;11.633;
040549FF0402B521;IDS-03B -- ??????-?????? -- 1 -- None -- 80 -- 0 -- Solo Pro II MVP -- 172.26.2.163;113;Total;3/5/2012;13:30:00;100;15 Minutes;;;;;;342;171;59.824;0;70;62;16;23;255.996;6.480;A;58.414;4.559;5.852;
040549FF0402B521;IDS-03B -- ??????-?????? -- 1 -- None -- 80 -- 0 -- Solo Pro II MVP -- 172.26.2.163;109;Lane 1;3/5/2012;13:45:00;100;15 Minutes;;;;;;4;1;85.000;0;1;0;0;0;255.996;0.016;A;85.000;0.016;0.047;
040549FF0402B521;IDS-03B -- ??????-?????? -- 1 -- None -- 80 -- 0 -- Solo Pro II MVP -- 172.26.2.163;110;Lane 2;3/5/2012;13:45:00;100;15 Minutes;;;;;;660;165;62.309;0;69;62;16;17;5.453;11.012;A;60.578;7.938;10.895;
040549FF0402B521;IDS-03B -- ??????-?????? -- 1 -- None -- 80 -- 0 -- Solo Pro II MVP -- 172.26.2.163;113;Total;3/5/2012;13:45:00;100;15 Minutes;;;;;;332;166;62.445;0;70;62;16;17;255.996;5.512;A;60.684;3.973;5.469;
040549FF0402B521;IDS-03B -- ??????-?????? -- 1 -- None -- 80 -- 0 -- Solo Pro II MVP -- 172.26.2.163;109;Lane 1;3/5/2012;14:00:00;100;15 Minutes;;;;;;4;1;54.000;0;0;0;1;0;255.996;0.109;A;54.027;0.086;0.070;
040549FF0402B521;IDS-03B -- ??????-?????? -- 1 -- None -- 80 -- 0 -- Solo Pro II MVP -- 172.26.2.163;110;Lane 2;3/5/2012;14:00:00;100;15 Minutes;;;;;;756;189;59.523;0;85;56;21;27;4.762;13.117;A;58.117;9.852;13.008;
040549FF0402B521;IDS-03B -- ??????-?????? -- 1 -- None -- 80 -- 0 -- Solo Pro II MVP -- 172.26.2.163;113;Total;3/5/2012;14:00:00;100;15 Minutes;;;;;;380;190;59.492;0;85;56;22;27;255.996;6.613;A;58.094;4.969;6.539;
040549FF0402B521;IDS-03B -- ??????-?????? -- 1 -- None -- 80 -- 0 -- Solo Pro II MVP -- 172.26.2.163;109;Lane 1;3/5/2012;14:15:00;100;15 Minutes;;;;;;0;0;0.000;0;0;0;0;0;255.996;0.000;A;0.000;100.000;0.000;
040549FF0402B521;IDS-03B -- ??????-?????? -- 1 -- None -- 80 -- 0 -- Solo Pro II MVP -- 172.26.2.163;110;Lane 2;3/5/2012;14:15:00;100;15 Minutes;;;;;;676;169;61.223;0;61;60;23;25;5.324;12.070;A;59.742;9.484;11.313;
040549FF0402B521;IDS-03B -- ??????-?????? -- 1 -- None -- 80 -- 0 -- Solo Pro II MVP -- 172.26.2.163;113;Total;3/5/2012;14:15:00;100;15 Minutes;;;;;;338;169;61.223;0;61;60;23;25;255.996;6.035;A;59.742;4.742;5.656;
040549FF0402B521;IDS-03B -- ??????-?????? -- 1 -- None -- 80 -- 0 -- Solo Pro II MVP -- 172.26.2.163;109;Lane 1;3/5/2012;14:30:00;100;15 Minutes;;;;;;0;0;0.000;0;0;0;0;0;255.996;0.000;A;0.000;100.000;0.000;
040549FF0402B521;IDS-03B -- ??????-?????? -- 1 -- None -- 80 -- 0 -- Solo Pro II MVP -- 172.26.2.163;110;Lane 2;3/5/2012;14:30:00;100;15 Minutes;;;;;;784;196;61.574;0;77;71;28;20;4.590;13.660;A;59.191;9.973;13.242;
040549FF0402B521;IDS-03B -- ??????-?????? -- 1 -- None -- 80 -- 0 -- Solo Pro II MVP -- 172.26.2.163;113;Total;3/5/2012;14:30:00;100;15 Minutes;;;;;;392;196;61.574;0;77;71;28;20;255.996;6.828;A;59.191;4.984;6.621;
040549FF0402B521;IDS-03B -- ??????-?????? -- 1 -- None -- 80 -- 0 -- Solo Pro II MVP -- 172.26.2.163;109;Lane 1;3/5/2012;14:45:00;100;15 Minutes;;;;;;4;1;49.000;0;1;0;0;0;255.996;0.043;A;49.016;0.031;0.078;
040549FF0402B521;IDS-03B -- ??????-?????? -- 1 -- None -- 80 -- 0 -- Solo Pro II MVP -- 172.26.2.163;110;Lane 2;3/5/2012;14:45:00;100;15 Minutes;;;;;;772;193;57.961;0;66;75;26;26;4.660;14.324;A;55.797;11.320;13.832;
040549FF0402B521;IDS-03B -- ??????-?????? -- 1 -- None -- 80 -- 0 -- Solo Pro II MVP -- 172.26.2.163;113;Total;3/5/2012;14:45:00;100;15 Minutes;;;;;;388;194;57.914;0;67;75;26;26;255.996;7.184;A;55.758;5.680;6.957;
040549FF0402B521;IDS-03B -- ??????-?????? -- 1 -- None -- 80 -- 0 -- Solo Pro II MVP -- 172.26.2.163;109;Lane 1;3/5/2012;15:00:00;100;15 Minutes;;;;;;4;1;107.000;0;1;0;0;0;255.996;0.020;A;107.082;0.008;0.035;
040549FF0402B521;IDS-03B -- ??????-?????? -- 1 -- None -- 80 -- 0 -- Solo Pro II MVP -- 172.26.2.163;110;Lane 2;3/5/2012;15:00:00;100;15 Minutes;;;;;;668;167;60.609;0;59;76;19;13;5.387;10.773;A;58.773;8.160;11.363;
040549FF0402B521;IDS-03B -- ??????-?????? -- 1 -- None -- 80 -- 0 -- Solo Pro II MVP -- 172.26.2.163;113;Total;3/5/2012;15:00:00;100;15 Minutes;;;;;;336;168;60.887;0;60;76;19;13;255.996;5.395;A;58.934;4.066;5.699;
040549FF0402B521;IDS-03B -- ??????-?????? -- 1 -- None -- 80 -- 0 -- Solo Pro II MVP -- 172.26.2.163;109;Lane 1;3/5/2012;15:15:00;100;15 Minutes;;;;;;0;0;0.000;0;0;0;0;0;255.996;0.000;A;0.000;100.000;0.000;
040549FF0402B521;IDS-03B -- ??????-?????? -- 1 -- None -- 80 -- 0 -- Solo Pro II MVP -- 172.26.2.163;110;Lane 2;3/5/2012;15:15:00;100;15 Minutes;;;;;;696;174;61.543;0;65;70;19;20;5.172;11.262;A;59.883;8.711;11.621;
040549FF0402B521;IDS-03B -- ??????-?????? -- 1 -- None -- 80 -- 0 -- Solo Pro II MVP -- 172.26.2.163;113;Total;3/5/2012;15:15:00;100;15 Minutes;;;;;;348;174;61.543;0;65;70;19;20;255.996;5.629;A;59.883;4.355;5.809;
040549FF0402B521;IDS-03B -- ??????-?????? -- 1 -- None -- 80 -- 0 -- Solo Pro II MVP -- 172.26.2.163;109;Lane 1;3/5/2012;15:30:00;100;15 Minutes;;;;;;0;0;0.000;0;0;0;0;0;255.996;0.000;A;0.000;100.000;0.000;
040549FF0402B521;IDS-03B -- ??????-?????? -- 1 -- None -- 80 -- 0 -- Solo Pro II MVP -- 172.26.2.163;110;Lane 2;3/5/2012;15:30:00;100;15 Minutes;;;;;;760;190;57.234;0;78;68;23;21;4.734;13.402;A;55.395;10.445;13.719;
040549FF0402B521;IDS-03B -- ??????-?????? -- 1 -- None -- 80 -- 0 -- Solo Pro II MVP -- 172.26.2.163;113;Total;3/5/2012;15:30:00;100;15 Minutes;;;;;;380;190;57.234;0;78;68;23;21;255.996;6.699;A;55.395;5.223;6.859;
040549FF0402B521;IDS-03B -- ??????-?????? -- 1 -- None -- 80 -- 0 -- Solo Pro II MVP -- 172.26.2.163;109;Lane 1;3/5/2012;15:45:00;100;15 Minutes;;;;;;0;0;0.000;0;0;0;0;0;255.996;0.000;A;0.000;100.000;0.000;
040549FF0402B521;IDS-03B -- ??????-?????? -- 1 -- None -- 80 -- 0 -- Solo Pro II MVP -- 172.26.2.163;110;Lane 2;3/5/2012;15:45:00;100;15 Minutes;;;;;;708;177;60.863;0;58;79;17;23;5.082;12.703;A;58.867;9.211;12.023;
040549FF0402B521;IDS-03B -- ??????-?????? -- 1 -- None -- 80 -- 0 -- Solo Pro II MVP -- 172.26.2.163;113;Total;3/5/2012;15:45:00;100;15 Minutes;;;;;;354;177;60.863;0;58;79;17;23;255.996;6.352;A;58.867;4.605;6.012;
040549FF0402B521;IDS-03B -- ??????-?????? -- 1 -- None -- 80 -- 0 -- Solo Pro II MVP -- 172.26.2.163;109;Lane 1;3/5/2012;16:00:00;100;15 Minutes;;;;;;4;1;41.000;0;0;1;0;0;255.996;0.074;A;41.008;0.051;0.094;
040549FF0402B521;IDS-03B -- ??????-?????? -- 1 -- None -- 80 -- 0 -- Solo Pro II MVP -- 172.26.2.163;110;Lane 2;3/5/2012;16:00:00;100;15 Minutes;;;;;;772;193;65.898;0;79;81;17;16;4.660;12.512;A;63.727;8.488;12.113;
040549FF0402B521;IDS-03B -- ??????-?????? -- 1 -- None -- 80 -- 0 -- Solo Pro II MVP -- 172.26.2.163;113;Total;3/5/2012;16:00:00;100;15 Minutes;;;;;;388;194;65.770;0;79;82;17;16;255.996;6.293;A;63.547;4.270;6.105;
040549FF0402B521;IDS-03B -- ??????-?????? -- 1 -- None -- 80 -- 0 -- Solo Pro II MVP -- 172.26.2.163;109;Lane 1;3/5/2012;16:15:00;100;15 Minutes;;;;;;20;5;47.797;0;4;1;0;0;180.000;0.238;A;40.418;0.188;0.492;
040549FF0402B521;IDS-03B -- ??????-?????? -- 1 -- None -- 80 -- 0 -- Solo Pro II MVP -- 172.26.2.163;110;Lane 2;3/5/2012;16:15:00;100;15 Minutes;;;;;;764;191;63.809;0;59;85;19;28;4.711;12.773;A;62.078;9.918;12.305;
040549FF0402B521;IDS-03B -- ??????-?????? -- 1 -- None -- 80 -- 0 -- Solo Pro II MVP -- 172.26.2.163;113;Total;3/5/2012;16:15:00;100;15 Minutes;;;;;;392;196;63.402;0;63;86;19;28;92.355;6.504;A;61.242;5.063;6.398;
040549FF0402B521;IDS-03B -- ??????-?????? -- 1 -- None -- 80 -- 0 -- Solo Pro II MVP -- 172.26.2.163;109;Lane 1;3/5/2012;16:30:00;100;15 Minutes;;;;;;0;0;0.000;0;0;0;0;0;255.996;0.000;A;0.000;100.000;0.000;
040549FF0402B521;IDS-03B -- ??????-?????? -- 1 -- None -- 80 -- 0 -- Solo Pro II MVP -- 172.26.2.163;110;Lane 2;3/5/2012;16:30:00;100;15 Minutes;;;;;;568;142;71.609;0;54;64;17;7;6.336;7.867;A;69.855;5.551;8.129;
040549FF0402B521;IDS-03B -- ??????-?????? -- 1 -- None -- 80 -- 0 -- Solo Pro II MVP -- 172.26.2.163;113;Total;3/5/2012;16:30:00;100;15 Minutes;;;;;;284;142;71.609;0;54;64;17;7;255.996;3.934;A;69.855;2.773;4.063;
040549FF0402B521;IDS-03B -- ??????-?????? -- 1 -- None -- 80 -- 0 -- Solo Pro II MVP -- 172.26.2.163;109;Lane 1;3/5/2012;16:45:00;100;15 Minutes;;;;;;0;0;0.000;0;0;0;0;0;255.996;0.000;A;0.000;100.000;0.000;
040549FF0402B521;IDS-03B -- ??????-?????? -- 1 -- None -- 80 -- 0 -- Solo Pro II MVP -- 172.26.2.163;110;Lane 2;3/5/2012;16:45:00;100;15 Minutes;;;;;;248;62;80.402;0;47;13;1;1;14.516;2.195;A;78.598;1.613;3.152;
040549FF0402B521;IDS-03B -- ??????-?????? -- 1 -- None -- 80 -- 0 -- Solo Pro II MVP -- 172.26.2.163;113;Total;3/5/2012;16:45:00;100;15 Minutes;;;;;;124;62;80.402;0;47;13;1;1;255.996;1.098;A;78.598;0.805;1.574;
040549FF0402B521;IDS-03B -- ??????-?????? -- 1 -- None -- 80 -- 0 -- Solo Pro II MVP -- 172.26.2.163;109;Lane 1;3/5/2012;17:00:00;100;15 Minutes;;;;;;4;1;85.000;0;1;0;0;0;255.996;0.016;A;85.000;0.016;0.047;
040549FF0402B521;IDS-03B -- ??????-?????? -- 1 -- None -- 80 -- 0 -- Solo Pro II MVP -- 172.26.2.163;110;Lane 2;3/5/2012;17:00:00;100;15 Minutes;;;;;;304;76;71.934;0;31;30;9;6;11.840;4.340;A;68.852;3.004;4.414;
040549FF0402B521;IDS-03B -- ??????-?????? -- 1 -- None -- 80 -- 0 -- Solo Pro II MVP -- 172.26.2.163;113;Total;3/5/2012;17:00:00;100;15 Minutes;;;;;;154;77;72.102;0;32;30;9;6;255.996;2.176;A;69.023;1.508;2.230;
040549FF0402B521;IDS-03B -- ??????-?????? -- 1 -- None -- 80 -- 0 -- Solo Pro II MVP -- 172.26.2.163;109;Lane 1;3/5/2012;17:15:00;100;15 Minutes;;;;;;132;33;71.816;0;28;5;0;0;27.270;1.336;A;69.285;0.820;1.902;
040549FF0402B521;IDS-03B -- ??????-?????? -- 1 -- None -- 80 -- 0 -- Solo Pro II MVP -- 172.26.2.163;110;Lane 2;3/5/2012;17:15:00;100;15 Minutes;;;;;;976;244;60.230;0;88;103;29;19;3.688;16.551;A;57.746;11.527;16.898;
040549FF0402B521;IDS-03B -- ??????-?????? -- 1 -- None -- 80 -- 0 -- Solo Pro II MVP -- 172.26.2.163;113;Total;3/5/2012;17:15:00;100;15 Minutes;;;;;;554;277;61.613;0;116;108;29;19;15.477;8.941;A;58.945;6.113;9.398;
040549FF0402B521;IDS-03B -- ??????-?????? -- 1 -- None -- 80 -- 0 -- Solo Pro II MVP -- 172.26.2.163;109;Lane 1;3/5/2012;17:30:00;100;15 Minutes;;;;;;8;2;52.000;0;2;0;0;0;255.996;0.121;A;36.930;0.066;0.215;
040549FF0402B521;IDS-03B -- ??????-?????? -- 1 -- None -- 80 -- 0 -- Solo Pro II MVP -- 172.26.2.163;110;Lane 2;3/5/2012;17:30:00;100;15 Minutes;;;;;;640;160;66.117;0;72;57;18;12;5.625;9.094;A;64.633;6.770;9.898;
040549FF0402B521;IDS-03B -- ??????-?????? -- 1 -- None -- 80 -- 0 -- Solo Pro II MVP -- 172.26.2.163;113;Total;3/5/2012;17:30:00;100;15 Minutes;;;;;;324;162;65.941;0;74;57;18;12;227.813;4.605;A;64.039;3.418;5.059;
040549FF0402B521;IDS-03B -- ??????-?????? -- 1 -- None -- 80 -- 0 -- Solo Pro II MVP -- 172.26.2.163;109;Lane 1;3/5/2012;17:45:00;100;15 Minutes;;;;;;4;1;14.000;0;0;1;0;0;255.996;0.250;A;14.000;0.156;0.285;
040549FF0402B521;IDS-03B -- ??????-?????? -- 1 -- None -- 80 -- 0 -- Solo Pro II MVP -- 172.26.2.163;110;Lane 2;3/5/2012;17:45:00;100;15 Minutes;;;;;;580;145;68.379;0;69;45;15;16;6.203;8.789;A;66.301;6.164;8.746;
040549FF0402B521;IDS-03B -- ??????-?????? -- 1 -- None -- 80 -- 0 -- Solo Pro II MVP -- 172.26.2.163;113;Total;3/5/2012;17:45:00;100;15 Minutes;;;;;;292;146;68.004;0;69;46;15;16;255.996;4.520;A;64.645;3.113;4.516;
040549FF0402B521;IDS-03B -- ??????-?????? -- 1 -- None -- 80 -- 0 -- Solo Pro II MVP -- 172.26.2.163;109;Lane 1;3/5/2012;18:00:00;100;15 Minutes;;;;;;4;1;72.000;0;0;0;1;0;255.996;0.098;A;72.016;0.066;0.055;
040549FF0402B521;IDS-03B -- ??????-?????? -- 1 -- None -- 80 -- 0 -- Solo Pro II MVP -- 172.26.2.163;110;Lane 2;3/5/2012;18:00:00;100;15 Minutes;;;;;;652;163;68.336;0;77;61;14;11;5.520;9.594;A;65.559;6.551;9.941;
040549FF0402B521;IDS-03B -- ??????-?????? -- 1 -- None -- 80 -- 0 -- Solo Pro II MVP -- 172.26.2.163;113;Total;3/5/2012;18:00:00;100;15 Minutes;;;;;;328;164;68.359;0;77;61;15;11;255.996;4.844;A;65.594;3.309;5.000;
040549FF0402B521;IDS-03B -- ??????-?????? -- 1 -- None -- 80 -- 0 -- Solo Pro II MVP -- 172.26.2.163;109;Lane 1;3/5/2012;18:15:00;100;15 Minutes;;;;;;16;4;77.000;0;3;1;0;0;225.000;0.152;A;76.582;0.094;0.207;
040549FF0402B521;IDS-03B -- ??????-?????? -- 1 -- None -- 80 -- 0 -- Solo Pro II MVP -- 172.26.2.163;110;Lane 2;3/5/2012;18:15:00;100;15 Minutes;;;;;;736;184;63.410;0;74;69;20;21;4.891;12.098;A;61.328;9.211;12.000;
040549FF0402B521;IDS-03B -- ??????-?????? -- 1 -- None -- 80 -- 0 -- Solo Pro II MVP -- 172.26.2.163;113;Total;3/5/2012;18:15:00;100;15 Minutes;;;;;;376;188;63.699;0;77;70;20;21;114.945;6.125;A;61.590;4.641;6.102;
040549FF0402B521;IDS-03B -- ??????-?????? -- 1 -- None -- 80 -- 0 -- Solo Pro II MVP -- 172.26.2.163;109;Lane 1;3/5/2012;18:30:00;100;15 Minutes;;;;;;76;19;73.734;0;15;4;0;0;47.367;0.703;A;72.035;0.484;1.055;
040549FF0402B521;IDS-03B -- ??????-?????? -- 1 -- None -- 80 -- 0 -- Solo Pro II MVP -- 172.26.2.163;110;Lane 2;3/5/2012;18:30:00;100;15 Minutes;;;;;;804;201;61.691;0;84;77;19;20;4.477;12.402;A;59.988;9.773;13.402;
040549FF0402B521;IDS-03B -- ??????-?????? -- 1 -- None -- 80 -- 0 -- Solo Pro II MVP -- 172.26.2.163;113;Total;3/5/2012;18:30:00;100;15 Minutes;;;;;;440;220;62.730;0;99;81;19;20;25.922;6.551;A;60.867;5.090;7.227;
040549FF0402B521;IDS-03B -- ??????-?????? -- 1 -- None -- 80 -- 0 -- Solo Pro II MVP -- 172.26.2.163;109;Lane 1;3/5/2012;18:45:00;100;15 Minutes;;;;;;60;15;68.797;0;14;1;0;0;60.000;0.605;A;65.922;0.375;0.910;
040549FF0402B521;IDS-03B -- ??????-?????? -- 1 -- None -- 80 -- 0 -- Solo Pro II MVP -- 172.26.2.163;110;Lane 2;3/5/2012;18:45:00;100;15 Minutes;;;;;;752;188;59.398;0;74;75;15;24;4.785;13.438;A;57.234;9.988;13.137;
040549FF0402B521;IDS-03B -- ??????-?????? -- 1 -- None -- 80 -- 0 -- Solo Pro II MVP -- 172.26.2.163;113;Total;3/5/2012;18:45:00;100;15 Minutes;;;;;;406;203;60.090;0;88;76;15;24;32.391;7.020;A;57.801;5.148;7.023;
040549FF0402B521;IDS-03B -- ??????-?????? -- 1 -- None -- 80 -- 0 -- Solo Pro II MVP -- 172.26.2.163;109;Lane 1;3/5/2012;19:00:00;100;15 Minutes;;;;;;16;4;45.000;0;2;1;0;1;225.000;0.176;A;43.578;0.000;0.363;
040549FF0402B521;IDS-03B -- ??????-?????? -- 1 -- None -- 80 -- 0 -- Solo Pro II MVP -- 172.26.2.163;110;Lane 2;3/5/2012;19:00:00;100;15 Minutes;;;;;;712;178;60.879;0;106;56;7;9;5.055;11.785;A;58.711;7.004;12.125;
040549FF0402B521;IDS-03B -- ??????-?????? -- 1 -- None -- 80 -- 0 -- Solo Pro II MVP -- 172.26.2.163;113;Total;3/5/2012;19:00:00;100;15 Minutes;;;;;;364;182;60.531;0;108;57;7;10;115.027;5.980;A;58.266;3.613;6.246;
040549FF0402B521;IDS-03B -- ??????-?????? -- 1 -- None -- 80 -- 0 -- Solo Pro II MVP -- 172.26.2.163;109;Lane 1;3/5/2012;19:15:00;100;15 Minutes;;;;;;36;9;64.555;0;4;2;1;2;100.000;0.332;A;60.195;0.000;0.598;
040549FF0402B521;IDS-03B -- ??????-?????? -- 1 -- None -- 80 -- 0 -- Solo Pro II MVP -- 172.26.2.163;110;Lane 2;3/5/2012;19:15:00;100;15 Minutes;;;;;;636;159;60.551;0;100;42;9;8;5.660;11.254;A;57.215;6.305;11.113;
040549FF0402B521;IDS-03B -- ??????-?????? -- 1 -- None -- 80 -- 0 -- Solo Pro II MVP -- 172.26.2.163;113;Total;3/5/2012;19:15:00;100;15 Minutes;;;;;;336;168;60.766;0;104;44;10;10;52.828;5.793;A;57.367;3.430;5.855;
040549FF0402B521;IDS-03B -- ??????-?????? -- 1 -- None -- 80 -- 0 -- Solo Pro II MVP -- 172.26.2.163;109;Lane 1;3/5/2012;19:30:00;100;15 Minutes;;;;;;4;1;69.000;0;1;0;0;0;255.996;0.051;A;69.055;0.016;0.055;
040549FF0402B521;IDS-03B -- ??????-?????? -- 1 -- None -- 80 -- 0 -- Solo Pro II MVP -- 172.26.2.163;110;Lane 2;3/5/2012;19:30:00;100;15 Minutes;;;;;;536;134;60.914;0;91;31;11;1;6.715;8.551;A;57.250;4.531;9.359;
040549FF0402B521;IDS-03B -- ??????-?????? -- 1 -- None -- 80 -- 0 -- Solo Pro II MVP -- 172.26.2.163;113;Total;3/5/2012;19:30:00;100;15 Minutes;;;;;;270;135;60.977;0;92;31;11;1;255.996;4.301;A;57.324;2.270;4.707;
040549FF0402B521;IDS-03B -- ??????-?????? -- 1 -- None -- 80 -- 0 -- Solo Pro II MVP -- 172.26.2.163;109;Lane 1;3/5/2012;19:45:00;100;15 Minutes;;;;;;20;5;58.398;0;3;2;0;0;180.000;0.145;A;56.594;0.148;0.352;
040549FF0402B521;IDS-03B -- ??????-?????? -- 1 -- None -- 80 -- 0 -- Solo Pro II MVP -- 172.26.2.163;110;Lane 2;3/5/2012;19:45:00;100;15 Minutes;;;;;;568;142;61.539;0;91;37;7;6;6.336;9.688;A;57.914;5.352;9.805;
040549FF0402B521;IDS-03B -- ??????-?????? -- 1 -- None -- 80 -- 0 -- Solo Pro II MVP -- 172.26.2.163;113;Total;3/5/2012;19:45:00;100;15 Minutes;;;;;;294;147;61.434;0;94;39;7;6;93.168;4.914;A;57.867;2.750;5.078;
040549FF0402B521;IDS-03B -- ??????-?????? -- 1 -- None -- 80 -- 0 -- Solo Pro II MVP -- 172.26.2.163;109;Lane 1;3/5/2012;20:00:00;100;15 Minutes;;;;;;16;4;57.250;0;3;1;0;0;225.000;0.125;A;56.984;0.117;0.277;
040549FF0402B521;IDS-03B -- ??????-?????? -- 1 -- None -- 80 -- 0 -- Solo Pro II MVP -- 172.26.2.163;110;Lane 2;3/5/2012;20:00:00;100;15 Minutes;;;;;;488;122;59.262;0;79;32;4;5;7.375;8.320;A;56.434;4.523;8.645;
040549FF0402B521;IDS-03B -- ??????-?????? -- 1 -- None -- 80 -- 0 -- Solo Pro II MVP -- 172.26.2.163;113;Total;3/5/2012;20:00:00;100;15 Minutes;;;;;;252;126;59.195;0;82;33;4;5;116.188;4.223;A;56.449;2.320;4.461;
040549FF0402B521;IDS-03B -- ??????-?????? -- 1 -- None -- 80 -- 0 -- Solo Pro II MVP -- 172.26.2.163;109;Lane 1;3/5/2012;20:15:00;100;15 Minutes;;;;;;12;3;72.664;0;2;1;0;0;255.996;0.086;A;70.668;0.078;0.168;
040549FF0402B521;IDS-03B -- ??????-?????? -- 1 -- None -- 80 -- 0 -- Solo Pro II MVP -- 172.26.2.163;110;Lane 2;3/5/2012;20:15:00;100;15 Minutes;;;;;;528;132;65.688;0;85;38;1;7;6.816;8.496;A;63.277;4.371;8.344;
040549FF0402B521;IDS-03B -- ??????-?????? -- 1 -- None -- 80 -- 0 -- Solo Pro II MVP -- 172.26.2.163;113;Total;3/5/2012;20:15:00;100;15 Minutes;;;;;;270;135;65.844;0;87;39;1;7;153.406;4.289;A;63.422;2.223;4.254;
040549FF0402B521;IDS-03B -- ??????-?????? -- 1 -- None -- 80 -- 0 -- Solo Pro II MVP -- 172.26.2.163;109;Lane 1;3/5/2012;20:30:00;100;15 Minutes;;;;;;20;5;57.000;0;3;1;0;0;180.000;0.219;A;54.832;0.129;0.363;
040549FF0402B521;IDS-03B -- ??????-?????? -- 1 -- None -- 80 -- 0 -- Solo Pro II MVP -- 172.26.2.163;110;Lane 2;3/5/2012;20:30:00;100;15 Minutes;;;;;;456;114;59.465;0;65;33;9;3;7.895;7.875;A;56.750;4.473;8.035;
040549FF0402B521;IDS-03B -- ??????-?????? -- 1 -- None -- 80 -- 0 -- Solo Pro II MVP -- 172.26.2.163;113;Total;3/5/2012;20:30:00;100;15 Minutes;;;;;;238;119;59.359;0;68;34;9;3;93.945;4.047;A;56.668;2.301;4.199;
040549FF0402B521;IDS-03B -- ??????-?????? -- 1 -- None -- 80 -- 0 -- Solo Pro II MVP -- 172.26.2.163;109;Lane 1;3/5/2012;20:45:00;100;15 Minutes;;;;;;8;2;49.000;0;1;1;0;0;255.996;0.121;A;48.273;0.070;0.164;
040549FF0402B521;IDS-03B -- ??????-?????? -- 1 -- None -- 80 -- 0 -- Solo Pro II MVP -- 172.26.2.163;110;Lane 2;3/5/2012;20:45:00;100;15 Minutes;;;;;;416;104;58.324;0;65;25;7;7;8.652;7.438;A;55.520;4.418;7.492;
040549FF0402B521;IDS-03B -- ??????-?????? -- 1 -- None -- 80 -- 0 -- Solo Pro II MVP -- 172.26.2.163;113;Total;3/5/2012;20:45:00;100;15 Minutes;;;;;;212;106;58.148;0;66;26;7;7;229.324;3.777;A;55.363;2.246;3.828;
040549FF0402B521;IDS-03B -- ??????-?????? -- 1 -- None -- 80 -- 0 -- Solo Pro II MVP -- 172.26.2.163;109;Lane 1;3/5/2012;21:00:01;100;15 Minutes;;;;;;12;3;68.332;0;1;2;0;0;255.996;0.098;A;66.918;0.094;0.176;
040549FF0402B521;IDS-03B -- ??????-?????? -- 1 -- None -- 80 -- 0 -- Solo Pro II MVP -- 172.26.2.163;110;Lane 2;3/5/2012;21:00:01;100;15 Minutes;;;;;;472;118;62.363;0;82;28;5;3;7.625;7.133;A;59.691;4.039;7.906;
040549FF0402B521;IDS-03B -- ??????-?????? -- 1 -- None -- 80 -- 0 -- Solo Pro II MVP -- 172.26.2.163;113;Total;3/5/2012;21:00:01;100;15 Minutes;;;;;;242;121;62.512;0;83;30;5;3;153.813;3.613;A;59.852;2.066;4.043;
040549FF0402B521;IDS-03B -- ??????-?????? -- 1 -- None -- 80 -- 0 -- Solo Pro II MVP -- 172.26.2.163;109;Lane 1;3/5/2012;21:15:00; 99;15 Minutes;;;;;;16;4;65.500;0;2;2;0;0;225.000;0.129;A;65.438;0.113;0.242;
040549FF0402B521;IDS-03B -- ??????-?????? -- 1 -- None -- 80 -- 0 -- Solo Pro II MVP -- 172.26.2.163;110;Lane 2;3/5/2012;21:15:00; 99;15 Minutes;;;;;;380;95;62.578;0;57;30;3;4;9.473;6.457;A;60.445;3.410;6.285;
040549FF0402B521;IDS-03B -- ??????-?????? -- 1 -- None -- 80 -- 0 -- Solo Pro II MVP -- 172.26.2.163;113;Total;3/5/2012;21:15:00; 99;15 Minutes;;;;;;198;99;62.695;0;59;32;3;4;117.234;3.293;A;60.633;1.762;3.262;
040549FF0402B521;IDS-03B -- ??????-?????? -- 1 -- None -- 80 -- 0 -- Solo Pro II MVP -- 172.26.2.163;109;Lane 1;3/5/2012;21:30:00;100;15 Minutes;;;;;;16;4;63.250;0;2;2;0;0;225.000;0.152;A;62.281;0.129;0.254;
040549FF0402B521;IDS-03B -- ??????-?????? -- 1 -- None -- 80 -- 0 -- Solo Pro II MVP -- 172.26.2.163;110;Lane 2;3/5/2012;21:30:00;100;15 Minutes;;;;;;368;92;65.988;0;44;32;10;5;9.781;6.000;A;62.512;3.648;5.887;
040549FF0402B521;IDS-03B -- ??????-?????? -- 1 -- None -- 80 -- 0 -- Solo Pro II MVP -- 172.26.2.163;113;Total;3/5/2012;21:30:00;100;15 Minutes;;;;;;192;96;65.875;0;46;34;10;5;117.391;3.074;A;62.500;1.891;3.070;
040549FF0402B521;IDS-03B -- ??????-?????? -- 1 -- None -- 80 -- 0 -- Solo Pro II MVP -- 172.26.2.163;109;Lane 1;3/5/2012;21:45:00;100;15 Minutes;;;;;;16;4;63.000;0;2;2;0;0;225.000;0.137;A;62.340;0.125;0.254;
040549FF0402B521;IDS-03B -- ??????-?????? -- 1 -- None -- 80 -- 0 -- Solo Pro II MVP -- 172.26.2.163;110;Lane 2;3/5/2012;21:45:00;100;15 Minutes;;;;;;348;87;63.379;0;57;19;2;9;10.344;6.109;A;60.594;3.742;5.742;
040549FF0402B521;IDS-03B -- ??????-?????? -- 1 -- None -- 80 -- 0 -- Solo Pro II MVP -- 172.26.2.163;113;Total;3/5/2012;21:45:00;100;15 Minutes;;;;;;182;91;63.359;0;59;21;2;9;117.672;3.121;A;60.668;1.934;2.996;
040549FF0402B521;IDS-03B -- ??????-?????? -- 1 -- None -- 80 -- 0 -- Solo Pro II MVP -- 172.26.2.163;109;Lane 1;3/5/2012;22:00:00;100;15 Minutes;;;;;;12;3;60.664;0;1;0;1;0;255.996;0.262;A;57.234;0.098;0.207;
040549FF0402B521;IDS-03B -- ??????-?????? -- 1 -- None -- 80 -- 0 -- Solo Pro II MVP -- 172.26.2.163;110;Lane 2;3/5/2012;22:00:00;100;15 Minutes;;;;;;312;78;64.973;0;52;15;3;7;11.535;5.348;A;60.895;3.090;5.121;
040549FF0402B521;IDS-03B -- ??????-?????? -- 1 -- None -- 80 -- 0 -- Solo Pro II MVP -- 172.26.2.163;113;Total;3/5/2012;22:00:00;100;15 Minutes;;;;;;162;81;64.813;0;53;15;4;7;155.766;2.805;A;60.754;1.594;2.664;
040549FF0402B521;IDS-03B -- ??????-?????? -- 1 -- None -- 80 -- 0 -- Solo Pro II MVP -- 172.26.2.163;109;Lane 1;3/5/2012;22:15:00;100;15 Minutes;;;;;;20;5;66.797;0;3;0;1;1;180.000;0.195;A;64.488;0.000;0.309;
040549FF0402B521;IDS-03B -- ??????-?????? -- 1 -- None -- 80 -- 0 -- Solo Pro II MVP -- 172.26.2.163;110;Lane 2;3/5/2012;22:15:00;100;15 Minutes;;;;;;340;85;64.645;0;55;20;6;3;10.586;5.996;A;61.281;3.156;5.547;
040549FF0402B521;IDS-03B -- ??????-?????? -- 1 -- None -- 80 -- 0 -- Solo Pro II MVP -- 172.26.2.163;113;Total;3/5/2012;22:15:00;100;15 Minutes;;;;;;180;90;64.766;0;58;20;7;4;95.293;3.094;A;61.449;1.707;2.926;
040549FF0402B521;IDS-03B -- ??????-?????? -- 1 -- None -- 80 -- 0 -- Solo Pro II MVP -- 172.26.2.163;109;Lane 1;3/5/2012;22:30:00;100;15 Minutes;;;;;;20;5;70.398;0;4;1;0;0;180.000;0.137;A;68.223;0.121;0.293;
040549FF0402B521;IDS-03B -- ??????-?????? -- 1 -- None -- 80 -- 0 -- Solo Pro II MVP -- 172.26.2.163;110;Lane 2;3/5/2012;22:30:00;100;15 Minutes;;;;;;292;73;68.055;0;44;17;6;6;12.328;4.789;A;64.590;2.828;4.520;
040549FF0402B521;IDS-03B -- ??????-?????? -- 1 -- None -- 80 -- 0 -- Solo Pro II MVP -- 172.26.2.163;113;Total;3/5/2012;22:30:00;100;15 Minutes;;;;;;156;78;68.203;0;48;18;6;6;96.164;2.461;A;64.813;1.473;2.406;
040549FF0402B521;IDS-03B -- ??????-?????? -- 1 -- None -- 80 -- 0 -- Solo Pro II MVP -- 172.26.2.163;109;Lane 1;3/5/2012;22:45:00;100;15 Minutes;;;;;;32;8;65.375;0;5;1;1;0;112.500;0.273;A;60.414;0.211;0.527;
040549FF0402B521;IDS-03B -- ??????-?????? -- 1 -- None -- 80 -- 0 -- Solo Pro II MVP -- 172.26.2.163;110;Lane 2;3/5/2012;22:45:00;100;15 Minutes;;;;;;336;84;63.984;0;51;18;4;11;10.711;6.102;A;60.121;3.809;5.586;
040549FF0402B521;IDS-03B -- ??????-?????? -- 1 -- None -- 80 -- 0 -- Solo Pro II MVP -- 172.26.2.163;113;Total;3/5/2012;22:45:00;100;15 Minutes;;;;;;184;92;64.105;0;56;19;5;11;61.605;3.188;A;60.148;2.008;3.059;
040549FF0402B521;IDS-03B -- ??????-?????? -- 1 -- None -- 80 -- 0 -- Solo Pro II MVP -- 172.26.2.163;109;Lane 1;3/5/2012;23:00:00;100;15 Minutes;;;;;;12;3;64.000;0;3;0;0;0;255.996;0.086;A;63.895;0.082;0.188;
040549FF0402B521;IDS-03B -- ??????-?????? -- 1 -- None -- 80 -- 0 -- Solo Pro II MVP -- 172.26.2.163;110;Lane 2;3/5/2012;23:00:00;100;15 Minutes;;;;;;316;79;65.430;0;41;24;7;7;11.391;5.629;A;62.879;3.266;5.023;
040549FF0402B521;IDS-03B -- ??????-?????? -- 1 -- None -- 80 -- 0 -- Solo Pro II MVP -- 172.26.2.163;113;Total;3/5/2012;23:00:00;100;15 Minutes;;;;;;164;82;65.375;0;44;24;7;7;155.695;2.855;A;62.918;1.676;2.605;
040549FF0402B521;IDS-03B -- ??????-?????? -- 1 -- None -- 80 -- 0 -- Solo Pro II MVP -- 172.26.2.163;109;Lane 1;3/5/2012;23:15:00;100;15 Minutes;;;;;;4;1;69.000;0;1;0;0;0;255.996;0.035;A;69.055;0.027;0.055;
040549FF0402B521;IDS-03B -- ??????-?????? -- 1 -- None -- 80 -- 0 -- Solo Pro II MVP -- 172.26.2.163;110;Lane 2;3/5/2012;23:15:00;100;15 Minutes;;;;;;232;58;64.844;0;34;16;3;5;15.516;4.156;A;62.141;2.309;3.730;
040549FF0402B521;IDS-03B -- ??????-?????? -- 1 -- None -- 80 -- 0 -- Solo Pro II MVP -- 172.26.2.163;113;Total;3/5/2012;23:15:00;100;15 Minutes;;;;;;118;59;64.914;0;35;16;3;5;255.996;2.094;A;62.246;1.168;1.895;
040549FF0402B521;IDS-03B -- ??????-?????? -- 1 -- None -- 80 -- 0 -- Solo Pro II MVP -- 172.26.2.163;109;Lane 1;3/5/2012;23:30:00;100;15 Minutes;;;;;;12;3;59.000;0;1;2;0;0;255.996;0.117;A;58.879;0.102;0.203;
040549FF0402B521;IDS-03B -- ??????-?????? -- 1 -- None -- 80 -- 0 -- Solo Pro II MVP -- 172.26.2.163;110;Lane 2;3/5/2012;23:30:00;100;15 Minutes;;;;;;216;54;64.000;0;34;11;1;7;16.664;3.809;A;60.809;2.293;3.551;
040549FF0402B521;IDS-03B -- ??????-?????? -- 1 -- None -- 80 -- 0 -- Solo Pro II MVP -- 172.26.2.163;113;Total;3/5/2012;23:30:00;100;15 Minutes;;;;;;114;57;63.734;0;35;13;1;7;158.332;1.961;A;60.707;1.199;1.875;
040549FF0402B521;IDS-03B -- ??????-?????? -- 1 -- None -- 80 -- 0 -- Solo Pro II MVP -- 172.26.2.163;109;Lane 1;3/5/2012;23:45:00;100;15 Minutes;;;;;;20;5;60.000;0;5;0;0;0;180.000;0.141;A;59.008;0.133;0.336;
040549FF0402B521;IDS-03B -- ??????-?????? -- 1 -- None -- 80 -- 0 -- Solo Pro II MVP -- 172.26.2.163;110;Lane 2;3/5/2012;23:45:00;100;15 Minutes;;;;;;220;55;64.344;0;31;17;2;5;16.363;3.926;A;61.250;2.246;3.590;
040549FF0402B521;IDS-03B -- ??????-?????? -- 1 -- None -- 80 -- 0 -- Solo Pro II MVP -- 172.26.2.163;113;Total;3/5/2012;23:45:00;100;15 Minutes;;;;;;120;60;63.980;0;36;17;2;5;98.180;2.031;A;61.059;1.191;1.965;
