CPU Identifier;Autoscope Description;Detector ID;Detector Title;Date;Time;Status;Data Interval;Ticks (millisec.);State;Speed;Length;Class;Average Flow Rate;Volume;Arithmetic Mean Speed;Class A Count;Class B Count;Class C Count;Class D Count;Class E Count;Average Time Headway;Average Time Occupancy;Level Of Service;Space Mean Speed;Space Occupancy;Density;
040548FFE3D3D021;IDS-09B -- ?????-????? (????????) -- 1 -- None -- 71 -- 0 -- Solo Pro II MVP -- 172.26.2.169;109;Lane 1;3/5/2012;0:00:00;100;15 Minutes;;;;;;12;3;19.332;0;3;0;0;0;255.996;0.066;A;19.258;0.000;0.621;
040548FFE3D3D021;IDS-09B -- ?????-????? (????????) -- 1 -- None -- 71 -- 0 -- Solo Pro II MVP -- 172.26.2.169;110;Lane 2;3/5/2012;0:00:00;100;15 Minutes;;;;;;148;37;47.648;0;32;4;0;1;24.324;2.582;A;40.828;1.352;3.621;
040548FFE3D3D021;IDS-09B -- ?????-????? (????????) -- 1 -- None -- 71 -- 0 -- Solo Pro II MVP -- 172.26.2.169;113;Total;3/5/2012;0:00:00;100;15 Minutes;;;;;;80;40;45.523;0;35;4;0;1;162.160;1.324;A;37.664;0.734;2.121;
040548FFE3D3D021;IDS-09B -- ?????-????? (????????) -- 1 -- None -- 71 -- 0 -- Solo Pro II MVP -- 172.26.2.169;109;Lane 1;3/5/2012;0:15:00;100;15 Minutes;;;;;;0;0;0.000;0;0;0;0;0;255.996;0.000;A;0.000;100.000;0.000;
040548FFE3D3D021;IDS-09B -- ?????-????? (????????) -- 1 -- None -- 71 -- 0 -- Solo Pro II MVP -- 172.26.2.169;110;Lane 2;3/5/2012;0:15:00;100;15 Minutes;;;;;;152;38;41.707;0;28;7;2;1;23.684;2.625;A;37.168;1.805;4.086;
040548FFE3D3D021;IDS-09B -- ?????-????? (????????) -- 1 -- None -- 71 -- 0 -- Solo Pro II MVP -- 172.26.2.169;113;Total;3/5/2012;0:15:00;100;15 Minutes;;;;;;76;38;41.707;0;28;7;2;1;255.996;1.313;A;37.168;0.902;2.043;
040548FFE3D3D021;IDS-09B -- ?????-????? (????????) -- 1 -- None -- 71 -- 0 -- Solo Pro II MVP -- 172.26.2.169;109;Lane 1;3/5/2012;0:30:00; 99;15 Minutes;;;;;;0;0;0.000;0;0;0;0;0;255.996;0.000;A;0.000;100.000;0.000;
040548FFE3D3D021;IDS-09B -- ?????-????? (????????) -- 1 -- None -- 71 -- 0 -- Solo Pro II MVP -- 172.26.2.169;110;Lane 2;3/5/2012;0:30:00; 99;15 Minutes;;;;;;120;30;38.863;0;25;3;0;0;30.000;2.516;A;29.816;1.168;4.023;
040548FFE3D3D021;IDS-09B -- ?????-????? (????????) -- 1 -- None -- 71 -- 0 -- Solo Pro II MVP -- 172.26.2.169;113;Total;3/5/2012;0:30:00; 99;15 Minutes;;;;;;60;30;38.863;0;25;3;0;0;255.996;1.258;A;29.816;0.582;2.012;
040548FFE3D3D021;IDS-09B -- ?????-????? (????????) -- 1 -- None -- 71 -- 0 -- Solo Pro II MVP -- 172.26.2.169;109;Lane 1;3/5/2012;0:45:00;100;15 Minutes;;;;;;0;0;0.000;0;0;0;0;0;255.996;0.000;A;0.000;100.000;0.000;
040548FFE3D3D021;IDS-09B -- ?????-????? (????????) -- 1 -- None -- 71 -- 0 -- Solo Pro II MVP -- 172.26.2.169;110;Lane 2;3/5/2012;0:45:00;100;15 Minutes;;;;;;152;38;39.262;0;35;1;2;0;23.684;2.293;A;32.922;1.605;4.613;
040548FFE3D3D021;IDS-09B -- ?????-????? (????????) -- 1 -- None -- 71 -- 0 -- Solo Pro II MVP -- 172.26.2.169;113;Total;3/5/2012;0:45:00;100;15 Minutes;;;;;;76;38;39.262;0;35;1;2;0;255.996;1.145;A;32.922;0.801;2.305;
040548FFE3D3D021;IDS-09B -- ?????-????? (????????) -- 1 -- None -- 71 -- 0 -- Solo Pro II MVP -- 172.26.2.169;109;Lane 1;3/5/2012;1:00:00;100;15 Minutes;;;;;;0;0;0.000;0;0;0;0;0;255.996;0.000;A;0.000;100.000;0.000;
040548FFE3D3D021;IDS-09B -- ?????-????? (????????) -- 1 -- None -- 71 -- 0 -- Solo Pro II MVP -- 172.26.2.169;110;Lane 2;3/5/2012;1:00:00;100;15 Minutes;;;;;;148;37;38.809;0;29;7;1;0;24.324;3.297;A;32.934;1.758;4.492;
040548FFE3D3D021;IDS-09B -- ?????-????? (????????) -- 1 -- None -- 71 -- 0 -- Solo Pro II MVP -- 172.26.2.169;113;Total;3/5/2012;1:00:00;100;15 Minutes;;;;;;74;37;38.809;0;29;7;1;0;255.996;1.648;A;32.934;0.879;2.246;
040548FFE3D3D021;IDS-09B -- ?????-????? (????????) -- 1 -- None -- 71 -- 0 -- Solo Pro II MVP -- 172.26.2.169;109;Lane 1;3/5/2012;1:15:00;100;15 Minutes;;;;;;0;0;0.000;0;0;0;0;0;255.996;0.000;A;0.000;100.000;0.000;
040548FFE3D3D021;IDS-09B -- ?????-????? (????????) -- 1 -- None -- 71 -- 0 -- Solo Pro II MVP -- 172.26.2.169;110;Lane 2;3/5/2012;1:15:00;100;15 Minutes;;;;;;148;37;39.621;0;32;5;0;0;24.324;2.723;A;32.309;1.570;4.578;
040548FFE3D3D021;IDS-09B -- ?????-????? (????????) -- 1 -- None -- 71 -- 0 -- Solo Pro II MVP -- 172.26.2.169;113;Total;3/5/2012;1:15:00;100;15 Minutes;;;;;;74;37;39.621;0;32;5;0;0;255.996;1.359;A;32.309;0.785;2.289;
040548FFE3D3D021;IDS-09B -- ?????-????? (????????) -- 1 -- None -- 71 -- 0 -- Solo Pro II MVP -- 172.26.2.169;109;Lane 1;3/5/2012;1:30:00;100;15 Minutes;;;;;;4;1;15.000;0;1;0;0;0;255.996;0.039;A;15.000;0.000;0.266;
040548FFE3D3D021;IDS-09B -- ?????-????? (????????) -- 1 -- None -- 71 -- 0 -- Solo Pro II MVP -- 172.26.2.169;110;Lane 2;3/5/2012;1:30:00;100;15 Minutes;;;;;;124;31;44.449;0;26;4;0;0;29.031;2.363;A;35.039;1.113;3.535;
040548FFE3D3D021;IDS-09B -- ?????-????? (????????) -- 1 -- None -- 71 -- 0 -- Solo Pro II MVP -- 172.26.2.169;113;Total;3/5/2012;1:30:00;100;15 Minutes;;;;;;64;32;43.531;0;27;4;0;0;255.996;1.199;A;33.637;0.574;1.902;
040548FFE3D3D021;IDS-09B -- ?????-????? (????????) -- 1 -- None -- 71 -- 0 -- Solo Pro II MVP -- 172.26.2.169;109;Lane 1;3/5/2012;1:45:00;100;15 Minutes;;;;;;0;0;0.000;0;0;0;0;0;255.996;0.000;A;0.000;100.000;0.000;
040548FFE3D3D021;IDS-09B -- ?????-????? (????????) -- 1 -- None -- 71 -- 0 -- Solo Pro II MVP -- 172.26.2.169;110;Lane 2;3/5/2012;1:45:00;100;15 Minutes;;;;;;172;43;37.648;0;36;6;0;1;20.930;3.188;A;32.297;2.082;5.324;
040548FFE3D3D021;IDS-09B -- ?????-????? (????????) -- 1 -- None -- 71 -- 0 -- Solo Pro II MVP -- 172.26.2.169;113;Total;3/5/2012;1:45:00;100;15 Minutes;;;;;;86;43;37.648;0;36;6;0;1;255.996;1.594;A;32.297;1.039;2.660;
040548FFE3D3D021;IDS-09B -- ?????-????? (????????) -- 1 -- None -- 71 -- 0 -- Solo Pro II MVP -- 172.26.2.169;109;Lane 1;3/5/2012;2:00:00;100;15 Minutes;;;;;;0;0;0.000;0;0;0;0;0;255.996;0.000;A;0.000;100.000;0.000;
040548FFE3D3D021;IDS-09B -- ?????-????? (????????) -- 1 -- None -- 71 -- 0 -- Solo Pro II MVP -- 172.26.2.169;110;Lane 2;3/5/2012;2:00:00;100;15 Minutes;;;;;;156;39;45.000;0;31;6;0;1;23.074;2.457;A;40.059;1.508;3.891;
040548FFE3D3D021;IDS-09B -- ?????-????? (????????) -- 1 -- None -- 71 -- 0 -- Solo Pro II MVP -- 172.26.2.169;113;Total;3/5/2012;2:00:00;100;15 Minutes;;;;;;78;39;45.000;0;31;6;0;1;255.996;1.227;A;40.059;0.754;1.945;
040548FFE3D3D021;IDS-09B -- ?????-????? (????????) -- 1 -- None -- 71 -- 0 -- Solo Pro II MVP -- 172.26.2.169;109;Lane 1;3/5/2012;2:15:00;100;15 Minutes;;;;;;0;0;0.000;0;0;0;0;0;255.996;0.000;A;0.000;100.000;0.000;
040548FFE3D3D021;IDS-09B -- ?????-????? (????????) -- 1 -- None -- 71 -- 0 -- Solo Pro II MVP -- 172.26.2.169;110;Lane 2;3/5/2012;2:15:00;100;15 Minutes;;;;;;156;39;38.766;0;36;2;1;0;23.074;2.656;A;32.449;1.621;4.805;
040548FFE3D3D021;IDS-09B -- ?????-????? (????????) -- 1 -- None -- 71 -- 0 -- Solo Pro II MVP -- 172.26.2.169;113;Total;3/5/2012;2:15:00;100;15 Minutes;;;;;;78;39;38.766;0;36;2;1;0;255.996;1.328;A;32.449;0.809;2.402;
040548FFE3D3D021;IDS-09B -- ?????-????? (????????) -- 1 -- None -- 71 -- 0 -- Solo Pro II MVP -- 172.26.2.169;109;Lane 1;3/5/2012;2:30:00;100;15 Minutes;;;;;;0;0;0.000;0;0;0;0;0;255.996;0.000;A;0.000;100.000;0.000;
040548FFE3D3D021;IDS-09B -- ?????-????? (????????) -- 1 -- None -- 71 -- 0 -- Solo Pro II MVP -- 172.26.2.169;110;Lane 2;3/5/2012;2:30:00;100;15 Minutes;;;;;;128;32;41.063;0;31;1;0;0;28.125;2.156;A;33.102;1.215;3.863;
040548FFE3D3D021;IDS-09B -- ?????-????? (????????) -- 1 -- None -- 71 -- 0 -- Solo Pro II MVP -- 172.26.2.169;113;Total;3/5/2012;2:30:00;100;15 Minutes;;;;;;64;32;41.063;0;31;1;0;0;255.996;1.078;A;33.102;0.605;1.930;
040548FFE3D3D021;IDS-09B -- ?????-????? (????????) -- 1 -- None -- 71 -- 0 -- Solo Pro II MVP -- 172.26.2.169;109;Lane 1;3/5/2012;2:45:00;100;15 Minutes;;;;;;0;0;0.000;0;0;0;0;0;255.996;0.000;A;0.000;100.000;0.000;
040548FFE3D3D021;IDS-09B -- ?????-????? (????????) -- 1 -- None -- 71 -- 0 -- Solo Pro II MVP -- 172.26.2.169;110;Lane 2;3/5/2012;2:45:00;100;15 Minutes;;;;;;132;33;44.090;0;25;6;1;0;27.270;2.793;A;37.398;1.398;3.527;
040548FFE3D3D021;IDS-09B -- ?????-????? (????????) -- 1 -- None -- 71 -- 0 -- Solo Pro II MVP -- 172.26.2.169;113;Total;3/5/2012;2:45:00;100;15 Minutes;;;;;;66;33;44.090;0;25;6;1;0;255.996;1.395;A;37.398;0.699;1.762;
040548FFE3D3D021;IDS-09B -- ?????-????? (????????) -- 1 -- None -- 71 -- 0 -- Solo Pro II MVP -- 172.26.2.169;109;Lane 1;3/5/2012;3:00:00;100;15 Minutes;;;;;;0;0;0.000;0;0;0;0;0;255.996;0.000;A;0.000;100.000;0.000;
040548FFE3D3D021;IDS-09B -- ?????-????? (????????) -- 1 -- None -- 71 -- 0 -- Solo Pro II MVP -- 172.26.2.169;110;Lane 2;3/5/2012;3:00:00;100;15 Minutes;;;;;;116;29;33.445;0;25;4;0;0;31.031;2.234;A;28.535;1.387;4.063;
040548FFE3D3D021;IDS-09B -- ?????-????? (????????) -- 1 -- None -- 71 -- 0 -- Solo Pro II MVP -- 172.26.2.169;113;Total;3/5/2012;3:00:00;100;15 Minutes;;;;;;58;29;33.445;0;25;4;0;0;255.996;1.117;A;28.535;0.691;2.031;
040548FFE3D3D021;IDS-09B -- ?????-????? (????????) -- 1 -- None -- 71 -- 0 -- Solo Pro II MVP -- 172.26.2.169;109;Lane 1;3/5/2012;3:15:00;100;15 Minutes;;;;;;0;0;0.000;0;0;0;0;0;255.996;0.000;A;0.000;100.000;0.000;
040548FFE3D3D021;IDS-09B -- ?????-????? (????????) -- 1 -- None -- 71 -- 0 -- Solo Pro II MVP -- 172.26.2.169;110;Lane 2;3/5/2012;3:15:00;100;15 Minutes;;;;;;164;41;39.000;0;38;2;1;0;21.949;2.461;A;31.855;1.645;5.145;
040548FFE3D3D021;IDS-09B -- ?????-????? (????????) -- 1 -- None -- 71 -- 0 -- Solo Pro II MVP -- 172.26.2.169;113;Total;3/5/2012;3:15:00;100;15 Minutes;;;;;;82;41;39.000;0;38;2;1;0;255.996;1.230;A;31.855;0.820;2.570;
040548FFE3D3D021;IDS-09B -- ?????-????? (????????) -- 1 -- None -- 71 -- 0 -- Solo Pro II MVP -- 172.26.2.169;109;Lane 1;3/5/2012;3:30:00;100;15 Minutes;;;;;;4;1;20.000;0;1;0;0;0;255.996;0.059;A;20.004;0.063;0.199;
040548FFE3D3D021;IDS-09B -- ?????-????? (????????) -- 1 -- None -- 71 -- 0 -- Solo Pro II MVP -- 172.26.2.169;110;Lane 2;3/5/2012;3:30:00;100;15 Minutes;;;;;;128;32;36.969;0;27;1;2;1;28.125;2.301;A;27.441;1.617;4.664;
040548FFE3D3D021;IDS-09B -- ?????-????? (????????) -- 1 -- None -- 71 -- 0 -- Solo Pro II MVP -- 172.26.2.169;113;Total;3/5/2012;3:30:00;100;15 Minutes;;;;;;66;33;36.453;0;28;1;2;1;255.996;1.180;A;27.137;0.836;2.430;
040548FFE3D3D021;IDS-09B -- ?????-????? (????????) -- 1 -- None -- 71 -- 0 -- Solo Pro II MVP -- 172.26.2.169;109;Lane 1;3/5/2012;3:45:00;100;15 Minutes;;;;;;0;0;0.000;0;0;0;0;0;255.996;0.000;A;0.000;100.000;0.000;
040548FFE3D3D021;IDS-09B -- ?????-????? (????????) -- 1 -- None -- 71 -- 0 -- Solo Pro II MVP -- 172.26.2.169;110;Lane 2;3/5/2012;3:45:00;100;15 Minutes;;;;;;144;36;37.941;0;34;2;0;0;25.000;2.250;A;32.953;1.535;4.367;
040548FFE3D3D021;IDS-09B -- ?????-????? (????????) -- 1 -- None -- 71 -- 0 -- Solo Pro II MVP -- 172.26.2.169;113;Total;3/5/2012;3:45:00;100;15 Minutes;;;;;;72;36;37.941;0;34;2;0;0;255.996;1.125;A;32.953;0.766;2.184;
040548FFE3D3D021;IDS-09B -- ?????-????? (????????) -- 1 -- None -- 71 -- 0 -- Solo Pro II MVP -- 172.26.2.169;109;Lane 1;3/5/2012;4:00:00;100;15 Minutes;;;;;;0;0;0.000;0;0;0;0;0;255.996;0.000;A;0.000;100.000;0.000;
040548FFE3D3D021;IDS-09B -- ?????-????? (????????) -- 1 -- None -- 71 -- 0 -- Solo Pro II MVP -- 172.26.2.169;110;Lane 2;3/5/2012;4:00:00;100;15 Minutes;;;;;;196;49;29.551;0;44;5;0;0;18.367;3.852;A;26.820;2.688;7.305;
040548FFE3D3D021;IDS-09B -- ?????-????? (????????) -- 1 -- None -- 71 -- 0 -- Solo Pro II MVP -- 172.26.2.169;113;Total;3/5/2012;4:00:00;100;15 Minutes;;;;;;98;49;29.551;0;44;5;0;0;255.996;1.926;A;26.820;1.344;3.652;
040548FFE3D3D021;IDS-09B -- ?????-????? (????????) -- 1 -- None -- 71 -- 0 -- Solo Pro II MVP -- 172.26.2.169;109;Lane 1;3/5/2012;4:15:00;100;15 Minutes;;;;;;0;0;0.000;0;0;0;0;0;255.996;0.000;A;0.000;100.000;0.000;
040548FFE3D3D021;IDS-09B -- ?????-????? (????????) -- 1 -- None -- 71 -- 0 -- Solo Pro II MVP -- 172.26.2.169;110;Lane 2;3/5/2012;4:15:00;100;15 Minutes;;;;;;172;43;30.441;0;38;4;0;1;20.930;2.969;A;25.246;2.430;6.813;
040548FFE3D3D021;IDS-09B -- ?????-????? (????????) -- 1 -- None -- 71 -- 0 -- Solo Pro II MVP -- 172.26.2.169;113;Total;3/5/2012;4:15:00;100;15 Minutes;;;;;;86;43;30.441;0;38;4;0;1;255.996;1.484;A;25.246;1.215;3.406;
040548FFE3D3D021;IDS-09B -- ?????-????? (????????) -- 1 -- None -- 71 -- 0 -- Solo Pro II MVP -- 172.26.2.169;109;Lane 1;3/5/2012;4:30:00;100;15 Minutes;;;;;;4;1;21.000;0;1;0;0;0;255.996;0.070;A;21.004;0.000;0.188;
040548FFE3D3D021;IDS-09B -- ?????-????? (????????) -- 1 -- None -- 71 -- 0 -- Solo Pro II MVP -- 172.26.2.169;110;Lane 2;3/5/2012;4:30:00;100;15 Minutes;;;;;;188;47;36.805;0;40;5;1;0;19.148;3.488;A;33.176;2.082;5.664;
040548FFE3D3D021;IDS-09B -- ?????-????? (????????) -- 1 -- None -- 71 -- 0 -- Solo Pro II MVP -- 172.26.2.169;113;Total;3/5/2012;4:30:00;100;15 Minutes;;;;;;96;48;36.477;0;41;5;1;0;255.996;1.777;A;32.781;1.070;2.926;
040548FFE3D3D021;IDS-09B -- ?????-????? (????????) -- 1 -- None -- 71 -- 0 -- Solo Pro II MVP -- 172.26.2.169;109;Lane 1;3/5/2012;4:45:00;100;15 Minutes;;;;;;0;0;0.000;0;0;0;0;0;255.996;0.000;A;0.000;100.000;0.000;
040548FFE3D3D021;IDS-09B -- ?????-????? (????????) -- 1 -- None -- 71 -- 0 -- Solo Pro II MVP -- 172.26.2.169;110;Lane 2;3/5/2012;4:45:00;100;15 Minutes;;;;;;180;45;31.887;0;44;0;1;0;20.000;3.387;A;27.219;2.145;6.609;
040548FFE3D3D021;IDS-09B -- ?????-????? (????????) -- 1 -- None -- 71 -- 0 -- Solo Pro II MVP -- 172.26.2.169;113;Total;3/5/2012;4:45:00;100;15 Minutes;;;;;;90;45;31.887;0;44;0;1;0;255.996;1.691;A;27.219;1.070;3.305;
040548FFE3D3D021;IDS-09B -- ?????-????? (????????) -- 1 -- None -- 71 -- 0 -- Solo Pro II MVP -- 172.26.2.169;109;Lane 1;3/5/2012;5:00:00;100;15 Minutes;;;;;;0;0;0.000;0;0;0;0;0;255.996;0.000;A;0.000;100.000;0.000;
040548FFE3D3D021;IDS-09B -- ?????-????? (????????) -- 1 -- None -- 71 -- 0 -- Solo Pro II MVP -- 172.26.2.169;110;Lane 2;3/5/2012;5:00:00;100;15 Minutes;;;;;;260;65;36.738;0;55;8;2;0;13.844;4.953;A;32.766;2.938;7.934;
040548FFE3D3D021;IDS-09B -- ?????-????? (????????) -- 1 -- None -- 71 -- 0 -- Solo Pro II MVP -- 172.26.2.169;113;Total;3/5/2012;5:00:00;100;15 Minutes;;;;;;130;65;36.738;0;55;8;2;0;255.996;2.477;A;32.766;1.469;3.965;
040548FFE3D3D021;IDS-09B -- ?????-????? (????????) -- 1 -- None -- 71 -- 0 -- Solo Pro II MVP -- 172.26.2.169;109;Lane 1;3/5/2012;5:15:00;100;15 Minutes;;;;;;0;0;0.000;0;0;0;0;0;255.996;0.000;A;0.000;100.000;0.000;
040548FFE3D3D021;IDS-09B -- ?????-????? (????????) -- 1 -- None -- 71 -- 0 -- Solo Pro II MVP -- 172.26.2.169;110;Lane 2;3/5/2012;5:15:00;100;15 Minutes;;;;;;288;72;38.402;0;63;8;0;1;12.500;4.598;A;33.359;3.164;8.633;
040548FFE3D3D021;IDS-09B -- ?????-????? (????????) -- 1 -- None -- 71 -- 0 -- Solo Pro II MVP -- 172.26.2.169;113;Total;3/5/2012;5:15:00;100;15 Minutes;;;;;;144;72;38.402;0;63;8;0;1;255.996;2.297;A;33.359;1.582;4.316;
040548FFE3D3D021;IDS-09B -- ?????-????? (????????) -- 1 -- None -- 71 -- 0 -- Solo Pro II MVP -- 172.26.2.169;109;Lane 1;3/5/2012;5:30:00;100;15 Minutes;;;;;;4;1;51.000;0;1;0;0;0;255.996;0.027;A;51.000;0.027;0.078;
040548FFE3D3D021;IDS-09B -- ?????-????? (????????) -- 1 -- None -- 71 -- 0 -- Solo Pro II MVP -- 172.26.2.169;110;Lane 2;3/5/2012;5:30:00;100;15 Minutes;;;;;;292;73;35.984;0;68;5;0;0;12.328;4.883;A;31.039;3.195;9.406;
040548FFE3D3D021;IDS-09B -- ?????-????? (????????) -- 1 -- None -- 71 -- 0 -- Solo Pro II MVP -- 172.26.2.169;113;Total;3/5/2012;5:30:00;100;15 Minutes;;;;;;148;74;36.188;0;69;5;0;0;255.996;2.453;A;31.203;1.609;4.742;
040548FFE3D3D021;IDS-09B -- ?????-????? (????????) -- 1 -- None -- 71 -- 0 -- Solo Pro II MVP -- 172.26.2.169;109;Lane 1;3/5/2012;5:45:00;100;15 Minutes;;;;;;0;0;0.000;0;0;0;0;0;255.996;0.000;A;0.000;100.000;0.000;
040548FFE3D3D021;IDS-09B -- ?????-????? (????????) -- 1 -- None -- 71 -- 0 -- Solo Pro II MVP -- 172.26.2.169;110;Lane 2;3/5/2012;5:45:00;100;15 Minutes;;;;;;268;67;41.594;0;56;11;0;0;13.430;3.996;A;36.355;2.594;7.371;
040548FFE3D3D021;IDS-09B -- ?????-????? (????????) -- 1 -- None -- 71 -- 0 -- Solo Pro II MVP -- 172.26.2.169;113;Total;3/5/2012;5:45:00;100;15 Minutes;;;;;;134;67;41.594;0;56;11;0;0;255.996;1.996;A;36.355;1.297;3.684;
040548FFE3D3D021;IDS-09B -- ?????-????? (????????) -- 1 -- None -- 71 -- 0 -- Solo Pro II MVP -- 172.26.2.169;109;Lane 1;3/5/2012;6:00:00;100;15 Minutes;;;;;;8;2;43.000;0;2;0;0;0;255.996;0.301;A;39.078;0.043;0.203;
040548FFE3D3D021;IDS-09B -- ?????-????? (????????) -- 1 -- None -- 71 -- 0 -- Solo Pro II MVP -- 172.26.2.169;110;Lane 2;3/5/2012;6:00:00;100;15 Minutes;;;;;;316;79;47.063;0;35;22;15;7;11.391;6.879;A;42.297;5.098;7.469;
040548FFE3D3D021;IDS-09B -- ?????-????? (????????) -- 1 -- None -- 71 -- 0 -- Solo Pro II MVP -- 172.26.2.169;113;Total;3/5/2012;6:00:00;100;15 Minutes;;;;;;162;81;46.961;0;37;22;15;7;230.695;3.590;A;42.211;2.574;3.836;
040548FFE3D3D021;IDS-09B -- ?????-????? (????????) -- 1 -- None -- 71 -- 0 -- Solo Pro II MVP -- 172.26.2.169;109;Lane 1;3/5/2012;6:15:00;100;15 Minutes;;;;;;4;1;59.000;0;1;0;0;0;255.996;0.016;A;59.039;0.016;0.066;
040548FFE3D3D021;IDS-09B -- ?????-????? (????????) -- 1 -- None -- 71 -- 0 -- Solo Pro II MVP -- 172.26.2.169;110;Lane 2;3/5/2012;6:15:00;100;15 Minutes;;;;;;296;74;50.902;0;26;32;6;10;12.160;6.270;A;46.480;4.523;6.367;
040548FFE3D3D021;IDS-09B -- ?????-????? (????????) -- 1 -- None -- 71 -- 0 -- Solo Pro II MVP -- 172.26.2.169;113;Total;3/5/2012;6:15:00;100;15 Minutes;;;;;;150;75;51.012;0;27;32;6;10;255.996;3.141;A;46.613;2.266;3.215;
040548FFE3D3D021;IDS-09B -- ?????-????? (????????) -- 1 -- None -- 71 -- 0 -- Solo Pro II MVP -- 172.26.2.169;109;Lane 1;3/5/2012;6:30:00;100;15 Minutes;;;;;;12;3;29.664;0;1;2;0;0;255.996;0.848;A;23.363;0.250;0.512;
040548FFE3D3D021;IDS-09B -- ?????-????? (????????) -- 1 -- None -- 71 -- 0 -- Solo Pro II MVP -- 172.26.2.169;110;Lane 2;3/5/2012;6:30:00;100;15 Minutes;;;;;;352;88;53.328;0;42;26;11;9;10.227;6.492;A;46.621;4.605;7.547;
040548FFE3D3D021;IDS-09B -- ?????-????? (????????) -- 1 -- None -- 71 -- 0 -- Solo Pro II MVP -- 172.26.2.169;113;Total;3/5/2012;6:30:00;100;15 Minutes;;;;;;182;91;52.547;0;43;28;11;9;155.113;3.668;A;45.141;2.406;4.031;
040548FFE3D3D021;IDS-09B -- ?????-????? (????????) -- 1 -- None -- 71 -- 0 -- Solo Pro II MVP -- 172.26.2.169;109;Lane 1;3/5/2012;6:45:00;100;15 Minutes;;;;;;12;3;55.332;0;3;0;0;0;255.996;0.113;A;51.695;0.098;0.230;
040548FFE3D3D021;IDS-09B -- ?????-????? (????????) -- 1 -- None -- 71 -- 0 -- Solo Pro II MVP -- 172.26.2.169;110;Lane 2;3/5/2012;6:45:00;100;15 Minutes;;;;;;352;88;47.988;0;41;28;10;9;10.227;7.219;A;40.582;5.496;8.672;
040548FFE3D3D021;IDS-09B -- ?????-????? (????????) -- 1 -- None -- 71 -- 0 -- Solo Pro II MVP -- 172.26.2.169;113;Total;3/5/2012;6:45:00;100;15 Minutes;;;;;;182;91;48.230;0;44;28;10;9;155.113;3.664;A;40.871;2.789;4.449;
040548FFE3D3D021;IDS-09B -- ?????-????? (????????) -- 1 -- None -- 71 -- 0 -- Solo Pro II MVP -- 172.26.2.169;109;Lane 1;3/5/2012;7:00:00;100;15 Minutes;;;;;;28;7;53.000;0;3;3;1;0;128.570;0.590;A;44.137;0.332;0.633;
040548FFE3D3D021;IDS-09B -- ?????-????? (????????) -- 1 -- None -- 71 -- 0 -- Solo Pro II MVP -- 172.26.2.169;110;Lane 2;3/5/2012;7:00:00;100;15 Minutes;;;;;;432;108;54.820;0;54;35;7;12;8.332;8.813;A;47.098;5.582;9.172;
040548FFE3D3D021;IDS-09B -- ?????-????? (????????) -- 1 -- None -- 71 -- 0 -- Solo Pro II MVP -- 172.26.2.169;113;Total;3/5/2012;7:00:00;100;15 Minutes;;;;;;230;115;54.711;0;57;38;8;12;68.449;4.699;A;46.906;2.957;4.902;
040548FFE3D3D021;IDS-09B -- ?????-????? (????????) -- 1 -- None -- 71 -- 0 -- Solo Pro II MVP -- 172.26.2.169;109;Lane 1;3/5/2012;7:15:00;100;15 Minutes;;;;;;32;8;48.375;0;4;2;0;0;112.500;0.445;A;44.656;0.227;0.715;
040548FFE3D3D021;IDS-09B -- ?????-????? (????????) -- 1 -- None -- 71 -- 0 -- Solo Pro II MVP -- 172.26.2.169;110;Lane 2;3/5/2012;7:15:00;100;15 Minutes;;;;;;464;116;58.344;0;62;40;4;9;7.758;8.289;A;52.898;5.090;8.770;
040548FFE3D3D021;IDS-09B -- ?????-????? (????????) -- 1 -- None -- 71 -- 0 -- Solo Pro II MVP -- 172.26.2.169;113;Total;3/5/2012;7:15:00;100;15 Minutes;;;;;;248;124;57.699;0;66;42;4;9;60.129;4.367;A;52.273;2.668;4.742;
040548FFE3D3D021;IDS-09B -- ?????-????? (????????) -- 1 -- None -- 71 -- 0 -- Solo Pro II MVP -- 172.26.2.169;109;Lane 1;3/5/2012;7:30:00;100;15 Minutes;;;;;;64;16;44.000;0;11;5;0;0;56.250;1.430;A;31.047;0.664;2.059;
040548FFE3D3D021;IDS-09B -- ?????-????? (????????) -- 1 -- None -- 71 -- 0 -- Solo Pro II MVP -- 172.26.2.169;110;Lane 2;3/5/2012;7:30:00;100;15 Minutes;;;;;;476;119;48.016;0;74;35;3;7;7.563;8.543;A;43.090;5.590;11.043;
040548FFE3D3D021;IDS-09B -- ?????-????? (????????) -- 1 -- None -- 71 -- 0 -- Solo Pro II MVP -- 172.26.2.169;113;Total;3/5/2012;7:30:00;100;15 Minutes;;;;;;270;135;47.539;0;85;40;3;7;31.906;4.984;A;41.195;3.129;6.551;
040548FFE3D3D021;IDS-09B -- ?????-????? (????????) -- 1 -- None -- 71 -- 0 -- Solo Pro II MVP -- 172.26.2.169;109;Lane 1;3/5/2012;7:45:00;100;15 Minutes;;;;;;52;13;54.305;0;9;1;1;0;69.230;1.012;A;38.719;0.348;1.340;
040548FFE3D3D021;IDS-09B -- ?????-????? (????????) -- 1 -- None -- 71 -- 0 -- Solo Pro II MVP -- 172.26.2.169;110;Lane 2;3/5/2012;7:45:00;100;15 Minutes;;;;;;568;142;57.371;0;86;41;6;8;6.336;10.297;A;53.227;5.727;10.668;
040548FFE3D3D021;IDS-09B -- ?????-????? (????????) -- 1 -- None -- 71 -- 0 -- Solo Pro II MVP -- 172.26.2.169;113;Total;3/5/2012;7:45:00;100;15 Minutes;;;;;;310;155;57.113;0;95;42;7;8;37.781;5.652;A;51.605;3.039;6.004;
040548FFE3D3D021;IDS-09B -- ?????-????? (????????) -- 1 -- None -- 71 -- 0 -- Solo Pro II MVP -- 172.26.2.169;109;Lane 1;3/5/2012;8:00:00;100;15 Minutes;;;;;;36;9;40.777;0;6;1;1;0;100.000;0.734;A;33.141;0.359;1.086;
040548FFE3D3D021;IDS-09B -- ?????-????? (????????) -- 1 -- None -- 71 -- 0 -- Solo Pro II MVP -- 172.26.2.169;110;Lane 2;3/5/2012;8:00:00;100;15 Minutes;;;;;;560;140;56.391;0;88;32;10;8;6.426;10.211;A;51.289;5.684;10.918;
040548FFE3D3D021;IDS-09B -- ?????-????? (????????) -- 1 -- None -- 71 -- 0 -- Solo Pro II MVP -- 172.26.2.169;113;Total;3/5/2012;8:00:00;100;15 Minutes;;;;;;298;149;55.449;0;94;33;11;8;53.211;5.473;A;49.648;3.023;6.000;
040548FFE3D3D021;IDS-09B -- ?????-????? (????????) -- 1 -- None -- 71 -- 0 -- Solo Pro II MVP -- 172.26.2.169;109;Lane 1;3/5/2012;8:15:00;100;15 Minutes;;;;;;12;3;58.000;0;2;1;0;0;255.996;0.156;A;57.453;0.094;0.207;
040548FFE3D3D021;IDS-09B -- ?????-????? (????????) -- 1 -- None -- 71 -- 0 -- Solo Pro II MVP -- 172.26.2.169;110;Lane 2;3/5/2012;8:15:00;100;15 Minutes;;;;;;512;128;55.125;0;66;34;9;16;7.031;10.016;A;48.090;6.258;10.645;
040548FFE3D3D021;IDS-09B -- ?????-????? (????????) -- 1 -- None -- 71 -- 0 -- Solo Pro II MVP -- 172.26.2.169;113;Total;3/5/2012;8:15:00;100;15 Minutes;;;;;;262;131;55.188;0;68;35;9;16;153.516;5.086;A;48.270;3.176;5.426;
040548FFE3D3D021;IDS-09B -- ?????-????? (????????) -- 1 -- None -- 71 -- 0 -- Solo Pro II MVP -- 172.26.2.169;109;Lane 1;3/5/2012;8:30:00;100;15 Minutes;;;;;;60;15;41.797;0;13;1;1;0;60.000;1.363;A;31.793;0.648;1.887;
040548FFE3D3D021;IDS-09B -- ?????-????? (????????) -- 1 -- None -- 71 -- 0 -- Solo Pro II MVP -- 172.26.2.169;110;Lane 2;3/5/2012;8:30:00;100;15 Minutes;;;;;;584;146;43.355;0;80;46;15;4;6.164;12.945;A;36.957;7.887;15.801;
040548FFE3D3D021;IDS-09B -- ?????-????? (????????) -- 1 -- None -- 71 -- 0 -- Solo Pro II MVP -- 172.26.2.169;113;Total;3/5/2012;8:30:00;100;15 Minutes;;;;;;322;161;43.211;0;93;47;16;4;33.082;7.152;A;36.406;4.270;8.844;
040548FFE3D3D021;IDS-09B -- ?????-????? (????????) -- 1 -- None -- 71 -- 0 -- Solo Pro II MVP -- 172.26.2.169;109;Lane 1;3/5/2012;8:45:00;100;15 Minutes;;;;;;64;16;38.563;0;14;1;0;0;56.250;1.469;A;30.090;0.605;2.125;
040548FFE3D3D021;IDS-09B -- ?????-????? (????????) -- 1 -- None -- 71 -- 0 -- Solo Pro II MVP -- 172.26.2.169;110;Lane 2;3/5/2012;8:45:00;100;15 Minutes;;;;;;464;116;38.000;0;64;34;8;6;7.758;10.648;A;23.340;6.984;19.879;
040548FFE3D3D021;IDS-09B -- ?????-????? (????????) -- 1 -- None -- 71 -- 0 -- Solo Pro II MVP -- 172.26.2.169;113;Total;3/5/2012;8:45:00;100;15 Minutes;;;;;;264;132;38.066;0;78;35;8;6;32.004;6.059;A;23.992;3.793;11.000;
040548FFE3D3D021;IDS-09B -- ?????-????? (????????) -- 1 -- None -- 71 -- 0 -- Solo Pro II MVP -- 172.26.2.169;109;Lane 1;3/5/2012;9:00:00;100;15 Minutes;;;;;;56;14;48.785;0;12;2;0;0;64.285;0.871;A;42.719;0.480;1.309;
040548FFE3D3D021;IDS-09B -- ?????-????? (????????) -- 1 -- None -- 71 -- 0 -- Solo Pro II MVP -- 172.26.2.169;110;Lane 2;3/5/2012;9:00:00;100;15 Minutes;;;;;;648;162;40.770;0;91;55;7;8;5.555;13.750;A;34.504;9.426;18.777;
040548FFE3D3D021;IDS-09B -- ?????-????? (????????) -- 1 -- None -- 71 -- 0 -- Solo Pro II MVP -- 172.26.2.169;113;Total;3/5/2012;9:00:00;100;15 Minutes;;;;;;352;176;41.406;0;103;57;7;8;34.918;7.309;A;35.039;4.926;10.043;
040548FFE3D3D021;IDS-09B -- ?????-????? (????????) -- 1 -- None -- 71 -- 0 -- Solo Pro II MVP -- 172.26.2.169;109;Lane 1;3/5/2012;9:15:00;100;15 Minutes;;;;;;24;6;30.164;0;4;2;0;0;150.000;0.469;A;25.422;0.418;0.941;
040548FFE3D3D021;IDS-09B -- ?????-????? (????????) -- 1 -- None -- 71 -- 0 -- Solo Pro II MVP -- 172.26.2.169;110;Lane 2;3/5/2012;9:15:00;100;15 Minutes;;;;;;572;143;44.074;0;84;51;1;6;6.293;9.430;A;40.012;7.152;14.293;
040548FFE3D3D021;IDS-09B -- ?????-????? (????????) -- 1 -- None -- 71 -- 0 -- Solo Pro II MVP -- 172.26.2.169;113;Total;3/5/2012;9:15:00;100;15 Minutes;;;;;;298;149;43.516;0;88;53;1;6;78.145;4.949;A;39.105;3.766;7.617;
040548FFE3D3D021;IDS-09B -- ?????-????? (????????) -- 1 -- None -- 71 -- 0 -- Solo Pro II MVP -- 172.26.2.169;109;Lane 1;3/5/2012;9:30:00;100;15 Minutes;;;;;;12;3;35.000;0;3;0;0;0;255.996;0.301;A;29.512;0.152;0.406;
040548FFE3D3D021;IDS-09B -- ?????-????? (????????) -- 1 -- None -- 71 -- 0 -- Solo Pro II MVP -- 172.26.2.169;110;Lane 2;3/5/2012;9:30:00;100;15 Minutes;;;;;;604;151;49.043;0;58;56;18;19;5.957;12.301;A;45.828;9.410;13.176;
040548FFE3D3D021;IDS-09B -- ?????-????? (????????) -- 1 -- None -- 71 -- 0 -- Solo Pro II MVP -- 172.26.2.169;113;Total;3/5/2012;9:30:00;100;15 Minutes;;;;;;308;154;48.770;0;61;56;18;19;152.977;6.301;A;45.340;4.785;6.793;
040548FFE3D3D021;IDS-09B -- ?????-????? (????????) -- 1 -- None -- 71 -- 0 -- Solo Pro II MVP -- 172.26.2.169;109;Lane 1;3/5/2012;9:45:00;100;15 Minutes;;;;;;52;13;41.152;0;12;1;0;0;69.230;0.871;A;30.750;0.555;1.688;
040548FFE3D3D021;IDS-09B -- ?????-????? (????????) -- 1 -- None -- 71 -- 0 -- Solo Pro II MVP -- 172.26.2.169;110;Lane 2;3/5/2012;9:45:00;100;15 Minutes;;;;;;564;141;46.820;0;56;58;14;12;6.383;11.656;A;42.727;8.402;13.199;
040548FFE3D3D021;IDS-09B -- ?????-????? (????????) -- 1 -- None -- 71 -- 0 -- Solo Pro II MVP -- 172.26.2.169;113;Total;3/5/2012;9:45:00;100;15 Minutes;;;;;;308;154;46.344;0;68;59;14;12;37.805;6.262;A;41.367;4.492;7.445;
040548FFE3D3D021;IDS-09B -- ?????-????? (????????) -- 1 -- None -- 71 -- 0 -- Solo Pro II MVP -- 172.26.2.169;109;Lane 1;3/5/2012;10:00:00;100;15 Minutes;;;;;;8;2;71.000;0;2;0;0;0;255.996;0.066;A;70.316;0.043;0.113;
040548FFE3D3D021;IDS-09B -- ?????-????? (????????) -- 1 -- None -- 71 -- 0 -- Solo Pro II MVP -- 172.26.2.169;110;Lane 2;3/5/2012;10:00:00;100;15 Minutes;;;;;;564;141;45.941;0;57;52;18;14;6.383;12.590;A;42.676;8.742;13.215;
040548FFE3D3D021;IDS-09B -- ?????-????? (????????) -- 1 -- None -- 71 -- 0 -- Solo Pro II MVP -- 172.26.2.169;113;Total;3/5/2012;10:00:00;100;15 Minutes;;;;;;286;143;46.293;0;59;52;18;14;228.191;6.328;A;42.910;4.371;6.664;
040548FFE3D3D021;IDS-09B -- ?????-????? (????????) -- 1 -- None -- 71 -- 0 -- Solo Pro II MVP -- 172.26.2.169;109;Lane 1;3/5/2012;10:15:00;100;15 Minutes;;;;;;44;11;31.543;0;8;3;0;0;81.816;0.941;A;26.438;0.531;1.664;
040548FFE3D3D021;IDS-09B -- ?????-????? (????????) -- 1 -- None -- 71 -- 0 -- Solo Pro II MVP -- 172.26.2.169;110;Lane 2;3/5/2012;10:15:00;100;15 Minutes;;;;;;544;136;41.094;0;50;55;16;14;6.617;14.496;A;36.566;9.859;14.875;
040548FFE3D3D021;IDS-09B -- ?????-????? (????????) -- 1 -- None -- 71 -- 0 -- Solo Pro II MVP -- 172.26.2.169;113;Total;3/5/2012;10:15:00;100;15 Minutes;;;;;;294;147;40.379;0;58;58;16;14;44.215;7.719;A;35.551;5.227;8.270;
040548FFE3D3D021;IDS-09B -- ?????-????? (????????) -- 1 -- None -- 71 -- 0 -- Solo Pro II MVP -- 172.26.2.169;109;Lane 1;3/5/2012;10:30:00;100;15 Minutes;;;;;;72;18;35.832;0;13;5;0;0;50.000;1.734;A;31.977;0.953;2.250;
040548FFE3D3D021;IDS-09B -- ?????-????? (????????) -- 1 -- None -- 71 -- 0 -- Solo Pro II MVP -- 172.26.2.169;110;Lane 2;3/5/2012;10:30:00;100;15 Minutes;;;;;;724;181;36.820;0;80;78;14;6;4.969;18.652;A;32.922;11.750;21.988;
040548FFE3D3D021;IDS-09B -- ?????-????? (????????) -- 1 -- None -- 71 -- 0 -- Solo Pro II MVP -- 172.26.2.169;113;Total;3/5/2012;10:30:00;100;15 Minutes;;;;;;398;199;36.730;0;93;83;14;6;27.484;10.191;A;32.832;6.355;12.121;
040548FFE3D3D021;IDS-09B -- ?????-????? (????????) -- 1 -- None -- 71 -- 0 -- Solo Pro II MVP -- 172.26.2.169;109;Lane 1;3/5/2012;10:45:00;100;15 Minutes;;;;;;24;6;34.664;0;4;1;0;0;150.000;0.832;A;26.199;0.203;0.914;
040548FFE3D3D021;IDS-09B -- ?????-????? (????????) -- 1 -- None -- 71 -- 0 -- Solo Pro II MVP -- 172.26.2.169;110;Lane 2;3/5/2012;10:45:00;100;15 Minutes;;;;;;576;144;42.965;0;60;49;22;12;6.250;14.164;A;39.563;9.676;14.559;
040548FFE3D3D021;IDS-09B -- ?????-????? (????????) -- 1 -- None -- 71 -- 0 -- Solo Pro II MVP -- 172.26.2.169;113;Total;3/5/2012;10:45:00;100;15 Minutes;;;;;;300;150;42.633;0;64;50;22;12;78.125;7.496;A;38.770;4.957;7.734;
040548FFE3D3D021;IDS-09B -- ?????-????? (????????) -- 1 -- None -- 71 -- 0 -- Solo Pro II MVP -- 172.26.2.169;109;Lane 1;3/5/2012;11:00:00;100;15 Minutes;;;;;;20;5;34.598;0;2;2;1;0;180.000;0.586;A;26.449;0.375;0.754;
040548FFE3D3D021;IDS-09B -- ?????-????? (????????) -- 1 -- None -- 71 -- 0 -- Solo Pro II MVP -- 172.26.2.169;110;Lane 2;3/5/2012;11:00:00;100;15 Minutes;;;;;;568;142;39.898;0;58;56;19;9;6.336;15.148;A;36.078;10.043;15.742;
040548FFE3D3D021;IDS-09B -- ?????-????? (????????) -- 1 -- None -- 71 -- 0 -- Solo Pro II MVP -- 172.26.2.169;113;Total;3/5/2012;11:00:00;100;15 Minutes;;;;;;294;147;39.719;0;60;58;20;9;93.168;7.867;A;35.637;5.207;8.246;
040548FFE3D3D021;IDS-09B -- ?????-????? (????????) -- 1 -- None -- 71 -- 0 -- Solo Pro II MVP -- 172.26.2.169;109;Lane 1;3/5/2012;11:15:00;100;15 Minutes;;;;;;20;5;55.598;0;4;1;0;0;180.000;0.289;A;39.086;0.172;0.508;
040548FFE3D3D021;IDS-09B -- ?????-????? (????????) -- 1 -- None -- 71 -- 0 -- Solo Pro II MVP -- 172.26.2.169;110;Lane 2;3/5/2012;11:15:00;100;15 Minutes;;;;;;612;153;39.934;0;70;56;16;11;5.879;15.523;A;36.086;10.527;16.957;
040548FFE3D3D021;IDS-09B -- ?????-????? (????????) -- 1 -- None -- 71 -- 0 -- Solo Pro II MVP -- 172.26.2.169;113;Total;3/5/2012;11:15:00;100;15 Minutes;;;;;;316;158;40.430;0;74;57;16;11;92.938;7.906;A;36.176;5.316;8.734;
040548FFE3D3D021;IDS-09B -- ?????-????? (????????) -- 1 -- None -- 71 -- 0 -- Solo Pro II MVP -- 172.26.2.169;109;Lane 1;3/5/2012;11:30:00;100;15 Minutes;;;;;;16;4;30.000;0;4;0;0;0;225.000;0.719;A;24.098;0.238;0.660;
040548FFE3D3D021;IDS-09B -- ?????-????? (????????) -- 1 -- None -- 71 -- 0 -- Solo Pro II MVP -- 172.26.2.169;110;Lane 2;3/5/2012;11:30:00;100;15 Minutes;;;;;;532;133;41.898;0;50;53;16;14;6.766;12.727;A;39.086;9.574;13.609;
040548FFE3D3D021;IDS-09B -- ?????-????? (????????) -- 1 -- None -- 71 -- 0 -- Solo Pro II MVP -- 172.26.2.169;113;Total;3/5/2012;11:30:00;100;15 Minutes;;;;;;274;137;41.555;0;54;53;16;14;115.883;6.723;A;38.387;4.910;7.137;
040548FFE3D3D021;IDS-09B -- ?????-????? (????????) -- 1 -- None -- 71 -- 0 -- Solo Pro II MVP -- 172.26.2.169;109;Lane 1;3/5/2012;11:45:00;100;15 Minutes;;;;;;32;8;31.750;0;2;4;2;0;112.500;1.285;A;27.852;0.691;1.148;
040548FFE3D3D021;IDS-09B -- ?????-????? (????????) -- 1 -- None -- 71 -- 0 -- Solo Pro II MVP -- 172.26.2.169;110;Lane 2;3/5/2012;11:45:00;100;15 Minutes;;;;;;528;132;35.453;0;51;46;20;15;6.816;16.488;A;32.750;11.641;16.121;
040548FFE3D3D021;IDS-09B -- ?????-????? (????????) -- 1 -- None -- 71 -- 0 -- Solo Pro II MVP -- 172.26.2.169;113;Total;3/5/2012;11:45:00;100;15 Minutes;;;;;;280;140;35.242;0;53;50;22;15;59.656;8.887;A;32.426;6.168;8.633;
040548FFE3D3D021;IDS-09B -- ?????-????? (????????) -- 1 -- None -- 71 -- 0 -- Solo Pro II MVP -- 172.26.2.169;109;Lane 1;3/5/2012;12:00:00; 99;15 Minutes;;;;;;16;4;31.250;0;3;0;0;1;225.000;0.699;A;28.254;0.504;0.563;
040548FFE3D3D021;IDS-09B -- ?????-????? (????????) -- 1 -- None -- 71 -- 0 -- Solo Pro II MVP -- 172.26.2.169;110;Lane 2;3/5/2012;12:00:00; 99;15 Minutes;;;;;;564;141;39.836;0;63;50;15;13;6.383;14.902;A;35.914;10.238;15.703;
040548FFE3D3D021;IDS-09B -- ?????-????? (????????) -- 1 -- None -- 71 -- 0 -- Solo Pro II MVP -- 172.26.2.169;113;Total;3/5/2012;12:00:00; 99;15 Minutes;;;;;;290;145;39.598;0;66;50;15;14;115.691;7.801;A;35.648;5.348;8.133;
040548FFE3D3D021;IDS-09B -- ?????-????? (????????) -- 1 -- None -- 71 -- 0 -- Solo Pro II MVP -- 172.26.2.169;109;Lane 1;3/5/2012;12:15:00;100;15 Minutes;;;;;;40;10;53.598;0;5;4;1;0;90.000;0.949;A;42.992;0.438;0.930;
040548FFE3D3D021;IDS-09B -- ?????-????? (????????) -- 1 -- None -- 71 -- 0 -- Solo Pro II MVP -- 172.26.2.169;110;Lane 2;3/5/2012;12:15:00;100;15 Minutes;;;;;;584;146;37.375;0;62;57;13;12;6.164;16.660;A;33.750;10.844;17.301;
040548FFE3D3D021;IDS-09B -- ?????-????? (????????) -- 1 -- None -- 71 -- 0 -- Solo Pro II MVP -- 172.26.2.169;113;Total;3/5/2012;12:15:00;100;15 Minutes;;;;;;312;156;38.414;0;67;61;14;12;48.082;8.805;A;34.223;5.578;9.113;
040548FFE3D3D021;IDS-09B -- ?????-????? (????????) -- 1 -- None -- 71 -- 0 -- Solo Pro II MVP -- 172.26.2.169;109;Lane 1;3/5/2012;12:30:00;100;15 Minutes;;;;;;44;11;23.090;0;5;3;1;0;81.816;15.617;A;12.965;0.418;3.391;
040548FFE3D3D021;IDS-09B -- ?????-????? (????????) -- 1 -- None -- 71 -- 0 -- Solo Pro II MVP -- 172.26.2.169;110;Lane 2;3/5/2012;12:30:00;100;15 Minutes;;;;;;656;164;28.207;0;82;59;13;9;5.484;20.961;A;24.695;14.414;26.563;
040548FFE3D3D021;IDS-09B -- ?????-????? (????????) -- 1 -- None -- 71 -- 0 -- Solo Pro II MVP -- 172.26.2.169;113;Total;3/5/2012;12:30:00;100;15 Minutes;;;;;;350;175;27.883;0;87;62;14;9;43.648;18.289;A;23.367;7.461;14.977;
040548FFE3D3D021;IDS-09B -- ?????-????? (????????) -- 1 -- None -- 71 -- 0 -- Solo Pro II MVP -- 172.26.2.169;109;Lane 1;3/5/2012;12:45:00;100;15 Minutes;;;;;;28;7;40.285;0;5;1;1;0;128.570;0.883;A;32.891;0.332;0.848;
040548FFE3D3D021;IDS-09B -- ?????-????? (????????) -- 1 -- None -- 71 -- 0 -- Solo Pro II MVP -- 172.26.2.169;110;Lane 2;3/5/2012;12:45:00;100;15 Minutes;;;;;;492;123;38.008;0;57;48;9;8;7.316;13.773;A;34.801;8.645;14.137;
040548FFE3D3D021;IDS-09B -- ?????-????? (????????) -- 1 -- None -- 71 -- 0 -- Solo Pro II MVP -- 172.26.2.169;113;Total;3/5/2012;12:45:00;100;15 Minutes;;;;;;260;130;38.129;0;62;49;10;8;67.941;7.328;A;34.691;4.484;7.492;
040548FFE3D3D021;IDS-09B -- ?????-????? (????????) -- 1 -- None -- 71 -- 0 -- Solo Pro II MVP -- 172.26.2.169;109;Lane 1;3/5/2012;13:00:00;100;15 Minutes;;;;;;16;4;35.750;0;1;3;0;0;225.000;0.551;A;30.832;0.258;0.516;
040548FFE3D3D021;IDS-09B -- ?????-????? (????????) -- 1 -- None -- 71 -- 0 -- Solo Pro II MVP -- 172.26.2.169;110;Lane 2;3/5/2012;13:00:00;100;15 Minutes;;;;;;496;124;43.441;0;44;56;10;13;7.258;12.090;A;40.332;8.598;12.297;
040548FFE3D3D021;IDS-09B -- ?????-????? (????????) -- 1 -- None -- 71 -- 0 -- Solo Pro II MVP -- 172.26.2.169;113;Total;3/5/2012;13:00:00;100;15 Minutes;;;;;;256;128;43.203;0;45;59;10;13;116.129;6.320;A;39.949;4.430;6.406;
040548FFE3D3D021;IDS-09B -- ?????-????? (????????) -- 1 -- None -- 71 -- 0 -- Solo Pro II MVP -- 172.26.2.169;109;Lane 1;3/5/2012;13:15:00;100;15 Minutes;;;;;;0;0;0.000;0;0;0;0;0;255.996;0.000;A;0.000;100.000;0.000;
040548FFE3D3D021;IDS-09B -- ?????-????? (????????) -- 1 -- None -- 71 -- 0 -- Solo Pro II MVP -- 172.26.2.169;110;Lane 2;3/5/2012;13:15:00;100;15 Minutes;;;;;;492;123;34.949;0;57;47;11;7;7.316;13.832;A;31.973;9.227;15.387;
040548FFE3D3D021;IDS-09B -- ?????-????? (????????) -- 1 -- None -- 71 -- 0 -- Solo Pro II MVP -- 172.26.2.169;113;Total;3/5/2012;13:15:00;100;15 Minutes;;;;;;246;123;34.949;0;57;47;11;7;255.996;6.914;A;31.973;4.613;7.691;
040548FFE3D3D021;IDS-09B -- ?????-????? (????????) -- 1 -- None -- 71 -- 0 -- Solo Pro II MVP -- 172.26.2.169;109;Lane 1;3/5/2012;13:30:00;100;15 Minutes;;;;;;28;7;31.000;0;7;0;0;0;128.570;0.766;A;27.863;0.406;1.004;
040548FFE3D3D021;IDS-09B -- ?????-????? (????????) -- 1 -- None -- 71 -- 0 -- Solo Pro II MVP -- 172.26.2.169;110;Lane 2;3/5/2012;13:30:00;100;15 Minutes;;;;;;388;97;37.328;0;40;33;13;9;9.277;12.000;A;32.980;7.543;11.762;
040548FFE3D3D021;IDS-09B -- ?????-????? (????????) -- 1 -- None -- 71 -- 0 -- Solo Pro II MVP -- 172.26.2.169;113;Total;3/5/2012;13:30:00;100;15 Minutes;;;;;;208;104;36.902;0;47;33;13;9;68.922;6.383;A;32.578;3.984;6.383;
040548FFE3D3D021;IDS-09B -- ?????-????? (????????) -- 1 -- None -- 71 -- 0 -- Solo Pro II MVP -- 172.26.2.169;109;Lane 1;3/5/2012;13:45:00;100;15 Minutes;;;;;;32;8;31.750;0;6;0;2;0;112.500;1.129;A;30.250;0.645;1.055;
040548FFE3D3D021;IDS-09B -- ?????-????? (????????) -- 1 -- None -- 71 -- 0 -- Solo Pro II MVP -- 172.26.2.169;110;Lane 2;3/5/2012;13:45:00;100;15 Minutes;;;;;;444;111;39.926;0;50;35;14;12;8.105;12.215;A;35.516;8.129;12.500;
040548FFE3D3D021;IDS-09B -- ?????-????? (????????) -- 1 -- None -- 71 -- 0 -- Solo Pro II MVP -- 172.26.2.169;113;Total;3/5/2012;13:45:00;100;15 Minutes;;;;;;238;119;39.375;0;56;35;16;12;60.301;6.672;A;35.105;4.383;6.777;
040548FFE3D3D021;IDS-09B -- ?????-????? (????????) -- 1 -- None -- 71 -- 0 -- Solo Pro II MVP -- 172.26.2.169;109;Lane 1;3/5/2012;14:00:00;100;15 Minutes;;;;;;12;3;23.332;0;1;2;0;0;255.996;0.680;A;20.324;0.297;0.590;
040548FFE3D3D021;IDS-09B -- ?????-????? (????????) -- 1 -- None -- 71 -- 0 -- Solo Pro II MVP -- 172.26.2.169;110;Lane 2;3/5/2012;14:00:00;100;15 Minutes;;;;;;408;102;43.664;0;36;37;20;9;8.820;10.523;A;39.176;7.664;10.414;
040548FFE3D3D021;IDS-09B -- ?????-????? (????????) -- 1 -- None -- 71 -- 0 -- Solo Pro II MVP -- 172.26.2.169;113;Total;3/5/2012;14:00:00;100;15 Minutes;;;;;;210;105;43.082;0;37;39;20;9;154.410;5.602;A;38.164;3.965;5.500;
040548FFE3D3D021;IDS-09B -- ?????-????? (????????) -- 1 -- None -- 71 -- 0 -- Solo Pro II MVP -- 172.26.2.169;109;Lane 1;3/5/2012;14:15:00;100;15 Minutes;;;;;;20;5;43.797;0;4;1;0;0;180.000;0.422;A;39.727;0.180;0.500;
040548FFE3D3D021;IDS-09B -- ?????-????? (????????) -- 1 -- None -- 71 -- 0 -- Solo Pro II MVP -- 172.26.2.169;110;Lane 2;3/5/2012;14:15:00;100;15 Minutes;;;;;;528;132;42.242;0;58;48;16;9;6.816;12.375;A;38.867;8.559;13.582;
040548FFE3D3D021;IDS-09B -- ?????-????? (????????) -- 1 -- None -- 71 -- 0 -- Solo Pro II MVP -- 172.26.2.169;113;Total;3/5/2012;14:15:00;100;15 Minutes;;;;;;274;137;42.297;0;62;49;16;9;93.406;6.398;A;38.898;4.367;7.043;
040548FFE3D3D021;IDS-09B -- ?????-????? (????????) -- 1 -- None -- 71 -- 0 -- Solo Pro II MVP -- 172.26.2.169;109;Lane 1;3/5/2012;14:30:00;100;15 Minutes;;;;;;32;8;46.250;0;6;2;0;0;112.500;0.527;A;35.949;0.305;0.887;
040548FFE3D3D021;IDS-09B -- ?????-????? (????????) -- 1 -- None -- 71 -- 0 -- Solo Pro II MVP -- 172.26.2.169;110;Lane 2;3/5/2012;14:30:00;100;15 Minutes;;;;;;536;134;42.707;0;54;53;16;11;6.715;13.688;A;39.273;8.738;13.645;
040548FFE3D3D021;IDS-09B -- ?????-????? (????????) -- 1 -- None -- 71 -- 0 -- Solo Pro II MVP -- 172.26.2.169;113;Total;3/5/2012;14:30:00;100;15 Minutes;;;;;;284;142;42.906;0;60;55;16;11;59.605;7.105;A;39.070;4.512;7.266;
040548FFE3D3D021;IDS-09B -- ?????-????? (????????) -- 1 -- None -- 71 -- 0 -- Solo Pro II MVP -- 172.26.2.169;109;Lane 1;3/5/2012;14:45:00;100;15 Minutes;;;;;;20;5;41.199;0;3;0;2;0;180.000;0.512;A;30.184;0.344;0.660;
040548FFE3D3D021;IDS-09B -- ?????-????? (????????) -- 1 -- None -- 71 -- 0 -- Solo Pro II MVP -- 172.26.2.169;110;Lane 2;3/5/2012;14:45:00;100;15 Minutes;;;;;;532;133;46.133;0;53;53;20;7;6.766;11.371;A;43.051;8.160;12.355;
040548FFE3D3D021;IDS-09B -- ?????-????? (????????) -- 1 -- None -- 71 -- 0 -- Solo Pro II MVP -- 172.26.2.169;113;Total;3/5/2012;14:45:00;100;15 Minutes;;;;;;276;138;45.953;0;56;53;22;7;93.383;5.941;A;42.395;4.250;6.508;
040548FFE3D3D021;IDS-09B -- ?????-????? (????????) -- 1 -- None -- 71 -- 0 -- Solo Pro II MVP -- 172.26.2.169;109;Lane 1;3/5/2012;15:00:00;100;15 Minutes;;;;;;4;1;54.000;0;1;0;0;0;255.996;0.047;A;54.027;0.031;0.070;
040548FFE3D3D021;IDS-09B -- ?????-????? (????????) -- 1 -- None -- 71 -- 0 -- Solo Pro II MVP -- 172.26.2.169;110;Lane 2;3/5/2012;15:00:00;100;15 Minutes;;;;;;596;149;42.199;0;69;50;18;11;6.039;13.883;A;37.672;9.609;15.820;
040548FFE3D3D021;IDS-09B -- ?????-????? (????????) -- 1 -- None -- 71 -- 0 -- Solo Pro II MVP -- 172.26.2.169;113;Total;3/5/2012;15:00:00;100;15 Minutes;;;;;;300;150;42.277;0;70;50;18;11;255.996;6.965;A;37.750;4.816;7.945;
040548FFE3D3D021;IDS-09B -- ?????-????? (????????) -- 1 -- None -- 71 -- 0 -- Solo Pro II MVP -- 172.26.2.169;109;Lane 1;3/5/2012;15:15:00;100;15 Minutes;;;;;;40;10;37.598;0;9;1;0;0;90.000;0.742;A;33.152;0.410;1.203;
040548FFE3D3D021;IDS-09B -- ?????-????? (????????) -- 1 -- None -- 71 -- 0 -- Solo Pro II MVP -- 172.26.2.169;110;Lane 2;3/5/2012;15:15:00;100;15 Minutes;;;;;;504;126;39.688;0;51;50;19;6;7.141;11.504;A;35.262;8.773;14.293;
040548FFE3D3D021;IDS-09B -- ?????-????? (????????) -- 1 -- None -- 71 -- 0 -- Solo Pro II MVP -- 172.26.2.169;113;Total;3/5/2012;15:15:00;100;15 Minutes;;;;;;272;136;39.535;0;60;51;19;6;48.570;6.121;A;35.098;4.598;7.746;
040548FFE3D3D021;IDS-09B -- ?????-????? (????????) -- 1 -- None -- 71 -- 0 -- Solo Pro II MVP -- 172.26.2.169;109;Lane 1;3/5/2012;15:30:00;100;15 Minutes;;;;;;16;4;37.250;0;3;1;0;0;225.000;0.324;A;27.766;0.168;0.574;
040548FFE3D3D021;IDS-09B -- ?????-????? (????????) -- 1 -- None -- 71 -- 0 -- Solo Pro II MVP -- 172.26.2.169;110;Lane 2;3/5/2012;15:30:00;100;15 Minutes;;;;;;452;113;42.723;0;52;41;13;6;7.961;10.863;A;38.926;6.973;11.609;
040548FFE3D3D021;IDS-09B -- ?????-????? (????????) -- 1 -- None -- 71 -- 0 -- Solo Pro II MVP -- 172.26.2.169;113;Total;3/5/2012;15:30:00;100;15 Minutes;;;;;;234;117;42.535;0;55;42;13;6;116.480;5.594;A;38.398;3.574;6.094;
040548FFE3D3D021;IDS-09B -- ?????-????? (????????) -- 1 -- None -- 71 -- 0 -- Solo Pro II MVP -- 172.26.2.169;109;Lane 1;3/5/2012;15:45:00;100;15 Minutes;;;;;;28;7;47.426;0;1;5;1;0;128.570;0.813;A;44.340;0.367;0.629;
040548FFE3D3D021;IDS-09B -- ?????-????? (????????) -- 1 -- None -- 71 -- 0 -- Solo Pro II MVP -- 172.26.2.169;110;Lane 2;3/5/2012;15:45:00;100;15 Minutes;;;;;;592;148;50.324;0;61;62;18;7;6.078;11.098;A;46.195;7.840;12.813;
040548FFE3D3D021;IDS-09B -- ?????-????? (????????) -- 1 -- None -- 71 -- 0 -- Solo Pro II MVP -- 172.26.2.169;113;Total;3/5/2012;15:45:00;100;15 Minutes;;;;;;310;155;50.191;0;62;67;19;7;67.324;5.953;A;46.109;4.105;6.723;
040548FFE3D3D021;IDS-09B -- ?????-????? (????????) -- 1 -- None -- 71 -- 0 -- Solo Pro II MVP -- 172.26.2.169;109;Lane 1;3/5/2012;16:00:00;100;15 Minutes;;;;;;16;4;30.750;0;2;1;1;0;225.000;0.602;A;23.227;0.316;0.688;
040548FFE3D3D021;IDS-09B -- ?????-????? (????????) -- 1 -- None -- 71 -- 0 -- Solo Pro II MVP -- 172.26.2.169;110;Lane 2;3/5/2012;16:00:00;100;15 Minutes;;;;;;460;115;49.023;0;44;50;11;8;7.824;9.895;A;42.094;6.410;10.926;
040548FFE3D3D021;IDS-09B -- ?????-????? (????????) -- 1 -- None -- 71 -- 0 -- Solo Pro II MVP -- 172.26.2.169;113;Total;3/5/2012;16:00:00;100;15 Minutes;;;;;;238;119;48.410;0;46;51;12;8;116.410;5.246;A;40.977;3.344;5.805;
040548FFE3D3D021;IDS-09B -- ?????-????? (????????) -- 1 -- None -- 71 -- 0 -- Solo Pro II MVP -- 172.26.2.169;109;Lane 1;3/5/2012;16:15:00;100;15 Minutes;;;;;;24;6;34.332;0;2;3;0;0;150.000;0.578;A;23.035;0.297;1.039;
040548FFE3D3D021;IDS-09B -- ?????-????? (????????) -- 1 -- None -- 71 -- 0 -- Solo Pro II MVP -- 172.26.2.169;110;Lane 2;3/5/2012;16:15:00;100;15 Minutes;;;;;;572;143;41.496;0;58;64;14;6;6.293;12.891;A;36.668;8.848;15.598;
040548FFE3D3D021;IDS-09B -- ?????-????? (????????) -- 1 -- None -- 71 -- 0 -- Solo Pro II MVP -- 172.26.2.169;113;Total;3/5/2012;16:15:00;100;15 Minutes;;;;;;298;149;41.207;0;60;67;14;6;78.145;6.734;A;35.813;4.578;8.320;
040548FFE3D3D021;IDS-09B -- ?????-????? (????????) -- 1 -- None -- 71 -- 0 -- Solo Pro II MVP -- 172.26.2.169;109;Lane 1;3/5/2012;16:30:00;100;15 Minutes;;;;;;8;2;43.500;0;1;1;0;0;255.996;0.203;A;37.988;0.090;0.207;
040548FFE3D3D021;IDS-09B -- ?????-????? (????????) -- 1 -- None -- 71 -- 0 -- Solo Pro II MVP -- 172.26.2.169;110;Lane 2;3/5/2012;16:30:00;100;15 Minutes;;;;;;556;139;47.500;0;51;66;7;14;6.473;11.164;A;43.914;8.098;12.660;
040548FFE3D3D021;IDS-09B -- ?????-????? (????????) -- 1 -- None -- 71 -- 0 -- Solo Pro II MVP -- 172.26.2.169;113;Total;3/5/2012;16:30:00;100;15 Minutes;;;;;;282;141;47.445;0;52;67;7;14;228.234;5.684;A;43.816;4.094;6.434;
040548FFE3D3D021;IDS-09B -- ?????-????? (????????) -- 1 -- None -- 71 -- 0 -- Solo Pro II MVP -- 172.26.2.169;109;Lane 1;3/5/2012;16:45:00;100;15 Minutes;;;;;;20;5;54.199;0;3;1;1;0;180.000;0.324;A;52.035;0.246;0.383;
040548FFE3D3D021;IDS-09B -- ?????-????? (????????) -- 1 -- None -- 71 -- 0 -- Solo Pro II MVP -- 172.26.2.169;110;Lane 2;3/5/2012;16:45:00;100;15 Minutes;;;;;;564;141;41.609;0;58;56;13;13;6.383;14.156;A;38.504;9.531;14.645;
040548FFE3D3D021;IDS-09B -- ?????-????? (????????) -- 1 -- None -- 71 -- 0 -- Solo Pro II MVP -- 172.26.2.169;113;Total;3/5/2012;16:45:00;100;15 Minutes;;;;;;292;146;42.039;0;61;57;14;13;93.191;7.238;A;38.848;4.875;7.516;
040548FFE3D3D021;IDS-09B -- ?????-????? (????????) -- 1 -- None -- 71 -- 0 -- Solo Pro II MVP -- 172.26.2.169;109;Lane 1;3/5/2012;17:00:00;100;15 Minutes;;;;;;40;10;47.297;0;8;1;0;1;90.000;0.910;A;40.504;0.500;0.984;
040548FFE3D3D021;IDS-09B -- ?????-????? (????????) -- 1 -- None -- 71 -- 0 -- Solo Pro II MVP -- 172.26.2.169;110;Lane 2;3/5/2012;17:00:00;100;15 Minutes;;;;;;608;152;41.848;0;76;58;10;6;5.918;12.949;A;36.559;8.523;16.629;
040548FFE3D3D021;IDS-09B -- ?????-????? (????????) -- 1 -- None -- 71 -- 0 -- Solo Pro II MVP -- 172.26.2.169;113;Total;3/5/2012;17:00:00;100;15 Minutes;;;;;;324;162;42.184;0;84;59;10;7;47.957;6.930;A;36.777;4.508;8.809;
040548FFE3D3D021;IDS-09B -- ?????-????? (????????) -- 1 -- None -- 71 -- 0 -- Solo Pro II MVP -- 172.26.2.169;109;Lane 1;3/5/2012;17:15:00;100;15 Minutes;;;;;;272;68;29.000;0;56;9;1;0;13.234;9.738;A;17.246;3.828;15.770;
040548FFE3D3D021;IDS-09B -- ?????-????? (????????) -- 1 -- None -- 71 -- 0 -- Solo Pro II MVP -- 172.26.2.169;110;Lane 2;3/5/2012;17:15:00;100;15 Minutes;;;;;;588;147;32.453;0;81;45;12;4;6.121;20.828;A;16.926;9.844;34.738;
040548FFE3D3D021;IDS-09B -- ?????-????? (????????) -- 1 -- None -- 71 -- 0 -- Solo Pro II MVP -- 172.26.2.169;113;Total;3/5/2012;17:15:00;100;15 Minutes;;;;;;430;215;31.359;0;137;54;13;4;9.676;15.281;A;17.027;6.863;25.250;
040548FFE3D3D021;IDS-09B -- ?????-????? (????????) -- 1 -- None -- 71 -- 0 -- Solo Pro II MVP -- 172.26.2.169;109;Lane 1;3/5/2012;17:30:00;100;15 Minutes;;;;;;932;233;24.840;0;185;38;2;0;3.859;23.223;A;19.879;15.977;46.883;
040548FFE3D3D021;IDS-09B -- ?????-????? (????????) -- 1 -- None -- 71 -- 0 -- Solo Pro II MVP -- 172.26.2.169;110;Lane 2;3/5/2012;17:30:00;100;15 Minutes;;;;;;592;148;19.977;0;97;40;3;6;6.078;24.473;A;16.246;15.266;36.438;
040548FFE3D3D021;IDS-09B -- ?????-????? (????????) -- 1 -- None -- 71 -- 0 -- Solo Pro II MVP -- 172.26.2.169;113;Total;3/5/2012;17:30:00;100;15 Minutes;;;;;;762;381;22.949;0;282;78;5;6;4.969;23.848;A;18.289;15.289;41.664;
040548FFE3D3D021;IDS-09B -- ?????-????? (????????) -- 1 -- None -- 71 -- 0 -- Solo Pro II MVP -- 172.26.2.169;109;Lane 1;3/5/2012;17:45:00;100;15 Minutes;;;;;;1040;260;22.520;0;208;41;4;1;3.461;26.387;A;18.973;19.656;54.813;
040548FFE3D3D021;IDS-09B -- ?????-????? (????????) -- 1 -- None -- 71 -- 0 -- Solo Pro II MVP -- 172.26.2.169;110;Lane 2;3/5/2012;17:45:00;100;15 Minutes;;;;;;740;185;15.648;0;108;53;7;9;4.863;31.137;A;14.066;25.566;52.605;
040548FFE3D3D021;IDS-09B -- ?????-????? (????????) -- 1 -- None -- 71 -- 0 -- Solo Pro II MVP -- 172.26.2.169;113;Total;3/5/2012;17:45:00;100;15 Minutes;;;;;;890;445;19.664;0;316;94;11;10;4.160;28.762;A;16.566;21.434;53.723;
040548FFE3D3D021;IDS-09B -- ?????-????? (????????) -- 1 -- None -- 71 -- 0 -- Solo Pro II MVP -- 172.26.2.169;109;Lane 1;3/5/2012;18:00:00;100;15 Minutes;;;;;;944;236;18.391;0;187;33;8;0;3.813;24.969;A;15.488;21.055;60.949;
040548FFE3D3D021;IDS-09B -- ?????-????? (????????) -- 1 -- None -- 71 -- 0 -- Solo Pro II MVP -- 172.26.2.169;110;Lane 2;3/5/2012;18:00:00;100;15 Minutes;;;;;;616;154;13.785;0;102;36;3;2;5.844;24.203;A;11.770;18.398;52.336;
040548FFE3D3D021;IDS-09B -- ?????-????? (????????) -- 1 -- None -- 71 -- 0 -- Solo Pro II MVP -- 172.26.2.169;113;Total;3/5/2012;18:00:00;100;15 Minutes;;;;;;780;390;16.574;0;289;69;11;2;4.828;24.586;A;13.770;19.328;56.645;
040548FFE3D3D021;IDS-09B -- ?????-????? (????????) -- 1 -- None -- 71 -- 0 -- Solo Pro II MVP -- 172.26.2.169;109;Lane 1;3/5/2012;18:15:00;100;15 Minutes;;;;;;952;238;22.293;0;185;46;5;0;3.781;24.793;A;18.348;18.449;51.887;
040548FFE3D3D021;IDS-09B -- ?????-????? (????????) -- 1 -- None -- 71 -- 0 -- Solo Pro II MVP -- 172.26.2.169;110;Lane 2;3/5/2012;18:15:00;100;15 Minutes;;;;;;720;180;18.113;0;119;34;12;8;5.000;28.469;A;15.508;20.453;46.426;
040548FFE3D3D021;IDS-09B -- ?????-????? (????????) -- 1 -- None -- 71 -- 0 -- Solo Pro II MVP -- 172.26.2.169;113;Total;3/5/2012;18:15:00;100;15 Minutes;;;;;;836;418;20.492;0;304;80;17;8;4.391;26.629;A;17.008;19.074;49.152;
040548FFE3D3D021;IDS-09B -- ?????-????? (????????) -- 1 -- None -- 71 -- 0 -- Solo Pro II MVP -- 172.26.2.169;109;Lane 1;3/5/2012;18:30:00;100;15 Minutes;;;;;;776;194;34.621;0;155;34;3;0;4.637;13.246;A;32.746;10.234;23.695;
040548FFE3D3D021;IDS-09B -- ?????-????? (????????) -- 1 -- None -- 71 -- 0 -- Solo Pro II MVP -- 172.26.2.169;110;Lane 2;3/5/2012;18:30:00;100;15 Minutes;;;;;;928;232;25.578;0;146;56;12;15;3.879;28.574;A;23.926;20.820;38.785;
040548FFE3D3D021;IDS-09B -- ?????-????? (????????) -- 1 -- None -- 71 -- 0 -- Solo Pro II MVP -- 172.26.2.169;113;Total;3/5/2012;18:30:00;100;15 Minutes;;;;;;852;426;29.699;0;301;90;15;15;4.258;20.910;A;27.277;14.930;31.234;
040548FFE3D3D021;IDS-09B -- ?????-????? (????????) -- 1 -- None -- 71 -- 0 -- Solo Pro II MVP -- 172.26.2.169;109;Lane 1;3/5/2012;18:45:00;100;15 Minutes;;;;;;164;41;39.000;0;34;5;2;0;21.949;2.508;A;34.055;2.020;4.813;
040548FFE3D3D021;IDS-09B -- ?????-????? (????????) -- 1 -- None -- 71 -- 0 -- Solo Pro II MVP -- 172.26.2.169;110;Lane 2;3/5/2012;18:45:00;100;15 Minutes;;;;;;732;183;33.324;0;106;47;13;16;4.918;19.734;A;28.770;14.633;25.441;
040548FFE3D3D021;IDS-09B -- ?????-????? (????????) -- 1 -- None -- 71 -- 0 -- Solo Pro II MVP -- 172.26.2.169;113;Total;3/5/2012;18:45:00;100;15 Minutes;;;;;;448;224;34.363;0;140;52;15;16;13.434;11.121;A;29.609;8.242;15.129;
040548FFE3D3D021;IDS-09B -- ?????-????? (????????) -- 1 -- None -- 71 -- 0 -- Solo Pro II MVP -- 172.26.2.169;109;Lane 1;3/5/2012;19:00:00;100;15 Minutes;;;;;;0;0;0.000;0;0;0;0;0;255.996;0.000;A;0.000;100.000;0.000;
040548FFE3D3D021;IDS-09B -- ?????-????? (????????) -- 1 -- None -- 71 -- 0 -- Solo Pro II MVP -- 172.26.2.169;110;Lane 2;3/5/2012;19:00:00;100;15 Minutes;;;;;;356;89;43.277;0;66;16;3;3;10.109;7.156;A;37.531;4.172;9.484;
040548FFE3D3D021;IDS-09B -- ?????-????? (????????) -- 1 -- None -- 71 -- 0 -- Solo Pro II MVP -- 172.26.2.169;113;Total;3/5/2012;19:00:00;100;15 Minutes;;;;;;178;89;43.277;0;66;16;3;3;255.996;3.578;A;37.531;2.086;4.742;
040548FFE3D3D021;IDS-09B -- ?????-????? (????????) -- 1 -- None -- 71 -- 0 -- Solo Pro II MVP -- 172.26.2.169;109;Lane 1;3/5/2012;19:15:00;100;15 Minutes;;;;;;20;5;39.797;0;5;0;0;0;180.000;0.285;A;32.449;0.199;0.613;
040548FFE3D3D021;IDS-09B -- ?????-????? (????????) -- 1 -- None -- 71 -- 0 -- Solo Pro II MVP -- 172.26.2.169;110;Lane 2;3/5/2012;19:15:00;100;15 Minutes;;;;;;372;93;47.180;0;81;9;3;0;9.676;5.723;A;41.715;3.398;8.914;
040548FFE3D3D021;IDS-09B -- ?????-????? (????????) -- 1 -- None -- 71 -- 0 -- Solo Pro II MVP -- 172.26.2.169;113;Total;3/5/2012;19:15:00;100;15 Minutes;;;;;;196;98;46.805;0;86;9;3;0;94.836;3.004;A;41.117;1.797;4.766;
040548FFE3D3D021;IDS-09B -- ?????-????? (????????) -- 1 -- None -- 71 -- 0 -- Solo Pro II MVP -- 172.26.2.169;109;Lane 1;3/5/2012;19:30:00;100;15 Minutes;;;;;;0;0;0.000;0;0;0;0;0;255.996;0.000;A;0.000;100.000;0.000;
040548FFE3D3D021;IDS-09B -- ?????-????? (????????) -- 1 -- None -- 71 -- 0 -- Solo Pro II MVP -- 172.26.2.169;110;Lane 2;3/5/2012;19:30:00;100;15 Minutes;;;;;;352;88;48.340;0;69;16;1;2;10.227;5.602;A;41.699;3.406;8.438;
040548FFE3D3D021;IDS-09B -- ?????-????? (????????) -- 1 -- None -- 71 -- 0 -- Solo Pro II MVP -- 172.26.2.169;113;Total;3/5/2012;19:30:00;100;15 Minutes;;;;;;176;88;48.340;0;69;16;1;2;255.996;2.801;A;41.699;1.703;4.219;
040548FFE3D3D021;IDS-09B -- ?????-????? (????????) -- 1 -- None -- 71 -- 0 -- Solo Pro II MVP -- 172.26.2.169;109;Lane 1;3/5/2012;19:45:00;100;15 Minutes;;;;;;4;1;19.000;0;1;0;0;0;255.996;0.059;A;19.000;0.000;0.207;
040548FFE3D3D021;IDS-09B -- ?????-????? (????????) -- 1 -- None -- 71 -- 0 -- Solo Pro II MVP -- 172.26.2.169;110;Lane 2;3/5/2012;19:45:00;100;15 Minutes;;;;;;284;71;48.070;0;58;9;1;3;12.676;4.359;A;39.004;2.961;7.281;
040548FFE3D3D021;IDS-09B -- ?????-????? (????????) -- 1 -- None -- 71 -- 0 -- Solo Pro II MVP -- 172.26.2.169;113;Total;3/5/2012;19:45:00;100;15 Minutes;;;;;;144;72;47.664;0;59;9;1;3;255.996;2.207;A;38.445;1.504;3.742;
040548FFE3D3D021;IDS-09B -- ?????-????? (????????) -- 1 -- None -- 71 -- 0 -- Solo Pro II MVP -- 172.26.2.169;109;Lane 1;3/5/2012;20:00:00;100;15 Minutes;;;;;;12;3;44.000;0;2;1;0;0;255.996;0.133;A;43.324;0.000;0.273;
040548FFE3D3D021;IDS-09B -- ?????-????? (????????) -- 1 -- None -- 71 -- 0 -- Solo Pro II MVP -- 172.26.2.169;110;Lane 2;3/5/2012;20:00:00;100;15 Minutes;;;;;;316;79;51.441;0;65;10;2;1;11.391;4.855;A;42.355;2.824;7.457;
040548FFE3D3D021;IDS-09B -- ?????-????? (????????) -- 1 -- None -- 71 -- 0 -- Solo Pro II MVP -- 172.26.2.169;113;Total;3/5/2012;20:00:00;100;15 Minutes;;;;;;164;82;51.168;0;67;11;2;1;155.695;2.492;A;42.391;1.477;3.867;
040548FFE3D3D021;IDS-09B -- ?????-????? (????????) -- 1 -- None -- 71 -- 0 -- Solo Pro II MVP -- 172.26.2.169;109;Lane 1;3/5/2012;20:15:00;100;15 Minutes;;;;;;4;1;37.000;0;1;0;0;0;255.996;0.043;A;37.004;0.016;0.105;
040548FFE3D3D021;IDS-09B -- ?????-????? (????????) -- 1 -- None -- 71 -- 0 -- Solo Pro II MVP -- 172.26.2.169;110;Lane 2;3/5/2012;20:15:00;100;15 Minutes;;;;;;272;68;38.426;0;60;8;0;0;13.234;4.723;A;32.367;2.813;8.402;
040548FFE3D3D021;IDS-09B -- ?????-????? (????????) -- 1 -- None -- 71 -- 0 -- Solo Pro II MVP -- 172.26.2.169;113;Total;3/5/2012;20:15:00;100;15 Minutes;;;;;;138;69;38.402;0;61;8;0;0;255.996;2.383;A;32.426;1.414;4.254;
040548FFE3D3D021;IDS-09B -- ?????-????? (????????) -- 1 -- None -- 71 -- 0 -- Solo Pro II MVP -- 172.26.2.169;109;Lane 1;3/5/2012;20:30:00;100;15 Minutes;;;;;;4;1;18.000;0;1;0;0;0;255.996;0.078;A;18.004;0.000;0.219;
040548FFE3D3D021;IDS-09B -- ?????-????? (????????) -- 1 -- None -- 71 -- 0 -- Solo Pro II MVP -- 172.26.2.169;110;Lane 2;3/5/2012;20:30:00;100;15 Minutes;;;;;;244;61;43.195;0;51;6;3;1;14.754;4.262;A;35.742;2.598;6.824;
040548FFE3D3D021;IDS-09B -- ?????-????? (????????) -- 1 -- None -- 71 -- 0 -- Solo Pro II MVP -- 172.26.2.169;113;Total;3/5/2012;20:30:00;100;15 Minutes;;;;;;124;62;42.789;0;52;6;3;1;255.996;2.168;A;35.184;1.328;3.523;
040548FFE3D3D021;IDS-09B -- ?????-????? (????????) -- 1 -- None -- 71 -- 0 -- Solo Pro II MVP -- 172.26.2.169;109;Lane 1;3/5/2012;20:45:00;100;15 Minutes;;;;;;8;2;52.000;0;2;0;0;0;255.996;0.055;A;51.848;0.035;0.152;
040548FFE3D3D021;IDS-09B -- ?????-????? (????????) -- 1 -- None -- 71 -- 0 -- Solo Pro II MVP -- 172.26.2.169;110;Lane 2;3/5/2012;20:45:00;100;15 Minutes;;;;;;356;89;40.898;0;73;11;2;2;10.109;5.664;A;34.379;3.879;10.352;
040548FFE3D3D021;IDS-09B -- ?????-????? (????????) -- 1 -- None -- 71 -- 0 -- Solo Pro II MVP -- 172.26.2.169;113;Total;3/5/2012;20:45:00;100;15 Minutes;;;;;;182;91;41.141;0;75;11;2;2;230.055;2.859;A;34.633;1.953;5.254;
040548FFE3D3D021;IDS-09B -- ?????-????? (????????) -- 1 -- None -- 71 -- 0 -- Solo Pro II MVP -- 172.26.2.169;109;Lane 1;3/5/2012;21:00:00;100;15 Minutes;;;;;;0;0;0.000;0;0;0;0;0;255.996;0.000;A;0.000;100.000;0.000;
040548FFE3D3D021;IDS-09B -- ?????-????? (????????) -- 1 -- None -- 71 -- 0 -- Solo Pro II MVP -- 172.26.2.169;110;Lane 2;3/5/2012;21:00:00;100;15 Minutes;;;;;;236;59;36.031;0;49;6;3;1;15.254;4.063;A;30.828;3.043;7.652;
040548FFE3D3D021;IDS-09B -- ?????-????? (????????) -- 1 -- None -- 71 -- 0 -- Solo Pro II MVP -- 172.26.2.169;113;Total;3/5/2012;21:00:00;100;15 Minutes;;;;;;118;59;36.031;0;49;6;3;1;255.996;2.031;A;30.828;1.520;3.824;
040548FFE3D3D021;IDS-09B -- ?????-????? (????????) -- 1 -- None -- 71 -- 0 -- Solo Pro II MVP -- 172.26.2.169;109;Lane 1;3/5/2012;21:15:00;100;15 Minutes;;;;;;0;0;0.000;0;0;0;0;0;255.996;0.000;A;0.000;100.000;0.000;
040548FFE3D3D021;IDS-09B -- ?????-????? (????????) -- 1 -- None -- 71 -- 0 -- Solo Pro II MVP -- 172.26.2.169;110;Lane 2;3/5/2012;21:15:00;100;15 Minutes;;;;;;280;70;50.000;0;54;12;2;0;12.855;4.266;A;39.492;2.340;7.090;
040548FFE3D3D021;IDS-09B -- ?????-????? (????????) -- 1 -- None -- 71 -- 0 -- Solo Pro II MVP -- 172.26.2.169;113;Total;3/5/2012;21:15:00;100;15 Minutes;;;;;;140;70;50.000;0;54;12;2;0;255.996;2.133;A;39.492;1.168;3.543;
040548FFE3D3D021;IDS-09B -- ?????-????? (????????) -- 1 -- None -- 71 -- 0 -- Solo Pro II MVP -- 172.26.2.169;109;Lane 1;3/5/2012;21:30:00;100;15 Minutes;;;;;;4;1;73.000;0;1;0;0;0;255.996;0.023;A;73.059;0.012;0.055;
040548FFE3D3D021;IDS-09B -- ?????-????? (????????) -- 1 -- None -- 71 -- 0 -- Solo Pro II MVP -- 172.26.2.169;110;Lane 2;3/5/2012;21:30:00;100;15 Minutes;;;;;;228;57;46.719;0;48;7;1;1;15.789;3.590;A;39.559;2.207;5.762;
040548FFE3D3D021;IDS-09B -- ?????-????? (????????) -- 1 -- None -- 71 -- 0 -- Solo Pro II MVP -- 172.26.2.169;113;Total;3/5/2012;21:30:00;100;15 Minutes;;;;;;116;58;47.172;0;49;7;1;1;255.996;1.805;A;39.875;1.102;2.906;
040548FFE3D3D021;IDS-09B -- ?????-????? (????????) -- 1 -- None -- 71 -- 0 -- Solo Pro II MVP -- 172.26.2.169;109;Lane 1;3/5/2012;21:45:00;100;15 Minutes;;;;;;4;1;13.000;0;1;0;0;0;255.996;0.109;A;13.000;0.000;0.305;
040548FFE3D3D021;IDS-09B -- ?????-????? (????????) -- 1 -- None -- 71 -- 0 -- Solo Pro II MVP -- 172.26.2.169;110;Lane 2;3/5/2012;21:45:00;100;15 Minutes;;;;;;196;49;46.711;0;41;5;1;1;18.367;3.395;A;36.465;1.781;5.375;
040548FFE3D3D021;IDS-09B -- ?????-????? (????????) -- 1 -- None -- 71 -- 0 -- Solo Pro II MVP -- 172.26.2.169;113;Total;3/5/2012;21:45:00;100;15 Minutes;;;;;;100;50;46.039;0;42;5;1;1;255.996;1.750;A;35.195;0.918;2.840;
040548FFE3D3D021;IDS-09B -- ?????-????? (????????) -- 1 -- None -- 71 -- 0 -- Solo Pro II MVP -- 172.26.2.169;109;Lane 1;3/5/2012;22:00:00;100;15 Minutes;;;;;;0;0;0.000;0;0;0;0;0;255.996;0.000;A;0.000;100.000;0.000;
040548FFE3D3D021;IDS-09B -- ?????-????? (????????) -- 1 -- None -- 71 -- 0 -- Solo Pro II MVP -- 172.26.2.169;110;Lane 2;3/5/2012;22:00:00;100;15 Minutes;;;;;;240;60;41.582;0;45;9;2;2;15.000;4.344;A;34.883;2.758;6.879;
040548FFE3D3D021;IDS-09B -- ?????-????? (????????) -- 1 -- None -- 71 -- 0 -- Solo Pro II MVP -- 172.26.2.169;113;Total;3/5/2012;22:00:00;100;15 Minutes;;;;;;120;60;41.582;0;45;9;2;2;255.996;2.172;A;34.883;1.379;3.438;
040548FFE3D3D021;IDS-09B -- ?????-????? (????????) -- 1 -- None -- 71 -- 0 -- Solo Pro II MVP -- 172.26.2.169;109;Lane 1;3/5/2012;22:15:00;100;15 Minutes;;;;;;0;0;0.000;0;0;0;0;0;255.996;0.000;A;0.000;100.000;0.000;
040548FFE3D3D021;IDS-09B -- ?????-????? (????????) -- 1 -- None -- 71 -- 0 -- Solo Pro II MVP -- 172.26.2.169;110;Lane 2;3/5/2012;22:15:00;100;15 Minutes;;;;;;216;54;42.664;0;46;7;0;0;16.664;3.543;A;33.324;2.000;6.480;
040548FFE3D3D021;IDS-09B -- ?????-????? (????????) -- 1 -- None -- 71 -- 0 -- Solo Pro II MVP -- 172.26.2.169;113;Total;3/5/2012;22:15:00;100;15 Minutes;;;;;;108;54;42.664;0;46;7;0;0;255.996;1.770;A;33.324;1.000;3.238;
040548FFE3D3D021;IDS-09B -- ?????-????? (????????) -- 1 -- None -- 71 -- 0 -- Solo Pro II MVP -- 172.26.2.169;109;Lane 1;3/5/2012;22:30:00;100;15 Minutes;;;;;;4;1;31.000;0;1;0;0;0;255.996;0.039;A;31.000;0.039;0.129;
040548FFE3D3D021;IDS-09B -- ?????-????? (????????) -- 1 -- None -- 71 -- 0 -- Solo Pro II MVP -- 172.26.2.169;110;Lane 2;3/5/2012;22:30:00;100;15 Minutes;;;;;;200;50;41.258;0;40;5;3;1;18.000;3.555;A;34.703;2.191;5.762;
040548FFE3D3D021;IDS-09B -- ?????-????? (????????) -- 1 -- None -- 71 -- 0 -- Solo Pro II MVP -- 172.26.2.169;113;Total;3/5/2012;22:30:00;100;15 Minutes;;;;;;102;51;41.059;0;41;5;3;1;255.996;1.797;A;34.621;1.113;2.945;
040548FFE3D3D021;IDS-09B -- ?????-????? (????????) -- 1 -- None -- 71 -- 0 -- Solo Pro II MVP -- 172.26.2.169;109;Lane 1;3/5/2012;22:45:00;100;15 Minutes;;;;;;8;2;17.500;0;1;1;0;0;255.996;0.109;A;16.801;0.000;0.473;
040548FFE3D3D021;IDS-09B -- ?????-????? (????????) -- 1 -- None -- 71 -- 0 -- Solo Pro II MVP -- 172.26.2.169;110;Lane 2;3/5/2012;22:45:00;100;15 Minutes;;;;;;164;41;37.535;0;30;9;2;0;21.949;3.055;A;32.012;2.074;5.121;
040548FFE3D3D021;IDS-09B -- ?????-????? (????????) -- 1 -- None -- 71 -- 0 -- Solo Pro II MVP -- 172.26.2.169;113;Total;3/5/2012;22:45:00;100;15 Minutes;;;;;;86;43;36.602;0;31;10;2;0;235.973;1.582;A;30.715;1.105;2.797;
040548FFE3D3D021;IDS-09B -- ?????-????? (????????) -- 1 -- None -- 71 -- 0 -- Solo Pro II MVP -- 172.26.2.169;109;Lane 1;3/5/2012;23:00:00;100;15 Minutes;;;;;;4;1;15.000;0;1;0;0;0;255.996;0.086;A;15.000;0.000;0.266;
040548FFE3D3D021;IDS-09B -- ?????-????? (????????) -- 1 -- None -- 71 -- 0 -- Solo Pro II MVP -- 172.26.2.169;110;Lane 2;3/5/2012;23:00:00;100;15 Minutes;;;;;;176;44;46.316;0;35;8;1;0;20.453;2.980;A;38.457;1.688;4.574;
040548FFE3D3D021;IDS-09B -- ?????-????? (????????) -- 1 -- None -- 71 -- 0 -- Solo Pro II MVP -- 172.26.2.169;113;Total;3/5/2012;23:00:00;100;15 Minutes;;;;;;90;45;45.621;0;36;8;1;0;255.996;1.531;A;37.168;0.875;2.418;
040548FFE3D3D021;IDS-09B -- ?????-????? (????????) -- 1 -- None -- 71 -- 0 -- Solo Pro II MVP -- 172.26.2.169;109;Lane 1;3/5/2012;23:15:00;100;15 Minutes;;;;;;0;0;0.000;0;0;0;0;0;255.996;0.000;A;0.000;100.000;0.000;
040548FFE3D3D021;IDS-09B -- ?????-????? (????????) -- 1 -- None -- 71 -- 0 -- Solo Pro II MVP -- 172.26.2.169;110;Lane 2;3/5/2012;23:15:00;100;15 Minutes;;;;;;188;47;45.977;0;35;10;1;0;19.148;3.063;A;39.148;1.836;4.801;
040548FFE3D3D021;IDS-09B -- ?????-????? (????????) -- 1 -- None -- 71 -- 0 -- Solo Pro II MVP -- 172.26.2.169;113;Total;3/5/2012;23:15:00;100;15 Minutes;;;;;;94;47;45.977;0;35;10;1;0;255.996;1.531;A;39.148;0.918;2.398;
040548FFE3D3D021;IDS-09B -- ?????-????? (????????) -- 1 -- None -- 71 -- 0 -- Solo Pro II MVP -- 172.26.2.169;109;Lane 1;3/5/2012;23:30:00;100;15 Minutes;;;;;;0;0;0.000;0;0;0;0;0;255.996;0.000;A;0.000;100.000;0.000;
040548FFE3D3D021;IDS-09B -- ?????-????? (????????) -- 1 -- None -- 71 -- 0 -- Solo Pro II MVP -- 172.26.2.169;110;Lane 2;3/5/2012;23:30:00;100;15 Minutes;;;;;;144;36;44.332;0;28;5;0;1;25.000;3.004;A;34.945;1.469;4.117;
040548FFE3D3D021;IDS-09B -- ?????-????? (????????) -- 1 -- None -- 71 -- 0 -- Solo Pro II MVP -- 172.26.2.169;113;Total;3/5/2012;23:30:00;100;15 Minutes;;;;;;72;36;44.332;0;28;5;0;1;255.996;1.500;A;34.945;0.734;2.059;
040548FFE3D3D021;IDS-09B -- ?????-????? (????????) -- 1 -- None -- 71 -- 0 -- Solo Pro II MVP -- 172.26.2.169;109;Lane 1;3/5/2012;23:45:00;100;15 Minutes;;;;;;0;0;0.000;0;0;0;0;0;255.996;0.000;A;0.000;100.000;0.000;
040548FFE3D3D021;IDS-09B -- ?????-????? (????????) -- 1 -- None -- 71 -- 0 -- Solo Pro II MVP -- 172.26.2.169;110;Lane 2;3/5/2012;23:45:00;100;15 Minutes;;;;;;152;38;35.629;0;31;4;0;2;23.684;3.273;A;28.055;2.012;5.418;
040548FFE3D3D021;IDS-09B -- ?????-????? (????????) -- 1 -- None -- 71 -- 0 -- Solo Pro II MVP -- 172.26.2.169;113;Total;3/5/2012;23:45:00;100;15 Minutes;;;;;;76;38;35.629;0;31;4;0;2;255.996;1.637;A;28.055;1.004;2.707;
040548FFE3D3D021;IDS-09B -- ?????-????? (????????) -- 1 -- None -- 71 -- 0 -- Solo Pro II MVP -- 172.26.2.169;109;Lane 1;4/5/2012;0:00:00;100;15 Minutes;;;;;;0;0;0.000;0;0;0;0;0;255.996;0.000;A;0.000;100.000;0.000;
040548FFE3D3D021;IDS-09B -- ?????-????? (????????) -- 1 -- None -- 71 -- 0 -- Solo Pro II MVP -- 172.26.2.169;110;Lane 2;4/5/2012;0:00:00;100;15 Minutes;;;;;;144;36;37.219;0;28;3;1;2;25.000;2.633;A;27.840;1.891;5.172;
040548FFE3D3D021;IDS-09B -- ?????-????? (????????) -- 1 -- None -- 71 -- 0 -- Solo Pro II MVP -- 172.26.2.169;113;Total;4/5/2012;0:00:00;100;15 Minutes;;;;;;72;36;37.219;0;28;3;1;2;255.996;1.316;A;27.840;0.945;2.586;
