CPU Identifier;Autoscope Description;Detector ID;Detector Title;Date;Time;Status;Data Interval;Ticks (millisec.);State;Speed;Length;Class;Average Flow Rate;Volume;Arithmetic Mean Speed;Class A Count;Class B Count;Class C Count;Class D Count;Class E Count;Average Time Headway;Average Time Occupancy;Level Of Service;Space Mean Speed;Space Occupancy;Density;
040548FFC60BB521;IDS-12B -- ???????-????? -- 1 -- None -- 80 -- 0 -- Solo Pro II MVP -- 172.26.2.172;109;Lane 1;3/5/2012;0:00:00;100;15 Minutes;;;;;;260;65;93.781;0;49;11;1;4;13.844;2.277;A;89.777;1.750;2.895;
040548FFC60BB521;IDS-12B -- ???????-????? -- 1 -- None -- 80 -- 0 -- Solo Pro II MVP -- 172.26.2.172;110;Lane 2;3/5/2012;0:00:00;100;15 Minutes;;;;;;84;21;120.094;0;11;7;3;0;42.855;0.660;A;116.168;0.430;0.723;
040548FFC60BB521;IDS-12B -- ???????-????? -- 1 -- None -- 80 -- 0 -- Solo Pro II MVP -- 172.26.2.172;113;Total;3/5/2012;0:00:00;100;15 Minutes;;;;;;172;86;100.207;0;60;18;4;4;28.348;1.469;A;95.051;1.078;1.809;
040548FFC60BB521;IDS-12B -- ???????-????? -- 1 -- None -- 80 -- 0 -- Solo Pro II MVP -- 172.26.2.172;109;Lane 1;3/5/2012;0:15:00;100;15 Minutes;;;;;;244;61;95.672;0;43;16;2;0;14.754;2.141;A;92.930;1.449;2.625;
040548FFC60BB521;IDS-12B -- ???????-????? -- 1 -- None -- 80 -- 0 -- Solo Pro II MVP -- 172.26.2.172;110;Lane 2;3/5/2012;0:15:00;100;15 Minutes;;;;;;60;15;109.465;0;11;2;1;1;60.000;0.477;A;108.418;0.359;0.551;
040548FFC60BB521;IDS-12B -- ???????-????? -- 1 -- None -- 80 -- 0 -- Solo Pro II MVP -- 172.26.2.172;113;Total;3/5/2012;0:15:00;100;15 Minutes;;;;;;152;76;98.395;0;54;18;3;1;37.375;1.309;A;95.625;0.906;1.586;
040548FFC60BB521;IDS-12B -- ???????-????? -- 1 -- None -- 80 -- 0 -- Solo Pro II MVP -- 172.26.2.172;109;Lane 1;3/5/2012;0:30:00; 99;15 Minutes;;;;;;200;50;93.598;0;41;5;4;0;18.000;1.609;A;91.082;1.156;2.195;
040548FFC60BB521;IDS-12B -- ???????-????? -- 1 -- None -- 80 -- 0 -- Solo Pro II MVP -- 172.26.2.172;110;Lane 2;3/5/2012;0:30:00; 99;15 Minutes;;;;;;56;14;113.211;0;8;5;1;0;64.285;0.457;A;111.656;0.297;0.500;
040548FFC60BB521;IDS-12B -- ???????-????? -- 1 -- None -- 80 -- 0 -- Solo Pro II MVP -- 172.26.2.172;113;Total;3/5/2012;0:30:00; 99;15 Minutes;;;;;;128;64;97.891;0;49;10;5;0;41.141;1.031;A;94.906;0.727;1.348;
040548FFC60BB521;IDS-12B -- ???????-????? -- 1 -- None -- 80 -- 0 -- Solo Pro II MVP -- 172.26.2.172;109;Lane 1;3/5/2012;0:45:00;100;15 Minutes;;;;;;236;59;93.590;0;44;9;5;1;15.254;2.164;A;90.629;1.520;2.602;
040548FFC60BB521;IDS-12B -- ???????-????? -- 1 -- None -- 80 -- 0 -- Solo Pro II MVP -- 172.26.2.172;110;Lane 2;3/5/2012;0:45:00;100;15 Minutes;;;;;;116;29;105.723;0;21;6;2;0;31.031;0.871;A;103.762;0.629;1.117;
040548FFC60BB521;IDS-12B -- ???????-????? -- 1 -- None -- 80 -- 0 -- Solo Pro II MVP -- 172.26.2.172;113;Total;3/5/2012;0:45:00;100;15 Minutes;;;;;;176;88;97.590;0;65;15;7;1;23.141;1.516;A;94.574;1.070;1.859;
040548FFC60BB521;IDS-12B -- ???????-????? -- 1 -- None -- 80 -- 0 -- Solo Pro II MVP -- 172.26.2.172;109;Lane 1;3/5/2012;1:00:00;100;15 Minutes;;;;;;148;37;88.242;0;31;6;0;0;24.324;1.371;A;86.301;0.859;1.715;
040548FFC60BB521;IDS-12B -- ???????-????? -- 1 -- None -- 80 -- 0 -- Solo Pro II MVP -- 172.26.2.172;110;Lane 2;3/5/2012;1:00:00;100;15 Minutes;;;;;;68;17;108.820;0;10;5;2;0;52.938;0.523;A;107.051;0.402;0.633;
040548FFC60BB521;IDS-12B -- ???????-????? -- 1 -- None -- 80 -- 0 -- Solo Pro II MVP -- 172.26.2.172;113;Total;3/5/2012;1:00:00;100;15 Minutes;;;;;;108;54;94.719;0;41;11;2;0;38.629;0.945;A;91.910;0.633;1.172;
040548FFC60BB521;IDS-12B -- ???????-????? -- 1 -- None -- 80 -- 0 -- Solo Pro II MVP -- 172.26.2.172;109;Lane 1;3/5/2012;1:15:00;100;15 Minutes;;;;;;188;47;90.531;0;40;3;2;2;19.148;1.535;A;88.207;1.168;2.129;
040548FFC60BB521;IDS-12B -- ???????-????? -- 1 -- None -- 80 -- 0 -- Solo Pro II MVP -- 172.26.2.172;110;Lane 2;3/5/2012;1:15:00;100;15 Minutes;;;;;;36;9;113.219;0;6;1;2;0;100.000;0.273;A;109.711;0.211;0.328;
040548FFC60BB521;IDS-12B -- ???????-????? -- 1 -- None -- 80 -- 0 -- Solo Pro II MVP -- 172.26.2.172;113;Total;3/5/2012;1:15:00;100;15 Minutes;;;;;;112;56;94.176;0;46;4;4;2;59.574;0.902;A;91.078;0.688;1.227;
040548FFC60BB521;IDS-12B -- ???????-????? -- 1 -- None -- 80 -- 0 -- Solo Pro II MVP -- 172.26.2.172;109;Lane 1;3/5/2012;1:30:00;100;15 Minutes;;;;;;184;46;88.848;0;40;6;0;0;19.563;1.625;A;87.094;1.070;2.109;
040548FFC60BB521;IDS-12B -- ???????-????? -- 1 -- None -- 80 -- 0 -- Solo Pro II MVP -- 172.26.2.172;110;Lane 2;3/5/2012;1:30:00;100;15 Minutes;;;;;;36;9;125.109;0;3;4;2;0;100.000;0.250;A;123.574;0.184;0.289;
040548FFC60BB521;IDS-12B -- ???????-????? -- 1 -- None -- 80 -- 0 -- Solo Pro II MVP -- 172.26.2.172;113;Total;3/5/2012;1:30:00;100;15 Minutes;;;;;;110;55;94.781;0;43;10;2;0;59.781;0.938;A;91.516;0.621;1.199;
040548FFC60BB521;IDS-12B -- ???????-????? -- 1 -- None -- 80 -- 0 -- Solo Pro II MVP -- 172.26.2.172;109;Lane 1;3/5/2012;1:45:00;100;15 Minutes;;;;;;200;50;87.117;0;41;7;1;0;18.000;1.715;A;84.750;1.141;2.359;
040548FFC60BB521;IDS-12B -- ???????-????? -- 1 -- None -- 80 -- 0 -- Solo Pro II MVP -- 172.26.2.172;110;Lane 2;3/5/2012;1:45:00;100;15 Minutes;;;;;;44;11;116.543;0;10;1;0;0;81.816;0.367;A;115.602;0.207;0.379;
040548FFC60BB521;IDS-12B -- ???????-????? -- 1 -- None -- 80 -- 0 -- Solo Pro II MVP -- 172.26.2.172;113;Total;3/5/2012;1:45:00;100;15 Minutes;;;;;;122;61;92.426;0;51;8;1;0;49.906;1.039;A;89.035;0.668;1.367;
040548FFC60BB521;IDS-12B -- ???????-????? -- 1 -- None -- 80 -- 0 -- Solo Pro II MVP -- 172.26.2.172;109;Lane 1;3/5/2012;2:00:00;100;15 Minutes;;;;;;148;37;90.188;0;31;2;1;3;24.324;1.270;A;86.980;1.016;1.699;
040548FFC60BB521;IDS-12B -- ???????-????? -- 1 -- None -- 80 -- 0 -- Solo Pro II MVP -- 172.26.2.172;110;Lane 2;3/5/2012;2:00:00;100;15 Minutes;;;;;;40;10;116.699;0;7;2;1;0;90.000;0.340;A;114.953;0.195;0.348;
040548FFC60BB521;IDS-12B -- ???????-????? -- 1 -- None -- 80 -- 0 -- Solo Pro II MVP -- 172.26.2.172;113;Total;3/5/2012;2:00:00;100;15 Minutes;;;;;;94;47;95.828;0;38;4;2;3;57.160;0.805;A;91.730;0.598;1.023;
040548FFC60BB521;IDS-12B -- ???????-????? -- 1 -- None -- 80 -- 0 -- Solo Pro II MVP -- 172.26.2.172;109;Lane 1;3/5/2012;2:15:00;100;15 Minutes;;;;;;172;43;88.625;0;32;7;3;1;20.930;1.453;A;85.203;1.168;2.016;
040548FFC60BB521;IDS-12B -- ???????-????? -- 1 -- None -- 80 -- 0 -- Solo Pro II MVP -- 172.26.2.172;110;Lane 2;3/5/2012;2:15:00;100;15 Minutes;;;;;;52;13;101.383;0;9;1;2;1;69.230;0.449;A;97.453;0.367;0.531;
040548FFC60BB521;IDS-12B -- ???????-????? -- 1 -- None -- 80 -- 0 -- Solo Pro II MVP -- 172.26.2.172;113;Total;3/5/2012;2:15:00;100;15 Minutes;;;;;;112;56;91.586;0;41;8;5;2;45.078;0.949;A;87.766;0.766;1.273;
040548FFC60BB521;IDS-12B -- ???????-????? -- 1 -- None -- 80 -- 0 -- Solo Pro II MVP -- 172.26.2.172;109;Lane 1;3/5/2012;2:30:00;100;15 Minutes;;;;;;144;36;90.637;0;26;8;2;0;25.000;1.270;A;88.402;0.922;1.629;
040548FFC60BB521;IDS-12B -- ???????-????? -- 1 -- None -- 80 -- 0 -- Solo Pro II MVP -- 172.26.2.172;110;Lane 2;3/5/2012;2:30:00;100;15 Minutes;;;;;;32;8;106.125;0;4;2;2;0;112.500;0.266;A;105.680;0.238;0.301;
040548FFC60BB521;IDS-12B -- ???????-????? -- 1 -- None -- 80 -- 0 -- Solo Pro II MVP -- 172.26.2.172;113;Total;3/5/2012;2:30:00;100;15 Minutes;;;;;;88;44;93.453;0;30;10;4;0;68.750;0.766;A;91.113;0.582;0.965;
040548FFC60BB521;IDS-12B -- ???????-????? -- 1 -- None -- 80 -- 0 -- Solo Pro II MVP -- 172.26.2.172;109;Lane 1;3/5/2012;2:45:00;100;15 Minutes;;;;;;152;38;92.340;0;29;5;2;2;23.684;1.215;A;89.434;0.996;1.699;
040548FFC60BB521;IDS-12B -- ???????-????? -- 1 -- None -- 80 -- 0 -- Solo Pro II MVP -- 172.26.2.172;110;Lane 2;3/5/2012;2:45:00;100;15 Minutes;;;;;;28;7;113.570;0;5;2;0;0;128.570;0.230;A;112.906;0.141;0.246;
040548FFC60BB521;IDS-12B -- ???????-????? -- 1 -- None -- 80 -- 0 -- Solo Pro II MVP -- 172.26.2.172;113;Total;3/5/2012;2:45:00;100;15 Minutes;;;;;;90;45;95.641;0;34;7;2;2;76.125;0.723;A;92.422;0.563;0.973;
040548FFC60BB521;IDS-12B -- ???????-????? -- 1 -- None -- 80 -- 0 -- Solo Pro II MVP -- 172.26.2.172;109;Lane 1;3/5/2012;3:00:00;100;15 Minutes;;;;;;156;39;87.152;0;27;7;5;0;23.074;1.512;A;84.453;1.012;1.844;
040548FFC60BB521;IDS-12B -- ???????-????? -- 1 -- None -- 80 -- 0 -- Solo Pro II MVP -- 172.26.2.172;110;Lane 2;3/5/2012;3:00:00;100;15 Minutes;;;;;;36;9;110.332;0;3;3;2;1;100.000;0.238;A;106.523;0.000;0.336;
040548FFC60BB521;IDS-12B -- ???????-????? -- 1 -- None -- 80 -- 0 -- Solo Pro II MVP -- 172.26.2.172;113;Total;3/5/2012;3:00:00;100;15 Minutes;;;;;;96;48;91.500;0;30;10;7;1;61.535;0.875;A;87.867;0.629;1.090;
040548FFC60BB521;IDS-12B -- ???????-????? -- 1 -- None -- 80 -- 0 -- Solo Pro II MVP -- 172.26.2.172;109;Lane 1;3/5/2012;3:15:00;100;15 Minutes;;;;;;172;43;97.488;0;28;6;6;3;20.930;1.484;A;93.500;1.121;1.836;
040548FFC60BB521;IDS-12B -- ???????-????? -- 1 -- None -- 80 -- 0 -- Solo Pro II MVP -- 172.26.2.172;110;Lane 2;3/5/2012;3:15:00;100;15 Minutes;;;;;;64;16;110.813;0;12;3;1;0;56.250;0.473;A;109.090;0.336;0.586;
040548FFC60BB521;IDS-12B -- ???????-????? -- 1 -- None -- 80 -- 0 -- Solo Pro II MVP -- 172.26.2.172;113;Total;3/5/2012;3:15:00;100;15 Minutes;;;;;;118;59;101.102;0;40;9;7;3;38.590;0.977;A;97.270;0.723;1.211;
040548FFC60BB521;IDS-12B -- ???????-????? -- 1 -- None -- 80 -- 0 -- Solo Pro II MVP -- 172.26.2.172;109;Lane 1;3/5/2012;3:30:00;100;15 Minutes;;;;;;156;39;90.512;0;32;6;0;0;23.074;1.336;A;88.488;0.879;1.762;
040548FFC60BB521;IDS-12B -- ???????-????? -- 1 -- None -- 80 -- 0 -- Solo Pro II MVP -- 172.26.2.172;110;Lane 2;3/5/2012;3:30:00;100;15 Minutes;;;;;;56;14;113.500;0;9;1;3;1;64.285;0.441;A;110.676;0.402;0.504;
040548FFC60BB521;IDS-12B -- ???????-????? -- 1 -- None -- 80 -- 0 -- Solo Pro II MVP -- 172.26.2.172;113;Total;3/5/2012;3:30:00;100;15 Minutes;;;;;;106;53;96.582;0;41;7;3;1;43.680;0.887;A;93.438;0.648;1.133;
040548FFC60BB521;IDS-12B -- ???????-????? -- 1 -- None -- 80 -- 0 -- Solo Pro II MVP -- 172.26.2.172;109;Lane 1;3/5/2012;3:45:00;100;15 Minutes;;;;;;196;49;92.836;0;39;7;2;1;18.367;1.691;A;90.152;1.191;2.172;
040548FFC60BB521;IDS-12B -- ???????-????? -- 1 -- None -- 80 -- 0 -- Solo Pro II MVP -- 172.26.2.172;110;Lane 2;3/5/2012;3:45:00;100;15 Minutes;;;;;;36;9;104.109;0;9;0;0;0;100.000;0.289;A;103.113;0.176;0.348;
040548FFC60BB521;IDS-12B -- ???????-????? -- 1 -- None -- 80 -- 0 -- Solo Pro II MVP -- 172.26.2.172;113;Total;3/5/2012;3:45:00;100;15 Minutes;;;;;;116;58;94.586;0;48;7;2;1;59.184;0.988;A;91.945;0.684;1.258;
040548FFC60BB521;IDS-12B -- ???????-????? -- 1 -- None -- 80 -- 0 -- Solo Pro II MVP -- 172.26.2.172;109;Lane 1;3/5/2012;4:00:00;100;15 Minutes;;;;;;252;63;91.000;0;42;15;3;2;14.285;2.141;A;87.410;1.695;2.883;
040548FFC60BB521;IDS-12B -- ???????-????? -- 1 -- None -- 80 -- 0 -- Solo Pro II MVP -- 172.26.2.172;110;Lane 2;3/5/2012;4:00:00;100;15 Minutes;;;;;;60;15;112.598;0;10;4;1;0;60.000;0.441;A;110.082;0.305;0.543;
040548FFC60BB521;IDS-12B -- ???????-????? -- 1 -- None -- 80 -- 0 -- Solo Pro II MVP -- 172.26.2.172;113;Total;3/5/2012;4:00:00;100;15 Minutes;;;;;;156;78;95.152;0;52;19;4;2;37.141;1.289;A;91.016;0.992;1.711;
040548FFC60BB521;IDS-12B -- ???????-????? -- 1 -- None -- 80 -- 0 -- Solo Pro II MVP -- 172.26.2.172;109;Lane 1;3/5/2012;4:15:00;100;15 Minutes;;;;;;208;52;88.266;0;45;5;1;1;17.305;1.816;A;85.531;1.266;2.430;
040548FFC60BB521;IDS-12B -- ???????-????? -- 1 -- None -- 80 -- 0 -- Solo Pro II MVP -- 172.26.2.172;110;Lane 2;3/5/2012;4:15:00;100;15 Minutes;;;;;;116;29;114.824;0;20;6;3;0;31.031;0.930;A;110.754;0.621;1.047;
040548FFC60BB521;IDS-12B -- ???????-????? -- 1 -- None -- 80 -- 0 -- Solo Pro II MVP -- 172.26.2.172;113;Total;3/5/2012;4:15:00;100;15 Minutes;;;;;;162;81;97.777;0;65;11;4;1;24.168;1.371;A;93.125;0.934;1.738;
040548FFC60BB521;IDS-12B -- ???????-????? -- 1 -- None -- 80 -- 0 -- Solo Pro II MVP -- 172.26.2.172;109;Lane 1;3/5/2012;4:30:00;100;15 Minutes;;;;;;240;60;85.613;0;50;7;2;0;15.000;2.191;A;83.512;1.484;2.871;
040548FFC60BB521;IDS-12B -- ???????-????? -- 1 -- None -- 80 -- 0 -- Solo Pro II MVP -- 172.26.2.172;110;Lane 2;3/5/2012;4:30:00;100;15 Minutes;;;;;;80;20;110.250;0;14;4;1;1;45.000;0.695;A;108.879;0.492;0.734;
040548FFC60BB521;IDS-12B -- ???????-????? -- 1 -- None -- 80 -- 0 -- Solo Pro II MVP -- 172.26.2.172;113;Total;3/5/2012;4:30:00;100;15 Minutes;;;;;;160;80;91.773;0;64;11;3;1;30.000;1.441;A;88.676;0.988;1.801;
040548FFC60BB521;IDS-12B -- ???????-????? -- 1 -- None -- 80 -- 0 -- Solo Pro II MVP -- 172.26.2.172;109;Lane 1;3/5/2012;4:45:00;100;15 Minutes;;;;;;264;66;86.363;0;53;8;4;0;13.633;2.367;A;84.266;1.586;3.133;
040548FFC60BB521;IDS-12B -- ???????-????? -- 1 -- None -- 80 -- 0 -- Solo Pro II MVP -- 172.26.2.172;110;Lane 2;3/5/2012;4:45:00;100;15 Minutes;;;;;;152;38;107.000;0;25;8;3;2;23.684;1.289;A;104.355;0.910;1.453;
040548FFC60BB521;IDS-12B -- ???????-????? -- 1 -- None -- 80 -- 0 -- Solo Pro II MVP -- 172.26.2.172;113;Total;3/5/2012;4:45:00;100;15 Minutes;;;;;;208;104;93.902;0;78;16;7;2;18.656;1.828;A;90.641;1.250;2.293;
040548FFC60BB521;IDS-12B -- ???????-????? -- 1 -- None -- 80 -- 0 -- Solo Pro II MVP -- 172.26.2.172;109;Lane 1;3/5/2012;5:00:00;100;15 Minutes;;;;;;344;86;93.090;0;67;14;4;1;10.465;2.945;A;89.707;2.098;3.832;
040548FFC60BB521;IDS-12B -- ???????-????? -- 1 -- None -- 80 -- 0 -- Solo Pro II MVP -- 172.26.2.172;110;Lane 2;3/5/2012;5:00:00;100;15 Minutes;;;;;;144;36;112.027;0;23;8;4;1;25.000;1.164;A;109.469;0.824;1.313;
040548FFC60BB521;IDS-12B -- ???????-????? -- 1 -- None -- 80 -- 0 -- Solo Pro II MVP -- 172.26.2.172;113;Total;3/5/2012;5:00:00;100;15 Minutes;;;;;;244;122;98.680;0;90;22;8;2;17.730;2.055;A;94.754;1.457;2.574;
040548FFC60BB521;IDS-12B -- ???????-????? -- 1 -- None -- 80 -- 0 -- Solo Pro II MVP -- 172.26.2.172;109;Lane 1;3/5/2012;5:15:00;100;15 Minutes;;;;;;364;91;86.680;0;82;7;1;0;9.887;3.441;A;84.223;2.047;4.320;
040548FFC60BB521;IDS-12B -- ???????-????? -- 1 -- None -- 80 -- 0 -- Solo Pro II MVP -- 172.26.2.172;110;Lane 2;3/5/2012;5:15:00;100;15 Minutes;;;;;;204;51;108.215;0;34;12;5;0;17.645;1.609;A;106.586;1.129;1.910;
040548FFC60BB521;IDS-12B -- ???????-????? -- 1 -- None -- 80 -- 0 -- Solo Pro II MVP -- 172.26.2.172;113;Total;3/5/2012;5:15:00;100;15 Minutes;;;;;;284;142;94.414;0;116;19;6;0;13.766;2.523;A;91.086;1.586;3.117;
040548FFC60BB521;IDS-12B -- ???????-????? -- 1 -- None -- 80 -- 0 -- Solo Pro II MVP -- 172.26.2.172;109;Lane 1;3/5/2012;5:30:00;100;15 Minutes;;;;;;444;111;90.809;0;95;9;6;1;8.105;3.859;A;88.273;2.598;5.027;
040548FFC60BB521;IDS-12B -- ???????-????? -- 1 -- None -- 80 -- 0 -- Solo Pro II MVP -- 172.26.2.172;110;Lane 2;3/5/2012;5:30:00;100;15 Minutes;;;;;;248;62;107.047;0;43;13;4;2;14.516;2.203;A;105.445;1.492;2.352;
040548FFC60BB521;IDS-12B -- ???????-????? -- 1 -- None -- 80 -- 0 -- Solo Pro II MVP -- 172.26.2.172;113;Total;3/5/2012;5:30:00;100;15 Minutes;;;;;;346;173;96.629;0;138;22;10;3;11.309;3.031;A;93.746;2.047;3.688;
040548FFC60BB521;IDS-12B -- ???????-????? -- 1 -- None -- 80 -- 0 -- Solo Pro II MVP -- 172.26.2.172;109;Lane 1;3/5/2012;5:45:00;100;15 Minutes;;;;;;448;112;95.176;0;97;10;3;2;8.035;4.129;A;92.809;2.449;4.824;
040548FFC60BB521;IDS-12B -- ???????-????? -- 1 -- None -- 80 -- 0 -- Solo Pro II MVP -- 172.26.2.172;110;Lane 2;3/5/2012;5:45:00;100;15 Minutes;;;;;;288;72;115.469;0;59;7;5;1;12.500;2.184;A;113.891;1.363;2.527;
040548FFC60BB521;IDS-12B -- ???????-????? -- 1 -- None -- 80 -- 0 -- Solo Pro II MVP -- 172.26.2.172;113;Total;3/5/2012;5:45:00;100;15 Minutes;;;;;;368;184;103.117;0;156;17;8;3;10.266;3.156;A;100.055;1.891;3.676;
040548FFC60BB521;IDS-12B -- ???????-????? -- 1 -- None -- 80 -- 0 -- Solo Pro II MVP -- 172.26.2.172;109;Lane 1;3/5/2012;6:00:00;100;15 Minutes;;;;;;556;139;102.336;0;131;5;1;0;6.473;3.961;A;100.746;2.512;5.516;
040548FFC60BB521;IDS-12B -- ???????-????? -- 1 -- None -- 80 -- 0 -- Solo Pro II MVP -- 172.26.2.172;110;Lane 2;3/5/2012;6:00:00;100;15 Minutes;;;;;;276;69;119.504;0;66;3;0;0;13.043;1.746;A;116.199;1.090;2.375;
040548FFC60BB521;IDS-12B -- ???????-????? -- 1 -- None -- 80 -- 0 -- Solo Pro II MVP -- 172.26.2.172;113;Total;3/5/2012;6:00:00;100;15 Minutes;;;;;;416;208;108.031;0;197;8;1;0;9.758;2.852;A;105.395;1.793;3.945;
040548FFC60BB521;IDS-12B -- ???????-????? -- 1 -- None -- 80 -- 0 -- Solo Pro II MVP -- 172.26.2.172;109;Lane 1;3/5/2012;6:15:00;100;15 Minutes;;;;;;652;163;102.453;0;158;3;0;2;5.520;4.781;A;100.875;3.109;6.461;
040548FFC60BB521;IDS-12B -- ???????-????? -- 1 -- None -- 80 -- 0 -- Solo Pro II MVP -- 172.26.2.172;110;Lane 2;3/5/2012;6:15:00;100;15 Minutes;;;;;;472;118;121.379;0;113;4;0;0;7.625;2.898;A;120.199;1.699;3.926;
040548FFC60BB521;IDS-12B -- ???????-????? -- 1 -- None -- 80 -- 0 -- Solo Pro II MVP -- 172.26.2.172;113;Total;3/5/2012;6:15:00;100;15 Minutes;;;;;;562;281;110.398;0;271;7;0;2;6.570;3.840;A;108.336;2.379;5.188;
040548FFC60BB521;IDS-12B -- ???????-????? -- 1 -- None -- 80 -- 0 -- Solo Pro II MVP -- 172.26.2.172;109;Lane 1;3/5/2012;6:30:00;100;15 Minutes;;;;;;748;187;102.699;0;179;5;0;0;4.813;5.520;A;101.355;3.305;7.379;
040548FFC60BB521;IDS-12B -- ???????-????? -- 1 -- None -- 80 -- 0 -- Solo Pro II MVP -- 172.26.2.172;110;Lane 2;3/5/2012;6:30:00;100;15 Minutes;;;;;;724;181;123.793;0;173;6;1;0;4.969;4.551;A;122.945;2.668;5.887;
040548FFC60BB521;IDS-12B -- ???????-????? -- 1 -- None -- 80 -- 0 -- Solo Pro II MVP -- 172.26.2.172;113;Total;3/5/2012;6:30:00;100;15 Minutes;;;;;;736;368;113.074;0;352;11;1;0;4.891;5.035;A;110.961;2.961;6.633;
040548FFC60BB521;IDS-12B -- ???????-????? -- 1 -- None -- 80 -- 0 -- Solo Pro II MVP -- 172.26.2.172;109;Lane 1;3/5/2012;6:45:00;100;15 Minutes;;;;;;860;215;99.691;0;205;7;2;1;4.184;7.227;A;98.621;4.086;8.719;
040548FFC60BB521;IDS-12B -- ???????-????? -- 1 -- None -- 80 -- 0 -- Solo Pro II MVP -- 172.26.2.172;110;Lane 2;3/5/2012;6:45:00;100;15 Minutes;;;;;;1064;266;119.598;0;248;9;5;4;3.383;8.074;A;118.840;4.285;8.953;
040548FFC60BB521;IDS-12B -- ???????-????? -- 1 -- None -- 80 -- 0 -- Solo Pro II MVP -- 172.26.2.172;113;Total;3/5/2012;6:45:00;100;15 Minutes;;;;;;962;481;110.699;0;453;16;7;5;3.781;7.648;A;108.871;4.156;8.836;
040548FFC60BB521;IDS-12B -- ???????-????? -- 1 -- None -- 80 -- 0 -- Solo Pro II MVP -- 172.26.2.172;109;Lane 1;3/5/2012;7:00:00;100;15 Minutes;;;;;;1056;264;101.434;0;245;12;5;2;3.406;9.703;A;99.680;4.855;10.594;
040548FFC60BB521;IDS-12B -- ???????-????? -- 1 -- None -- 80 -- 0 -- Solo Pro II MVP -- 172.26.2.172;110;Lane 2;3/5/2012;7:00:00;100;15 Minutes;;;;;;1372;343;118.336;0;332;5;4;2;2.621;11.223;A;117.547;5.805;11.672;
040548FFC60BB521;IDS-12B -- ???????-????? -- 1 -- None -- 80 -- 0 -- Solo Pro II MVP -- 172.26.2.172;113;Total;3/5/2012;7:00:00;100;15 Minutes;;;;;;1214;607;110.984;0;577;17;9;4;3.012;10.461;A;109.047;5.313;11.133;
040548FFC60BB521;IDS-12B -- ???????-????? -- 1 -- None -- 80 -- 0 -- Solo Pro II MVP -- 172.26.2.172;109;Lane 1;3/5/2012;7:15:00;100;15 Minutes;;;;;;1220;305;99.570;0;288;12;1;3;2.949;10.426;A;98.461;5.852;12.391;
040548FFC60BB521;IDS-12B -- ???????-????? -- 1 -- None -- 80 -- 0 -- Solo Pro II MVP -- 172.26.2.172;110;Lane 2;3/5/2012;7:15:00;100;15 Minutes;;;;;;1572;393;115.105;0;364;21;6;2;2.289;12.363;A;114.586;6.605;13.719;
040548FFC60BB521;IDS-12B -- ???????-????? -- 1 -- None -- 80 -- 0 -- Solo Pro II MVP -- 172.26.2.172;113;Total;3/5/2012;7:15:00;100;15 Minutes;;;;;;1396;698;108.316;0;652;33;7;5;2.617;11.395;A;106.867;6.199;13.063;
040548FFC60BB521;IDS-12B -- ???????-????? -- 1 -- None -- 80 -- 0 -- Solo Pro II MVP -- 172.26.2.172;109;Lane 1;3/5/2012;7:30:00;100;15 Minutes;;;;;;1348;337;97.805;0;328;6;0;3;2.668;11.668;A;96.605;6.164;13.953;
040548FFC60BB521;IDS-12B -- ???????-????? -- 1 -- None -- 80 -- 0 -- Solo Pro II MVP -- 172.26.2.172;110;Lane 2;3/5/2012;7:30:00;100;15 Minutes;;;;;;1836;459;111.273;0;438;17;2;2;1.957;14.684;A;110.539;7.414;16.609;
040548FFC60BB521;IDS-12B -- ???????-????? -- 1 -- None -- 80 -- 0 -- Solo Pro II MVP -- 172.26.2.172;113;Total;3/5/2012;7:30:00;100;15 Minutes;;;;;;1592;796;105.570;0;766;23;2;5;2.313;13.176;A;104.180;6.762;15.281;
040548FFC60BB521;IDS-12B -- ???????-????? -- 1 -- None -- 80 -- 0 -- Solo Pro II MVP -- 172.26.2.172;109;Lane 1;3/5/2012;7:45:00;100;15 Minutes;;;;;;1304;326;97.566;0;318;5;2;1;2.758;11.688;A;96.367;5.371;13.531;
040548FFC60BB521;IDS-12B -- ???????-????? -- 1 -- None -- 80 -- 0 -- Solo Pro II MVP -- 172.26.2.172;110;Lane 2;3/5/2012;7:45:00;100;15 Minutes;;;;;;1860;465;111.301;0;451;10;3;1;1.934;14.422;A;110.629;6.691;16.813;
040548FFC60BB521;IDS-12B -- ???????-????? -- 1 -- None -- 80 -- 0 -- Solo Pro II MVP -- 172.26.2.172;113;Total;3/5/2012;7:45:00;100;15 Minutes;;;;;;1582;791;105.641;0;769;15;5;2;2.344;13.055;A;104.215;6.004;15.180;
040548FFC60BB521;IDS-12B -- ???????-????? -- 1 -- None -- 80 -- 0 -- Solo Pro II MVP -- 172.26.2.172;109;Lane 1;3/5/2012;8:00:00;100;15 Minutes;;;;;;1340;335;97.773;0;314;18;3;0;2.684;11.477;A;96.793;5.836;13.844;
040548FFC60BB521;IDS-12B -- ???????-????? -- 1 -- None -- 80 -- 0 -- Solo Pro II MVP -- 172.26.2.172;110;Lane 2;3/5/2012;8:00:00;100;15 Minutes;;;;;;1816;454;111.785;0;405;45;4;0;1.980;13.602;A;111.324;6.680;16.313;
040548FFC60BB521;IDS-12B -- ???????-????? -- 1 -- None -- 80 -- 0 -- Solo Pro II MVP -- 172.26.2.172;113;Total;3/5/2012;8:00:00;100;15 Minutes;;;;;;1578;789;105.836;0;719;63;7;0;2.332;12.539;A;104.598;6.223;15.086;
040548FFC60BB521;IDS-12B -- ???????-????? -- 1 -- None -- 80 -- 0 -- Solo Pro II MVP -- 172.26.2.172;109;Lane 1;3/5/2012;8:15:00;100;15 Minutes;;;;;;1296;324;96.477;0;304;14;2;4;2.777;11.215;A;95.336;6.121;13.594;
040548FFC60BB521;IDS-12B -- ???????-????? -- 1 -- None -- 80 -- 0 -- Solo Pro II MVP -- 172.26.2.172;110;Lane 2;3/5/2012;8:15:00;100;15 Minutes;;;;;;1828;457;111.809;0;419;34;4;0;1.969;13.316;A;111.313;7.121;16.422;
040548FFC60BB521;IDS-12B -- ???????-????? -- 1 -- None -- 80 -- 0 -- Solo Pro II MVP -- 172.26.2.172;113;Total;3/5/2012;8:15:00;100;15 Minutes;;;;;;1562;781;105.449;0;723;48;6;4;2.371;12.266;A;104.078;6.578;15.008;
040548FFC60BB521;IDS-12B -- ???????-????? -- 1 -- None -- 80 -- 0 -- Solo Pro II MVP -- 172.26.2.172;109;Lane 1;3/5/2012;8:30:00;100;15 Minutes;;;;;;1340;335;97.781;0;317;16;2;0;2.684;11.230;A;96.465;6.141;13.891;
040548FFC60BB521;IDS-12B -- ???????-????? -- 1 -- None -- 80 -- 0 -- Solo Pro II MVP -- 172.26.2.172;110;Lane 2;3/5/2012;8:30:00;100;15 Minutes;;;;;;1772;443;111.336;0;407;32;0;3;2.031;12.977;A;110.211;7.148;16.078;
040548FFC60BB521;IDS-12B -- ???????-????? -- 1 -- None -- 80 -- 0 -- Solo Pro II MVP -- 172.26.2.172;113;Total;3/5/2012;8:30:00;100;15 Minutes;;;;;;1556;778;105.500;0;724;48;2;3;2.355;12.102;A;103.785;6.617;14.992;
040548FFC60BB521;IDS-12B -- ???????-????? -- 1 -- None -- 80 -- 0 -- Solo Pro II MVP -- 172.26.2.172;109;Lane 1;3/5/2012;8:45:00;100;15 Minutes;;;;;;1316;329;100.277;0;306;22;0;1;2.734;10.941;A;98.969;6.105;13.297;
040548FFC60BB521;IDS-12B -- ???????-????? -- 1 -- None -- 80 -- 0 -- Solo Pro II MVP -- 172.26.2.172;110;Lane 2;3/5/2012;8:45:00;100;15 Minutes;;;;;;1636;409;114.449;0;358;44;6;1;2.199;11.641;A;113.438;6.648;14.422;
040548FFC60BB521;IDS-12B -- ???????-????? -- 1 -- None -- 80 -- 0 -- Solo Pro II MVP -- 172.26.2.172;113;Total;3/5/2012;8:45:00;100;15 Minutes;;;;;;1476;738;108.133;0;664;66;6;2;2.465;11.289;A;106.496;6.348;13.859;
040548FFC60BB521;IDS-12B -- ???????-????? -- 1 -- None -- 80 -- 0 -- Solo Pro II MVP -- 172.26.2.172;109;Lane 1;3/5/2012;9:00:00;100;15 Minutes;;;;;;1300;325;94.559;0;310;9;0;3;2.766;10.359;A;93.586;6.313;13.891;
040548FFC60BB521;IDS-12B -- ???????-????? -- 1 -- None -- 80 -- 0 -- Solo Pro II MVP -- 172.26.2.172;110;Lane 2;3/5/2012;9:00:00;100;15 Minutes;;;;;;1584;396;108.914;0;365;23;5;1;2.270;10.727;A;107.730;6.621;14.703;
040548FFC60BB521;IDS-12B -- ???????-????? -- 1 -- None -- 80 -- 0 -- Solo Pro II MVP -- 172.26.2.172;113;Total;3/5/2012;9:00:00;100;15 Minutes;;;;;;1442;721;102.441;0;675;32;5;4;2.516;10.543;A;100.859;6.434;14.297;
040548FFC60BB521;IDS-12B -- ???????-????? -- 1 -- None -- 80 -- 0 -- Solo Pro II MVP -- 172.26.2.172;109;Lane 1;3/5/2012;9:15:00;100;15 Minutes;;;;;;1132;283;93.000;0;278;2;1;0;3.180;7.883;A;91.820;5.266;12.328;
040548FFC60BB521;IDS-12B -- ???????-????? -- 1 -- None -- 80 -- 0 -- Solo Pro II MVP -- 172.26.2.172;110;Lane 2;3/5/2012;9:15:00;100;15 Minutes;;;;;;1288;322;107.285;0;316;3;2;0;2.793;8.063;A;105.816;5.395;12.172;
040548FFC60BB521;IDS-12B -- ???????-????? -- 1 -- None -- 80 -- 0 -- Solo Pro II MVP -- 172.26.2.172;113;Total;3/5/2012;9:15:00;100;15 Minutes;;;;;;1210;605;100.602;0;594;5;3;0;2.984;7.973;A;98.711;5.309;12.258;
040548FFC60BB521;IDS-12B -- ???????-????? -- 1 -- None -- 80 -- 0 -- Solo Pro II MVP -- 172.26.2.172;109;Lane 1;3/5/2012;9:30:00;100;15 Minutes;;;;;;1160;290;92.523;0;281;6;0;3;3.102;8.359;A;91.313;5.746;12.703;
040548FFC60BB521;IDS-12B -- ???????-????? -- 1 -- None -- 80 -- 0 -- Solo Pro II MVP -- 172.26.2.172;110;Lane 2;3/5/2012;9:30:00;100;15 Minutes;;;;;;1448;362;108.762;0;346;7;0;1;2.484;9.125;A;107.383;5.789;13.484;
040548FFC60BB521;IDS-12B -- ???????-????? -- 1 -- None -- 80 -- 0 -- Solo Pro II MVP -- 172.26.2.172;113;Total;3/5/2012;9:30:00;100;15 Minutes;;;;;;1304;652;101.539;0;627;13;0;4;2.793;8.742;A;99.527;5.719;13.102;
040548FFC60BB521;IDS-12B -- ???????-????? -- 1 -- None -- 80 -- 0 -- Solo Pro II MVP -- 172.26.2.172;109;Lane 1;3/5/2012;9:45:00;100;15 Minutes;;;;;;1164;291;92.660;0;283;5;0;3;3.090;9.285;A;91.402;5.914;12.734;
040548FFC60BB521;IDS-12B -- ???????-????? -- 1 -- None -- 80 -- 0 -- Solo Pro II MVP -- 172.26.2.172;110;Lane 2;3/5/2012;9:45:00;100;15 Minutes;;;;;;1380;345;107.133;0;336;8;0;0;2.605;9.176;A;106.152;5.750;13.000;
040548FFC60BB521;IDS-12B -- ???????-????? -- 1 -- None -- 80 -- 0 -- Solo Pro II MVP -- 172.26.2.172;113;Total;3/5/2012;9:45:00;100;15 Minutes;;;;;;1272;636;100.512;0;619;13;0;3;2.848;9.230;A;98.855;5.789;12.867;
040548FFC60BB521;IDS-12B -- ???????-????? -- 1 -- None -- 80 -- 0 -- Solo Pro II MVP -- 172.26.2.172;109;Lane 1;3/5/2012;10:00:00;100;15 Minutes;;;;;;1132;283;94.813;0;279;2;1;1;3.180;8.797;A;93.480;5.391;12.109;
040548FFC60BB521;IDS-12B -- ???????-????? -- 1 -- None -- 80 -- 0 -- Solo Pro II MVP -- 172.26.2.172;110;Lane 2;3/5/2012;10:00:00;100;15 Minutes;;;;;;1264;316;111.531;0;309;7;0;0;2.848;8.414;A;110.965;5.109;11.391;
040548FFC60BB521;IDS-12B -- ???????-????? -- 1 -- None -- 80 -- 0 -- Solo Pro II MVP -- 172.26.2.172;113;Total;3/5/2012;10:00:00;100;15 Minutes;;;;;;1198;599;103.633;0;588;9;1;1;3.012;8.605;A;101.887;5.215;11.758;
040548FFC60BB521;IDS-12B -- ???????-????? -- 1 -- None -- 80 -- 0 -- Solo Pro II MVP -- 172.26.2.172;109;Lane 1;3/5/2012;10:15:00;100;15 Minutes;;;;;;1140;285;92.918;0;274;5;2;4;3.156;9.668;A;92.004;6.121;12.391;
040548FFC60BB521;IDS-12B -- ???????-????? -- 1 -- None -- 80 -- 0 -- Solo Pro II MVP -- 172.26.2.172;110;Lane 2;3/5/2012;10:15:00;100;15 Minutes;;;;;;1260;315;108.914;0;305;10;0;0;2.855;8.473;A;108.094;5.188;11.656;
040548FFC60BB521;IDS-12B -- ???????-????? -- 1 -- None -- 80 -- 0 -- Solo Pro II MVP -- 172.26.2.172;113;Total;3/5/2012;10:15:00;100;15 Minutes;;;;;;1200;600;101.316;0;579;15;2;4;3.004;9.070;A;99.805;5.594;12.023;
040548FFC60BB521;IDS-12B -- ???????-????? -- 1 -- None -- 80 -- 0 -- Solo Pro II MVP -- 172.26.2.172;109;Lane 1;3/5/2012;10:30:00;100;15 Minutes;;;;;;1064;266;92.102;0;261;4;0;1;3.383;8.844;A;90.793;5.473;11.719;
040548FFC60BB521;IDS-12B -- ???????-????? -- 1 -- None -- 80 -- 0 -- Solo Pro II MVP -- 172.26.2.172;110;Lane 2;3/5/2012;10:30:00;100;15 Minutes;;;;;;1264;316;111.137;0;309;5;0;2;2.848;8.402;A;110.512;5.242;11.438;
040548FFC60BB521;IDS-12B -- ???????-????? -- 1 -- None -- 80 -- 0 -- Solo Pro II MVP -- 172.26.2.172;113;Total;3/5/2012;10:30:00;100;15 Minutes;;;;;;1164;582;102.438;0;570;9;0;3;3.113;8.621;A;100.531;5.305;11.578;
040548FFC60BB521;IDS-12B -- ???????-????? -- 1 -- None -- 80 -- 0 -- Solo Pro II MVP -- 172.26.2.172;109;Lane 1;3/5/2012;10:45:00;100;15 Minutes;;;;;;1140;285;92.961;0;275;5;3;2;3.156;9.531;A;91.543;5.859;12.453;
040548FFC60BB521;IDS-12B -- ???????-????? -- 1 -- None -- 80 -- 0 -- Solo Pro II MVP -- 172.26.2.172;110;Lane 2;3/5/2012;10:45:00;100;15 Minutes;;;;;;1272;318;109.035;0;315;2;1;0;2.828;8.535;A;108.254;5.152;11.750;
040548FFC60BB521;IDS-12B -- ???????-????? -- 1 -- None -- 80 -- 0 -- Solo Pro II MVP -- 172.26.2.172;113;Total;3/5/2012;10:45:00;100;15 Minutes;;;;;;1206;603;101.438;0;590;7;4;2;2.992;9.031;A;99.656;5.453;12.102;
040548FFC60BB521;IDS-12B -- ???????-????? -- 1 -- None -- 80 -- 0 -- Solo Pro II MVP -- 172.26.2.172;109;Lane 1;3/5/2012;11:00:00;100;15 Minutes;;;;;;1156;289;91.754;0;281;6;2;0;3.113;9.555;A;90.555;5.852;12.766;
040548FFC60BB521;IDS-12B -- ???????-????? -- 1 -- None -- 80 -- 0 -- Solo Pro II MVP -- 172.26.2.172;110;Lane 2;3/5/2012;11:00:00;100;15 Minutes;;;;;;1320;330;109.223;0;321;7;1;1;2.727;9.156;A;108.723;5.594;12.141;
040548FFC60BB521;IDS-12B -- ???????-????? -- 1 -- None -- 80 -- 0 -- Solo Pro II MVP -- 172.26.2.172;113;Total;3/5/2012;11:00:00;100;15 Minutes;;;;;;1238;619;101.066;0;602;13;3;1;2.918;9.355;A;99.348;5.680;12.461;
