CPU Identifier;Autoscope Description;Detector ID;Detector Title;Date;Time;Status;Data Interval;Ticks (millisec.);State;Speed;Length;Class;Average Flow Rate;Volume;Arithmetic Mean Speed;Class A Count;Class B Count;Class C Count;Class D Count;Class E Count;Average Time Headway;Average Time Occupancy;Level Of Service;Space Mean Speed;Space Occupancy;Density;
040549FFFDFAB421;IDS-05A -- ??????-????? -- 1 -- None -- 78 -- 0 -- Solo Pro II MVP -- 172.26.2.145;109;Lane 1;3/5/2012;20:45:00;100;15 Minutes;;;;;;4;1;79.000;0;0;0;0;0;255.996;0.043;A;79.051;0.000;0.047;
040549FFFDFAB421;IDS-05A -- ??????-????? -- 1 -- None -- 78 -- 0 -- Solo Pro II MVP -- 172.26.2.145;110;Lane 2;3/5/2012;20:45:00;100;15 Minutes;;;;;;560;140;62.750;0;80;53;2;5;6.426;9.344;A;59.855;4.906;9.355;
040549FFFDFAB421;IDS-05A -- ??????-????? -- 1 -- None -- 78 -- 0 -- Solo Pro II MVP -- 172.26.2.145;113;Total;3/5/2012;20:45:00;100;15 Minutes;;;;;;282;141;62.863;0;80;53;2;5;255.996;4.691;A;59.961;2.445;4.699;
040549FFFDFAB421;IDS-05A -- ??????-????? -- 1 -- None -- 78 -- 0 -- Solo Pro II MVP -- 172.26.2.145;109;Lane 1;3/5/2012;21:00:00;100;15 Minutes;;;;;;0;0;0.000;0;0;0;0;0;255.996;0.000;A;0.000;100.000;0.000;
040549FFFDFAB421;IDS-05A -- ??????-????? -- 1 -- None -- 78 -- 0 -- Solo Pro II MVP -- 172.26.2.145;110;Lane 2;3/5/2012;21:00:00;100;15 Minutes;;;;;;544;136;63.945;0;80;48;5;2;6.617;8.574;A;61.383;4.445;8.859;
040549FFFDFAB421;IDS-05A -- ??????-????? -- 1 -- None -- 78 -- 0 -- Solo Pro II MVP -- 172.26.2.145;113;Total;3/5/2012;21:00:00;100;15 Minutes;;;;;;272;136;63.945;0;80;48;5;2;255.996;4.285;A;61.383;2.223;4.430;
040549FFFDFAB421;IDS-05A -- ??????-????? -- 1 -- None -- 78 -- 0 -- Solo Pro II MVP -- 172.26.2.145;109;Lane 1;3/5/2012;21:15:00;100;15 Minutes;;;;;;8;2;64.500;0;1;0;0;0;255.996;0.051;A;63.656;0.020;0.125;
040549FFFDFAB421;IDS-05A -- ??????-????? -- 1 -- None -- 78 -- 0 -- Solo Pro II MVP -- 172.26.2.145;110;Lane 2;3/5/2012;21:15:00;100;15 Minutes;;;;;;484;121;61.484;0;68;47;1;4;7.438;8.301;A;59.039;4.184;8.195;
040549FFFDFAB421;IDS-05A -- ??????-????? -- 1 -- None -- 78 -- 0 -- Solo Pro II MVP -- 172.26.2.145;113;Total;3/5/2012;21:15:00;100;15 Minutes;;;;;;246;123;61.535;0;69;47;1;4;228.719;4.176;A;59.109;2.102;4.160;
040549FFFDFAB421;IDS-05A -- ??????-????? -- 1 -- None -- 78 -- 0 -- Solo Pro II MVP -- 172.26.2.145;109;Lane 1;3/5/2012;21:30:00;100;15 Minutes;;;;;;0;0;0.000;0;0;0;0;0;255.996;0.000;A;0.000;100.000;0.000;
040549FFFDFAB421;IDS-05A -- ??????-????? -- 1 -- None -- 78 -- 0 -- Solo Pro II MVP -- 172.26.2.145;110;Lane 2;3/5/2012;21:30:00;100;15 Minutes;;;;;;452;113;63.793;0;66;36;3;7;7.961;7.746;A;61.172;4.250;7.387;
040549FFFDFAB421;IDS-05A -- ??????-????? -- 1 -- None -- 78 -- 0 -- Solo Pro II MVP -- 172.26.2.145;113;Total;3/5/2012;21:30:00;100;15 Minutes;;;;;;226;113;63.793;0;66;36;3;7;255.996;3.871;A;61.172;2.125;3.691;
040549FFFDFAB421;IDS-05A -- ??????-????? -- 1 -- None -- 78 -- 0 -- Solo Pro II MVP -- 172.26.2.145;109;Lane 1;3/5/2012;21:45:00;100;15 Minutes;;;;;;8;2;57.000;0;1;0;0;0;255.996;0.199;A;56.738;0.023;0.141;
040549FFFDFAB421;IDS-05A -- ??????-????? -- 1 -- None -- 78 -- 0 -- Solo Pro II MVP -- 172.26.2.145;110;Lane 2;3/5/2012;21:45:00;100;15 Minutes;;;;;;392;98;64.059;0;56;31;5;6;9.184;6.340;A;61.102;3.461;6.414;
040549FFFDFAB421;IDS-05A -- ??????-????? -- 1 -- None -- 78 -- 0 -- Solo Pro II MVP -- 172.26.2.145;113;Total;3/5/2012;21:45:00;100;15 Minutes;;;;;;200;100;63.918;0;57;31;5;6;229.590;3.270;A;61.008;1.742;3.277;
040549FFFDFAB421;IDS-05A -- ??????-????? -- 1 -- None -- 78 -- 0 -- Solo Pro II MVP -- 172.26.2.145;109;Lane 1;3/5/2012;22:00:00;100;15 Minutes;;;;;;4;1;60.000;0;0;0;1;0;255.996;0.074;A;60.012;0.059;0.066;
040549FFFDFAB421;IDS-05A -- ??????-????? -- 1 -- None -- 78 -- 0 -- Solo Pro II MVP -- 172.26.2.145;110;Lane 2;3/5/2012;22:00:00;100;15 Minutes;;;;;;476;119;61.898;0;67;39;2;9;7.563;7.859;A;59.488;4.594;8.000;
040549FFFDFAB421;IDS-05A -- ??????-????? -- 1 -- None -- 78 -- 0 -- Solo Pro II MVP -- 172.26.2.145;113;Total;3/5/2012;22:00:00;100;15 Minutes;;;;;;240;120;61.883;0;67;39;3;9;255.996;3.965;A;59.492;2.324;4.031;
040549FFFDFAB421;IDS-05A -- ??????-????? -- 1 -- None -- 78 -- 0 -- Solo Pro II MVP -- 172.26.2.145;109;Lane 1;3/5/2012;22:15:00;100;15 Minutes;;;;;;8;2;59.500;0;0;1;0;0;255.996;0.055;A;59.309;0.035;0.133;
040549FFFDFAB421;IDS-05A -- ??????-????? -- 1 -- None -- 78 -- 0 -- Solo Pro II MVP -- 172.26.2.145;110;Lane 2;3/5/2012;22:15:00;100;15 Minutes;;;;;;432;108;64.063;0;67;31;5;5;8.332;6.984;A;62.402;3.777;6.922;
040549FFFDFAB421;IDS-05A -- ??????-????? -- 1 -- None -- 78 -- 0 -- Solo Pro II MVP -- 172.26.2.145;113;Total;3/5/2012;22:15:00;100;15 Minutes;;;;;;220;110;63.980;0;67;32;5;5;229.164;3.520;A;62.344;1.910;3.527;
040549FFFDFAB421;IDS-05A -- ??????-????? -- 1 -- None -- 78 -- 0 -- Solo Pro II MVP -- 172.26.2.145;109;Lane 1;3/5/2012;22:30:00;100;15 Minutes;;;;;;0;0;0.000;0;0;0;0;0;255.996;0.000;A;0.000;100.000;0.000;
040549FFFDFAB421;IDS-05A -- ??????-????? -- 1 -- None -- 78 -- 0 -- Solo Pro II MVP -- 172.26.2.145;110;Lane 2;3/5/2012;22:30:00;100;15 Minutes;;;;;;392;98;65.102;0;58;32;1;4;9.184;6.785;A;62.480;3.305;6.273;
040549FFFDFAB421;IDS-05A -- ??????-????? -- 1 -- None -- 78 -- 0 -- Solo Pro II MVP -- 172.26.2.145;113;Total;3/5/2012;22:30:00;100;15 Minutes;;;;;;196;98;65.102;0;58;32;1;4;255.996;3.391;A;62.480;1.652;3.137;
040549FFFDFAB421;IDS-05A -- ??????-????? -- 1 -- None -- 78 -- 0 -- Solo Pro II MVP -- 172.26.2.145;109;Lane 1;3/5/2012;22:45:00;100;15 Minutes;;;;;;0;0;0.000;0;0;0;0;0;255.996;0.000;A;0.000;100.000;0.000;
040549FFFDFAB421;IDS-05A -- ??????-????? -- 1 -- None -- 78 -- 0 -- Solo Pro II MVP -- 172.26.2.145;110;Lane 2;3/5/2012;22:45:00;100;15 Minutes;;;;;;360;90;62.785;0;39;43;2;3;10.000;6.625;A;60.359;3.305;5.961;
040549FFFDFAB421;IDS-05A -- ??????-????? -- 1 -- None -- 78 -- 0 -- Solo Pro II MVP -- 172.26.2.145;113;Total;3/5/2012;22:45:00;100;15 Minutes;;;;;;180;90;62.785;0;39;43;2;3;255.996;3.313;A;60.359;1.652;2.980;
040549FFFDFAB421;IDS-05A -- ??????-????? -- 1 -- None -- 78 -- 0 -- Solo Pro II MVP -- 172.26.2.145;109;Lane 1;3/5/2012;23:00:00;100;15 Minutes;;;;;;0;0;0.000;0;0;0;0;0;255.996;0.000;A;0.000;100.000;0.000;
040549FFFDFAB421;IDS-05A -- ??????-????? -- 1 -- None -- 78 -- 0 -- Solo Pro II MVP -- 172.26.2.145;110;Lane 2;3/5/2012;23:00:00;100;15 Minutes;;;;;;292;73;64.805;0;45;22;2;4;12.328;4.660;A;62.102;2.555;4.699;
040549FFFDFAB421;IDS-05A -- ??????-????? -- 1 -- None -- 78 -- 0 -- Solo Pro II MVP -- 172.26.2.145;113;Total;3/5/2012;23:00:00;100;15 Minutes;;;;;;146;73;64.805;0;45;22;2;4;255.996;2.328;A;62.102;1.277;2.348;
040549FFFDFAB421;IDS-05A -- ??????-????? -- 1 -- None -- 78 -- 0 -- Solo Pro II MVP -- 172.26.2.145;109;Lane 1;3/5/2012;23:15:00;100;15 Minutes;;;;;;0;0;0.000;0;0;0;0;0;255.996;0.000;A;0.000;100.000;0.000;
040549FFFDFAB421;IDS-05A -- ??????-????? -- 1 -- None -- 78 -- 0 -- Solo Pro II MVP -- 172.26.2.145;110;Lane 2;3/5/2012;23:15:00;100;15 Minutes;;;;;;316;79;73.961;0;48;27;3;1;11.391;4.309;A;68.051;2.199;4.641;
040549FFFDFAB421;IDS-05A -- ??????-????? -- 1 -- None -- 78 -- 0 -- Solo Pro II MVP -- 172.26.2.145;113;Total;3/5/2012;23:15:00;100;15 Minutes;;;;;;158;79;73.961;0;48;27;3;1;255.996;2.152;A;68.051;1.098;2.320;
040549FFFDFAB421;IDS-05A -- ??????-????? -- 1 -- None -- 78 -- 0 -- Solo Pro II MVP -- 172.26.2.145;109;Lane 1;3/5/2012;23:30:00;100;15 Minutes;;;;;;0;0;0.000;0;0;0;0;0;255.996;0.000;A;0.000;100.000;0.000;
040549FFFDFAB421;IDS-05A -- ??????-????? -- 1 -- None -- 78 -- 0 -- Solo Pro II MVP -- 172.26.2.145;110;Lane 2;3/5/2012;23:30:00;100;15 Minutes;;;;;;320;80;63.160;0;54;19;3;2;11.250;5.156;A;60.934;2.582;5.250;
040549FFFDFAB421;IDS-05A -- ??????-????? -- 1 -- None -- 78 -- 0 -- Solo Pro II MVP -- 172.26.2.145;113;Total;3/5/2012;23:30:00;100;15 Minutes;;;;;;160;80;63.160;0;54;19;3;2;255.996;2.578;A;60.934;1.289;2.625;
040549FFFDFAB421;IDS-05A -- ??????-????? -- 1 -- None -- 78 -- 0 -- Solo Pro II MVP -- 172.26.2.145;109;Lane 1;3/5/2012;23:45:00;100;15 Minutes;;;;;;0;0;0.000;0;0;0;0;0;255.996;0.000;A;0.000;100.000;0.000;
040549FFFDFAB421;IDS-05A -- ??????-????? -- 1 -- None -- 78 -- 0 -- Solo Pro II MVP -- 172.26.2.145;110;Lane 2;3/5/2012;23:45:00;100;15 Minutes;;;;;;220;55;62.453;0;33;15;2;4;16.363;3.898;A;61.086;2.180;3.598;
040549FFFDFAB421;IDS-05A -- ??????-????? -- 1 -- None -- 78 -- 0 -- Solo Pro II MVP -- 172.26.2.145;113;Total;3/5/2012;23:45:00;100;15 Minutes;;;;;;110;55;62.453;0;33;15;2;4;255.996;1.949;A;61.086;1.090;1.797;
040549FFFDFAB421;IDS-05A -- ??????-????? -- 1 -- None -- 78 -- 0 -- Solo Pro II MVP -- 172.26.2.145;109;Lane 1;4/5/2012;0:00:00;100;15 Minutes;;;;;;0;0;0.000;0;0;0;0;0;255.996;0.000;A;0.000;100.000;0.000;
040549FFFDFAB421;IDS-05A -- ??????-????? -- 1 -- None -- 78 -- 0 -- Solo Pro II MVP -- 172.26.2.145;110;Lane 2;4/5/2012;0:00:00;100;15 Minutes;;;;;;252;63;63.809;0;30;26;1;5;14.285;4.598;A;61.918;2.465;4.066;
040549FFFDFAB421;IDS-05A -- ??????-????? -- 1 -- None -- 78 -- 0 -- Solo Pro II MVP -- 172.26.2.145;113;Total;4/5/2012;0:00:00;100;15 Minutes;;;;;;126;63;63.809;0;30;26;1;5;255.996;2.297;A;61.918;1.230;2.031;
