CPU Identifier;Autoscope Description;Detector ID;Detector Title;Date;Time;Status;Data Interval;Ticks (millisec.);State;Speed;Length;Class;Average Flow Rate;Volume;Arithmetic Mean Speed;Class A Count;Class B Count;Class C Count;Class D Count;Class E Count;Average Time Headway;Average Time Occupancy;Level Of Service;Space Mean Speed;Space Occupancy;Density;
040549FF7D09B521;IDS-02A -- ?????-?????? -- 1 -- None -- 78 -- 0 -- Solo Pro II MVP -- 172.26.2.142;109;Lane 1;3/5/2012;11:45:00;100;15 Minutes;;;;;;948;237;84.988;0;219;9;6;3;3.797;9.148;A;82.930;5.664;11.430;
040549FF7D09B521;IDS-02A -- ?????-?????? -- 1 -- None -- 78 -- 0 -- Solo Pro II MVP -- 172.26.2.142;110;Lane 2;3/5/2012;11:45:00;100;15 Minutes;;;;;;1180;295;102.902;0;294;0;0;1;3.051;8.813;A;102.051;5.344;11.563;
040549FF7D09B521;IDS-02A -- ?????-?????? -- 1 -- None -- 78 -- 0 -- Solo Pro II MVP -- 172.26.2.142;113;Total;3/5/2012;11:45:00;100;15 Minutes;;;;;;1064;532;94.922;0;513;9;6;4;3.422;8.980;A;92.520;5.434;11.500;
040549FF7D09B521;IDS-02A -- ?????-?????? -- 1 -- None -- 78 -- 0 -- Solo Pro II MVP -- 172.26.2.142;109;Lane 1;3/5/2012;12:00:00;100;15 Minutes;;;;;;1028;257;83.668;0;238;8;5;6;3.500;9.938;A;82.445;6.406;12.469;
040549FF7D09B521;IDS-02A -- ?????-?????? -- 1 -- None -- 78 -- 0 -- Solo Pro II MVP -- 172.26.2.142;110;Lane 2;3/5/2012;12:00:00;100;15 Minutes;;;;;;1108;277;99.602;0;276;0;0;1;3.246;8.266;A;98.762;4.855;11.219;
040549FF7D09B521;IDS-02A -- ?????-?????? -- 1 -- None -- 78 -- 0 -- Solo Pro II MVP -- 172.26.2.142;113;Total;3/5/2012;12:00:00;100;15 Minutes;;;;;;1068;534;91.934;0;514;8;5;7;3.371;9.102;A;90.113;5.543;11.852;
040549FF7D09B521;IDS-02A -- ?????-?????? -- 1 -- None -- 78 -- 0 -- Solo Pro II MVP -- 172.26.2.142;109;Lane 1;3/5/2012;12:15:00;100;15 Minutes;;;;;;940;235;82.043;0;219;4;9;3;3.828;9.602;A;80.492;5.816;11.676;
040549FF7D09B521;IDS-02A -- ?????-?????? -- 1 -- None -- 78 -- 0 -- Solo Pro II MVP -- 172.26.2.142;110;Lane 2;3/5/2012;12:15:00;100;15 Minutes;;;;;;1080;270;98.559;0;267;1;2;0;3.332;8.191;A;97.762;4.914;11.047;
040549FF7D09B521;IDS-02A -- ?????-?????? -- 1 -- None -- 78 -- 0 -- Solo Pro II MVP -- 172.26.2.142;113;Total;3/5/2012;12:15:00;100;15 Minutes;;;;;;1010;505;90.875;0;486;5;11;3;3.578;8.895;A;88.852;5.293;11.367;
040549FF7D09B521;IDS-02A -- ?????-?????? -- 1 -- None -- 78 -- 0 -- Solo Pro II MVP -- 172.26.2.142;109;Lane 1;3/5/2012;12:30:00;100;15 Minutes;;;;;;1032;258;81.988;0;231;10;10;7;3.488;10.844;A;80.543;6.852;12.813;
040549FF7D09B521;IDS-02A -- ?????-?????? -- 1 -- None -- 78 -- 0 -- Solo Pro II MVP -- 172.26.2.142;110;Lane 2;3/5/2012;12:30:00;100;15 Minutes;;;;;;1284;321;96.883;0;321;0;0;0;2.801;9.391;A;96.000;5.730;13.375;
040549FF7D09B521;IDS-02A -- ?????-?????? -- 1 -- None -- 78 -- 0 -- Solo Pro II MVP -- 172.26.2.142;113;Total;3/5/2012;12:30:00;100;15 Minutes;;;;;;1158;579;90.246;0;552;10;10;7;3.145;10.117;A;88.383;6.191;13.102;
040549FF7D09B521;IDS-02A -- ?????-?????? -- 1 -- None -- 78 -- 0 -- Solo Pro II MVP -- 172.26.2.142;109;Lane 1;3/5/2012;12:45:00;100;15 Minutes;;;;;;1024;256;85.441;0;237;4;10;5;3.516;9.945;A;83.910;6.313;12.203;
040549FF7D09B521;IDS-02A -- ?????-?????? -- 1 -- None -- 78 -- 0 -- Solo Pro II MVP -- 172.26.2.142;110;Lane 2;3/5/2012;12:45:00;100;15 Minutes;;;;;;1180;295;101.867;0;292;2;1;0;3.051;8.336;A;101.230;5.117;11.656;
040549FF7D09B521;IDS-02A -- ?????-?????? -- 1 -- None -- 78 -- 0 -- Solo Pro II MVP -- 172.26.2.142;113;Total;3/5/2012;12:45:00;100;15 Minutes;;;;;;1102;551;94.234;0;529;6;11;5;3.281;9.141;A;92.371;5.625;11.930;
040549FF7D09B521;IDS-02A -- ?????-?????? -- 1 -- None -- 78 -- 0 -- Solo Pro II MVP -- 172.26.2.142;109;Lane 1;3/5/2012;13:00:00;100;15 Minutes;;;;;;1112;278;83.414;0;259;5;12;2;3.234;10.520;A;81.801;6.711;13.594;
040549FF7D09B521;IDS-02A -- ?????-?????? -- 1 -- None -- 78 -- 0 -- Solo Pro II MVP -- 172.26.2.142;110;Lane 2;3/5/2012;13:00:00;100;15 Minutes;;;;;;1392;348;99.324;0;342;3;2;1;2.586;10.145;A;98.656;6.230;14.109;
040549FF7D09B521;IDS-02A -- ?????-?????? -- 1 -- None -- 78 -- 0 -- Solo Pro II MVP -- 172.26.2.142;113;Total;3/5/2012;13:00:00;100;15 Minutes;;;;;;1252;626;92.262;0;601;8;14;3;2.910;10.332;A;90.387;6.387;13.852;
040549FF7D09B521;IDS-02A -- ?????-?????? -- 1 -- None -- 78 -- 0 -- Solo Pro II MVP -- 172.26.2.142;109;Lane 1;3/5/2012;13:15:00;100;15 Minutes;;;;;;1116;279;83.762;0;256;6;10;7;3.223;10.820;A;82.664;7.020;13.500;
040549FF7D09B521;IDS-02A -- ?????-?????? -- 1 -- None -- 78 -- 0 -- Solo Pro II MVP -- 172.26.2.142;110;Lane 2;3/5/2012;13:15:00;100;15 Minutes;;;;;;1372;343;99.332;0;339;2;1;1;2.621;9.965;A;98.547;6.004;13.922;
040549FF7D09B521;IDS-02A -- ?????-?????? -- 1 -- None -- 78 -- 0 -- Solo Pro II MVP -- 172.26.2.142;113;Total;3/5/2012;13:15:00;100;15 Minutes;;;;;;1244;622;92.348;0;595;8;11;8;2.922;10.391;A;90.676;6.414;13.719;
040549FF7D09B521;IDS-02A -- ?????-?????? -- 1 -- None -- 78 -- 0 -- Solo Pro II MVP -- 172.26.2.142;109;Lane 1;3/5/2012;13:30:00;100;15 Minutes;;;;;;1016;254;87.891;0;241;3;2;7;3.543;9.332;A;86.305;5.715;11.770;
040549FF7D09B521;IDS-02A -- ?????-?????? -- 1 -- None -- 78 -- 0 -- Solo Pro II MVP -- 172.26.2.142;110;Lane 2;3/5/2012;13:30:00;100;15 Minutes;;;;;;1120;280;102.570;0;279;0;1;0;3.211;8.020;A;101.098;4.762;11.078;
040549FF7D09B521;IDS-02A -- ?????-?????? -- 1 -- None -- 78 -- 0 -- Solo Pro II MVP -- 172.26.2.142;113;Total;3/5/2012;13:30:00;100;15 Minutes;;;;;;1068;534;95.590;0;520;3;3;7;3.375;8.676;A;93.504;5.184;11.422;
040549FF7D09B521;IDS-02A -- ?????-?????? -- 1 -- None -- 78 -- 0 -- Solo Pro II MVP -- 172.26.2.142;109;Lane 1;3/5/2012;13:45:00;100;15 Minutes;;;;;;988;247;87.973;0;237;4;4;2;3.641;8.855;A;86.602;5.367;11.406;
040549FF7D09B521;IDS-02A -- ?????-?????? -- 1 -- None -- 78 -- 0 -- Solo Pro II MVP -- 172.26.2.142;110;Lane 2;3/5/2012;13:45:00;100;15 Minutes;;;;;;1304;326;102.875;0;325;1;0;0;2.758;9.191;A;102.148;5.641;12.766;
040549FF7D09B521;IDS-02A -- ?????-?????? -- 1 -- None -- 78 -- 0 -- Solo Pro II MVP -- 172.26.2.142;113;Total;3/5/2012;13:45:00;100;15 Minutes;;;;;;1146;573;96.453;0;562;5;4;2;3.199;9.023;A;94.820;5.453;12.086;
040549FF7D09B521;IDS-02A -- ?????-?????? -- 1 -- None -- 78 -- 0 -- Solo Pro II MVP -- 172.26.2.142;109;Lane 1;3/5/2012;14:00:00;100;15 Minutes;;;;;;1144;286;84.379;0;269;4;11;2;3.145;10.887;A;83.008;6.727;13.781;
040549FF7D09B521;IDS-02A -- ?????-?????? -- 1 -- None -- 78 -- 0 -- Solo Pro II MVP -- 172.26.2.142;110;Lane 2;3/5/2012;14:00:00;100;15 Minutes;;;;;;1500;375;99.395;0;370;2;1;2;2.398;10.871;A;98.660;6.824;15.203;
040549FF7D09B521;IDS-02A -- ?????-?????? -- 1 -- None -- 78 -- 0 -- Solo Pro II MVP -- 172.26.2.142;113;Total;3/5/2012;14:00:00;100;15 Minutes;;;;;;1322;661;92.898;0;639;6;12;4;2.770;10.879;A;91.219;6.707;14.492;
040549FF7D09B521;IDS-02A -- ?????-?????? -- 1 -- None -- 78 -- 0 -- Solo Pro II MVP -- 172.26.2.142;109;Lane 1;3/5/2012;14:15:00;100;15 Minutes;;;;;;1132;283;83.246;0;251;7;11;13;3.180;11.656;A;82.137;7.555;13.781;
040549FF7D09B521;IDS-02A -- ?????-?????? -- 1 -- None -- 78 -- 0 -- Solo Pro II MVP -- 172.26.2.142;110;Lane 2;3/5/2012;14:15:00;100;15 Minutes;;;;;;1536;384;98.102;0;380;2;1;1;2.344;11.617;A;97.426;7.160;15.766;
040549FF7D09B521;IDS-02A -- ?????-?????? -- 1 -- None -- 78 -- 0 -- Solo Pro II MVP -- 172.26.2.142;113;Total;3/5/2012;14:15:00;100;15 Minutes;;;;;;1334;667;91.797;0;631;9;12;14;2.762;11.637;A;90.297;7.250;14.773;
040549FF7D09B521;IDS-02A -- ?????-?????? -- 1 -- None -- 78 -- 0 -- Solo Pro II MVP -- 172.26.2.142;109;Lane 1;3/5/2012;14:30:00;100;15 Minutes;;;;;;1180;295;85.230;0;276;4;8;6;3.051;11.332;A;84.285;7.238;14.000;
040549FF7D09B521;IDS-02A -- ?????-?????? -- 1 -- None -- 78 -- 0 -- Solo Pro II MVP -- 172.26.2.142;110;Lane 2;3/5/2012;14:30:00;100;15 Minutes;;;;;;1456;364;98.840;0;360;3;1;0;2.469;10.703;A;97.984;6.672;14.859;
040549FF7D09B521;IDS-02A -- ?????-?????? -- 1 -- None -- 78 -- 0 -- Solo Pro II MVP -- 172.26.2.142;113;Total;3/5/2012;14:30:00;100;15 Minutes;;;;;;1318;659;92.746;0;636;7;9;6;2.758;11.016;A;91.336;6.883;14.430;
040549FF7D09B521;IDS-02A -- ?????-?????? -- 1 -- None -- 78 -- 0 -- Solo Pro II MVP -- 172.26.2.142;109;Lane 1;3/5/2012;14:45:00;100;15 Minutes;;;;;;1120;280;83.867;0;257;9;8;6;3.211;10.816;A;82.578;6.859;13.563;
040549FF7D09B521;IDS-02A -- ?????-?????? -- 1 -- None -- 78 -- 0 -- Solo Pro II MVP -- 172.26.2.142;110;Lane 2;3/5/2012;14:45:00;100;15 Minutes;;;;;;1496;374;100.828;0;366;5;1;2;2.406;10.852;A;100.148;6.766;14.938;
040549FF7D09B521;IDS-02A -- ?????-?????? -- 1 -- None -- 78 -- 0 -- Solo Pro II MVP -- 172.26.2.142;113;Total;3/5/2012;14:45:00;100;15 Minutes;;;;;;1308;654;93.566;0;623;14;9;8;2.809;10.832;A;91.738;6.719;14.258;
040549FF7D09B521;IDS-02A -- ?????-?????? -- 1 -- None -- 78 -- 0 -- Solo Pro II MVP -- 172.26.2.142;109;Lane 1;3/5/2012;15:00:00;100;15 Minutes;;;;;;604;151;84.000;0;135;2;10;4;5.957;5.953;A;81.500;3.895;7.410;
040549FF7D09B521;IDS-02A -- ?????-?????? -- 1 -- None -- 78 -- 0 -- Solo Pro II MVP -- 172.26.2.142;110;Lane 2;3/5/2012;15:00:00;100;15 Minutes;;;;;;740;185;94.656;0;179;2;2;2;4.863;5.871;A;93.660;3.734;7.898;
040549FF7D09B521;IDS-02A -- ?????-?????? -- 1 -- None -- 78 -- 0 -- Solo Pro II MVP -- 172.26.2.142;113;Total;3/5/2012;15:00:00;100;15 Minutes;;;;;;672;336;89.867;0;314;4;12;6;5.410;5.910;A;87.859;3.789;7.648;
040549FF7D09B521;IDS-02A -- ?????-?????? -- 1 -- None -- 78 -- 0 -- Solo Pro II MVP -- 172.26.2.142;109;Lane 1;3/5/2012;15:15:00;100;15 Minutes;;;;;;1184;296;76.699;0;261;10;17;7;3.039;12.570;A;75.398;8.297;15.703;
040549FF7D09B521;IDS-02A -- ?????-?????? -- 1 -- None -- 78 -- 0 -- Solo Pro II MVP -- 172.26.2.142;110;Lane 2;3/5/2012;15:15:00;100;15 Minutes;;;;;;1768;442;84.660;0;436;3;2;1;2.035;14.531;A;83.566;9.496;21.156;
040549FF7D09B521;IDS-02A -- ?????-?????? -- 1 -- None -- 78 -- 0 -- Solo Pro II MVP -- 172.26.2.142;113;Total;3/5/2012;15:15:00;100;15 Minutes;;;;;;1476;738;81.465;0;697;13;19;8;2.535;13.551;A;80.086;8.840;18.430;
040549FF7D09B521;IDS-02A -- ?????-?????? -- 1 -- None -- 78 -- 0 -- Solo Pro II MVP -- 172.26.2.142;109;Lane 1;3/5/2012;15:30:00;100;15 Minutes;;;;;;1484;371;75.313;0;337;12;12;9;2.426;15.547;A;74.313;10.219;19.969;
040549FF7D09B521;IDS-02A -- ?????-?????? -- 1 -- None -- 78 -- 0 -- Solo Pro II MVP -- 172.26.2.142;110;Lane 2;3/5/2012;15:30:00;100;15 Minutes;;;;;;2092;523;86.352;0;508;9;3;2;1.719;17.367;A;84.844;11.270;24.656;
040549FF7D09B521;IDS-02A -- ?????-?????? -- 1 -- None -- 78 -- 0 -- Solo Pro II MVP -- 172.26.2.142;113;Total;3/5/2012;15:30:00;100;15 Minutes;;;;;;1788;894;81.770;0;845;21;15;11;2.070;16.457;A;80.133;10.656;22.313;
040549FF7D09B521;IDS-02A -- ?????-?????? -- 1 -- None -- 78 -- 0 -- Solo Pro II MVP -- 172.26.2.142;109;Lane 1;3/5/2012;15:45:00;100;15 Minutes;;;;;;1356;339;81.207;0;317;7;5;10;2.652;13.406;A;80.059;8.480;16.938;
040549FF7D09B521;IDS-02A -- ?????-?????? -- 1 -- None -- 78 -- 0 -- Solo Pro II MVP -- 172.26.2.142;110;Lane 2;3/5/2012;15:45:00;100;15 Minutes;;;;;;1840;460;93.059;0;449;0;3;8;1.953;14.352;A;91.855;9.348;20.031;
040549FF7D09B521;IDS-02A -- ?????-?????? -- 1 -- None -- 78 -- 0 -- Solo Pro II MVP -- 172.26.2.142;113;Total;3/5/2012;15:45:00;100;15 Minutes;;;;;;1598;799;88.031;0;766;7;8;18;2.301;13.879;A;86.414;8.852;18.492;
040549FF7D09B521;IDS-02A -- ?????-?????? -- 1 -- None -- 78 -- 0 -- Solo Pro II MVP -- 172.26.2.142;109;Lane 1;3/5/2012;16:00:00;100;15 Minutes;;;;;;1312;328;81.664;0;303;3;8;14;2.742;13.102;A;80.352;8.699;16.328;
040549FF7D09B521;IDS-02A -- ?????-?????? -- 1 -- None -- 78 -- 0 -- Solo Pro II MVP -- 172.26.2.142;110;Lane 2;3/5/2012;16:00:00;100;15 Minutes;;;;;;1852;463;92.930;0;453;3;6;1;1.941;14.426;A;91.953;9.020;20.141;
040549FF7D09B521;IDS-02A -- ?????-?????? -- 1 -- None -- 78 -- 0 -- Solo Pro II MVP -- 172.26.2.142;113;Total;3/5/2012;16:00:00;100;15 Minutes;;;;;;1582;791;88.258;0;756;6;14;15;2.340;13.762;A;86.758;8.773;18.234;
040549FF7D09B521;IDS-02A -- ?????-?????? -- 1 -- None -- 78 -- 0 -- Solo Pro II MVP -- 172.26.2.142;109;Lane 1;3/5/2012;16:15:00;100;15 Minutes;;;;;;1288;322;81.207;0;297;4;10;9;2.793;12.859;A;79.719;8.496;16.156;
040549FF7D09B521;IDS-02A -- ?????-?????? -- 1 -- None -- 78 -- 0 -- Solo Pro II MVP -- 172.26.2.142;110;Lane 2;3/5/2012;16:15:00;100;15 Minutes;;;;;;1864;466;92.684;0;458;6;1;1;1.930;14.387;A;91.273;9.230;20.422;
040549FF7D09B521;IDS-02A -- ?????-?????? -- 1 -- None -- 78 -- 0 -- Solo Pro II MVP -- 172.26.2.142;113;Total;3/5/2012;16:15:00;100;15 Minutes;;;;;;1576;788;87.992;0;755;10;11;10;2.359;13.621;A;86.133;8.781;18.297;
040549FF7D09B521;IDS-02A -- ?????-?????? -- 1 -- None -- 78 -- 0 -- Solo Pro II MVP -- 172.26.2.142;109;Lane 1;3/5/2012;16:30:00;100;15 Minutes;;;;;;1424;356;81.137;0;326;13;9;8;2.527;14.383;A;79.941;9.188;17.813;
040549FF7D09B521;IDS-02A -- ?????-?????? -- 1 -- None -- 78 -- 0 -- Solo Pro II MVP -- 172.26.2.142;110;Lane 2;3/5/2012;16:30:00;100;15 Minutes;;;;;;1832;458;95.016;0;448;2;3;5;1.965;14.180;A;94.098;9.035;19.469;
040549FF7D09B521;IDS-02A -- ?????-?????? -- 1 -- None -- 78 -- 0 -- Solo Pro II MVP -- 172.26.2.142;113;Total;3/5/2012;16:30:00;100;15 Minutes;;;;;;1628;814;88.945;0;774;15;12;13;2.246;14.281;A;87.297;9.016;18.648;
040549FF7D09B521;IDS-02A -- ?????-?????? -- 1 -- None -- 78 -- 0 -- Solo Pro II MVP -- 172.26.2.142;109;Lane 1;3/5/2012;16:45:00;100;15 Minutes;;;;;;1400;350;82.223;0;327;5;8;9;2.570;13.953;A;81.086;8.770;17.266;
040549FF7D09B521;IDS-02A -- ?????-?????? -- 1 -- None -- 78 -- 0 -- Solo Pro II MVP -- 172.26.2.142;110;Lane 2;3/5/2012;16:45:00;100;15 Minutes;;;;;;1932;483;93.258;0;476;4;2;1;1.863;14.754;A;92.410;9.398;20.906;
040549FF7D09B521;IDS-02A -- ?????-?????? -- 1 -- None -- 78 -- 0 -- Solo Pro II MVP -- 172.26.2.142;113;Total;3/5/2012;16:45:00;100;15 Minutes;;;;;;1666;833;88.621;0;803;9;10;10;2.215;14.352;A;87.250;9.016;19.094;
040549FF7D09B521;IDS-02A -- ?????-?????? -- 1 -- None -- 78 -- 0 -- Solo Pro II MVP -- 172.26.2.142;109;Lane 1;3/5/2012;17:00:00;100;15 Minutes;;;;;;1412;353;83.105;0;331;7;10;5;2.547;14.145;A;81.633;8.371;17.297;
040549FF7D09B521;IDS-02A -- ?????-?????? -- 1 -- None -- 78 -- 0 -- Solo Pro II MVP -- 172.26.2.142;110;Lane 2;3/5/2012;17:00:00;100;15 Minutes;;;;;;1884;471;94.059;0;468;2;1;0;1.910;14.402;A;93.035;9.020;20.250;
040549FF7D09B521;IDS-02A -- ?????-?????? -- 1 -- None -- 78 -- 0 -- Solo Pro II MVP -- 172.26.2.142;113;Total;3/5/2012;17:00:00;100;15 Minutes;;;;;;1648;824;89.367;0;799;9;11;5;2.227;14.273;A;87.781;8.641;18.773;
040549FF7D09B521;IDS-02A -- ?????-?????? -- 1 -- None -- 78 -- 0 -- Solo Pro II MVP -- 172.26.2.142;109;Lane 1;3/5/2012;17:15:00;100;15 Minutes;;;;;;1372;343;82.789;0;317;5;15;5;2.621;13.578;A;81.453;8.266;16.844;
040549FF7D09B521;IDS-02A -- ?????-?????? -- 1 -- None -- 78 -- 0 -- Solo Pro II MVP -- 172.26.2.142;110;Lane 2;3/5/2012;17:15:00;100;15 Minutes;;;;;;1944;486;93.750;0;478;5;2;1;1.852;14.949;A;92.707;9.418;20.969;
040549FF7D09B521;IDS-02A -- ?????-?????? -- 1 -- None -- 78 -- 0 -- Solo Pro II MVP -- 172.26.2.142;113;Total;3/5/2012;17:15:00;100;15 Minutes;;;;;;1658;829;89.215;0;795;10;17;6;2.234;14.262;A;87.656;8.781;18.914;
