CPU Identifier;Autoscope Description;Detector ID;Detector Title;Date;Time;Status;Data Interval;Ticks (millisec.);State;Speed;Length;Class;Average Flow Rate;Volume;Arithmetic Mean Speed;Class A Count;Class B Count;Class C Count;Class D Count;Class E Count;Average Time Headway;Average Time Occupancy;Level Of Service;Space Mean Speed;Space Occupancy;Density;
040548FF08FBB421;IDS-04B -- ??????-?????? -- 1 -- None -- 78 -- 0 -- Solo Pro II MVP -- 172.26.2.164;109;Lane 1;3/5/2012;0:00:00;100;15 Minutes;;;;;;244;61;95.770;0;46;15;0;0;14.754;2.672;A;92.453;1.188;2.637;
040548FF08FBB421;IDS-04B -- ??????-?????? -- 1 -- None -- 78 -- 0 -- Solo Pro II MVP -- 172.26.2.164;110;Lane 2;3/5/2012;0:00:00;100;15 Minutes;;;;;;84;21;114.332;0;15;4;1;1;42.855;0.852;A;113.289;0.406;0.738;
040548FF08FBB421;IDS-04B -- ??????-?????? -- 1 -- None -- 78 -- 0 -- Solo Pro II MVP -- 172.26.2.164;113;Total;3/5/2012;0:00:00;100;15 Minutes;;;;;;164;82;100.523;0;61;19;1;1;28.805;1.762;A;97.023;0.797;1.688;
040548FF08FBB421;IDS-04B -- ??????-?????? -- 1 -- None -- 78 -- 0 -- Solo Pro II MVP -- 172.26.2.164;109;Lane 1;3/5/2012;0:15:00;100;15 Minutes;;;;;;232;58;89.688;0;37;18;1;2;15.516;2.859;A;87.000;1.422;2.664;
040548FF08FBB421;IDS-04B -- ??????-?????? -- 1 -- None -- 78 -- 0 -- Solo Pro II MVP -- 172.26.2.164;110;Lane 2;3/5/2012;0:15:00;100;15 Minutes;;;;;;80;20;106.449;0;15;5;0;0;45.000;0.875;A;90.934;0.363;0.879;
040548FF08FBB421;IDS-04B -- ??????-?????? -- 1 -- None -- 78 -- 0 -- Solo Pro II MVP -- 172.26.2.164;113;Total;3/5/2012;0:15:00;100;15 Minutes;;;;;;156;78;93.984;0;52;23;1;2;30.258;1.867;A;87.977;0.887;1.770;
040548FF08FBB421;IDS-04B -- ??????-?????? -- 1 -- None -- 78 -- 0 -- Solo Pro II MVP -- 172.26.2.164;109;Lane 1;3/5/2012;0:30:00;100;15 Minutes;;;;;;188;47;92.531;0;39;8;0;0;19.148;2.059;A;89.559;0.961;2.098;
040548FF08FBB421;IDS-04B -- ??????-?????? -- 1 -- None -- 78 -- 0 -- Solo Pro II MVP -- 172.26.2.164;110;Lane 2;3/5/2012;0:30:00;100;15 Minutes;;;;;;48;12;109.082;0;7;4;1;0;75.000;0.473;A;104.980;0.227;0.457;
040548FF08FBB421;IDS-04B -- ??????-?????? -- 1 -- None -- 78 -- 0 -- Solo Pro II MVP -- 172.26.2.164;113;Total;3/5/2012;0:30:00;100;15 Minutes;;;;;;118;59;95.895;0;46;12;1;0;47.074;1.266;A;92.316;0.594;1.277;
040548FF08FBB421;IDS-04B -- ??????-?????? -- 1 -- None -- 78 -- 0 -- Solo Pro II MVP -- 172.26.2.164;109;Lane 1;3/5/2012;0:45:00;100;15 Minutes;;;;;;212;53;96.109;0;31;20;0;2;16.980;2.305;A;92.027;1.188;2.301;
040548FF08FBB421;IDS-04B -- ??????-?????? -- 1 -- None -- 78 -- 0 -- Solo Pro II MVP -- 172.26.2.164;110;Lane 2;3/5/2012;0:45:00;100;15 Minutes;;;;;;32;8;107.125;0;5;3;0;0;112.500;0.297;A;105.828;0.156;0.301;
040548FF08FBB421;IDS-04B -- ??????-?????? -- 1 -- None -- 78 -- 0 -- Solo Pro II MVP -- 172.26.2.164;113;Total;3/5/2012;0:45:00;100;15 Minutes;;;;;;122;61;97.555;0;36;23;0;2;64.738;1.301;A;93.629;0.672;1.301;
040548FF08FBB421;IDS-04B -- ??????-?????? -- 1 -- None -- 78 -- 0 -- Solo Pro II MVP -- 172.26.2.164;109;Lane 1;3/5/2012;1:00:00;100;15 Minutes;;;;;;204;51;97.078;0;37;12;1;1;17.645;2.141;A;93.871;1.055;2.172;
040548FF08FBB421;IDS-04B -- ??????-?????? -- 1 -- None -- 78 -- 0 -- Solo Pro II MVP -- 172.26.2.164;110;Lane 2;3/5/2012;1:00:00;100;15 Minutes;;;;;;40;10;112.500;0;7;3;0;0;90.000;0.379;A;109.242;0.164;0.363;
040548FF08FBB421;IDS-04B -- ??????-?????? -- 1 -- None -- 78 -- 0 -- Solo Pro II MVP -- 172.26.2.164;113;Total;3/5/2012;1:00:00;100;15 Minutes;;;;;;122;61;99.605;0;44;15;1;1;53.820;1.258;A;96.086;0.605;1.270;
040548FF08FBB421;IDS-04B -- ??????-?????? -- 1 -- None -- 78 -- 0 -- Solo Pro II MVP -- 172.26.2.164;109;Lane 1;3/5/2012;1:15:00;100;15 Minutes;;;;;;212;53;93.355;0;28;21;3;1;16.980;2.555;A;90.383;1.305;2.344;
040548FF08FBB421;IDS-04B -- ??????-?????? -- 1 -- None -- 78 -- 0 -- Solo Pro II MVP -- 172.26.2.164;110;Lane 2;3/5/2012;1:15:00;100;15 Minutes;;;;;;32;8;101.250;0;6;2;0;0;112.500;0.332;A;99.672;0.152;0.320;
040548FF08FBB421;IDS-04B -- ??????-?????? -- 1 -- None -- 78 -- 0 -- Solo Pro II MVP -- 172.26.2.164;113;Total;3/5/2012;1:15:00;100;15 Minutes;;;;;;122;61;94.391;0;34;23;3;1;64.738;1.441;A;91.500;0.727;1.332;
040548FF08FBB421;IDS-04B -- ??????-?????? -- 1 -- None -- 78 -- 0 -- Solo Pro II MVP -- 172.26.2.164;109;Lane 1;3/5/2012;1:30:00;100;15 Minutes;;;;;;164;41;89.656;0;25;11;4;0;21.949;2.105;A;86.875;1.000;1.887;
040548FF08FBB421;IDS-04B -- ??????-?????? -- 1 -- None -- 78 -- 0 -- Solo Pro II MVP -- 172.26.2.164;110;Lane 2;3/5/2012;1:30:00;100;15 Minutes;;;;;;8;2;96.000;0;1;1;0;0;255.996;0.086;A;95.813;0.039;0.082;
040548FF08FBB421;IDS-04B -- ??????-?????? -- 1 -- None -- 78 -- 0 -- Solo Pro II MVP -- 172.26.2.164;113;Total;3/5/2012;1:30:00;100;15 Minutes;;;;;;86;43;89.953;0;26;12;4;0;235.973;1.094;A;87.254;0.520;0.984;
040548FF08FBB421;IDS-04B -- ??????-?????? -- 1 -- None -- 78 -- 0 -- Solo Pro II MVP -- 172.26.2.164;109;Lane 1;3/5/2012;1:45:00;100;15 Minutes;;;;;;120;30;93.766;0;21;7;1;1;30.000;1.285;A;89.402;0.695;1.340;
040548FF08FBB421;IDS-04B -- ??????-?????? -- 1 -- None -- 78 -- 0 -- Solo Pro II MVP -- 172.26.2.164;110;Lane 2;3/5/2012;1:45:00;100;15 Minutes;;;;;;28;7;126.426;0;6;1;0;0;128.570;0.246;A;123.551;0.102;0.227;
040548FF08FBB421;IDS-04B -- ??????-?????? -- 1 -- None -- 78 -- 0 -- Solo Pro II MVP -- 172.26.2.164;113;Total;3/5/2012;1:45:00;100;15 Minutes;;;;;;74;37;99.945;0;27;8;1;1;79.285;0.766;A;94.336;0.391;0.781;
040548FF08FBB421;IDS-04B -- ??????-?????? -- 1 -- None -- 78 -- 0 -- Solo Pro II MVP -- 172.26.2.164;109;Lane 1;3/5/2012;2:00:00;100;15 Minutes;;;;;;152;38;92.367;0;24;11;1;2;23.684;1.746;A;88.371;0.938;1.719;
040548FF08FBB421;IDS-04B -- ??????-?????? -- 1 -- None -- 78 -- 0 -- Solo Pro II MVP -- 172.26.2.164;110;Lane 2;3/5/2012;2:00:00;100;15 Minutes;;;;;;28;7;118.570;0;6;1;0;0;128.570;0.246;A;117.625;0.117;0.234;
040548FF08FBB421;IDS-04B -- ??????-?????? -- 1 -- None -- 78 -- 0 -- Solo Pro II MVP -- 172.26.2.164;113;Total;3/5/2012;2:00:00;100;15 Minutes;;;;;;90;45;96.441;0;30;12;1;2;76.125;0.996;A;91.930;0.520;0.977;
040548FF08FBB421;IDS-04B -- ??????-?????? -- 1 -- None -- 78 -- 0 -- Solo Pro II MVP -- 172.26.2.164;109;Lane 1;3/5/2012;2:15:00;100;15 Minutes;;;;;;132;33;91.574;0;19;12;1;1;27.270;1.469;A;89.875;0.824;1.465;
040548FF08FBB421;IDS-04B -- ??????-?????? -- 1 -- None -- 78 -- 0 -- Solo Pro II MVP -- 172.26.2.164;110;Lane 2;3/5/2012;2:15:00;100;15 Minutes;;;;;;32;8;118.000;0;6;2;0;0;112.500;0.359;A;114.898;0.137;0.277;
040548FF08FBB421;IDS-04B -- ??????-?????? -- 1 -- None -- 78 -- 0 -- Solo Pro II MVP -- 172.26.2.164;113;Total;3/5/2012;2:15:00;100;15 Minutes;;;;;;82;41;96.730;0;25;14;1;1;69.883;0.914;A;93.863;0.473;0.871;
040548FF08FBB421;IDS-04B -- ??????-?????? -- 1 -- None -- 78 -- 0 -- Solo Pro II MVP -- 172.26.2.164;109;Lane 1;3/5/2012;2:30:00;100;15 Minutes;;;;;;196;49;93.590;0;27;18;2;2;18.367;2.449;A;88.664;1.203;2.207;
040548FF08FBB421;IDS-04B -- ??????-?????? -- 1 -- None -- 78 -- 0 -- Solo Pro II MVP -- 172.26.2.164;110;Lane 2;3/5/2012;2:30:00;100;15 Minutes;;;;;;36;9;109.332;0;7;2;0;0;100.000;0.336;A;108.023;0.145;0.332;
040548FF08FBB421;IDS-04B -- ??????-?????? -- 1 -- None -- 78 -- 0 -- Solo Pro II MVP -- 172.26.2.164;113;Total;3/5/2012;2:30:00;100;15 Minutes;;;;;;116;58;96.031;0;34;20;2;2;59.184;1.391;A;91.203;0.668;1.270;
040548FF08FBB421;IDS-04B -- ??????-?????? -- 1 -- None -- 78 -- 0 -- Solo Pro II MVP -- 172.26.2.164;109;Lane 1;3/5/2012;2:45:00;100;15 Minutes;;;;;;120;30;88.430;0;16;12;0;1;30.000;1.719;A;85.488;0.719;1.402;
040548FF08FBB421;IDS-04B -- ??????-?????? -- 1 -- None -- 78 -- 0 -- Solo Pro II MVP -- 172.26.2.164;110;Lane 2;3/5/2012;2:45:00;100;15 Minutes;;;;;;40;10;112.797;0;8;2;0;0;90.000;0.383;A;110.070;0.172;0.363;
040548FF08FBB421;IDS-04B -- ??????-?????? -- 1 -- None -- 78 -- 0 -- Solo Pro II MVP -- 172.26.2.164;113;Total;3/5/2012;2:45:00;100;15 Minutes;;;;;;80;40;94.523;0;24;14;0;1;60.000;1.051;A;90.543;0.441;0.883;
040548FF08FBB421;IDS-04B -- ??????-?????? -- 1 -- None -- 78 -- 0 -- Solo Pro II MVP -- 172.26.2.164;109;Lane 1;3/5/2012;3:00:00;100;15 Minutes;;;;;;152;38;90.500;0;21;12;4;1;23.684;1.836;A;87.641;1.035;1.730;
040548FF08FBB421;IDS-04B -- ??????-?????? -- 1 -- None -- 78 -- 0 -- Solo Pro II MVP -- 172.26.2.164;110;Lane 2;3/5/2012;3:00:00;100;15 Minutes;;;;;;20;5;106.598;0;2;3;0;0;180.000;0.250;A;104.156;0.102;0.191;
040548FF08FBB421;IDS-04B -- ??????-?????? -- 1 -- None -- 78 -- 0 -- Solo Pro II MVP -- 172.26.2.164;113;Total;3/5/2012;3:00:00;100;15 Minutes;;;;;;86;43;92.371;0;23;15;4;1;101.840;1.043;A;89.285;0.566;0.961;
040548FF08FBB421;IDS-04B -- ??????-?????? -- 1 -- None -- 78 -- 0 -- Solo Pro II MVP -- 172.26.2.164;109;Lane 1;3/5/2012;3:15:00;100;15 Minutes;;;;;;160;40;96.000;0;33;6;1;0;22.500;1.723;A;91.023;0.789;1.754;
040548FF08FBB421;IDS-04B -- ??????-?????? -- 1 -- None -- 78 -- 0 -- Solo Pro II MVP -- 172.26.2.164;110;Lane 2;3/5/2012;3:15:00;100;15 Minutes;;;;;;32;8;108.000;0;6;2;0;0;112.500;0.324;A;106.430;0.148;0.297;
040548FF08FBB421;IDS-04B -- ??????-?????? -- 1 -- None -- 78 -- 0 -- Solo Pro II MVP -- 172.26.2.164;113;Total;3/5/2012;3:15:00;100;15 Minutes;;;;;;96;48;98.000;0;39;8;1;0;67.500;1.023;A;93.273;0.469;1.027;
040548FF08FBB421;IDS-04B -- ??????-?????? -- 1 -- None -- 78 -- 0 -- Solo Pro II MVP -- 172.26.2.164;109;Lane 1;3/5/2012;3:30:00;100;15 Minutes;;;;;;168;42;96.234;0;23;15;2;2;21.426;2.117;A;91.656;1.051;1.832;
040548FF08FBB421;IDS-04B -- ??????-?????? -- 1 -- None -- 78 -- 0 -- Solo Pro II MVP -- 172.26.2.164;110;Lane 2;3/5/2012;3:30:00;100;15 Minutes;;;;;;36;9;112.219;0;6;2;1;0;100.000;0.313;A;110.020;0.172;0.324;
040548FF08FBB421;IDS-04B -- ??????-?????? -- 1 -- None -- 78 -- 0 -- Solo Pro II MVP -- 172.26.2.164;113;Total;3/5/2012;3:30:00;100;15 Minutes;;;;;;102;51;99.059;0;29;17;3;2;60.711;1.215;A;94.438;0.605;1.078;
040548FF08FBB421;IDS-04B -- ??????-?????? -- 1 -- None -- 78 -- 0 -- Solo Pro II MVP -- 172.26.2.164;109;Lane 1;3/5/2012;3:45:00;100;15 Minutes;;;;;;176;44;89.340;0;26;15;2;1;20.453;2.133;A;85.836;1.082;2.047;
040548FF08FBB421;IDS-04B -- ??????-?????? -- 1 -- None -- 78 -- 0 -- Solo Pro II MVP -- 172.26.2.164;110;Lane 2;3/5/2012;3:45:00;100;15 Minutes;;;;;;52;13;108.535;0;9;4;0;0;69.230;0.484;A;105.504;0.230;0.492;
040548FF08FBB421;IDS-04B -- ??????-?????? -- 1 -- None -- 78 -- 0 -- Solo Pro II MVP -- 172.26.2.164;113;Total;3/5/2012;3:45:00;100;15 Minutes;;;;;;114;57;93.719;0;35;19;2;1;44.840;1.309;A;89.648;0.648;1.270;
040548FF08FBB421;IDS-04B -- ??????-?????? -- 1 -- None -- 78 -- 0 -- Solo Pro II MVP -- 172.26.2.164;109;Lane 1;3/5/2012;4:00:00;100;15 Minutes;;;;;;200;50;90.840;0;29;18;2;1;18.000;2.305;A;88.102;1.230;2.270;
040548FF08FBB421;IDS-04B -- ??????-?????? -- 1 -- None -- 78 -- 0 -- Solo Pro II MVP -- 172.26.2.164;110;Lane 2;3/5/2012;4:00:00;100;15 Minutes;;;;;;52;13;108.152;0;9;3;1;0;69.230;0.527;A;105.848;0.238;0.488;
040548FF08FBB421;IDS-04B -- ??????-?????? -- 1 -- None -- 78 -- 0 -- Solo Pro II MVP -- 172.26.2.164;113;Total;3/5/2012;4:00:00;100;15 Minutes;;;;;;126;63;94.410;0;38;21;3;1;43.613;1.414;A;91.258;0.730;1.379;
040548FF08FBB421;IDS-04B -- ??????-?????? -- 1 -- None -- 78 -- 0 -- Solo Pro II MVP -- 172.26.2.164;109;Lane 1;3/5/2012;4:15:00;100;15 Minutes;;;;;;244;61;93.523;0;48;12;1;0;14.754;2.605;A;90.578;1.238;2.691;
040548FF08FBB421;IDS-04B -- ??????-?????? -- 1 -- None -- 78 -- 0 -- Solo Pro II MVP -- 172.26.2.164;110;Lane 2;3/5/2012;4:15:00;100;15 Minutes;;;;;;56;14;115.711;0;13;1;0;0;64.285;0.500;A;114.430;0.207;0.488;
040548FF08FBB421;IDS-04B -- ??????-?????? -- 1 -- None -- 78 -- 0 -- Solo Pro II MVP -- 172.26.2.164;113;Total;3/5/2012;4:15:00;100;15 Minutes;;;;;;150;75;97.664;0;61;13;1;0;39.520;1.551;A;94.246;0.715;1.590;
040548FF08FBB421;IDS-04B -- ??????-?????? -- 1 -- None -- 78 -- 0 -- Solo Pro II MVP -- 172.26.2.164;109;Lane 1;3/5/2012;4:30:00;100;15 Minutes;;;;;;220;55;85.070;0;32;17;3;3;16.363;2.824;A;82.414;1.598;2.668;
040548FF08FBB421;IDS-04B -- ??????-?????? -- 1 -- None -- 78 -- 0 -- Solo Pro II MVP -- 172.26.2.164;110;Lane 2;3/5/2012;4:30:00;100;15 Minutes;;;;;;72;18;104.719;0;12;4;1;1;50.000;0.785;A;103.648;0.406;0.691;
040548FF08FBB421;IDS-04B -- ??????-?????? -- 1 -- None -- 78 -- 0 -- Solo Pro II MVP -- 172.26.2.164;113;Total;3/5/2012;4:30:00;100;15 Minutes;;;;;;146;73;89.914;0;44;21;4;4;33.180;1.805;A;86.797;0.992;1.680;
040548FF08FBB421;IDS-04B -- ??????-?????? -- 1 -- None -- 78 -- 0 -- Solo Pro II MVP -- 172.26.2.164;109;Lane 1;3/5/2012;4:45:00;100;15 Minutes;;;;;;328;82;89.191;0;48;29;2;3;10.973;3.875;A;85.145;2.086;3.852;
040548FF08FBB421;IDS-04B -- ??????-?????? -- 1 -- None -- 78 -- 0 -- Solo Pro II MVP -- 172.26.2.164;110;Lane 2;3/5/2012;4:45:00;100;15 Minutes;;;;;;100;25;105.078;0;12;10;2;1;36.000;1.078;A;101.914;0.605;0.980;
040548FF08FBB421;IDS-04B -- ??????-?????? -- 1 -- None -- 78 -- 0 -- Solo Pro II MVP -- 172.26.2.164;113;Total;3/5/2012;4:45:00;100;15 Minutes;;;;;;214;107;92.906;0;60;39;4;4;23.484;2.477;A;88.551;1.344;2.414;
040548FF08FBB421;IDS-04B -- ??????-?????? -- 1 -- None -- 78 -- 0 -- Solo Pro II MVP -- 172.26.2.164;109;Lane 1;3/5/2012;5:00:00;100;15 Minutes;;;;;;308;77;88.336;0;41;29;5;1;11.688;3.949;A;85.813;1.938;3.586;
040548FF08FBB421;IDS-04B -- ??????-?????? -- 1 -- None -- 78 -- 0 -- Solo Pro II MVP -- 172.26.2.164;110;Lane 2;3/5/2012;5:00:00;100;15 Minutes;;;;;;164;41;108.191;0;31;10;0;0;21.949;1.590;A;106.680;0.742;1.535;
040548FF08FBB421;IDS-04B -- ??????-?????? -- 1 -- None -- 78 -- 0 -- Solo Pro II MVP -- 172.26.2.164;113;Total;3/5/2012;5:00:00;100;15 Minutes;;;;;;236;118;95.234;0;72;39;5;1;16.816;2.770;A;92.070;1.320;2.563;
040548FF08FBB421;IDS-04B -- ??????-?????? -- 1 -- None -- 78 -- 0 -- Solo Pro II MVP -- 172.26.2.164;109;Lane 1;3/5/2012;5:15:00;100;15 Minutes;;;;;;384;96;90.719;0;57;29;4;6;9.375;5.027;A;85.770;2.641;4.477;
040548FF08FBB421;IDS-04B -- ??????-?????? -- 1 -- None -- 78 -- 0 -- Solo Pro II MVP -- 172.26.2.164;110;Lane 2;3/5/2012;5:15:00;100;15 Minutes;;;;;;192;48;105.438;0;36;9;1;2;18.750;1.953;A;103.641;0.941;1.852;
040548FF08FBB421;IDS-04B -- ??????-?????? -- 1 -- None -- 78 -- 0 -- Solo Pro II MVP -- 172.26.2.164;113;Total;3/5/2012;5:15:00;100;15 Minutes;;;;;;288;144;95.625;0;93;38;5;8;14.063;3.488;A;91.000;1.773;3.164;
040548FF08FBB421;IDS-04B -- ??????-?????? -- 1 -- None -- 78 -- 0 -- Solo Pro II MVP -- 172.26.2.164;109;Lane 1;3/5/2012;5:30:00;100;15 Minutes;;;;;;464;116;85.301;0;73;30;10;3;7.758;5.922;A;82.793;3.098;5.602;
040548FF08FBB421;IDS-04B -- ??????-?????? -- 1 -- None -- 78 -- 0 -- Solo Pro II MVP -- 172.26.2.164;110;Lane 2;3/5/2012;5:30:00;100;15 Minutes;;;;;;268;67;109.340;0;50;17;0;0;13.430;2.555;A;107.336;1.191;2.496;
040548FF08FBB421;IDS-04B -- ??????-?????? -- 1 -- None -- 78 -- 0 -- Solo Pro II MVP -- 172.26.2.164;113;Total;3/5/2012;5:30:00;100;15 Minutes;;;;;;366;183;94.102;0;123;47;10;3;10.594;4.238;A;90.355;2.098;4.047;
040548FF08FBB421;IDS-04B -- ??????-?????? -- 1 -- None -- 78 -- 0 -- Solo Pro II MVP -- 172.26.2.164;109;Lane 1;3/5/2012;5:45:00;100;15 Minutes;;;;;;476;119;95.512;0;96;19;3;1;7.563;4.625;A;93.109;2.387;5.109;
040548FF08FBB421;IDS-04B -- ??????-?????? -- 1 -- None -- 78 -- 0 -- Solo Pro II MVP -- 172.26.2.164;110;Lane 2;3/5/2012;5:45:00;100;15 Minutes;;;;;;304;76;113.523;0;64;12;0;0;11.840;2.574;A;112.164;1.137;2.707;
040548FF08FBB421;IDS-04B -- ??????-?????? -- 1 -- None -- 78 -- 0 -- Solo Pro II MVP -- 172.26.2.164;113;Total;3/5/2012;5:45:00;100;15 Minutes;;;;;;390;195;102.531;0;160;31;3;1;9.699;3.598;A;99.711;1.742;3.910;
040548FF08FBB421;IDS-04B -- ??????-?????? -- 1 -- None -- 78 -- 0 -- Solo Pro II MVP -- 172.26.2.164;109;Lane 1;3/5/2012;6:00:00;100;15 Minutes;;;;;;612;153;94.730;0;90;44;7;11;5.879;5.738;A;92.391;3.926;6.621;
040548FF08FBB421;IDS-04B -- ??????-?????? -- 1 -- None -- 78 -- 0 -- Solo Pro II MVP -- 172.26.2.164;110;Lane 2;3/5/2012;6:00:00;100;15 Minutes;;;;;;432;108;113.535;0;84;21;2;1;8.332;3.168;A;112.832;1.852;3.828;
040548FF08FBB421;IDS-04B -- ??????-?????? -- 1 -- None -- 78 -- 0 -- Solo Pro II MVP -- 172.26.2.164;113;Total;3/5/2012;6:00:00;100;15 Minutes;;;;;;522;261;102.512;0;174;65;9;12;7.105;4.453;A;100.023;2.840;5.219;
040548FF08FBB421;IDS-04B -- ??????-?????? -- 1 -- None -- 78 -- 0 -- Solo Pro II MVP -- 172.26.2.164;109;Lane 1;3/5/2012;6:15:00;100;15 Minutes;;;;;;676;169;96.816;0;110;47;5;7;5.324;6.016;A;94.914;3.941;7.121;
040548FF08FBB421;IDS-04B -- ??????-?????? -- 1 -- None -- 78 -- 0 -- Solo Pro II MVP -- 172.26.2.164;110;Lane 2;3/5/2012;6:15:00;100;15 Minutes;;;;;;456;114;117.324;0;96;15;0;3;7.895;3.246;A;116.332;1.922;3.918;
040548FF08FBB421;IDS-04B -- ??????-?????? -- 1 -- None -- 78 -- 0 -- Solo Pro II MVP -- 172.26.2.164;113;Total;3/5/2012;6:15:00;100;15 Minutes;;;;;;566;283;105.074;0;206;62;5;10;6.609;4.629;A;102.617;2.887;5.516;
040548FF08FBB421;IDS-04B -- ??????-?????? -- 1 -- None -- 78 -- 0 -- Solo Pro II MVP -- 172.26.2.164;109;Lane 1;3/5/2012;6:30:00;100;15 Minutes;;;;;;828;207;97.270;0;147;49;4;7;4.348;7.559;A;96.020;4.570;8.621;
040548FF08FBB421;IDS-04B -- ??????-?????? -- 1 -- None -- 78 -- 0 -- Solo Pro II MVP -- 172.26.2.164;110;Lane 2;3/5/2012;6:30:00;100;15 Minutes;;;;;;820;205;115.023;0;164;39;0;2;4.387;5.930;A;114.086;3.438;7.188;
040548FF08FBB421;IDS-04B -- ??????-?????? -- 1 -- None -- 78 -- 0 -- Solo Pro II MVP -- 172.26.2.164;113;Total;3/5/2012;6:30:00;100;15 Minutes;;;;;;824;412;106.102;0;311;88;4;9;4.367;6.742;A;104.324;3.961;7.898;
040548FF08FBB421;IDS-04B -- ??????-?????? -- 1 -- None -- 78 -- 0 -- Solo Pro II MVP -- 172.26.2.164;109;Lane 1;3/5/2012;6:45:00;100;15 Minutes;;;;;;1092;273;98.258;0;203;55;7;8;3.293;10.266;A;96.930;5.758;11.266;
040548FF08FBB421;IDS-04B -- ??????-?????? -- 1 -- None -- 78 -- 0 -- Solo Pro II MVP -- 172.26.2.164;110;Lane 2;3/5/2012;6:45:00;100;15 Minutes;;;;;;1100;275;115.508;0;207;58;2;7;3.270;8.832;A;115.031;4.809;9.563;
040548FF08FBB421;IDS-04B -- ??????-?????? -- 1 -- None -- 78 -- 0 -- Solo Pro II MVP -- 172.26.2.164;113;Total;3/5/2012;6:45:00;100;15 Minutes;;;;;;1096;548;106.914;0;410;113;9;15;3.281;9.547;A;105.160;5.242;10.422;
040548FF08FBB421;IDS-04B -- ??????-?????? -- 1 -- None -- 78 -- 0 -- Solo Pro II MVP -- 172.26.2.164;109;Lane 1;3/5/2012;7:00:00;100;15 Minutes;;;;;;1232;308;98.121;0;250;48;5;4;2.922;11.496;A;96.508;5.859;12.766;
040548FF08FBB421;IDS-04B -- ??????-?????? -- 1 -- None -- 78 -- 0 -- Solo Pro II MVP -- 172.26.2.164;110;Lane 2;3/5/2012;7:00:00;100;15 Minutes;;;;;;1516;379;113.547;0;308;58;5;8;2.371;12.172;A;112.688;6.723;13.453;
040548FF08FBB421;IDS-04B -- ??????-?????? -- 1 -- None -- 78 -- 0 -- Solo Pro II MVP -- 172.26.2.164;113;Total;3/5/2012;7:00:00;100;15 Minutes;;;;;;1374;687;106.633;0;558;106;10;12;2.645;11.832;A;104.809;6.273;13.109;
040548FF08FBB421;IDS-04B -- ??????-?????? -- 1 -- None -- 78 -- 0 -- Solo Pro II MVP -- 172.26.2.164;109;Lane 1;3/5/2012;7:15:00;100;15 Minutes;;;;;;1288;322;94.840;0;257;54;6;5;2.793;13.035;A;93.563;6.449;13.766;
040548FF08FBB421;IDS-04B -- ??????-?????? -- 1 -- None -- 78 -- 0 -- Solo Pro II MVP -- 172.26.2.164;110;Lane 2;3/5/2012;7:15:00;100;15 Minutes;;;;;;1796;449;112.059;0;364;77;6;2;2.004;14.648;A;111.270;7.930;16.141;
040548FF08FBB421;IDS-04B -- ??????-?????? -- 1 -- None -- 78 -- 0 -- Solo Pro II MVP -- 172.26.2.164;113;Total;3/5/2012;7:15:00;100;15 Minutes;;;;;;1542;771;104.867;0;621;131;12;7;2.398;13.840;A;103.121;7.152;14.953;
040548FF08FBB421;IDS-04B -- ??????-?????? -- 1 -- None -- 78 -- 0 -- Solo Pro II MVP -- 172.26.2.164;109;Lane 1;3/5/2012;7:30:00;100;15 Minutes;;;;;;1312;328;95.566;0;260;60;3;5;2.742;13.070;A;94.027;6.441;13.953;
040548FF08FBB421;IDS-04B -- ??????-?????? -- 1 -- None -- 78 -- 0 -- Solo Pro II MVP -- 172.26.2.164;110;Lane 2;3/5/2012;7:30:00;100;15 Minutes;;;;;;1664;416;112.758;0;366;45;2;3;2.160;13.105;A;111.980;6.695;14.859;
040548FF08FBB421;IDS-04B -- ??????-?????? -- 1 -- None -- 78 -- 0 -- Solo Pro II MVP -- 172.26.2.164;113;Total;3/5/2012;7:30:00;100;15 Minutes;;;;;;1488;744;105.180;0;626;105;5;8;2.449;13.086;A;103.230;6.516;14.414;
040548FF08FBB421;IDS-04B -- ??????-?????? -- 1 -- None -- 78 -- 0 -- Solo Pro II MVP -- 172.26.2.164;109;Lane 1;3/5/2012;7:45:00;100;15 Minutes;;;;;;1428;357;95.891;0;302;47;2;6;2.520;13.895;A;94.605;6.750;15.094;
040548FF08FBB421;IDS-04B -- ??????-?????? -- 1 -- None -- 78 -- 0 -- Solo Pro II MVP -- 172.26.2.164;110;Lane 2;3/5/2012;7:45:00;100;15 Minutes;;;;;;1980;495;110.059;0;445;46;2;1;1.816;15.414;A;109.332;7.555;18.109;
040548FF08FBB421;IDS-04B -- ??????-?????? -- 1 -- None -- 78 -- 0 -- Solo Pro II MVP -- 172.26.2.164;113;Total;3/5/2012;7:45:00;100;15 Minutes;;;;;;1704;852;104.121;0;747;93;4;7;2.168;14.652;A;102.641;7.102;16.602;
040548FF08FBB421;IDS-04B -- ??????-?????? -- 1 -- None -- 78 -- 0 -- Solo Pro II MVP -- 172.26.2.164;109;Lane 1;3/5/2012;8:00:00;100;15 Minutes;;;;;;1236;309;97.254;0;248;55;3;1;2.910;11.773;A;96.230;5.570;12.844;
040548FF08FBB421;IDS-04B -- ??????-?????? -- 1 -- None -- 78 -- 0 -- Solo Pro II MVP -- 172.26.2.164;110;Lane 2;3/5/2012;8:00:00;100;15 Minutes;;;;;;1544;386;113.160;0;334;48;4;0;2.328;11.691;A;112.289;5.770;13.750;
040548FF08FBB421;IDS-04B -- ??????-?????? -- 1 -- None -- 78 -- 0 -- Solo Pro II MVP -- 172.26.2.164;113;Total;3/5/2012;8:00:00;100;15 Minutes;;;;;;1390;695;106.086;0;582;103;7;1;2.617;11.730;A;104.535;5.633;13.297;
040548FF08FBB421;IDS-04B -- ??????-?????? -- 1 -- None -- 78 -- 0 -- Solo Pro II MVP -- 172.26.2.164;109;Lane 1;3/5/2012;8:15:00;100;15 Minutes;;;;;;1340;335;92.430;0;261;68;4;2;2.684;12.703;A;91.230;6.672;14.688;
040548FF08FBB421;IDS-04B -- ??????-?????? -- 1 -- None -- 78 -- 0 -- Solo Pro II MVP -- 172.26.2.164;110;Lane 2;3/5/2012;8:15:00;100;15 Minutes;;;;;;1796;449;107.793;0;361;82;3;2;2.004;13.777;A;106.723;7.609;16.828;
040548FF08FBB421;IDS-04B -- ??????-?????? -- 1 -- None -- 78 -- 0 -- Solo Pro II MVP -- 172.26.2.164;113;Total;3/5/2012;8:15:00;100;15 Minutes;;;;;;1568;784;101.227;0;622;150;7;4;2.344;13.238;A;99.504;7.098;15.758;
040548FF08FBB421;IDS-04B -- ??????-?????? -- 1 -- None -- 78 -- 0 -- Solo Pro II MVP -- 172.26.2.164;109;Lane 1;3/5/2012;8:30:00;100;15 Minutes;;;;;;1260;315;97.027;0;231;74;9;1;2.855;11.215;A;95.316;6.160;13.219;
040548FF08FBB421;IDS-04B -- ??????-?????? -- 1 -- None -- 78 -- 0 -- Solo Pro II MVP -- 172.26.2.164;110;Lane 2;3/5/2012;8:30:00;100;15 Minutes;;;;;;1436;359;112.801;0;271;84;1;3;2.504;10.848;A;111.668;5.977;12.859;
040548FF08FBB421;IDS-04B -- ??????-?????? -- 1 -- None -- 78 -- 0 -- Solo Pro II MVP -- 172.26.2.164;113;Total;3/5/2012;8:30:00;100;15 Minutes;;;;;;1348;674;105.430;0;502;158;10;4;2.680;11.031;A;103.379;6.031;13.039;
040548FF08FBB421;IDS-04B -- ??????-?????? -- 1 -- None -- 78 -- 0 -- Solo Pro II MVP -- 172.26.2.164;109;Lane 1;3/5/2012;8:45:00;100;15 Minutes;;;;;;1320;330;95.348;0;248;78;3;1;2.727;12.160;A;91.230;6.391;14.469;
040548FF08FBB421;IDS-04B -- ??????-?????? -- 1 -- None -- 78 -- 0 -- Solo Pro II MVP -- 172.26.2.164;110;Lane 2;3/5/2012;8:45:00;100;15 Minutes;;;;;;1620;405;112.563;0;303;96;3;3;2.219;12.125;A;111.723;6.859;14.500;
040548FF08FBB421;IDS-04B -- ??????-?????? -- 1 -- None -- 78 -- 0 -- Solo Pro II MVP -- 172.26.2.164;113;Total;3/5/2012;8:45:00;100;15 Minutes;;;;;;1470;735;104.836;0;551;174;6;4;2.473;12.141;A;101.488;6.590;14.484;
040548FF08FBB421;IDS-04B -- ??????-?????? -- 1 -- None -- 78 -- 0 -- Solo Pro II MVP -- 172.26.2.164;109;Lane 1;3/5/2012;9:00:00;100;15 Minutes;;;;;;1216;304;92.629;0;215;82;4;2;2.957;10.672;A;88.738;6.160;13.703;
040548FF08FBB421;IDS-04B -- ??????-?????? -- 1 -- None -- 78 -- 0 -- Solo Pro II MVP -- 172.26.2.164;110;Lane 2;3/5/2012;9:00:00;100;15 Minutes;;;;;;1404;351;106.762;0;252;94;3;1;2.563;10.055;A;104.969;6.223;13.375;
040548FF08FBB421;IDS-04B -- ??????-?????? -- 1 -- None -- 78 -- 0 -- Solo Pro II MVP -- 172.26.2.164;113;Total;3/5/2012;9:00:00;100;15 Minutes;;;;;;1310;655;100.203;0;467;176;7;3;2.758;10.363;A;96.754;6.164;13.539;
040548FF08FBB421;IDS-04B -- ??????-?????? -- 1 -- None -- 78 -- 0 -- Solo Pro II MVP -- 172.26.2.164;109;Lane 1;3/5/2012;9:15:00;100;15 Minutes;;;;;;1292;323;89.000;0;235;80;3;3;2.785;10.633;A;86.855;6.824;14.875;
040548FF08FBB421;IDS-04B -- ??????-?????? -- 1 -- None -- 78 -- 0 -- Solo Pro II MVP -- 172.26.2.164;110;Lane 2;3/5/2012;9:15:00;100;15 Minutes;;;;;;1664;416;101.191;0;324;83;1;2;2.160;11.230;A;99.902;7.340;16.656;
040548FF08FBB421;IDS-04B -- ??????-?????? -- 1 -- None -- 78 -- 0 -- Solo Pro II MVP -- 172.26.2.164;113;Total;3/5/2012;9:15:00;100;15 Minutes;;;;;;1478;739;95.863;0;559;163;4;5;2.473;10.930;A;93.699;7.043;15.773;
040548FF08FBB421;IDS-04B -- ??????-?????? -- 1 -- None -- 78 -- 0 -- Solo Pro II MVP -- 172.26.2.164;109;Lane 1;3/5/2012;9:30:00;100;15 Minutes;;;;;;1244;311;88.645;0;226;74;7;2;2.891;10.703;A;87.297;6.715;14.250;
040548FF08FBB421;IDS-04B -- ??????-?????? -- 1 -- None -- 78 -- 0 -- Solo Pro II MVP -- 172.26.2.164;110;Lane 2;3/5/2012;9:30:00;100;15 Minutes;;;;;;1412;353;104.406;0;289;58;4;2;2.547;9.469;A;103.750;6.145;13.609;
040548FF08FBB421;IDS-04B -- ??????-?????? -- 1 -- None -- 78 -- 0 -- Solo Pro II MVP -- 172.26.2.164;113;Total;3/5/2012;9:30:00;100;15 Minutes;;;;;;1328;664;97.023;0;515;132;11;4;2.719;10.086;A;95.281;6.375;13.938;
040548FF08FBB421;IDS-04B -- ??????-?????? -- 1 -- None -- 78 -- 0 -- Solo Pro II MVP -- 172.26.2.164;109;Lane 1;3/5/2012;9:45:00;100;15 Minutes;;;;;;1288;322;89.313;0;246;69;2;4;2.793;11.477;A;87.691;6.961;14.688;
040548FF08FBB421;IDS-04B -- ??????-?????? -- 1 -- None -- 78 -- 0 -- Solo Pro II MVP -- 172.26.2.164;110;Lane 2;3/5/2012;9:45:00;100;15 Minutes;;;;;;1512;378;102.242;0;313;64;1;0;2.379;10.449;A;101.113;6.555;14.953;
040548FF08FBB421;IDS-04B -- ??????-?????? -- 1 -- None -- 78 -- 0 -- Solo Pro II MVP -- 172.26.2.164;113;Total;3/5/2012;9:45:00;100;15 Minutes;;;;;;1400;700;96.293;0;559;133;3;4;2.586;10.961;A;94.465;6.707;14.820;
040548FF08FBB421;IDS-04B -- ??????-?????? -- 1 -- None -- 78 -- 0 -- Solo Pro II MVP -- 172.26.2.164;109;Lane 1;3/5/2012;10:00:01;100;15 Minutes;;;;;;1232;308;90.148;0;207;89;5;7;2.922;11.441;A;88.891;7.148;13.859;
040548FF08FBB421;IDS-04B -- ??????-?????? -- 1 -- None -- 78 -- 0 -- Solo Pro II MVP -- 172.26.2.164;110;Lane 2;3/5/2012;10:00:01;100;15 Minutes;;;;;;1476;369;105.379;0;290;75;3;1;2.438;10.508;A;104.840;6.656;14.078;
040548FF08FBB421;IDS-04B -- ??????-?????? -- 1 -- None -- 78 -- 0 -- Solo Pro II MVP -- 172.26.2.164;113;Total;3/5/2012;10:00:01;100;15 Minutes;;;;;;1354;677;98.449;0;497;164;8;8;2.680;10.973;A;96.875;6.836;13.977;
040548FF08FBB421;IDS-04B -- ??????-?????? -- 1 -- None -- 78 -- 0 -- Solo Pro II MVP -- 172.26.2.164;109;Lane 1;3/5/2012;10:15:00; 99;15 Minutes;;;;;;1288;322;89.621;0;233;78;5;6;2.793;11.707;A;87.598;7.254;14.703;
040548FF08FBB421;IDS-04B -- ??????-?????? -- 1 -- None -- 78 -- 0 -- Solo Pro II MVP -- 172.26.2.164;110;Lane 2;3/5/2012;10:15:00; 99;15 Minutes;;;;;;1412;353;102.715;0;297;53;2;1;2.547;10.414;A;101.422;6.516;13.922;
040548FF08FBB421;IDS-04B -- ??????-?????? -- 1 -- None -- 78 -- 0 -- Solo Pro II MVP -- 172.26.2.164;113;Total;3/5/2012;10:15:00; 99;15 Minutes;;;;;;1350;675;96.469;0;530;131;7;7;2.668;11.059;A;94.270;6.836;14.320;
040548FF08FBB421;IDS-04B -- ??????-?????? -- 1 -- None -- 78 -- 0 -- Solo Pro II MVP -- 172.26.2.164;109;Lane 1;3/5/2012;10:30:00;100;15 Minutes;;;;;;1160;290;90.102;0;186;84;13;7;3.102;11.090;A;88.695;6.996;13.078;
040548FF08FBB421;IDS-04B -- ??????-?????? -- 1 -- None -- 78 -- 0 -- Solo Pro II MVP -- 172.26.2.164;110;Lane 2;3/5/2012;10:30:00;100;15 Minutes;;;;;;1364;341;106.266;0;284;52;3;2;2.637;9.750;A;105.430;6.086;12.938;
040548FF08FBB421;IDS-04B -- ??????-?????? -- 1 -- None -- 78 -- 0 -- Solo Pro II MVP -- 172.26.2.164;113;Total;3/5/2012;10:30:00;100;15 Minutes;;;;;;1262;631;98.836;0;470;136;16;9;2.867;10.418;A;97.016;6.461;13.008;
040548FF08FBB421;IDS-04B -- ??????-?????? -- 1 -- None -- 78 -- 0 -- Solo Pro II MVP -- 172.26.2.164;109;Lane 1;3/5/2012;10:45:00;100;15 Minutes;;;;;;1288;322;85.414;0;214;93;8;6;2.793;12.383;A;83.855;7.887;15.359;
040548FF08FBB421;IDS-04B -- ??????-?????? -- 1 -- None -- 78 -- 0 -- Solo Pro II MVP -- 172.26.2.164;110;Lane 2;3/5/2012;10:45:00;100;15 Minutes;;;;;;1528;382;102.688;0;313;67;2;0;2.355;11.055;A;101.758;6.855;15.016;
040548FF08FBB421;IDS-04B -- ??????-?????? -- 1 -- None -- 78 -- 0 -- Solo Pro II MVP -- 172.26.2.164;113;Total;3/5/2012;10:45:00;100;15 Minutes;;;;;;1408;704;94.785;0;527;160;10;6;2.574;11.719;A;92.656;7.270;15.195;
040548FF08FBB421;IDS-04B -- ??????-?????? -- 1 -- None -- 78 -- 0 -- Solo Pro II MVP -- 172.26.2.164;109;Lane 1;3/5/2012;11:00:00;100;15 Minutes;;;;;;1260;315;85.426;0;201;98;8;7;2.855;12.660;A;83.648;7.898;15.063;
040548FF08FBB421;IDS-04B -- ??????-?????? -- 1 -- None -- 78 -- 0 -- Solo Pro II MVP -- 172.26.2.164;110;Lane 2;3/5/2012;11:00:00;100;15 Minutes;;;;;;1332;333;101.738;0;281;51;0;1;2.699;9.570;A;100.766;6.000;13.219;
040548FF08FBB421;IDS-04B -- ??????-?????? -- 1 -- None -- 78 -- 0 -- Solo Pro II MVP -- 172.26.2.164;113;Total;3/5/2012;11:00:00;100;15 Minutes;;;;;;1296;648;93.809;0;482;149;8;8;2.777;11.113;A;91.598;6.848;14.148;
