CPU Identifier;Autoscope Description;Detector ID;Detector Title;Date;Time;Status;Data Interval;Ticks (millisec.);State;Speed;Length;Class;Average Flow Rate;Volume;Arithmetic Mean Speed;Class A Count;Class B Count;Class C Count;Class D Count;Class E Count;Average Time Headway;Average Time Occupancy;Level Of Service;Space Mean Speed;Space Occupancy;Density;
040549FF6ED0D021;IDS-08B -- ?????-????? (???????????) -- 1 -- None -- 78 -- 0 -- Solo Pro II MVP -- 172.26.2.168;109;Lane 1;3/5/2012;15:15:00;100;15 Minutes;;;;;;1400;350;79.883;0;336;2;8;2;2.570;14.059;A;78.527;8.469;17.828;
040549FF6ED0D021;IDS-08B -- ?????-????? (???????????) -- 1 -- None -- 78 -- 0 -- Solo Pro II MVP -- 172.26.2.168;110;Lane 2;3/5/2012;15:15:00;100;15 Minutes;;;;;;1768;442;91.531;0;431;4;1;6;2.035;15.270;A;90.230;9.473;19.594;
040549FF6ED0D021;IDS-08B -- ?????-????? (???????????) -- 1 -- None -- 78 -- 0 -- Solo Pro II MVP -- 172.26.2.168;113;Total;3/5/2012;15:15:00;100;15 Minutes;;;;;;1584;792;86.383;0;767;6;9;8;2.301;14.664;A;84.617;8.934;18.719;
040549FF6ED0D021;IDS-08B -- ?????-????? (???????????) -- 1 -- None -- 78 -- 0 -- Solo Pro II MVP -- 172.26.2.168;109;Lane 1;3/5/2012;15:30:00;100;15 Minutes;;;;;;1300;325;79.262;0;309;2;10;4;2.766;13.555;A;78.121;8.477;16.641;
040549FF6ED0D021;IDS-08B -- ?????-????? (???????????) -- 1 -- None -- 78 -- 0 -- Solo Pro II MVP -- 172.26.2.168;110;Lane 2;3/5/2012;15:30:00;100;15 Minutes;;;;;;1632;408;92.148;0;396;8;3;1;2.203;14.074;A;91.141;8.605;17.906;
040549FF6ED0D021;IDS-08B -- ?????-????? (???????????) -- 1 -- None -- 78 -- 0 -- Solo Pro II MVP -- 172.26.2.168;113;Total;3/5/2012;15:30:00;100;15 Minutes;;;;;;1466;733;86.434;0;705;10;13;5;2.484;13.813;A;84.828;8.477;17.281;
040549FF6ED0D021;IDS-08B -- ?????-????? (???????????) -- 1 -- None -- 78 -- 0 -- Solo Pro II MVP -- 172.26.2.168;109;Lane 1;3/5/2012;15:45:00;100;15 Minutes;;;;;;1376;344;79.344;0;333;4;4;2;2.613;13.941;A;78.277;8.586;17.578;
040549FF6ED0D021;IDS-08B -- ?????-????? (???????????) -- 1 -- None -- 78 -- 0 -- Solo Pro II MVP -- 172.26.2.168;110;Lane 2;3/5/2012;15:45:00;100;15 Minutes;;;;;;1764;441;92.414;0;420;6;7;8;2.039;15.438;A;91.559;9.813;19.266;
040549FF6ED0D021;IDS-08B -- ?????-????? (???????????) -- 1 -- None -- 78 -- 0 -- Solo Pro II MVP -- 172.26.2.168;113;Total;3/5/2012;15:45:00;100;15 Minutes;;;;;;1570;785;86.688;0;753;10;11;10;2.324;14.688;A;85.223;9.160;18.422;
040549FF6ED0D021;IDS-08B -- ?????-????? (???????????) -- 1 -- None -- 78 -- 0 -- Solo Pro II MVP -- 172.26.2.168;109;Lane 1;3/5/2012;16:00:00;100;15 Minutes;;;;;;1428;357;75.008;0;348;3;4;1;2.520;14.691;A;74.000;9.055;19.297;
040549FF6ED0D021;IDS-08B -- ?????-????? (???????????) -- 1 -- None -- 78 -- 0 -- Solo Pro II MVP -- 172.26.2.168;110;Lane 2;3/5/2012;16:00:00;100;15 Minutes;;;;;;1976;494;87.496;0;481;8;3;2;1.820;17.680;A;86.797;11.016;22.766;
040549FF6ED0D021;IDS-08B -- ?????-????? (???????????) -- 1 -- None -- 78 -- 0 -- Solo Pro II MVP -- 172.26.2.168;113;Total;3/5/2012;16:00:00;100;15 Minutes;;;;;;1702;851;82.258;0;829;11;7;3;2.168;16.184;A;80.895;9.984;21.039;
040549FF6ED0D021;IDS-08B -- ?????-????? (???????????) -- 1 -- None -- 78 -- 0 -- Solo Pro II MVP -- 172.26.2.168;109;Lane 1;3/5/2012;16:15:00;100;15 Minutes;;;;;;1400;350;74.508;0;338;1;8;2;2.570;14.563;A;73.500;9.254;19.047;
040549FF6ED0D021;IDS-08B -- ?????-????? (???????????) -- 1 -- None -- 78 -- 0 -- Solo Pro II MVP -- 172.26.2.168;110;Lane 2;3/5/2012;16:15:00;100;15 Minutes;;;;;;1784;446;86.445;0;435;7;3;1;2.016;15.684;A;85.203;10.227;20.938;
040549FF6ED0D021;IDS-08B -- ?????-????? (???????????) -- 1 -- None -- 78 -- 0 -- Solo Pro II MVP -- 172.26.2.168;113;Total;3/5/2012;16:15:00;100;15 Minutes;;;;;;1592;796;81.199;0;773;8;11;3;2.293;15.121;A;79.598;9.688;20.000;
040549FF6ED0D021;IDS-08B -- ?????-????? (???????????) -- 1 -- None -- 78 -- 0 -- Solo Pro II MVP -- 172.26.2.168;109;Lane 1;3/5/2012;16:30:00;100;15 Minutes;;;;;;1624;406;67.922;0;393;6;3;3;2.215;18.813;A;61.570;11.230;26.375;
040549FF6ED0D021;IDS-08B -- ?????-????? (???????????) -- 1 -- None -- 78 -- 0 -- Solo Pro II MVP -- 172.26.2.168;110;Lane 2;3/5/2012;16:30:00;100;15 Minutes;;;;;;1976;494;78.957;0;477;7;4;6;1.820;20.250;A;73.395;12.473;26.922;
040549FF6ED0D021;IDS-08B -- ?????-????? (???????????) -- 1 -- None -- 78 -- 0 -- Solo Pro II MVP -- 172.26.2.168;113;Total;3/5/2012;16:30:00;100;15 Minutes;;;;;;1800;900;73.977;0;870;13;7;9;2.016;19.531;A;67.523;11.809;26.656;
040549FF6ED0D021;IDS-08B -- ?????-????? (???????????) -- 1 -- None -- 78 -- 0 -- Solo Pro II MVP -- 172.26.2.168;109;Lane 1;3/5/2012;16:45:00;100;15 Minutes;;;;;;1132;283;56.738;0;271;6;0;2;3.180;22.313;A;29.363;8.543;38.551;
040549FF6ED0D021;IDS-08B -- ?????-????? (???????????) -- 1 -- None -- 78 -- 0 -- Solo Pro II MVP -- 172.26.2.168;110;Lane 2;3/5/2012;16:45:00;100;15 Minutes;;;;;;1504;376;68.332;0;356;5;1;3;2.391;26.457;A;35.809;10.141;42.000;
040549FF6ED0D021;IDS-08B -- ?????-????? (???????????) -- 1 -- None -- 78 -- 0 -- Solo Pro II MVP -- 172.26.2.168;113;Total;3/5/2012;16:45:00;100;15 Minutes;;;;;;1318;659;63.355;0;627;11;1;5;2.785;24.383;A;32.723;9.293;40.277;
040549FF6ED0D021;IDS-08B -- ?????-????? (???????????) -- 1 -- None -- 78 -- 0 -- Solo Pro II MVP -- 172.26.2.168;109;Lane 1;3/5/2012;17:00:00;100;15 Minutes;;;;;;384;96;8.289;0;66;10;1;0;9.375;38.586;A;5.586;14.055;68.742;
040549FF6ED0D021;IDS-08B -- ?????-????? (???????????) -- 1 -- None -- 78 -- 0 -- Solo Pro II MVP -- 172.26.2.168;110;Lane 2;3/5/2012;17:00:00;100;15 Minutes;;;;;;248;62;7.758;0;42;5;1;0;14.516;22.055;A;5.816;9.227;42.637;
040549FF6ED0D021;IDS-08B -- ?????-????? (???????????) -- 1 -- None -- 78 -- 0 -- Solo Pro II MVP -- 172.26.2.168;113;Total;3/5/2012;17:00:00;100;15 Minutes;;;;;;316;158;8.082;0;108;15;2;0;11.945;30.320;A;5.676;11.637;55.672;
040549FF6ED0D021;IDS-08B -- ?????-????? (???????????) -- 1 -- None -- 78 -- 0 -- Solo Pro II MVP -- 172.26.2.168;109;Lane 1;3/5/2012;17:15:00;100;15 Minutes;;;;;;1140;285;51.934;0;275;3;3;1;3.156;24.434;A;38.559;9.547;29.563;
040549FF6ED0D021;IDS-08B -- ?????-????? (???????????) -- 1 -- None -- 78 -- 0 -- Solo Pro II MVP -- 172.26.2.168;110;Lane 2;3/5/2012;17:15:00;100;15 Minutes;;;;;;1316;329;52.395;0;319;2;3;4;2.734;18.930;A;40.785;11.609;32.266;
040549FF6ED0D021;IDS-08B -- ?????-????? (???????????) -- 1 -- None -- 78 -- 0 -- Solo Pro II MVP -- 172.26.2.168;113;Total;3/5/2012;17:15:00;100;15 Minutes;;;;;;1228;614;52.180;0;594;5;6;5;2.945;21.680;A;39.711;10.582;30.922;
040549FF6ED0D021;IDS-08B -- ?????-????? (???????????) -- 1 -- None -- 78 -- 0 -- Solo Pro II MVP -- 172.26.2.168;109;Lane 1;3/5/2012;17:30:00;100;15 Minutes;;;;;;1208;302;35.047;0;278;9;5;3;2.977;29.383;A;21.086;14.363;57.289;
040549FF6ED0D021;IDS-08B -- ?????-????? (???????????) -- 1 -- None -- 78 -- 0 -- Solo Pro II MVP -- 172.26.2.168;110;Lane 2;3/5/2012;17:30:00;100;15 Minutes;;;;;;1188;297;38.996;0;276;2;7;2;3.027;32.777;A;17.953;12.883;66.172;
040549FF6ED0D021;IDS-08B -- ?????-????? (???????????) -- 1 -- None -- 78 -- 0 -- Solo Pro II MVP -- 172.26.2.168;113;Total;3/5/2012;17:30:00;100;15 Minutes;;;;;;1198;599;37.004;0;554;11;12;5;3.000;31.078;A;19.406;13.590;61.730;
040549FF6ED0D021;IDS-08B -- ?????-????? (???????????) -- 1 -- None -- 78 -- 0 -- Solo Pro II MVP -- 172.26.2.168;109;Lane 1;3/5/2012;17:45:00;100;15 Minutes;;;;;;1032;258;13.449;0;224;24;4;1;3.488;43.719;A;10.383;31.375;99.395;
040549FF6ED0D021;IDS-08B -- ?????-????? (???????????) -- 1 -- None -- 78 -- 0 -- Solo Pro II MVP -- 172.26.2.168;110;Lane 2;3/5/2012;17:45:00;100;15 Minutes;;;;;;860;215;15.500;0;194;10;2;1;4.184;31.438;A;12.281;21.129;70.023;
040549FF6ED0D021;IDS-08B -- ?????-????? (???????????) -- 1 -- None -- 78 -- 0 -- Solo Pro II MVP -- 172.26.2.168;113;Total;3/5/2012;17:45:00;100;15 Minutes;;;;;;946;473;14.379;0;418;34;6;2;3.836;37.578;A;11.168;26.066;84.703;
040549FF6ED0D021;IDS-08B -- ?????-????? (???????????) -- 1 -- None -- 78 -- 0 -- Solo Pro II MVP -- 172.26.2.168;109;Lane 1;3/5/2012;18:00:00;100;15 Minutes;;;;;;1148;287;15.703;0;251;16;7;1;3.133;38.430;A;13.262;28.941;86.563;
040549FF6ED0D021;IDS-08B -- ?????-????? (???????????) -- 1 -- None -- 78 -- 0 -- Solo Pro II MVP -- 172.26.2.168;110;Lane 2;3/5/2012;18:00:00;100;15 Minutes;;;;;;956;239;16.609;0;223;9;1;0;3.766;30.316;A;13.508;22.086;70.773;
040549FF6ED0D021;IDS-08B -- ?????-????? (???????????) -- 1 -- None -- 78 -- 0 -- Solo Pro II MVP -- 172.26.2.168;113;Total;3/5/2012;18:00:00;100;15 Minutes;;;;;;1052;526;16.113;0;474;25;8;1;3.449;34.371;A;13.371;25.484;78.676;
040549FF6ED0D021;IDS-08B -- ?????-????? (???????????) -- 1 -- None -- 78 -- 0 -- Solo Pro II MVP -- 172.26.2.168;109;Lane 1;3/5/2012;18:15:00;100;15 Minutes;;;;;;1556;389;37.066;0;376;5;4;1;2.313;29.090;A;32.863;18.125;47.348;
040549FF6ED0D021;IDS-08B -- ?????-????? (???????????) -- 1 -- None -- 78 -- 0 -- Solo Pro II MVP -- 172.26.2.168;110;Lane 2;3/5/2012;18:15:00;100;15 Minutes;;;;;;1652;413;35.590;0;408;2;1;1;2.176;30.203;A;29.148;19.914;56.672;
040549FF6ED0D021;IDS-08B -- ?????-????? (???????????) -- 1 -- None -- 78 -- 0 -- Solo Pro II MVP -- 172.26.2.168;113;Total;3/5/2012;18:15:00;100;15 Minutes;;;;;;1604;802;36.309;0;784;7;5;2;2.242;29.645;A;30.840;19.012;52.008;
040549FF6ED0D021;IDS-08B -- ?????-????? (???????????) -- 1 -- None -- 78 -- 0 -- Solo Pro II MVP -- 172.26.2.168;109;Lane 1;3/5/2012;18:30:00;100;15 Minutes;;;;;;1748;437;58.563;0;415;7;10;4;2.059;20.730;A;58.023;14.203;30.125;
040549FF6ED0D021;IDS-08B -- ?????-????? (???????????) -- 1 -- None -- 78 -- 0 -- Solo Pro II MVP -- 172.26.2.168;110;Lane 2;3/5/2012;18:30:00;100;15 Minutes;;;;;;2208;552;63.625;0;548;2;2;0;1.629;21.844;A;63.254;15.410;34.906;
040549FF6ED0D021;IDS-08B -- ?????-????? (???????????) -- 1 -- None -- 78 -- 0 -- Solo Pro II MVP -- 172.26.2.168;113;Total;3/5/2012;18:30:00;100;15 Minutes;;;;;;1978;989;61.387;0;963;9;12;4;1.844;21.285;A;60.832;14.762;32.516;
040549FF6ED0D021;IDS-08B -- ?????-????? (???????????) -- 1 -- None -- 78 -- 0 -- Solo Pro II MVP -- 172.26.2.168;109;Lane 1;3/5/2012;18:45:00;100;15 Minutes;;;;;;1676;419;52.613;0;407;3;4;4;2.145;21.801;A;52.043;14.766;32.203;
040549FF6ED0D021;IDS-08B -- ?????-????? (???????????) -- 1 -- None -- 78 -- 0 -- Solo Pro II MVP -- 172.26.2.168;110;Lane 2;3/5/2012;18:45:00;100;15 Minutes;;;;;;2012;503;53.949;0;497;4;1;1;1.789;24.359;A;52.027;16.398;38.672;
040549FF6ED0D021;IDS-08B -- ?????-????? (???????????) -- 1 -- None -- 78 -- 0 -- Solo Pro II MVP -- 172.26.2.168;113;Total;3/5/2012;18:45:00;100;15 Minutes;;;;;;1844;922;53.344;0;904;7;5;5;1.965;23.078;A;52.035;15.574;35.438;
040549FF6ED0D021;IDS-08B -- ?????-????? (???????????) -- 1 -- None -- 78 -- 0 -- Solo Pro II MVP -- 172.26.2.168;109;Lane 1;3/5/2012;19:00:00;100;15 Minutes;;;;;;1528;382;58.516;0;368;9;4;1;2.355;21.105;A;53.496;10.906;28.563;
040549FF6ED0D021;IDS-08B -- ?????-????? (???????????) -- 1 -- None -- 78 -- 0 -- Solo Pro II MVP -- 172.26.2.168;110;Lane 2;3/5/2012;19:00:00;100;15 Minutes;;;;;;1832;458;62.676;0;441;6;2;6;1.965;26.238;A;52.387;12.539;34.969;
040549FF6ED0D021;IDS-08B -- ?????-????? (???????????) -- 1 -- None -- 78 -- 0 -- Solo Pro II MVP -- 172.26.2.168;113;Total;3/5/2012;19:00:00;100;15 Minutes;;;;;;1680;840;60.785;0;809;15;6;7;2.160;23.672;A;52.887;11.715;31.766;
040549FF6ED0D021;IDS-08B -- ?????-????? (???????????) -- 1 -- None -- 78 -- 0 -- Solo Pro II MVP -- 172.26.2.168;109;Lane 1;3/5/2012;19:15:00;100;15 Minutes;;;;;;1360;340;79.500;0;323;5;5;5;2.645;14.680;A;77.852;7.785;17.469;
040549FF6ED0D021;IDS-08B -- ?????-????? (???????????) -- 1 -- None -- 78 -- 0 -- Solo Pro II MVP -- 172.26.2.168;110;Lane 2;3/5/2012;19:15:00;100;15 Minutes;;;;;;1752;438;90.336;0;417;6;7;5;2.055;17.445;A;89.129;9.027;19.656;
040549FF6ED0D021;IDS-08B -- ?????-????? (???????????) -- 1 -- None -- 78 -- 0 -- Solo Pro II MVP -- 172.26.2.168;113;Total;3/5/2012;19:15:00;100;15 Minutes;;;;;;1556;778;85.598;0;740;11;12;10;2.348;16.063;A;83.824;8.379;18.563;
040549FF6ED0D021;IDS-08B -- ?????-????? (???????????) -- 1 -- None -- 78 -- 0 -- Solo Pro II MVP -- 172.26.2.168;109;Lane 1;3/5/2012;19:30:00;100;15 Minutes;;;;;;1216;304;83.070;0;292;3;4;3;2.957;12.621;A;80.980;6.520;15.016;
040549FF6ED0D021;IDS-08B -- ?????-????? (???????????) -- 1 -- None -- 78 -- 0 -- Solo Pro II MVP -- 172.26.2.168;110;Lane 2;3/5/2012;19:30:00;100;15 Minutes;;;;;;1388;347;96.039;0;332;10;3;1;2.590;12.359;A;95.004;6.523;14.609;
040549FF6ED0D021;IDS-08B -- ?????-????? (???????????) -- 1 -- None -- 78 -- 0 -- Solo Pro II MVP -- 172.26.2.168;113;Total;3/5/2012;19:30:00;100;15 Minutes;;;;;;1302;651;89.984;0;624;13;7;4;2.773;12.488;A;87.898;6.492;14.813;
040549FF6ED0D021;IDS-08B -- ?????-????? (???????????) -- 1 -- None -- 78 -- 0 -- Solo Pro II MVP -- 172.26.2.168;109;Lane 1;3/5/2012;19:45:00;100;15 Minutes;;;;;;1132;283;82.559;0;269;5;4;4;3.180;11.637;A;81.309;6.273;13.922;
040549FF6ED0D021;IDS-08B -- ?????-????? (???????????) -- 1 -- None -- 78 -- 0 -- Solo Pro II MVP -- 172.26.2.168;110;Lane 2;3/5/2012;19:45:00;100;15 Minutes;;;;;;1220;305;98.184;0;279;17;3;4;2.949;11.410;A;97.113;5.910;12.563;
040549FF6ED0D021;IDS-08B -- ?????-????? (???????????) -- 1 -- None -- 78 -- 0 -- Solo Pro II MVP -- 172.26.2.168;113;Total;3/5/2012;19:45:00;100;15 Minutes;;;;;;1176;588;90.664;0;548;22;7;8;3.063;11.523;A;88.805;6.055;13.242;
040549FF6ED0D021;IDS-08B -- ?????-????? (???????????) -- 1 -- None -- 78 -- 0 -- Solo Pro II MVP -- 172.26.2.168;109;Lane 1;3/5/2012;20:00:00;100;15 Minutes;;;;;;1080;270;83.625;0;260;4;4;2;3.332;10.285;A;81.992;5.582;13.172;
040549FF6ED0D021;IDS-08B -- ?????-????? (???????????) -- 1 -- None -- 78 -- 0 -- Solo Pro II MVP -- 172.26.2.168;110;Lane 2;3/5/2012;20:00:00;100;15 Minutes;;;;;;1172;293;99.270;0;281;8;2;2;3.070;10.500;A;98.176;5.406;11.938;
040549FF6ED0D021;IDS-08B -- ?????-????? (???????????) -- 1 -- None -- 78 -- 0 -- Solo Pro II MVP -- 172.26.2.168;113;Total;3/5/2012;20:00:00;100;15 Minutes;;;;;;1126;563;91.766;0;541;12;6;4;3.199;10.391;A;89.688;5.469;12.555;
040549FF6ED0D021;IDS-08B -- ?????-????? (???????????) -- 1 -- None -- 78 -- 0 -- Solo Pro II MVP -- 172.26.2.168;109;Lane 1;3/5/2012;20:15:00;100;15 Minutes;;;;;;936;234;77.086;0;228;4;0;2;3.844;10.145;A;74.520;5.234;12.559;
040549FF6ED0D021;IDS-08B -- ?????-????? (???????????) -- 1 -- None -- 78 -- 0 -- Solo Pro II MVP -- 172.26.2.168;110;Lane 2;3/5/2012;20:15:00;100;15 Minutes;;;;;;1144;286;93.098;0;274;7;1;3;3.145;10.383;A;91.063;5.559;12.563;
040549FF6ED0D021;IDS-08B -- ?????-????? (???????????) -- 1 -- None -- 78 -- 0 -- Solo Pro II MVP -- 172.26.2.168;113;Total;3/5/2012;20:15:00;100;15 Minutes;;;;;;1040;520;85.895;0;502;11;1;5;3.492;10.262;A;82.785;5.363;12.563;
040549FF6ED0D021;IDS-08B -- ?????-????? (???????????) -- 1 -- None -- 78 -- 0 -- Solo Pro II MVP -- 172.26.2.168;109;Lane 1;3/5/2012;20:30:00;100;15 Minutes;;;;;;884;221;84.434;0;208;6;3;4;4.070;8.602;A;82.711;4.891;10.688;
040549FF6ED0D021;IDS-08B -- ?????-????? (???????????) -- 1 -- None -- 78 -- 0 -- Solo Pro II MVP -- 172.26.2.168;110;Lane 2;3/5/2012;20:30:00;100;15 Minutes;;;;;;1004;251;101.000;0;241;4;2;3;3.582;8.824;A;99.977;4.543;10.039;
040549FF6ED0D021;IDS-08B -- ?????-????? (???????????) -- 1 -- None -- 78 -- 0 -- Solo Pro II MVP -- 172.26.2.168;113;Total;3/5/2012;20:30:00;100;15 Minutes;;;;;;944;472;93.242;0;449;10;5;7;3.824;8.711;A;91.125;4.676;10.359;
040549FF6ED0D021;IDS-08B -- ?????-????? (???????????) -- 1 -- None -- 78 -- 0 -- Solo Pro II MVP -- 172.26.2.168;109;Lane 1;3/5/2012;20:45:00;100;15 Minutes;;;;;;868;217;81.695;0;209;1;5;2;4.145;8.688;A;79.922;4.695;10.859;
040549FF6ED0D021;IDS-08B -- ?????-????? (???????????) -- 1 -- None -- 78 -- 0 -- Solo Pro II MVP -- 172.26.2.168;110;Lane 2;3/5/2012;20:45:00;100;15 Minutes;;;;;;1036;259;98.668;0;245;8;4;2;3.473;9.414;A;97.504;4.863;10.625;
040549FF6ED0D021;IDS-08B -- ?????-????? (???????????) -- 1 -- None -- 78 -- 0 -- Solo Pro II MVP -- 172.26.2.168;113;Total;3/5/2012;20:45:00;100;15 Minutes;;;;;;952;476;90.930;0;454;9;9;4;3.809;9.051;A;88.621;4.750;10.742;
040549FF6ED0D021;IDS-08B -- ?????-????? (???????????) -- 1 -- None -- 78 -- 0 -- Solo Pro II MVP -- 172.26.2.168;109;Lane 1;3/5/2012;21:00:00;100;15 Minutes;;;;;;892;223;83.547;0;211;4;5;3;4.035;8.277;A;81.906;4.855;10.887;
040549FF6ED0D021;IDS-08B -- ?????-????? (???????????) -- 1 -- None -- 78 -- 0 -- Solo Pro II MVP -- 172.26.2.168;110;Lane 2;3/5/2012;21:00:00;100;15 Minutes;;;;;;1040;260;99.055;0;252;5;2;1;3.461;9.152;A;97.738;4.730;10.641;
040549FF6ED0D021;IDS-08B -- ?????-????? (???????????) -- 1 -- None -- 78 -- 0 -- Solo Pro II MVP -- 172.26.2.168;113;Total;3/5/2012;21:00:00;100;15 Minutes;;;;;;966;483;91.895;0;463;9;7;4;3.746;8.715;A;89.727;4.754;10.766;
