CPU Identifier;Autoscope Description;Detector ID;Detector Title;Date;Time;Status;Data Interval;Ticks (millisec.);State;Speed;Length;Class;Average Flow Rate;Volume;Arithmetic Mean Speed;Class A Count;Class B Count;Class C Count;Class D Count;Class E Count;Average Time Headway;Average Time Occupancy;Level Of Service;Space Mean Speed;Space Occupancy;Density;
040549FFBFD4D021;IDS-09A -- ?????-????? (????????) -- 1 -- None -- 69 -- 0 -- Solo Pro II MVP -- 172.26.2.149;109;Lane 1;3/5/2012;20:15:00;100;15 Minutes;;;;;;0;0;0.000;0;0;0;0;0;255.996;0.000;A;0.000;100.000;0.000;
040549FFBFD4D021;IDS-09A -- ?????-????? (????????) -- 1 -- None -- 69 -- 0 -- Solo Pro II MVP -- 172.26.2.149;110;Lane 2;3/5/2012;20:15:00;100;15 Minutes;;;;;;668;167;62.125;0;82;80;4;0;5.387;8.867;A;59.570;5.246;11.211;
040549FFBFD4D021;IDS-09A -- ?????-????? (????????) -- 1 -- None -- 69 -- 0 -- Solo Pro II MVP -- 172.26.2.149;113;Total;3/5/2012;20:15:00;100;15 Minutes;;;;;;334;167;62.125;0;82;80;4;0;255.996;4.434;A;59.570;2.621;5.605;
040549FFBFD4D021;IDS-09A -- ?????-????? (????????) -- 1 -- None -- 69 -- 0 -- Solo Pro II MVP -- 172.26.2.149;109;Lane 1;3/5/2012;20:30:00;100;15 Minutes;;;;;;24;6;60.664;0;5;0;1;0;150.000;0.246;A;59.531;0.176;0.402;
040549FFBFD4D021;IDS-09A -- ?????-????? (????????) -- 1 -- None -- 69 -- 0 -- Solo Pro II MVP -- 172.26.2.149;110;Lane 2;3/5/2012;20:30:00;100;15 Minutes;;;;;;672;168;61.617;0;96;63;3;4;5.355;9.547;A;58.324;5.434;11.520;
040549FFBFD4D021;IDS-09A -- ?????-????? (????????) -- 1 -- None -- 69 -- 0 -- Solo Pro II MVP -- 172.26.2.149;113;Total;3/5/2012;20:30:00;100;15 Minutes;;;;;;348;174;61.586;0;101;63;4;4;77.676;4.895;A;58.367;2.805;5.961;
040549FFBFD4D021;IDS-09A -- ?????-????? (????????) -- 1 -- None -- 69 -- 0 -- Solo Pro II MVP -- 172.26.2.149;109;Lane 1;3/5/2012;20:45:00;100;15 Minutes;;;;;;8;2;62.000;0;2;0;0;0;255.996;0.051;A;61.883;0.051;0.129;
040549FFBFD4D021;IDS-09A -- ?????-????? (????????) -- 1 -- None -- 69 -- 0 -- Solo Pro II MVP -- 172.26.2.149;110;Lane 2;3/5/2012;20:45:00;100;15 Minutes;;;;;;648;162;62.406;0;88;62;6;6;5.555;9.234;A;60.074;5.594;10.785;
040549FFBFD4D021;IDS-09A -- ?????-????? (????????) -- 1 -- None -- 69 -- 0 -- Solo Pro II MVP -- 172.26.2.149;113;Total;3/5/2012;20:45:00;100;15 Minutes;;;;;;328;164;62.402;0;90;62;6;6;227.777;4.641;A;60.098;2.824;5.457;
040549FFBFD4D021;IDS-09A -- ?????-????? (????????) -- 1 -- None -- 69 -- 0 -- Solo Pro II MVP -- 172.26.2.149;109;Lane 1;3/5/2012;21:00:00;100;15 Minutes;;;;;;8;2;66.000;0;1;1;0;0;255.996;0.086;A;65.633;0.055;0.121;
040549FFBFD4D021;IDS-09A -- ?????-????? (????????) -- 1 -- None -- 69 -- 0 -- Solo Pro II MVP -- 172.26.2.149;110;Lane 2;3/5/2012;21:00:00;100;15 Minutes;;;;;;580;145;61.867;0;72;66;5;2;6.203;7.914;A;59.707;4.855;9.711;
040549FFBFD4D021;IDS-09A -- ?????-????? (????????) -- 1 -- None -- 69 -- 0 -- Solo Pro II MVP -- 172.26.2.149;113;Total;3/5/2012;21:00:00;100;15 Minutes;;;;;;294;147;61.922;0;73;67;5;2;228.102;4.000;A;59.781;2.457;4.914;
040549FFBFD4D021;IDS-09A -- ?????-????? (????????) -- 1 -- None -- 69 -- 0 -- Solo Pro II MVP -- 172.26.2.149;109;Lane 1;3/5/2012;21:15:00;100;15 Minutes;;;;;;4;1;76.000;0;0;1;0;0;255.996;0.023;A;76.027;0.023;0.051;
040549FFBFD4D021;IDS-09A -- ?????-????? (????????) -- 1 -- None -- 69 -- 0 -- Solo Pro II MVP -- 172.26.2.149;110;Lane 2;3/5/2012;21:15:00;100;15 Minutes;;;;;;600;150;63.332;0;79;59;6;5;6.000;8.770;A;61.477;5.137;9.758;
040549FFBFD4D021;IDS-09A -- ?????-????? (????????) -- 1 -- None -- 69 -- 0 -- Solo Pro II MVP -- 172.26.2.149;113;Total;3/5/2012;21:15:00;100;15 Minutes;;;;;;302;151;63.414;0;79;60;6;5;255.996;4.395;A;61.555;2.582;4.902;
040549FFBFD4D021;IDS-09A -- ?????-????? (????????) -- 1 -- None -- 69 -- 0 -- Solo Pro II MVP -- 172.26.2.149;109;Lane 1;3/5/2012;21:30:00;100;15 Minutes;;;;;;8;2;78.000;0;2;0;0;0;255.996;0.070;A;70.016;0.035;0.113;
040549FFBFD4D021;IDS-09A -- ?????-????? (????????) -- 1 -- None -- 69 -- 0 -- Solo Pro II MVP -- 172.26.2.149;110;Lane 2;3/5/2012;21:30:00;100;15 Minutes;;;;;;568;142;64.520;0;67;66;4;5;6.336;7.441;A;61.574;4.809;9.223;
040549FFBFD4D021;IDS-09A -- ?????-????? (????????) -- 1 -- None -- 69 -- 0 -- Solo Pro II MVP -- 172.26.2.149;113;Total;3/5/2012;21:30:00;100;15 Minutes;;;;;;288;144;64.707;0;69;66;4;5;228.168;3.754;A;61.676;2.418;4.668;
040549FFBFD4D021;IDS-09A -- ?????-????? (????????) -- 1 -- None -- 69 -- 0 -- Solo Pro II MVP -- 172.26.2.149;109;Lane 1;3/5/2012;21:45:00;100;15 Minutes;;;;;;0;0;0.000;0;0;0;0;0;255.996;0.000;A;0.000;100.000;0.000;
040549FFBFD4D021;IDS-09A -- ?????-????? (????????) -- 1 -- None -- 69 -- 0 -- Solo Pro II MVP -- 172.26.2.149;110;Lane 2;3/5/2012;21:45:00;100;15 Minutes;;;;;;516;129;65.617;0;70;50;5;4;6.977;6.406;A;62.941;4.285;8.195;
040549FFBFD4D021;IDS-09A -- ?????-????? (????????) -- 1 -- None -- 69 -- 0 -- Solo Pro II MVP -- 172.26.2.149;113;Total;3/5/2012;21:45:00;100;15 Minutes;;;;;;258;129;65.617;0;70;50;5;4;255.996;3.203;A;62.941;2.141;4.098;
040549FFBFD4D021;IDS-09A -- ?????-????? (????????) -- 1 -- None -- 69 -- 0 -- Solo Pro II MVP -- 172.26.2.149;109;Lane 1;3/5/2012;22:00:00;100;15 Minutes;;;;;;4;1;62.000;0;0;1;0;0;255.996;0.047;A;62.000;0.043;0.063;
040549FFBFD4D021;IDS-09A -- ?????-????? (????????) -- 1 -- None -- 69 -- 0 -- Solo Pro II MVP -- 172.26.2.149;110;Lane 2;3/5/2012;22:00:00;100;15 Minutes;;;;;;488;122;68.277;0;68;42;7;5;7.375;6.367;A;65.352;3.859;7.465;
040549FFBFD4D021;IDS-09A -- ?????-????? (????????) -- 1 -- None -- 69 -- 0 -- Solo Pro II MVP -- 172.26.2.149;113;Total;3/5/2012;22:00:00;100;15 Minutes;;;;;;246;123;68.227;0;68;43;7;5;255.996;3.207;A;65.324;1.949;3.766;
040549FFBFD4D021;IDS-09A -- ?????-????? (????????) -- 1 -- None -- 69 -- 0 -- Solo Pro II MVP -- 172.26.2.149;109;Lane 1;3/5/2012;22:15:00;100;15 Minutes;;;;;;0;0;0.000;0;0;0;0;0;255.996;0.000;A;0.000;100.000;0.000;
040549FFBFD4D021;IDS-09A -- ?????-????? (????????) -- 1 -- None -- 69 -- 0 -- Solo Pro II MVP -- 172.26.2.149;110;Lane 2;3/5/2012;22:15:00;100;15 Minutes;;;;;;420;105;66.828;0;53;44;2;5;8.570;6.000;A;63.086;3.582;6.656;
040549FFBFD4D021;IDS-09A -- ?????-????? (????????) -- 1 -- None -- 69 -- 0 -- Solo Pro II MVP -- 172.26.2.149;113;Total;3/5/2012;22:15:00;100;15 Minutes;;;;;;210;105;66.828;0;53;44;2;5;255.996;3.000;A;63.086;1.789;3.328;
040549FFBFD4D021;IDS-09A -- ?????-????? (????????) -- 1 -- None -- 69 -- 0 -- Solo Pro II MVP -- 172.26.2.149;109;Lane 1;3/5/2012;22:30:00;100;15 Minutes;;;;;;0;0;0.000;0;0;0;0;0;255.996;0.000;A;0.000;100.000;0.000;
040549FFBFD4D021;IDS-09A -- ?????-????? (????????) -- 1 -- None -- 69 -- 0 -- Solo Pro II MVP -- 172.26.2.149;110;Lane 2;3/5/2012;22:30:00;100;15 Minutes;;;;;;400;100;67.418;0;47;46;5;2;9.000;5.340;A;65.313;3.145;6.121;
040549FFBFD4D021;IDS-09A -- ?????-????? (????????) -- 1 -- None -- 69 -- 0 -- Solo Pro II MVP -- 172.26.2.149;113;Total;3/5/2012;22:30:00;100;15 Minutes;;;;;;200;100;67.418;0;47;46;5;2;255.996;2.668;A;65.313;1.570;3.059;
040549FFBFD4D021;IDS-09A -- ?????-????? (????????) -- 1 -- None -- 69 -- 0 -- Solo Pro II MVP -- 172.26.2.149;109;Lane 1;3/5/2012;22:45:00;100;15 Minutes;;;;;;0;0;0.000;0;0;0;0;0;255.996;0.000;A;0.000;100.000;0.000;
040549FFBFD4D021;IDS-09A -- ?????-????? (????????) -- 1 -- None -- 69 -- 0 -- Solo Pro II MVP -- 172.26.2.149;110;Lane 2;3/5/2012;22:45:00;100;15 Minutes;;;;;;372;93;63.332;0;51;36;3;3;9.676;5.125;A;60.934;3.133;6.102;
040549FFBFD4D021;IDS-09A -- ?????-????? (????????) -- 1 -- None -- 69 -- 0 -- Solo Pro II MVP -- 172.26.2.149;113;Total;3/5/2012;22:45:00;100;15 Minutes;;;;;;186;93;63.332;0;51;36;3;3;255.996;2.563;A;60.934;1.566;3.051;
040549FFBFD4D021;IDS-09A -- ?????-????? (????????) -- 1 -- None -- 69 -- 0 -- Solo Pro II MVP -- 172.26.2.149;109;Lane 1;3/5/2012;23:00:00;100;15 Minutes;;;;;;0;0;0.000;0;0;0;0;0;255.996;0.000;A;0.000;100.000;0.000;
040549FFBFD4D021;IDS-09A -- ?????-????? (????????) -- 1 -- None -- 69 -- 0 -- Solo Pro II MVP -- 172.26.2.149;110;Lane 2;3/5/2012;23:00:00;100;15 Minutes;;;;;;332;83;66.023;0;44;32;3;3;10.840;4.316;A;62.621;2.703;5.301;
040549FFBFD4D021;IDS-09A -- ?????-????? (????????) -- 1 -- None -- 69 -- 0 -- Solo Pro II MVP -- 172.26.2.149;113;Total;3/5/2012;23:00:00;100;15 Minutes;;;;;;166;83;66.023;0;44;32;3;3;255.996;2.156;A;62.621;1.352;2.648;
040549FFBFD4D021;IDS-09A -- ?????-????? (????????) -- 1 -- None -- 69 -- 0 -- Solo Pro II MVP -- 172.26.2.149;109;Lane 1;3/5/2012;23:15:00;100;15 Minutes;;;;;;0;0;0.000;0;0;0;0;0;255.996;0.000;A;0.000;100.000;0.000;
040549FFBFD4D021;IDS-09A -- ?????-????? (????????) -- 1 -- None -- 69 -- 0 -- Solo Pro II MVP -- 172.26.2.149;110;Lane 2;3/5/2012;23:15:00;100;15 Minutes;;;;;;324;81;66.789;0;41;30;5;4;11.109;4.516;A;63.754;2.680;5.082;
040549FFBFD4D021;IDS-09A -- ?????-????? (????????) -- 1 -- None -- 69 -- 0 -- Solo Pro II MVP -- 172.26.2.149;113;Total;3/5/2012;23:15:00;100;15 Minutes;;;;;;162;81;66.789;0;41;30;5;4;255.996;2.258;A;63.754;1.340;2.539;
040549FFBFD4D021;IDS-09A -- ?????-????? (????????) -- 1 -- None -- 69 -- 0 -- Solo Pro II MVP -- 172.26.2.149;109;Lane 1;3/5/2012;23:30:00;100;15 Minutes;;;;;;0;0;0.000;0;0;0;0;0;255.996;0.000;A;0.000;100.000;0.000;
040549FFBFD4D021;IDS-09A -- ?????-????? (????????) -- 1 -- None -- 69 -- 0 -- Solo Pro II MVP -- 172.26.2.149;110;Lane 2;3/5/2012;23:30:00;100;15 Minutes;;;;;;284;71;67.730;0;40;27;2;1;12.676;3.945;A;64.254;2.043;4.418;
040549FFBFD4D021;IDS-09A -- ?????-????? (????????) -- 1 -- None -- 69 -- 0 -- Solo Pro II MVP -- 172.26.2.149;113;Total;3/5/2012;23:30:00;100;15 Minutes;;;;;;142;71;67.730;0;40;27;2;1;255.996;1.973;A;64.254;1.020;2.207;
040549FFBFD4D021;IDS-09A -- ?????-????? (????????) -- 1 -- None -- 69 -- 0 -- Solo Pro II MVP -- 172.26.2.149;109;Lane 1;3/5/2012;23:45:00; 99;15 Minutes;;;;;;0;0;0.000;0;0;0;0;0;255.996;0.000;A;0.000;100.000;0.000;
040549FFBFD4D021;IDS-09A -- ?????-????? (????????) -- 1 -- None -- 69 -- 0 -- Solo Pro II MVP -- 172.26.2.149;110;Lane 2;3/5/2012;23:45:00; 99;15 Minutes;;;;;;252;63;62.742;0;27;28;2;5;14.285;3.680;A;60.742;2.516;4.148;
040549FFBFD4D021;IDS-09A -- ?????-????? (????????) -- 1 -- None -- 69 -- 0 -- Solo Pro II MVP -- 172.26.2.149;113;Total;3/5/2012;23:45:00; 99;15 Minutes;;;;;;126;63;62.742;0;27;28;2;5;255.996;1.840;A;60.742;1.258;2.074;
040549FFBFD4D021;IDS-09A -- ?????-????? (????????) -- 1 -- None -- 69 -- 0 -- Solo Pro II MVP -- 172.26.2.149;109;Lane 1;4/5/2012;0:00:00;100;15 Minutes;;;;;;0;0;0.000;0;0;0;0;0;255.996;0.000;A;0.000;100.000;0.000;
040549FFBFD4D021;IDS-09A -- ?????-????? (????????) -- 1 -- None -- 69 -- 0 -- Solo Pro II MVP -- 172.26.2.149;110;Lane 2;4/5/2012;0:00:00;100;15 Minutes;;;;;;260;65;65.289;0;33;26;1;5;13.844;3.934;A;62.984;2.418;4.125;
040549FFBFD4D021;IDS-09A -- ?????-????? (????????) -- 1 -- None -- 69 -- 0 -- Solo Pro II MVP -- 172.26.2.149;113;Total;4/5/2012;0:00:00;100;15 Minutes;;;;;;130;65;65.289;0;33;26;1;5;255.996;1.965;A;62.984;1.207;2.063;
