CPU Identifier;Autoscope Description;Detector ID;Detector Title;Date;Time;Status;Data Interval;Ticks (millisec.);State;Speed;Length;Class;Average Flow Rate;Volume;Arithmetic Mean Speed;Class A Count;Class B Count;Class C Count;Class D Count;Class E Count;Average Time Headway;Average Time Occupancy;Level Of Service;Space Mean Speed;Space Occupancy;Density;
040549FF9BC9D021;IDS-07B -- ?????-????? (???????????) -- 1 -- None -- 79 -- 0 -- Solo Pro II MVP -- 172.26.2.167;109;Lane 1;3/5/2012;19:30:00;100;15 Minutes;;;;;;4;1;59.000;0;1;0;0;0;255.996;0.023;A;59.039;0.023;0.066;
040549FF9BC9D021;IDS-07B -- ?????-????? (???????????) -- 1 -- None -- 79 -- 0 -- Solo Pro II MVP -- 172.26.2.167;110;Lane 2;3/5/2012;19:30:00;100;15 Minutes;;;;;;596;149;63.238;0;74;69;4;2;6.039;7.102;A;61.313;4.930;9.719;
040549FF9BC9D021;IDS-07B -- ?????-????? (???????????) -- 1 -- None -- 79 -- 0 -- Solo Pro II MVP -- 172.26.2.167;113;Total;3/5/2012;19:30:00;100;15 Minutes;;;;;;300;150;63.211;0;75;69;4;2;255.996;3.563;A;61.297;2.477;4.891;
040549FF9BC9D021;IDS-07B -- ?????-????? (???????????) -- 1 -- None -- 79 -- 0 -- Solo Pro II MVP -- 172.26.2.167;109;Lane 1;3/5/2012;19:45:00;100;15 Minutes;;;;;;0;0;0.000;0;0;0;0;0;255.996;0.000;A;0.000;100.000;0.000;
040549FF9BC9D021;IDS-07B -- ?????-????? (???????????) -- 1 -- None -- 79 -- 0 -- Solo Pro II MVP -- 172.26.2.167;110;Lane 2;3/5/2012;19:45:00;100;15 Minutes;;;;;;504;126;62.664;0;63;57;3;2;7.141;6.242;A;60.273;4.141;8.359;
040549FF9BC9D021;IDS-07B -- ?????-????? (???????????) -- 1 -- None -- 79 -- 0 -- Solo Pro II MVP -- 172.26.2.167;113;Total;3/5/2012;19:45:00;100;15 Minutes;;;;;;252;126;62.664;0;63;57;3;2;255.996;3.121;A;60.273;2.070;4.180;
040549FF9BC9D021;IDS-07B -- ?????-????? (???????????) -- 1 -- None -- 79 -- 0 -- Solo Pro II MVP -- 172.26.2.167;109;Lane 1;3/5/2012;20:00:00;100;15 Minutes;;;;;;0;0;0.000;0;0;0;0;0;255.996;0.000;A;0.000;100.000;0.000;
040549FF9BC9D021;IDS-07B -- ?????-????? (???????????) -- 1 -- None -- 79 -- 0 -- Solo Pro II MVP -- 172.26.2.167;110;Lane 2;3/5/2012;20:00:00;100;15 Minutes;;;;;;508;127;66.730;0;65;55;5;2;7.086;6.438;A;63.898;4.063;7.949;
040549FF9BC9D021;IDS-07B -- ?????-????? (???????????) -- 1 -- None -- 79 -- 0 -- Solo Pro II MVP -- 172.26.2.167;113;Total;3/5/2012;20:00:00;100;15 Minutes;;;;;;254;127;66.730;0;65;55;5;2;255.996;3.219;A;63.898;2.031;3.973;
040549FF9BC9D021;IDS-07B -- ?????-????? (???????????) -- 1 -- None -- 79 -- 0 -- Solo Pro II MVP -- 172.26.2.167;109;Lane 1;3/5/2012;20:15:00;100;15 Minutes;;;;;;20;5;19.797;0;3;0;1;0;180.000;1.148;A;9.184;0.410;2.176;
040549FF9BC9D021;IDS-07B -- ?????-????? (???????????) -- 1 -- None -- 79 -- 0 -- Solo Pro II MVP -- 172.26.2.167;110;Lane 2;3/5/2012;20:15:00;100;15 Minutes;;;;;;448;112;59.113;0;57;50;2;1;8.035;5.977;A;54.648;3.617;8.195;
040549FF9BC9D021;IDS-07B -- ?????-????? (???????????) -- 1 -- None -- 79 -- 0 -- Solo Pro II MVP -- 172.26.2.167;113;Total;3/5/2012;20:15:00;100;15 Minutes;;;;;;234;117;57.434;0;60;50;3;1;94.016;3.563;A;45.109;1.934;5.184;
040549FF9BC9D021;IDS-07B -- ?????-????? (???????????) -- 1 -- None -- 79 -- 0 -- Solo Pro II MVP -- 172.26.2.167;109;Lane 1;3/5/2012;20:30:00;100;15 Minutes;;;;;;4;1;51.000;0;1;0;0;0;255.996;0.023;A;51.000;0.023;0.078;
040549FF9BC9D021;IDS-07B -- ?????-????? (???????????) -- 1 -- None -- 79 -- 0 -- Solo Pro II MVP -- 172.26.2.167;110;Lane 2;3/5/2012;20:30:00;100;15 Minutes;;;;;;524;131;61.188;0;77;52;0;0;6.867;5.992;A;58.180;3.910;9.004;
040549FF9BC9D021;IDS-07B -- ?????-????? (???????????) -- 1 -- None -- 79 -- 0 -- Solo Pro II MVP -- 172.26.2.167;113;Total;3/5/2012;20:30:00;100;15 Minutes;;;;;;264;132;61.113;0;78;52;0;0;255.996;3.008;A;58.117;1.969;4.539;
040549FF9BC9D021;IDS-07B -- ?????-????? (???????????) -- 1 -- None -- 79 -- 0 -- Solo Pro II MVP -- 172.26.2.167;109;Lane 1;3/5/2012;20:45:00;100;15 Minutes;;;;;;0;0;0.000;0;0;0;0;0;255.996;0.000;A;0.000;100.000;0.000;
040549FF9BC9D021;IDS-07B -- ?????-????? (???????????) -- 1 -- None -- 79 -- 0 -- Solo Pro II MVP -- 172.26.2.167;110;Lane 2;3/5/2012;20:45:00;100;15 Minutes;;;;;;484;121;60.113;0;68;47;3;3;7.438;5.902;A;57.703;4.191;8.387;
040549FF9BC9D021;IDS-07B -- ?????-????? (???????????) -- 1 -- None -- 79 -- 0 -- Solo Pro II MVP -- 172.26.2.167;113;Total;3/5/2012;20:45:00;100;15 Minutes;;;;;;242;121;60.113;0;68;47;3;3;255.996;2.949;A;57.703;2.094;4.191;
040549FF9BC9D021;IDS-07B -- ?????-????? (???????????) -- 1 -- None -- 79 -- 0 -- Solo Pro II MVP -- 172.26.2.167;109;Lane 1;3/5/2012;21:00:00;100;15 Minutes;;;;;;0;0;0.000;0;0;0;0;0;255.996;0.000;A;0.000;100.000;0.000;
040549FF9BC9D021;IDS-07B -- ?????-????? (???????????) -- 1 -- None -- 79 -- 0 -- Solo Pro II MVP -- 172.26.2.167;110;Lane 2;3/5/2012;21:00:00;100;15 Minutes;;;;;;472;118;64.836;0;64;52;2;0;7.625;5.078;A;62.949;3.426;7.496;
040549FF9BC9D021;IDS-07B -- ?????-????? (???????????) -- 1 -- None -- 79 -- 0 -- Solo Pro II MVP -- 172.26.2.167;113;Total;3/5/2012;21:00:00;100;15 Minutes;;;;;;236;118;64.836;0;64;52;2;0;255.996;2.539;A;62.949;1.711;3.746;
040549FF9BC9D021;IDS-07B -- ?????-????? (???????????) -- 1 -- None -- 79 -- 0 -- Solo Pro II MVP -- 172.26.2.167;109;Lane 1;3/5/2012;21:15:00;100;15 Minutes;;;;;;4;1;59.000;0;1;0;0;0;255.996;0.020;A;59.039;0.020;0.066;
040549FF9BC9D021;IDS-07B -- ?????-????? (???????????) -- 1 -- None -- 79 -- 0 -- Solo Pro II MVP -- 172.26.2.167;110;Lane 2;3/5/2012;21:15:00;100;15 Minutes;;;;;;432;108;66.137;0;61;43;3;1;8.332;5.211;A;61.922;3.301;6.973;
040549FF9BC9D021;IDS-07B -- ?????-????? (???????????) -- 1 -- None -- 79 -- 0 -- Solo Pro II MVP -- 172.26.2.167;113;Total;3/5/2012;21:15:00;100;15 Minutes;;;;;;218;109;66.070;0;62;43;3;1;255.996;2.613;A;61.895;1.660;3.520;
040549FF9BC9D021;IDS-07B -- ?????-????? (???????????) -- 1 -- None -- 79 -- 0 -- Solo Pro II MVP -- 172.26.2.167;109;Lane 1;3/5/2012;21:30:00;100;15 Minutes;;;;;;4;1;62.000;0;1;0;0;0;255.996;0.023;A;62.000;0.023;0.063;
040549FF9BC9D021;IDS-07B -- ?????-????? (???????????) -- 1 -- None -- 79 -- 0 -- Solo Pro II MVP -- 172.26.2.167;110;Lane 2;3/5/2012;21:30:00;100;15 Minutes;;;;;;404;101;67.273;0;57;43;0;0;8.910;4.484;A;64.520;2.855;6.258;
040549FF9BC9D021;IDS-07B -- ?????-????? (???????????) -- 1 -- None -- 79 -- 0 -- Solo Pro II MVP -- 172.26.2.167;113;Total;3/5/2012;21:30:00;100;15 Minutes;;;;;;204;102;67.223;0;58;43;0;0;255.996;2.254;A;64.496;1.441;3.160;
040549FF9BC9D021;IDS-07B -- ?????-????? (???????????) -- 1 -- None -- 79 -- 0 -- Solo Pro II MVP -- 172.26.2.167;109;Lane 1;3/5/2012;21:45:00;100;15 Minutes;;;;;;12;3;68.332;0;2;1;0;0;255.996;0.133;A;58.988;0.074;0.203;
040549FF9BC9D021;IDS-07B -- ?????-????? (???????????) -- 1 -- None -- 79 -- 0 -- Solo Pro II MVP -- 172.26.2.167;110;Lane 2;3/5/2012;21:45:00;100;15 Minutes;;;;;;416;104;69.633;0;55;47;0;1;8.652;4.957;A;66.039;2.879;6.297;
040549FF9BC9D021;IDS-07B -- ?????-????? (???????????) -- 1 -- None -- 79 -- 0 -- Solo Pro II MVP -- 172.26.2.167;113;Total;3/5/2012;21:45:00;100;15 Minutes;;;;;;214;107;69.598;0;57;48;0;1;154.324;2.543;A;65.820;1.477;3.250;
040549FF9BC9D021;IDS-07B -- ?????-????? (???????????) -- 1 -- None -- 79 -- 0 -- Solo Pro II MVP -- 172.26.2.167;109;Lane 1;3/5/2012;22:00:00;100;15 Minutes;;;;;;0;0;0.000;0;0;0;0;0;255.996;0.000;A;0.000;100.000;0.000;
040549FF9BC9D021;IDS-07B -- ?????-????? (???????????) -- 1 -- None -- 79 -- 0 -- Solo Pro II MVP -- 172.26.2.167;110;Lane 2;3/5/2012;22:00:00;100;15 Minutes;;;;;;344;86;66.555;0;46;38;1;1;10.465;3.922;A;63.445;2.531;5.422;
040549FF9BC9D021;IDS-07B -- ?????-????? (???????????) -- 1 -- None -- 79 -- 0 -- Solo Pro II MVP -- 172.26.2.167;113;Total;3/5/2012;22:00:00;100;15 Minutes;;;;;;172;86;66.555;0;46;38;1;1;255.996;1.961;A;63.445;1.266;2.711;
040549FF9BC9D021;IDS-07B -- ?????-????? (???????????) -- 1 -- None -- 79 -- 0 -- Solo Pro II MVP -- 172.26.2.167;109;Lane 1;3/5/2012;22:15:00;100;15 Minutes;;;;;;4;1;52.000;0;1;0;0;0;255.996;0.035;A;52.012;0.031;0.074;
040549FF9BC9D021;IDS-07B -- ?????-????? (???????????) -- 1 -- None -- 79 -- 0 -- Solo Pro II MVP -- 172.26.2.167;110;Lane 2;3/5/2012;22:15:00;100;15 Minutes;;;;;;316;79;66.391;0;45;31;1;1;11.391;3.746;A;63.164;2.352;5.000;
040549FF9BC9D021;IDS-07B -- ?????-????? (???????????) -- 1 -- None -- 79 -- 0 -- Solo Pro II MVP -- 172.26.2.167;113;Total;3/5/2012;22:15:00;100;15 Minutes;;;;;;160;80;66.211;0;46;31;1;1;255.996;1.891;A;62.996;1.191;2.539;
040549FF9BC9D021;IDS-07B -- ?????-????? (???????????) -- 1 -- None -- 79 -- 0 -- Solo Pro II MVP -- 172.26.2.167;109;Lane 1;3/5/2012;22:30:00;100;15 Minutes;;;;;;4;1;57.000;0;1;0;0;0;255.996;0.047;A;57.035;0.027;0.066;
040549FF9BC9D021;IDS-07B -- ?????-????? (???????????) -- 1 -- None -- 79 -- 0 -- Solo Pro II MVP -- 172.26.2.167;110;Lane 2;3/5/2012;22:30:00;100;15 Minutes;;;;;;368;92;68.551;0;54;35;3;0;9.781;4.035;A;65.039;2.566;5.656;
040549FF9BC9D021;IDS-07B -- ?????-????? (???????????) -- 1 -- None -- 79 -- 0 -- Solo Pro II MVP -- 172.26.2.167;113;Total;3/5/2012;22:30:00;100;15 Minutes;;;;;;186;93;68.430;0;55;35;3;0;255.996;2.039;A;64.941;1.297;2.863;
040549FF9BC9D021;IDS-07B -- ?????-????? (???????????) -- 1 -- None -- 79 -- 0 -- Solo Pro II MVP -- 172.26.2.167;109;Lane 1;3/5/2012;22:45:00;100;15 Minutes;;;;;;4;1;54.000;0;1;0;0;0;255.996;0.059;A;54.027;0.020;0.070;
040549FF9BC9D021;IDS-07B -- ?????-????? (???????????) -- 1 -- None -- 79 -- 0 -- Solo Pro II MVP -- 172.26.2.167;110;Lane 2;3/5/2012;22:45:00;100;15 Minutes;;;;;;308;77;64.555;0;50;25;1;0;11.688;3.410;A;61.906;2.109;4.973;
040549FF9BC9D021;IDS-07B -- ?????-????? (???????????) -- 1 -- None -- 79 -- 0 -- Solo Pro II MVP -- 172.26.2.167;113;Total;3/5/2012;22:45:00;100;15 Minutes;;;;;;156;78;64.422;0;51;25;1;0;255.996;1.734;A;61.793;1.066;2.523;
040549FF9BC9D021;IDS-07B -- ?????-????? (???????????) -- 1 -- None -- 79 -- 0 -- Solo Pro II MVP -- 172.26.2.167;109;Lane 1;3/5/2012;23:00:00;100;15 Minutes;;;;;;0;0;0.000;0;0;0;0;0;255.996;0.000;A;0.000;100.000;0.000;
040549FF9BC9D021;IDS-07B -- ?????-????? (???????????) -- 1 -- None -- 79 -- 0 -- Solo Pro II MVP -- 172.26.2.167;110;Lane 2;3/5/2012;23:00:00;100;15 Minutes;;;;;;308;77;66.531;0;40;35;2;0;11.688;3.418;A;63.641;2.293;4.836;
040549FF9BC9D021;IDS-07B -- ?????-????? (???????????) -- 1 -- None -- 79 -- 0 -- Solo Pro II MVP -- 172.26.2.167;113;Total;3/5/2012;23:00:00;100;15 Minutes;;;;;;154;77;66.531;0;40;35;2;0;255.996;1.707;A;63.641;1.145;2.418;
040549FF9BC9D021;IDS-07B -- ?????-????? (???????????) -- 1 -- None -- 79 -- 0 -- Solo Pro II MVP -- 172.26.2.167;109;Lane 1;3/5/2012;23:15:00;100;15 Minutes;;;;;;0;0;0.000;0;0;0;0;0;255.996;0.000;A;0.000;100.000;0.000;
040549FF9BC9D021;IDS-07B -- ?????-????? (???????????) -- 1 -- None -- 79 -- 0 -- Solo Pro II MVP -- 172.26.2.167;110;Lane 2;3/5/2012;23:15:00;100;15 Minutes;;;;;;240;60;67.230;0;37;22;0;0;15.000;2.578;A;65.004;1.602;3.691;
040549FF9BC9D021;IDS-07B -- ?????-????? (???????????) -- 1 -- None -- 79 -- 0 -- Solo Pro II MVP -- 172.26.2.167;113;Total;3/5/2012;23:15:00;100;15 Minutes;;;;;;120;60;67.230;0;37;22;0;0;255.996;1.289;A;65.004;0.801;1.844;
040549FF9BC9D021;IDS-07B -- ?????-????? (???????????) -- 1 -- None -- 79 -- 0 -- Solo Pro II MVP -- 172.26.2.167;109;Lane 1;3/5/2012;23:30:00;100;15 Minutes;;;;;;4;1;60.000;0;1;0;0;0;255.996;0.020;A;60.012;0.020;0.066;
040549FF9BC9D021;IDS-07B -- ?????-????? (???????????) -- 1 -- None -- 79 -- 0 -- Solo Pro II MVP -- 172.26.2.167;110;Lane 2;3/5/2012;23:30:00;100;15 Minutes;;;;;;208;52;67.516;0;27;23;1;0;17.305;2.516;A;62.902;1.496;3.305;
040549FF9BC9D021;IDS-07B -- ?????-????? (???????????) -- 1 -- None -- 79 -- 0 -- Solo Pro II MVP -- 172.26.2.167;113;Total;3/5/2012;23:30:00;100;15 Minutes;;;;;;106;53;67.375;0;28;23;1;0;255.996;1.266;A;62.848;0.758;1.684;
040549FF9BC9D021;IDS-07B -- ?????-????? (???????????) -- 1 -- None -- 79 -- 0 -- Solo Pro II MVP -- 172.26.2.167;109;Lane 1;3/5/2012;23:45:00; 99;15 Minutes;;;;;;0;0;0.000;0;0;0;0;0;255.996;0.000;A;0.000;100.000;0.000;
040549FF9BC9D021;IDS-07B -- ?????-????? (???????????) -- 1 -- None -- 79 -- 0 -- Solo Pro II MVP -- 172.26.2.167;110;Lane 2;3/5/2012;23:45:00; 99;15 Minutes;;;;;;200;50;64.078;0;26;24;0;0;18.000;2.262;A;60.953;1.449;3.277;
040549FF9BC9D021;IDS-07B -- ?????-????? (???????????) -- 1 -- None -- 79 -- 0 -- Solo Pro II MVP -- 172.26.2.167;113;Total;3/5/2012;23:45:00; 99;15 Minutes;;;;;;100;50;64.078;0;26;24;0;0;255.996;1.129;A;60.953;0.723;1.637;
040549FF9BC9D021;IDS-07B -- ?????-????? (???????????) -- 1 -- None -- 79 -- 0 -- Solo Pro II MVP -- 172.26.2.167;109;Lane 1;4/5/2012;0:00:00;100;15 Minutes;;;;;;0;0;0.000;0;0;0;0;0;255.996;0.000;A;0.000;100.000;0.000;
040549FF9BC9D021;IDS-07B -- ?????-????? (???????????) -- 1 -- None -- 79 -- 0 -- Solo Pro II MVP -- 172.26.2.167;110;Lane 2;4/5/2012;0:00:00;100;15 Minutes;;;;;;232;58;65.379;0;24;33;0;0;15.516;3.004;A;62.691;1.742;3.699;
040549FF9BC9D021;IDS-07B -- ?????-????? (???????????) -- 1 -- None -- 79 -- 0 -- Solo Pro II MVP -- 172.26.2.167;113;Total;4/5/2012;0:00:00;100;15 Minutes;;;;;;116;58;65.379;0;24;33;0;0;255.996;1.500;A;62.691;0.871;1.848;
