CPU Identifier;Autoscope Description;Detector ID;Detector Title;Date;Time;Status;Data Interval;Ticks (millisec.);State;Speed;Length;Class;Average Flow Rate;Volume;Arithmetic Mean Speed;Class A Count;Class B Count;Class C Count;Class D Count;Class E Count;Average Time Headway;Average Time Occupancy;Level Of Service;Space Mean Speed;Space Occupancy;Density;
040549FF29CED021;IDS-05B -- ?????-?????? -- 1 -- None -- 78 -- 0 -- Solo Pro II MVP -- 172.26.2.165;109;Lane 1;3/5/2012;22:15:00;100;15 Minutes;;;;;;4;1;61.000;0;0;1;0;0;255.996;0.039;A;61.020;0.035;0.063;
040549FF29CED021;IDS-05B -- ?????-?????? -- 1 -- None -- 78 -- 0 -- Solo Pro II MVP -- 172.26.2.165;110;Lane 2;3/5/2012;22:15:00;100;15 Minutes;;;;;;408;102;62.418;0;62;37;1;2;8.820;5.840;A;59.336;3.527;6.875;
040549FF29CED021;IDS-05B -- ?????-?????? -- 1 -- None -- 78 -- 0 -- Solo Pro II MVP -- 172.26.2.165;113;Total;3/5/2012;22:15:00;100;15 Minutes;;;;;;206;103;62.406;0;62;38;1;2;255.996;2.938;A;59.352;1.781;3.469;
040549FF29CED021;IDS-05B -- ?????-?????? -- 1 -- None -- 78 -- 0 -- Solo Pro II MVP -- 172.26.2.165;109;Lane 1;3/5/2012;22:30:00;100;15 Minutes;;;;;;0;0;0.000;0;0;0;0;0;255.996;0.000;A;0.000;100.000;0.000;
040549FF29CED021;IDS-05B -- ?????-?????? -- 1 -- None -- 78 -- 0 -- Solo Pro II MVP -- 172.26.2.165;110;Lane 2;3/5/2012;22:30:00;100;15 Minutes;;;;;;320;80;63.000;0;47;21;6;6;11.250;5.559;A;60.211;3.391;5.313;
040549FF29CED021;IDS-05B -- ?????-?????? -- 1 -- None -- 78 -- 0 -- Solo Pro II MVP -- 172.26.2.165;113;Total;3/5/2012;22:30:00;100;15 Minutes;;;;;;160;80;63.000;0;47;21;6;6;255.996;2.777;A;60.211;1.695;2.656;
040549FF29CED021;IDS-05B -- ?????-?????? -- 1 -- None -- 78 -- 0 -- Solo Pro II MVP -- 172.26.2.165;109;Lane 1;3/5/2012;22:45:00;100;15 Minutes;;;;;;4;1;79.000;0;1;0;0;0;255.996;0.047;A;79.051;0.012;0.047;
040549FF29CED021;IDS-05B -- ?????-?????? -- 1 -- None -- 78 -- 0 -- Solo Pro II MVP -- 172.26.2.165;110;Lane 2;3/5/2012;22:45:00;100;15 Minutes;;;;;;340;85;60.293;0;53;25;3;4;10.586;5.047;A;58.023;3.359;5.859;
040549FF29CED021;IDS-05B -- ?????-?????? -- 1 -- None -- 78 -- 0 -- Solo Pro II MVP -- 172.26.2.165;113;Total;3/5/2012;22:45:00;100;15 Minutes;;;;;;172;86;60.508;0;54;25;3;4;255.996;2.547;A;58.203;1.680;2.953;
040549FF29CED021;IDS-05B -- ?????-?????? -- 1 -- None -- 78 -- 0 -- Solo Pro II MVP -- 172.26.2.165;109;Lane 1;3/5/2012;23:00:00;100;15 Minutes;;;;;;0;0;0.000;0;0;0;0;0;255.996;0.000;A;0.000;100.000;0.000;
040549FF29CED021;IDS-05B -- ?????-?????? -- 1 -- None -- 78 -- 0 -- Solo Pro II MVP -- 172.26.2.165;110;Lane 2;3/5/2012;23:00:00;100;15 Minutes;;;;;;320;80;63.512;0;38;35;3;4;11.250;4.980;A;61.098;3.000;5.234;
040549FF29CED021;IDS-05B -- ?????-?????? -- 1 -- None -- 78 -- 0 -- Solo Pro II MVP -- 172.26.2.165;113;Total;3/5/2012;23:00:00;100;15 Minutes;;;;;;160;80;63.512;0;38;35;3;4;255.996;2.488;A;61.098;1.500;2.617;
040549FF29CED021;IDS-05B -- ?????-?????? -- 1 -- None -- 78 -- 0 -- Solo Pro II MVP -- 172.26.2.165;109;Lane 1;3/5/2012;23:15:00;100;15 Minutes;;;;;;0;0;0.000;0;0;0;0;0;255.996;0.000;A;0.000;100.000;0.000;
040549FF29CED021;IDS-05B -- ?????-?????? -- 1 -- None -- 78 -- 0 -- Solo Pro II MVP -- 172.26.2.165;110;Lane 2;3/5/2012;23:15:00;100;15 Minutes;;;;;;276;69;61.129;0;35;31;2;1;13.043;4.195;A;58.535;2.500;4.715;
040549FF29CED021;IDS-05B -- ?????-?????? -- 1 -- None -- 78 -- 0 -- Solo Pro II MVP -- 172.26.2.165;113;Total;3/5/2012;23:15:00;100;15 Minutes;;;;;;138;69;61.129;0;35;31;2;1;255.996;2.098;A;58.535;1.250;2.355;
040549FF29CED021;IDS-05B -- ?????-?????? -- 1 -- None -- 78 -- 0 -- Solo Pro II MVP -- 172.26.2.165;109;Lane 1;3/5/2012;23:30:00;100;15 Minutes;;;;;;0;0;0.000;0;0;0;0;0;255.996;0.000;A;0.000;100.000;0.000;
040549FF29CED021;IDS-05B -- ?????-?????? -- 1 -- None -- 78 -- 0 -- Solo Pro II MVP -- 172.26.2.165;110;Lane 2;3/5/2012;23:30:00;100;15 Minutes;;;;;;264;66;61.816;0;39;20;3;4;13.633;4.398;A;58.664;2.625;4.500;
040549FF29CED021;IDS-05B -- ?????-?????? -- 1 -- None -- 78 -- 0 -- Solo Pro II MVP -- 172.26.2.165;113;Total;3/5/2012;23:30:00;100;15 Minutes;;;;;;132;66;61.816;0;39;20;3;4;255.996;2.199;A;58.664;1.313;2.250;
040549FF29CED021;IDS-05B -- ?????-?????? -- 1 -- None -- 78 -- 0 -- Solo Pro II MVP -- 172.26.2.165;109;Lane 1;3/5/2012;23:45:00;100;15 Minutes;;;;;;0;0;0.000;0;0;0;0;0;255.996;0.000;A;0.000;100.000;0.000;
040549FF29CED021;IDS-05B -- ?????-?????? -- 1 -- None -- 78 -- 0 -- Solo Pro II MVP -- 172.26.2.165;110;Lane 2;3/5/2012;23:45:00;100;15 Minutes;;;;;;208;52;66.691;0;34;14;0;4;17.305;3.051;A;61.945;1.820;3.355;
040549FF29CED021;IDS-05B -- ?????-?????? -- 1 -- None -- 78 -- 0 -- Solo Pro II MVP -- 172.26.2.165;113;Total;3/5/2012;23:45:00;100;15 Minutes;;;;;;104;52;66.691;0;34;14;0;4;255.996;1.523;A;61.945;0.910;1.676;
040549FF29CED021;IDS-05B -- ?????-?????? -- 1 -- None -- 78 -- 0 -- Solo Pro II MVP -- 172.26.2.165;109;Lane 1;4/5/2012;0:00:00;100;15 Minutes;;;;;;0;0;0.000;0;0;0;0;0;255.996;0.000;A;0.000;100.000;0.000;
