CPU Identifier;Autoscope Description;Detector ID;Detector Title;Date;Time;Status;Data Interval;Ticks (millisec.);State;Speed;Length;Class;Average Flow Rate;Volume;Arithmetic Mean Speed;Class A Count;Class B Count;Class C Count;Class D Count;Class E Count;Average Time Headway;Average Time Occupancy;Level Of Service;Space Mean Speed;Space Occupancy;Density;
040548FFA4C9D021;IDS-10B -- ?????-????? (????????) -- 1 -- None -- 83 -- 0 -- Solo Pro II MVP -- 172.26.2.170;109;Lane 1;3/5/2012;0:15:00;100;15 Minutes;;;;;;244;61;72.262;0;57;2;2;0;14.754;2.883;A;66.520;1.602;3.668;
040548FFA4C9D021;IDS-10B -- ?????-????? (????????) -- 1 -- None -- 83 -- 0 -- Solo Pro II MVP -- 172.26.2.170;110;Lane 2;3/5/2012;0:15:00;100;15 Minutes;;;;;;140;35;92.027;0;33;1;1;0;25.711;1.586;A;90.004;0.723;1.555;
040548FFA4C9D021;IDS-10B -- ?????-????? (????????) -- 1 -- None -- 83 -- 0 -- Solo Pro II MVP -- 172.26.2.170;113;Total;3/5/2012;0:15:00;100;15 Minutes;;;;;;192;96;79.469;0;90;3;3;0;20.230;2.234;A;73.512;1.145;2.609;
040548FFA4C9D021;IDS-10B -- ?????-????? (????????) -- 1 -- None -- 83 -- 0 -- Solo Pro II MVP -- 172.26.2.170;109;Lane 1;3/5/2012;0:30:00; 99;15 Minutes;;;;;;212;53;69.262;0;48;3;0;2;16.980;2.734;A;63.055;1.594;3.359;
040548FFA4C9D021;IDS-10B -- ?????-????? (????????) -- 1 -- None -- 83 -- 0 -- Solo Pro II MVP -- 172.26.2.170;110;Lane 2;3/5/2012;0:30:00; 99;15 Minutes;;;;;;76;19;84.418;0;18;1;0;0;47.367;0.816;A;79.242;0.449;0.957;
040548FFA4C9D021;IDS-10B -- ?????-????? (????????) -- 1 -- None -- 83 -- 0 -- Solo Pro II MVP -- 172.26.2.170;113;Total;3/5/2012;0:30:00; 99;15 Minutes;;;;;;144;72;73.262;0;66;4;0;2;32.172;1.773;A;66.648;1.012;2.160;
040548FFA4C9D021;IDS-10B -- ?????-????? (????????) -- 1 -- None -- 83 -- 0 -- Solo Pro II MVP -- 172.26.2.170;109;Lane 1;3/5/2012;0:45:00;100;15 Minutes;;;;;;292;73;75.313;0;71;0;2;0;12.328;3.578;A;71.988;1.813;4.055;
040548FFA4C9D021;IDS-10B -- ?????-????? (????????) -- 1 -- None -- 83 -- 0 -- Solo Pro II MVP -- 172.26.2.170;110;Lane 2;3/5/2012;0:45:00;100;15 Minutes;;;;;;124;31;94.031;0;29;2;0;0;29.031;1.223;A;90.809;0.613;1.363;
040548FFA4C9D021;IDS-10B -- ?????-????? (????????) -- 1 -- None -- 83 -- 0 -- Solo Pro II MVP -- 172.26.2.170;113;Total;3/5/2012;0:45:00;100;15 Minutes;;;;;;208;104;80.891;0;100;2;2;0;20.680;2.398;A;76.727;1.199;2.707;
040548FFA4C9D021;IDS-10B -- ?????-????? (????????) -- 1 -- None -- 83 -- 0 -- Solo Pro II MVP -- 172.26.2.170;109;Lane 1;3/5/2012;1:00:00;100;15 Minutes;;;;;;204;51;64.098;0;42;2;6;1;17.645;3.660;A;58.508;1.730;3.484;
040548FFA4C9D021;IDS-10B -- ?????-????? (????????) -- 1 -- None -- 83 -- 0 -- Solo Pro II MVP -- 172.26.2.170;110;Lane 2;3/5/2012;1:00:00;100;15 Minutes;;;;;;136;34;90.203;0;31;2;1;0;26.469;1.391;A;85.363;0.730;1.590;
040548FFA4C9D021;IDS-10B -- ?????-????? (????????) -- 1 -- None -- 83 -- 0 -- Solo Pro II MVP -- 172.26.2.170;113;Total;3/5/2012;1:00:00;100;15 Minutes;;;;;;170;85;74.539;0;73;4;7;1;22.055;2.523;A;66.930;1.188;2.539;
040548FFA4C9D021;IDS-10B -- ?????-????? (????????) -- 1 -- None -- 83 -- 0 -- Solo Pro II MVP -- 172.26.2.170;109;Lane 1;3/5/2012;1:15:00;100;15 Minutes;;;;;;192;48;66.875;0;42;3;2;1;18.750;3.016;A;60.535;1.477;3.168;
040548FFA4C9D021;IDS-10B -- ?????-????? (????????) -- 1 -- None -- 83 -- 0 -- Solo Pro II MVP -- 172.26.2.170;110;Lane 2;3/5/2012;1:15:00;100;15 Minutes;;;;;;104;26;82.844;0;23;3;0;0;34.613;1.105;A;80.590;0.613;1.289;
040548FFA4C9D021;IDS-10B -- ?????-????? (????????) -- 1 -- None -- 83 -- 0 -- Solo Pro II MVP -- 172.26.2.170;113;Total;3/5/2012;1:15:00;100;15 Minutes;;;;;;148;74;72.484;0;65;6;2;1;26.680;2.059;A;66.336;1.031;2.230;
040548FFA4C9D021;IDS-10B -- ?????-????? (????????) -- 1 -- None -- 83 -- 0 -- Solo Pro II MVP -- 172.26.2.170;109;Lane 1;3/5/2012;1:30:00;100;15 Minutes;;;;;;248;62;72.516;0;52;5;5;0;14.516;3.582;A;67.879;1.793;3.652;
040548FFA4C9D021;IDS-10B -- ?????-????? (????????) -- 1 -- None -- 83 -- 0 -- Solo Pro II MVP -- 172.26.2.170;110;Lane 2;3/5/2012;1:30:00;100;15 Minutes;;;;;;92;23;89.086;0;21;2;0;0;39.129;0.910;A;85.434;0.484;1.074;
040548FFA4C9D021;IDS-10B -- ?????-????? (????????) -- 1 -- None -- 83 -- 0 -- Solo Pro II MVP -- 172.26.2.170;113;Total;3/5/2012;1:30:00;100;15 Minutes;;;;;;170;85;77.000;0;73;7;5;0;26.820;2.246;A;71.875;1.125;2.363;
040548FFA4C9D021;IDS-10B -- ?????-????? (????????) -- 1 -- None -- 83 -- 0 -- Solo Pro II MVP -- 172.26.2.170;109;Lane 1;3/5/2012;1:45:00;100;15 Minutes;;;;;;148;37;72.324;0;32;4;1;0;24.324;2.219;A;65.887;1.004;2.246;
040548FFA4C9D021;IDS-10B -- ?????-????? (????????) -- 1 -- None -- 83 -- 0 -- Solo Pro II MVP -- 172.26.2.170;110;Lane 2;3/5/2012;1:45:00;100;15 Minutes;;;;;;100;25;86.719;0;24;1;0;0;36.000;1.016;A;83.262;0.555;1.199;
040548FFA4C9D021;IDS-10B -- ?????-????? (????????) -- 1 -- None -- 83 -- 0 -- Solo Pro II MVP -- 172.26.2.170;113;Total;3/5/2012;1:45:00;100;15 Minutes;;;;;;124;62;78.129;0;56;5;1;0;30.160;1.617;A;71.938;0.773;1.723;
040548FFA4C9D021;IDS-10B -- ?????-????? (????????) -- 1 -- None -- 83 -- 0 -- Solo Pro II MVP -- 172.26.2.170;109;Lane 1;3/5/2012;2:00:00;100;15 Minutes;;;;;;196;49;77.590;0;44;1;4;0;18.367;2.199;A;73.031;1.328;2.684;
040548FFA4C9D021;IDS-10B -- ?????-????? (????????) -- 1 -- None -- 83 -- 0 -- Solo Pro II MVP -- 172.26.2.170;110;Lane 2;3/5/2012;2:00:00;100;15 Minutes;;;;;;76;19;99.684;0;17;2;0;0;47.367;0.820;A;94.457;0.359;0.801;
040548FFA4C9D021;IDS-10B -- ?????-????? (????????) -- 1 -- None -- 83 -- 0 -- Solo Pro II MVP -- 172.26.2.170;113;Total;3/5/2012;2:00:00;100;15 Minutes;;;;;;136;68;83.762;0;61;3;4;0;32.867;1.508;A;77.973;0.832;1.742;
040548FFA4C9D021;IDS-10B -- ?????-????? (????????) -- 1 -- None -- 83 -- 0 -- Solo Pro II MVP -- 172.26.2.170;109;Lane 1;3/5/2012;2:15:00;100;15 Minutes;;;;;;184;46;67.148;0;39;2;4;1;19.563;2.828;A;59.168;1.379;3.109;
040548FFA4C9D021;IDS-10B -- ?????-????? (????????) -- 1 -- None -- 83 -- 0 -- Solo Pro II MVP -- 172.26.2.170;110;Lane 2;3/5/2012;2:15:00;100;15 Minutes;;;;;;72;18;91.887;0;17;1;0;0;50.000;0.871;A;87.789;0.371;0.816;
040548FFA4C9D021;IDS-10B -- ?????-????? (????????) -- 1 -- None -- 83 -- 0 -- Solo Pro II MVP -- 172.26.2.170;113;Total;3/5/2012;2:15:00;100;15 Minutes;;;;;;128;64;74.109;0;56;3;4;1;34.781;1.848;A;65.141;0.855;1.965;
040548FFA4C9D021;IDS-10B -- ?????-????? (????????) -- 1 -- None -- 83 -- 0 -- Solo Pro II MVP -- 172.26.2.170;109;Lane 1;3/5/2012;2:30:00;100;15 Minutes;;;;;;160;40;69.773;0;36;2;1;1;22.500;2.293;A;64.637;1.148;2.473;
040548FFA4C9D021;IDS-10B -- ?????-????? (????????) -- 1 -- None -- 83 -- 0 -- Solo Pro II MVP -- 172.26.2.170;110;Lane 2;3/5/2012;2:30:00;100;15 Minutes;;;;;;108;27;88.555;0;26;0;1;0;33.332;1.227;A;84.316;0.586;1.277;
040548FFA4C9D021;IDS-10B -- ?????-????? (????????) -- 1 -- None -- 83 -- 0 -- Solo Pro II MVP -- 172.26.2.170;113;Total;3/5/2012;2:30:00;100;15 Minutes;;;;;;134;67;77.340;0;62;2;2;1;27.914;1.758;A;71.348;0.855;1.875;
040548FFA4C9D021;IDS-10B -- ?????-????? (????????) -- 1 -- None -- 83 -- 0 -- Solo Pro II MVP -- 172.26.2.170;109;Lane 1;3/5/2012;2:45:00;100;15 Minutes;;;;;;176;44;74.293;0;40;2;2;0;20.453;2.473;A;68.336;1.129;2.574;
040548FFA4C9D021;IDS-10B -- ?????-????? (????????) -- 1 -- None -- 83 -- 0 -- Solo Pro II MVP -- 172.26.2.170;110;Lane 2;3/5/2012;2:45:00;100;15 Minutes;;;;;;56;14;91.785;0;14;0;0;0;64.285;0.539;A;90.391;0.281;0.617;
040548FFA4C9D021;IDS-10B -- ?????-????? (????????) -- 1 -- None -- 83 -- 0 -- Solo Pro II MVP -- 172.26.2.170;113;Total;3/5/2012;2:45:00;100;15 Minutes;;;;;;116;58;78.516;0;54;2;2;0;42.367;1.504;A;72.613;0.699;1.594;
040548FFA4C9D021;IDS-10B -- ?????-????? (????????) -- 1 -- None -- 83 -- 0 -- Solo Pro II MVP -- 172.26.2.170;109;Lane 1;3/5/2012;3:00:00;100;15 Minutes;;;;;;188;47;68.359;0;38;2;5;2;19.148;2.934;A;63.801;1.605;2.945;
040548FFA4C9D021;IDS-10B -- ?????-????? (????????) -- 1 -- None -- 83 -- 0 -- Solo Pro II MVP -- 172.26.2.170;110;Lane 2;3/5/2012;3:00:00;100;15 Minutes;;;;;;88;22;85.727;0;20;2;0;0;40.906;0.965;A;83.824;0.480;1.047;
040548FFA4C9D021;IDS-10B -- ?????-????? (????????) -- 1 -- None -- 83 -- 0 -- Solo Pro II MVP -- 172.26.2.170;113;Total;3/5/2012;3:00:00;100;15 Minutes;;;;;;138;69;73.898;0;58;4;5;2;30.027;1.949;A;69.059;1.023;1.996;
040548FFA4C9D021;IDS-10B -- ?????-????? (????????) -- 1 -- None -- 83 -- 0 -- Solo Pro II MVP -- 172.26.2.170;109;Lane 1;3/5/2012;3:15:00;100;15 Minutes;;;;;;176;44;67.113;0;37;2;4;1;20.453;2.656;A;61.527;1.367;2.859;
040548FFA4C9D021;IDS-10B -- ?????-????? (????????) -- 1 -- None -- 83 -- 0 -- Solo Pro II MVP -- 172.26.2.170;110;Lane 2;3/5/2012;3:15:00;100;15 Minutes;;;;;;96;24;92.500;0;22;2;0;0;37.500;1.016;A;91.004;0.492;1.055;
040548FFA4C9D021;IDS-10B -- ?????-????? (????????) -- 1 -- None -- 83 -- 0 -- Solo Pro II MVP -- 172.26.2.170;113;Total;3/5/2012;3:15:00;100;15 Minutes;;;;;;136;68;76.070;0;59;4;4;1;28.977;1.836;A;69.469;0.902;1.957;
040548FFA4C9D021;IDS-10B -- ?????-????? (????????) -- 1 -- None -- 83 -- 0 -- Solo Pro II MVP -- 172.26.2.170;109;Lane 1;3/5/2012;3:30:00;100;15 Minutes;;;;;;220;55;69.961;0;47;3;5;0;16.363;3.184;A;61.426;1.551;3.578;
040548FFA4C9D021;IDS-10B -- ?????-????? (????????) -- 1 -- None -- 83 -- 0 -- Solo Pro II MVP -- 172.26.2.170;110;Lane 2;3/5/2012;3:30:00;100;15 Minutes;;;;;;104;26;87.383;0;23;1;2;0;34.613;1.113;A;83.672;0.617;1.242;
040548FFA4C9D021;IDS-10B -- ?????-????? (????????) -- 1 -- None -- 83 -- 0 -- Solo Pro II MVP -- 172.26.2.170;113;Total;3/5/2012;3:30:00;100;15 Minutes;;;;;;162;81;75.555;0;70;4;7;0;25.488;2.148;A;67.156;1.074;2.410;
040548FFA4C9D021;IDS-10B -- ?????-????? (????????) -- 1 -- None -- 83 -- 0 -- Solo Pro II MVP -- 172.26.2.170;109;Lane 1;3/5/2012;3:45:00;100;15 Minutes;;;;;;228;57;68.332;0;47;7;3;0;15.789;3.898;A;60.449;1.703;3.770;
040548FFA4C9D021;IDS-10B -- ?????-????? (????????) -- 1 -- None -- 83 -- 0 -- Solo Pro II MVP -- 172.26.2.170;110;Lane 2;3/5/2012;3:45:00;100;15 Minutes;;;;;;84;21;87.094;0;20;0;1;0;42.855;1.000;A;82.664;0.480;1.016;
040548FFA4C9D021;IDS-10B -- ?????-????? (????????) -- 1 -- None -- 83 -- 0 -- Solo Pro II MVP -- 172.26.2.170;113;Total;3/5/2012;3:45:00;100;15 Minutes;;;;;;156;78;73.383;0;67;7;4;0;29.320;2.449;A;65.164;1.078;2.391;
040548FFA4C9D021;IDS-10B -- ?????-????? (????????) -- 1 -- None -- 83 -- 0 -- Solo Pro II MVP -- 172.26.2.170;109;Lane 1;3/5/2012;4:00:00;100;15 Minutes;;;;;;228;57;62.559;0;48;4;3;2;15.789;3.809;A;57.059;2.070;3.992;
040548FFA4C9D021;IDS-10B -- ?????-????? (????????) -- 1 -- None -- 83 -- 0 -- Solo Pro II MVP -- 172.26.2.170;110;Lane 2;3/5/2012;4:00:00;100;15 Minutes;;;;;;148;37;84.133;0;36;1;0;0;24.324;1.754;A;76.156;0.785;1.941;
040548FFA4C9D021;IDS-10B -- ?????-????? (????????) -- 1 -- None -- 83 -- 0 -- Solo Pro II MVP -- 172.26.2.170;113;Total;3/5/2012;4:00:00;100;15 Minutes;;;;;;188;94;71.051;0;84;5;3;2;20.055;2.781;A;63.309;1.375;2.969;
040548FFA4C9D021;IDS-10B -- ?????-????? (????????) -- 1 -- None -- 83 -- 0 -- Solo Pro II MVP -- 172.26.2.170;109;Lane 1;3/5/2012;4:15:00;100;15 Minutes;;;;;;260;65;57.613;0;58;3;2;2;13.844;4.375;A;50.949;2.293;5.102;
040548FFA4C9D021;IDS-10B -- ?????-????? (????????) -- 1 -- None -- 83 -- 0 -- Solo Pro II MVP -- 172.26.2.170;110;Lane 2;3/5/2012;4:15:00;100;15 Minutes;;;;;;196;49;86.469;0;47;0;2;0;18.367;2.504;A;81.078;1.137;2.414;
040548FFA4C9D021;IDS-10B -- ?????-????? (????????) -- 1 -- None -- 83 -- 0 -- Solo Pro II MVP -- 172.26.2.170;113;Total;3/5/2012;4:15:00;100;15 Minutes;;;;;;228;114;70.016;0;105;3;4;2;16.105;3.438;A;60.633;1.645;3.758;
040548FFA4C9D021;IDS-10B -- ?????-????? (????????) -- 1 -- None -- 83 -- 0 -- Solo Pro II MVP -- 172.26.2.170;109;Lane 1;3/5/2012;4:30:00;100;15 Minutes;;;;;;332;83;62.949;0;74;2;5;2;10.840;4.871;A;59.504;2.793;5.578;
040548FFA4C9D021;IDS-10B -- ?????-????? (????????) -- 1 -- None -- 83 -- 0 -- Solo Pro II MVP -- 172.26.2.170;110;Lane 2;3/5/2012;4:30:00;100;15 Minutes;;;;;;180;45;84.488;0;43;1;1;0;20.000;1.867;A;81.832;1.031;2.199;
040548FFA4C9D021;IDS-10B -- ?????-????? (????????) -- 1 -- None -- 83 -- 0 -- Solo Pro II MVP -- 172.26.2.170;113;Total;3/5/2012;4:30:00;100;15 Minutes;;;;;;256;128;70.523;0;117;3;6;2;15.418;3.367;A;65.816;1.863;3.887;
040548FFA4C9D021;IDS-10B -- ?????-????? (????????) -- 1 -- None -- 83 -- 0 -- Solo Pro II MVP -- 172.26.2.170;109;Lane 1;3/5/2012;4:45:00;100;15 Minutes;;;;;;336;84;56.867;0;76;4;4;0;10.711;5.547;A;51.047;2.836;6.582;
040548FFA4C9D021;IDS-10B -- ?????-????? (????????) -- 1 -- None -- 83 -- 0 -- Solo Pro II MVP -- 172.26.2.170;110;Lane 2;3/5/2012;4:45:00;100;15 Minutes;;;;;;292;73;78.613;0;68;3;1;1;12.328;3.691;A;74.844;1.805;3.898;
040548FFA4C9D021;IDS-10B -- ?????-????? (????????) -- 1 -- None -- 83 -- 0 -- Solo Pro II MVP -- 172.26.2.170;113;Total;3/5/2012;4:45:00;100;15 Minutes;;;;;;314;157;66.980;0;144;7;5;1;11.520;4.617;A;59.902;2.262;5.238;
040548FFA4C9D021;IDS-10B -- ?????-????? (????????) -- 1 -- None -- 83 -- 0 -- Solo Pro II MVP -- 172.26.2.170;109;Lane 1;3/5/2012;5:00:00;100;15 Minutes;;;;;;428;107;60.055;0;93;4;6;3;8.410;6.641;A;56.266;3.598;7.605;
040548FFA4C9D021;IDS-10B -- ?????-????? (????????) -- 1 -- None -- 83 -- 0 -- Solo Pro II MVP -- 172.26.2.170;110;Lane 2;3/5/2012;5:00:00;100;15 Minutes;;;;;;316;79;81.301;0;75;2;2;0;11.391;3.426;A;77.277;1.813;4.086;
040548FFA4C9D021;IDS-10B -- ?????-????? (????????) -- 1 -- None -- 83 -- 0 -- Solo Pro II MVP -- 172.26.2.170;113;Total;3/5/2012;5:00:00;100;15 Minutes;;;;;;372;186;69.078;0;168;6;8;3;9.898;5.031;A;63.609;2.629;5.848;
040548FFA4C9D021;IDS-10B -- ?????-????? (????????) -- 1 -- None -- 83 -- 0 -- Solo Pro II MVP -- 172.26.2.170;109;Lane 1;3/5/2012;5:15:00;100;15 Minutes;;;;;;408;102;58.059;0;89;1;10;2;8.820;6.957;A;53.160;3.578;7.672;
040548FFA4C9D021;IDS-10B -- ?????-????? (????????) -- 1 -- None -- 83 -- 0 -- Solo Pro II MVP -- 172.26.2.170;110;Lane 2;3/5/2012;5:15:00;100;15 Minutes;;;;;;424;106;83.234;0;100;3;2;1;8.488;4.492;A;79.898;2.449;5.305;
040548FFA4C9D021;IDS-10B -- ?????-????? (????????) -- 1 -- None -- 83 -- 0 -- Solo Pro II MVP -- 172.26.2.170;113;Total;3/5/2012;5:15:00;100;15 Minutes;;;;;;416;208;70.887;0;189;4;12;3;8.652;5.723;A;64.090;2.902;6.488;
040548FFA4C9D021;IDS-10B -- ?????-????? (????????) -- 1 -- None -- 83 -- 0 -- Solo Pro II MVP -- 172.26.2.170;109;Lane 1;3/5/2012;5:30:00;100;15 Minutes;;;;;;504;126;55.980;0;113;7;5;0;7.141;8.117;A;51.641;4.199;9.758;
040548FFA4C9D021;IDS-10B -- ?????-????? (????????) -- 1 -- None -- 83 -- 0 -- Solo Pro II MVP -- 172.26.2.170;110;Lane 2;3/5/2012;5:30:00;100;15 Minutes;;;;;;500;125;78.855;0;122;3;0;0;7.199;5.273;A;75.855;2.852;6.590;
040548FFA4C9D021;IDS-10B -- ?????-????? (????????) -- 1 -- None -- 83 -- 0 -- Solo Pro II MVP -- 172.26.2.170;113;Total;3/5/2012;5:30:00;100;15 Minutes;;;;;;502;251;67.371;0;235;10;5;0;7.168;6.695;A;61.402;3.414;8.172;
040548FFA4C9D021;IDS-10B -- ?????-????? (????????) -- 1 -- None -- 83 -- 0 -- Solo Pro II MVP -- 172.26.2.170;109;Lane 1;3/5/2012;5:45:00;100;15 Minutes;;;;;;536;134;64.035;0;124;3;6;1;6.715;7.066;A;61.023;3.809;8.781;
040548FFA4C9D021;IDS-10B -- ?????-????? (????????) -- 1 -- None -- 83 -- 0 -- Solo Pro II MVP -- 172.26.2.170;110;Lane 2;3/5/2012;5:45:00;100;15 Minutes;;;;;;656;164;89.547;0;161;3;0;0;5.484;5.902;A;87.609;2.969;7.484;
040548FFA4C9D021;IDS-10B -- ?????-????? (????????) -- 1 -- None -- 83 -- 0 -- Solo Pro II MVP -- 172.26.2.170;113;Total;3/5/2012;5:45:00;100;15 Minutes;;;;;;596;298;78.074;0;285;6;6;1;6.098;6.484;A;73.281;3.266;8.133;
040548FFA4C9D021;IDS-10B -- ?????-????? (????????) -- 1 -- None -- 83 -- 0 -- Solo Pro II MVP -- 172.26.2.170;109;Lane 1;3/5/2012;6:00:00;100;15 Minutes;;;;;;572;143;72.598;0;122;4;14;3;6.293;6.957;A;69.145;4.301;8.270;
040548FFA4C9D021;IDS-10B -- ?????-????? (????????) -- 1 -- None -- 83 -- 0 -- Solo Pro II MVP -- 172.26.2.170;110;Lane 2;3/5/2012;6:00:00;100;15 Minutes;;;;;;624;156;90.691;0;150;2;1;3;5.766;4.883;A;88.320;3.289;7.063;
040548FFA4C9D021;IDS-10B -- ?????-????? (????????) -- 1 -- None -- 83 -- 0 -- Solo Pro II MVP -- 172.26.2.170;113;Total;3/5/2012;6:00:00;100;15 Minutes;;;;;;598;299;82.039;0;272;6;15;6;6.027;5.918;A;78.023;3.723;7.664;
040548FFA4C9D021;IDS-10B -- ?????-????? (????????) -- 1 -- None -- 83 -- 0 -- Solo Pro II MVP -- 172.26.2.170;109;Lane 1;3/5/2012;6:15:00;100;15 Minutes;;;;;;688;172;74.133;0;145;1;18;8;5.230;8.113;A;71.816;5.637;9.578;
040548FFA4C9D021;IDS-10B -- ?????-????? (????????) -- 1 -- None -- 83 -- 0 -- Solo Pro II MVP -- 172.26.2.170;110;Lane 2;3/5/2012;6:15:00;100;15 Minutes;;;;;;708;177;93.059;0;174;1;1;1;5.082;5.613;A;91.285;3.410;7.754;
040548FFA4C9D021;IDS-10B -- ?????-????? (????????) -- 1 -- None -- 83 -- 0 -- Solo Pro II MVP -- 172.26.2.170;113;Total;3/5/2012;6:15:00;100;15 Minutes;;;;;;698;349;83.730;0;319;2;19;9;5.156;6.863;A;80.563;4.391;8.664;
040548FFA4C9D021;IDS-10B -- ?????-????? (????????) -- 1 -- None -- 83 -- 0 -- Solo Pro II MVP -- 172.26.2.170;109;Lane 1;3/5/2012;6:30:00;100;15 Minutes;;;;;;900;225;74.168;0;208;3;10;4;4.000;9.809;A;71.941;6.023;12.508;
040548FFA4C9D021;IDS-10B -- ?????-????? (????????) -- 1 -- None -- 83 -- 0 -- Solo Pro II MVP -- 172.26.2.170;110;Lane 2;3/5/2012;6:30:00;100;15 Minutes;;;;;;1080;270;94.594;0;268;1;0;1;3.332;8.277;A;93.152;5.297;11.594;
040548FFA4C9D021;IDS-10B -- ?????-????? (????????) -- 1 -- None -- 83 -- 0 -- Solo Pro II MVP -- 172.26.2.170;113;Total;3/5/2012;6:30:00;100;15 Minutes;;;;;;990;495;85.309;0;476;4;10;5;3.664;9.043;A;82.125;5.555;12.055;
040548FFA4C9D021;IDS-10B -- ?????-????? (????????) -- 1 -- None -- 83 -- 0 -- Solo Pro II MVP -- 172.26.2.170;109;Lane 1;3/5/2012;6:45:00;100;15 Minutes;;;;;;908;227;71.426;0;210;4;6;7;3.961;10.438;A;68.383;6.641;13.277;
040548FFA4C9D021;IDS-10B -- ?????-????? (????????) -- 1 -- None -- 83 -- 0 -- Solo Pro II MVP -- 172.26.2.170;110;Lane 2;3/5/2012;6:45:00;100;15 Minutes;;;;;;1292;323;91.328;0;313;3;2;5;2.785;10.473;A;89.293;6.547;14.469;
040548FFA4C9D021;IDS-10B -- ?????-????? (????????) -- 1 -- None -- 83 -- 0 -- Solo Pro II MVP -- 172.26.2.170;113;Total;3/5/2012;6:45:00;100;15 Minutes;;;;;;1100;550;83.113;0;523;7;8;12;3.371;10.453;A;79.277;6.449;13.875;
040548FFA4C9D021;IDS-10B -- ?????-????? (????????) -- 1 -- None -- 83 -- 0 -- Solo Pro II MVP -- 172.26.2.170;109;Lane 1;3/5/2012;7:00:00;100;15 Minutes;;;;;;1216;304;69.574;0;280;7;11;6;2.957;14.707;A;66.516;8.641;18.281;
040548FFA4C9D021;IDS-10B -- ?????-????? (????????) -- 1 -- None -- 83 -- 0 -- Solo Pro II MVP -- 172.26.2.170;110;Lane 2;3/5/2012;7:00:00;100;15 Minutes;;;;;;1664;416;85.250;0;403;7;3;3;2.160;16.340;A;83.328;8.711;19.969;
040548FFA4C9D021;IDS-10B -- ?????-????? (????????) -- 1 -- None -- 83 -- 0 -- Solo Pro II MVP -- 172.26.2.170;113;Total;3/5/2012;7:00:00;100;15 Minutes;;;;;;1440;720;78.629;0;683;14;14;9;2.559;15.523;A;75.293;8.543;19.125;
040548FFA4C9D021;IDS-10B -- ?????-????? (????????) -- 1 -- None -- 83 -- 0 -- Solo Pro II MVP -- 172.26.2.170;109;Lane 1;3/5/2012;7:15:00;100;15 Minutes;;;;;;1332;333;73.461;0;318;5;5;4;2.699;15.047;A;70.684;8.289;18.844;
040548FFA4C9D021;IDS-10B -- ?????-????? (????????) -- 1 -- None -- 83 -- 0 -- Solo Pro II MVP -- 172.26.2.170;110;Lane 2;3/5/2012;7:15:00;100;15 Minutes;;;;;;1720;430;89.316;0;415;11;2;2;2.090;16.164;A;87.711;8.516;19.609;
040548FFA4C9D021;IDS-10B -- ?????-????? (????????) -- 1 -- None -- 83 -- 0 -- Solo Pro II MVP -- 172.26.2.170;113;Total;3/5/2012;7:15:00;100;15 Minutes;;;;;;1526;763;82.395;0;733;16;7;6;2.395;15.605;A;79.336;8.313;19.234;
040548FFA4C9D021;IDS-10B -- ?????-????? (????????) -- 1 -- None -- 83 -- 0 -- Solo Pro II MVP -- 172.26.2.170;109;Lane 1;3/5/2012;7:30:00;100;15 Minutes;;;;;;1500;375;63.273;0;363;3;8;1;2.398;20.613;A;58.215;10.828;25.766;
040548FFA4C9D021;IDS-10B -- ?????-????? (????????) -- 1 -- None -- 83 -- 0 -- Solo Pro II MVP -- 172.26.2.170;110;Lane 2;3/5/2012;7:30:00;100;15 Minutes;;;;;;2000;500;79.070;0;491;7;1;1;1.797;21.258;A;74.809;11.020;26.734;
040548FFA4C9D021;IDS-10B -- ?????-????? (????????) -- 1 -- None -- 83 -- 0 -- Solo Pro II MVP -- 172.26.2.170;113;Total;3/5/2012;7:30:00;100;15 Minutes;;;;;;1750;875;72.301;0;854;10;9;2;2.098;20.934;A;66.664;10.766;26.250;
040548FFA4C9D021;IDS-10B -- ?????-????? (????????) -- 1 -- None -- 83 -- 0 -- Solo Pro II MVP -- 172.26.2.170;109;Lane 1;3/5/2012;7:45:00;100;15 Minutes;;;;;;1376;344;70.098;0;332;3;3;6;2.613;16.957;A;67.324;8.770;20.438;
040548FFA4C9D021;IDS-10B -- ?????-????? (????????) -- 1 -- None -- 83 -- 0 -- Solo Pro II MVP -- 172.26.2.170;110;Lane 2;3/5/2012;7:45:00;100;15 Minutes;;;;;;1872;468;84.934;0;458;6;2;2;1.922;17.598;A;83.199;9.574;22.500;
040548FFA4C9D021;IDS-10B -- ?????-????? (????????) -- 1 -- None -- 83 -- 0 -- Solo Pro II MVP -- 172.26.2.170;113;Total;3/5/2012;7:45:00;100;15 Minutes;;;;;;1624;812;78.648;0;790;9;5;8;2.266;17.277;A;75.617;9.078;21.477;
040548FFA4C9D021;IDS-10B -- ?????-????? (????????) -- 1 -- None -- 83 -- 0 -- Solo Pro II MVP -- 172.26.2.170;109;Lane 1;3/5/2012;8:00:00;100;15 Minutes;;;;;;1440;360;67.391;0;346;1;6;5;2.500;17.453;A;63.383;9.469;22.719;
040548FFA4C9D021;IDS-10B -- ?????-????? (????????) -- 1 -- None -- 83 -- 0 -- Solo Pro II MVP -- 172.26.2.170;110;Lane 2;3/5/2012;8:00:00;100;15 Minutes;;;;;;1896;474;82.164;0;461;7;2;4;1.898;18.668;A;78.895;10.184;24.031;
040548FFA4C9D021;IDS-10B -- ?????-????? (????????) -- 1 -- None -- 83 -- 0 -- Solo Pro II MVP -- 172.26.2.170;113;Total;3/5/2012;8:00:00;100;15 Minutes;;;;;;1668;834;75.789;0;807;8;8;9;2.199;18.059;A;71.355;9.730;23.375;
040548FFA4C9D021;IDS-10B -- ?????-????? (????????) -- 1 -- None -- 83 -- 0 -- Solo Pro II MVP -- 172.26.2.170;109;Lane 1;3/5/2012;8:15:00;100;15 Minutes;;;;;;1308;327;71.246;0;317;2;7;1;2.750;14.867;A;69.758;7.891;18.750;
040548FFA4C9D021;IDS-10B -- ?????-????? (????????) -- 1 -- None -- 83 -- 0 -- Solo Pro II MVP -- 172.26.2.170;110;Lane 2;3/5/2012;8:15:00;100;15 Minutes;;;;;;1856;464;86.777;0;451;9;0;4;1.938;16.422;A;85.516;9.465;21.703;
040548FFA4C9D021;IDS-10B -- ?????-????? (????????) -- 1 -- None -- 83 -- 0 -- Solo Pro II MVP -- 172.26.2.170;113;Total;3/5/2012;8:15:00;100;15 Minutes;;;;;;1582;791;80.355;0;768;11;7;5;2.344;15.645;A;78.184;8.609;20.234;
040548FFA4C9D021;IDS-10B -- ?????-????? (????????) -- 1 -- None -- 83 -- 0 -- Solo Pro II MVP -- 172.26.2.170;109;Lane 1;3/5/2012;8:30:00;100;15 Minutes;;;;;;1360;340;52.613;0;320;7;8;4;2.645;21.395;A;45.953;12.109;29.594;
040548FFA4C9D021;IDS-10B -- ?????-????? (????????) -- 1 -- None -- 83 -- 0 -- Solo Pro II MVP -- 172.26.2.170;110;Lane 2;3/5/2012;8:30:00;100;15 Minutes;;;;;;1908;477;66.953;0;471;2;1;2;1.887;22.816;A;55.227;12.363;34.547;
040548FFA4C9D021;IDS-10B -- ?????-????? (????????) -- 1 -- None -- 83 -- 0 -- Solo Pro II MVP -- 172.26.2.170;113;Total;3/5/2012;8:30:00;100;15 Minutes;;;;;;1634;817;60.984;0;791;9;9;6;2.266;22.105;A;50.938;12.012;32.078;
040548FFA4C9D021;IDS-10B -- ?????-????? (????????) -- 1 -- None -- 83 -- 0 -- Solo Pro II MVP -- 172.26.2.170;109;Lane 1;3/5/2012;8:45:00;100;15 Minutes;;;;;;1320;330;55.402;0;314;6;6;4;2.727;19.461;A;47.512;11.086;27.781;
040548FFA4C9D021;IDS-10B -- ?????-????? (????????) -- 1 -- None -- 83 -- 0 -- Solo Pro II MVP -- 172.26.2.170;110;Lane 2;3/5/2012;8:45:00;100;15 Minutes;;;;;;1860;465;71.164;0;457;2;2;3;1.934;20.508;A;63.215;11.488;29.422;
040548FFA4C9D021;IDS-10B -- ?????-????? (????????) -- 1 -- None -- 83 -- 0 -- Solo Pro II MVP -- 172.26.2.170;113;Total;3/5/2012;8:45:00;100;15 Minutes;;;;;;1590;795;64.621;0;771;8;8;7;2.328;19.984;A;55.590;11.078;28.602;
040548FFA4C9D021;IDS-10B -- ?????-????? (????????) -- 1 -- None -- 83 -- 0 -- Solo Pro II MVP -- 172.26.2.170;109;Lane 1;3/5/2012;9:00:00;100;15 Minutes;;;;;;1408;352;46.559;0;325;7;13;7;2.555;22.332;A;39.961;15.289;35.234;
040548FFA4C9D021;IDS-10B -- ?????-????? (????????) -- 1 -- None -- 83 -- 0 -- Solo Pro II MVP -- 172.26.2.170;110;Lane 2;3/5/2012;9:00:00;100;15 Minutes;;;;;;1772;443;58.758;0;435;2;2;0;2.031;21.590;A;48.648;13.195;36.422;
040548FFA4C9D021;IDS-10B -- ?????-????? (????????) -- 1 -- None -- 83 -- 0 -- Solo Pro II MVP -- 172.26.2.170;113;Total;3/5/2012;9:00:00;100;15 Minutes;;;;;;1590;795;53.355;0;760;9;15;7;2.293;21.961;A;44.375;13.934;35.828;
040548FFA4C9D021;IDS-10B -- ?????-????? (????????) -- 1 -- None -- 83 -- 0 -- Solo Pro II MVP -- 172.26.2.170;109;Lane 1;3/5/2012;9:15:00;100;15 Minutes;;;;;;1340;335;55.434;0;306;6;14;7;2.684;17.547;A;51.816;12.055;25.859;
040548FFA4C9D021;IDS-10B -- ?????-????? (????????) -- 1 -- None -- 83 -- 0 -- Solo Pro II MVP -- 172.26.2.170;110;Lane 2;3/5/2012;9:15:00;100;15 Minutes;;;;;;1872;468;67.715;0;464;1;0;2;1.922;18.660;A;59.191;11.922;31.625;
040548FFA4C9D021;IDS-10B -- ?????-????? (????????) -- 1 -- None -- 83 -- 0 -- Solo Pro II MVP -- 172.26.2.170;113;Total;3/5/2012;9:15:00;100;15 Minutes;;;;;;1606;803;62.594;0;770;7;14;9;2.301;18.102;A;55.875;11.785;28.742;
040548FFA4C9D021;IDS-10B -- ?????-????? (????????) -- 1 -- None -- 83 -- 0 -- Solo Pro II MVP -- 172.26.2.170;109;Lane 1;3/5/2012;9:30:00;100;15 Minutes;;;;;;1284;321;64.043;0;279;14;18;10;2.801;15.988;A;61.508;10.789;20.875;
040548FFA4C9D021;IDS-10B -- ?????-????? (????????) -- 1 -- None -- 83 -- 0 -- Solo Pro II MVP -- 172.26.2.170;110;Lane 2;3/5/2012;9:30:00;100;15 Minutes;;;;;;1832;458;78.484;0;453;2;0;2;1.965;15.871;A;75.691;10.012;24.203;
040548FFA4C9D021;IDS-10B -- ?????-????? (????????) -- 1 -- None -- 83 -- 0 -- Solo Pro II MVP -- 172.26.2.170;113;Total;3/5/2012;9:30:00;100;15 Minutes;;;;;;1558;779;72.535;0;732;16;18;12;2.383;15.930;A;69.098;10.180;22.547;
040548FFA4C9D021;IDS-10B -- ?????-????? (????????) -- 1 -- None -- 83 -- 0 -- Solo Pro II MVP -- 172.26.2.170;109;Lane 1;3/5/2012;9:45:00;100;15 Minutes;;;;;;1324;331;59.438;0;297;12;16;4;2.719;18.023;A;55.527;11.332;23.844;
040548FFA4C9D021;IDS-10B -- ?????-????? (????????) -- 1 -- None -- 83 -- 0 -- Solo Pro II MVP -- 172.26.2.170;110;Lane 2;3/5/2012;9:45:00;100;15 Minutes;;;;;;1816;454;72.223;0;448;1;2;1;1.980;18.152;A;67.766;11.309;26.797;
040548FFA4C9D021;IDS-10B -- ?????-????? (????????) -- 1 -- None -- 83 -- 0 -- Solo Pro II MVP -- 172.26.2.170;113;Total;3/5/2012;9:45:00;100;15 Minutes;;;;;;1570;785;66.832;0;745;13;18;5;2.348;18.086;A;62.004;11.148;25.320;
040548FFA4C9D021;IDS-10B -- ?????-????? (????????) -- 1 -- None -- 83 -- 0 -- Solo Pro II MVP -- 172.26.2.170;109;Lane 1;3/5/2012;10:00:00;100;15 Minutes;;;;;;1324;331;60.418;0;285;17;19;10;2.719;18.172;A;58.316;11.750;22.703;
040548FFA4C9D021;IDS-10B -- ?????-????? (????????) -- 1 -- None -- 83 -- 0 -- Solo Pro II MVP -- 172.26.2.170;110;Lane 2;3/5/2012;10:00:00;100;15 Minutes;;;;;;1732;433;73.508;0;425;3;3;2;2.078;16.980;A;71.512;10.934;24.219;
040548FFA4C9D021;IDS-10B -- ?????-????? (????????) -- 1 -- None -- 83 -- 0 -- Solo Pro II MVP -- 172.26.2.170;113;Total;3/5/2012;10:00:00;100;15 Minutes;;;;;;1528;764;67.836;0;710;20;22;12;2.398;17.574;A;65.129;11.156;23.461;
