33.069684769283725
32.35028971081252
32.346891545612195
32.17740316045476
32.70826192536104
31.76980395670661
33.22572156009891
32.06060027498692
31.849935220535325
32.29621855935304
31.980784126923172
31.69643327696049
31.925868555706643
33.27465547149982
33.270344644426395
32.76985379365935
32.737674556342135
33.10263007214593
32.74511313339336
31.710014607359483
33.06982684613566
33.28811298931975
32.9290084496797
32.23982942077506
33.07882014571802
32.54022215372796
32.725450676279856
33.291032850453284
32.40769659444177
32.29436929811152
33.07934330953759
31.83191126745668
32.23399694811608
33.148231190403166
33.31872103686778
32.00545966451723
32.93738568226725
32.72820789293514
33.079272817519055
32.628390295698196
31.770138535637155
32.851410176497545
31.81292933246721
32.88950419693465
31.829371748369294
32.495677567181964
31.698437257492827
32.676105531967494
33.09766530666283
33.039673350961365
31.97399084172397
32.68272584158605
31.671922674379882
31.82006417983878
33.29955597890812
31.984093199094037
32.872249832314
32.606501756043095
33.06283766716102
-1
32.45240269766011
32.41442519093247
33.67820213800403
33.43639783161194
32.60069559016456
33.24613251663453
32.39264958483158
32.266273663686654
32.565221454278934
32.85034110480515
33.34825433901315
32.440506489953194
33.309359222970464
33.66479516755265
32.36485291823747
33.470799049709036
33.08264779050222
32.55009757207121
33.544270437029176
32.914339576552784
33.706848386116654
33.45863695832852
33.10704290278731
33.218227363467605
33.78279779542246
32.34398979556638
32.42839801775698
32.92109811750719
33.83437898272661
32.8219976095331
32.621364685262904
32.6184939834095
33.4987097151908
33.33593000535746
32.50869539009988
33.78244236216488
33.51650619975872
33.45477199407713
33.037852386181804
33.3450441514425
33.80685241425266
33.44571858514287
32.45795550259474
32.24395701216804
33.326295453440224
32.409419838006315
32.89432250639279
33.55116298722641
32.713294706706584
32.716065170390884
33.65838008221522
33.69866122656275
33.57224204552529
32.23202170715493
33.05162322833652
33.67573027756115
33.65654462995303
32.54712034957146
-1
32.61365995045265
31.396070793746855
31.937945074031116
32.53965549162038
32.196339396846376
32.49291505288018
32.9235999439731
31.568335278280582
32.642952231923246
32.60551449187325
31.731011505264785
32.142802985325766
32.841941748834856
32.94541815151078
31.91088387584265
32.11036448341815
32.75028447818519
31.906270891939947
32.439162169199044
32.28284311323969
32.6434877309036
32.45321341857074
32.447345781639605
32.20061434899359
32.91373538516387
31.993782652525677
32.48445496386196
32.75296260903876
32.63359922556501
32.481014168458984
32.931226031786196
32.820338747259555
31.48456907711219
32.75888932313415
31.59498724627949
32.43124467213677
31.500241101004175
31.971791322019097
31.890295659466375
31.972369935810075
32.39333966065843
32.22324387154719
32.0224598658895
32.42192120091209
32.0238334790702
32.25156022251061
32.571866602111726
32.05948214515302
31.822243503504787
31.691139011056418
31.49324132258562
32.307892024400196
32.37449210413219
32.50799941890371
31.795599722742466
32.61686077301372
31.90231249931754
32.10342115256914
31.38902554221011
31.60435509791701
-1
32.606946771007394
32.68095568872381
32.53116891535935
31.820145885366706
32.47832021030703
32.6295592252282
31.898631245037713
33.13782964445406
32.49192439864629
32.279973191545956
32.02712457357542
31.898232091239176
32.06952743193463
31.822709349874604
31.840916038870258
32.06613656258646
32.23282018835511
32.049486840613845
32.17930416051321
32.711330289295965
32.85917504101929
32.92878584718708
32.45931988161709
32.75265783753132
31.729614244379494
31.754232772724595
32.26848054372361
32.626005747200914
32.520731776981044
31.929100789555182
33.20421597875195
31.668180544255236
32.31841923289647
32.35808608606469
32.43706937140562
32.69256053231888
31.876102615239592
32.62748222115045
32.35400567223715
31.718405582336246
32.03713724711086
32.333584528018754
31.9028093554468
32.77046001307274
32.49003160894336
32.39995280507144
33.241952289787555
31.755655409600344
32.659610697304835
32.00703542130468
32.00246001005319
32.98263673240524
32.390419929685876
31.842622076491878
32.55587038743766
31.917506335098242
32.150610426069115
32.76863339964545
32.822026981395325
-1
32.16622727210432
30.61590459972232
31.47558049161446
31.42116270091571
30.8722551214665
30.67258494990277
31.98473267362814
32.186157000910924
31.752010692602923
31.693237878676804
31.622511421448056
31.603391453197176
30.978957065228045
31.874874403268844
30.956563969097758
32.151999675690526
32.14119838328965
31.24026333461509
30.89640140515931
30.591020012784803
32.12661806539873
30.842579304225687
30.89278677045992
31.308210730628073
31.86093585058674
31.667394267355622
30.557573324140503
31.834495766115257
31.784803475950003
31.404670721385067
31.504987362691452
31.84204435673038
31.215496827254277
32.00462610328321
31.54249920617449
32.127907534855495
30.8836207632078
31.974631597487868
32.051990680145984
30.73780290118118
30.632181276167145
31.38635310193
31.499909135708236
31.17272564628205
31.181071539034683
31.209803435888077
31.831830469503252
30.877899962783058
31.661123661184003
31.873851613261348
31.70900066511528
31.939169714921775
31.64173548217284
32.20436328842231
31.131992267835578
31.772931545382917
30.948021948049842
30.77819076537516
30.969592419224483
31.258798058233804
31.020796899399926
-1
29.80406556676606
31.331912426968596
30.097424634687627
29.81122312811292
31.268594050519336
30.513326247519775
29.805198921839807
30.656502348205446
31.22760362943761
30.750038205033224
29.91818166434728
29.842213915584576
30.642134416384234
30.15275270043086
30.650351431565714
30.08562892818789
30.593241055831268
29.883740910453227
30.327808903973587
30.028840646954606
30.98942231046787
29.769271711948047
30.32994414056156
31.09488300767156
29.93489771000904
30.069372547681745
30.981393010262757
29.864404136493185
30.37743447876915
29.91563197369137
31.108050137236784
30.16280635862347
30.148242873871403
30.611674576872414
29.948595676738062
30.924390185269825
31.052356970411427
30.143608537356258
30.30993248266606
30.745419463936802
30.59923251768487
30.535832130700925
31.270621556095694
31.185483990326595
31.280025549865677
30.444421203664067
30.70417660965897
29.992747778743016
30.333497181028807
29.939238770538925
30.747267919371698
30.846965281316958
31.030055054670992
31.120244443103903
29.74316051356594
31.26785873451601
31.30975716691382
30.376566400147432
30.481400708126237
30.025577295587084
30.468501729310265
30.728735648230817
30.06420559356424
-1
31.473901380014972
31.32584225419179
31.570419489017794
31.03612068672038
30.926028066747648
31.787033820617005
31.353186044698994
32.15743346431896
31.974862043177158
31.482148022007117
31.660240548079894
31.565638516511772
31.032926366569267
32.17634745504044
31.01303461732628
31.585815570033922
30.824052832467277
32.13135219318271
31.424694987526998
30.622154023161656
31.888118037674445
31.539370048712986
30.96986184220657
32.08982779446205
32.173434932466726
31.55947570230785
31.88137674110411
30.733931239933792
31.480360370319264
31.84377860890926
30.59965203448107
31.178056506079777
31.23224315750382
32.09338742357344
30.564160546246914
30.89046979112457
32.14781978740097
30.972266089825464
32.118841570419015
31.736638904231242
31.205896569689152
30.63057835614527
31.704325268403956
30.903074486468718
31.49530476862359
32.148036934698546
31.196401379483518
31.56240954473759
30.79734807737288
31.402110194254735
31.155431606927692
31.20335160866142
32.05427609792445
31.195690553865383
32.208761922541925
31.071603643798184
31.235716299623746
30.61066585166527
31.797630473952537
31.992393301454943
32.19214514700819
-1
29.46263558824063
29.95896538842445
30.082926022564514
30.732677524370636
30.30132612182326
29.65763744184152
30.420917857207886
29.73600577752797
30.94837009501132
30.646125939052077
30.74575212858702
30.28789204174153
29.873797219879282
29.616408787495825
30.887784811947885
30.109791972392863
31.10896439103327
29.96236829846579
29.907767229549297
29.764847390620677
29.75729679031454
29.884054376456792
30.105156846843173
30.11836319576087
30.311338119539997
30.972271341278972
31.086790765185363
30.665188770939434
30.26965023027745
30.892108826522428
30.856422011421053
30.123386854077484
30.07737626395229
30.296083713595007
30.483600823546293
30.98166010880144
29.829971154326113
30.245019720130504
30.22711412300751
30.444840101897416
30.147376861171377
30.531002862170865
29.690345373420993
29.780663599913048
30.81244329292743
29.715044854594698
31.006815721946012
30.76539734072092
29.506002647077896
31.079131108271376
30.527147720291246
30.08895685755799
30.928361293086507
30.04812400909658
31.00376031728777
30.21200274864945
30.439747302069293
29.628203059970797
29.5134163522918
29.93474905550011
31.08044147698998
31.035151728622903
29.653644328463784
29.839888253355667
-1
32.775300772373875
33.10971481438945
32.716519638964606
32.61075983896852
32.80300920371989
32.63684365617347
32.627264154164784
32.85045265337917
33.0858229876022
33.028976989615664
34.16406464443312
33.46322085828093
33.14736478837739
33.428219138183806
33.60209444368698
33.939482385853516
33.92942163876483
33.85269784843642
32.63564308718477
33.171998653971094
33.342702541974205
34.11165775520863
34.08223202631193
33.736658804151446
33.202510978430155
33.518272876264625
33.50617555126227
33.16180370803378
33.95603976214351
33.60970042718593
33.475098368366176
33.693301699973006
33.92212371923616
33.23396546526653
33.753090263972496
33.19702890942899
33.0471633199354
32.56541298050849
32.793096866044436
33.526930022491314
34.099226327346116
33.19802972537066
33.418816519202466
33.92544181206423
33.44271219287883
33.77225316252447
33.58279060936327
34.14708567098181
34.05842545353651
32.94928286902553
33.219212179277214
33.33880870352961
33.63178091817173
33.95739240382612
33.81056231682741
32.938843090239914
33.6584921014482
-1
29.305016545967383
29.431349436742266
30.618130585774896
29.997102285767948
30.678784420962113
29.391805972848772
29.768818678312268
30.149351154303087
29.773051305476503
29.795405142089294
29.90141978640697
29.949768246183336
30.077638740778763
29.34781978414884
29.274188485107306
30.657549630213303
30.489859559052253
30.697428511679586
29.534020107530793
30.72727928586208
29.76641941315682
29.23215331509297
29.600567009818
29.79179746448435
29.51312099308019
30.120482180507487
30.304573213084268
29.30297603784998
30.497171273482127
30.08924132231718
30.79650985383703
29.357632987393846
30.68831104350294
29.846370774542997
30.555721790025064
29.219216093976804
29.19182223029344
30.02473040323087
29.946506813787412
30.414701439659687
29.795387864452955
29.709487910026432
29.352509657222207
29.373717000722635
29.54611495920934
30.350245826906374
30.307857273479563
29.71655046671431
29.937117331390173
30.816422214412988
30.06592281717846
30.8227651827305
29.2482237347766
29.86383955251122
30.371150126398405
29.222630197009583
29.352630082238786
30.341999718988667
30.15933143311798
29.316134905337865
30.537316688558676
30.08512976163087
30.507108152271236
29.939008399890273
-1
28.847475570371888
29.44589120356108
29.260977444414838
28.553400203063088
28.969635079997957
28.492580954506455
28.86927206932183
29.70450556085463
29.232864448218265
29.08495132217568
28.907397595800028
28.862544017039994
28.960564956112936
29.878220847997117
29.334440969952787
29.85741255484202
28.751855550078318
29.038200945497536
28.45328617024312
28.867814885146856
29.04585494881709
28.36614668679292
28.45070716582264
29.081168795392372
29.920923043402887
28.58925372792136
29.050496749522146
29.928202010593456
29.10482341529397
28.42305283931113
29.941303867971435
29.24799996930467
29.639542947253137
29.961499124586812
29.842998981956242
28.798188589325907
28.99769442248313
29.202179108983938
28.996287213940576
29.38593774706474
29.35270103512593
29.734437538623627
29.166602463321407
29.891890526541584
29.16231968357592
29.807353129161218
29.278381934931396
29.590958514332872
29.234498192296012
29.819036346615494
28.87296847071369
28.77451068984628
28.6727535801916
28.728683761764874
29.045953316538938
28.747817893663463
29.21186412523387
28.98820082905999
29.701086810905558
28.814702013369352
28.787024846095736
28.654332726316035
29.52461660983818
29.86817433662394
28.3973899791734
29.70845344276446
-1
30.049040187685602
31.028067384326008
29.880026659989777
29.922826206427498
30.563396500317094
30.569935842636326
30.927869900411377
29.90390198451779
29.693487317674567
29.645611612934385
30.064795809339035
30.174634794637523
30.961214084765047
30.138969875003372
30.77415142881387
30.019831681268542
31.052200799423428
30.00404603886252
30.531480122900962
29.49950171482688
30.98604346958972
29.79227307691197
29.537351660827117
30.254200265200403
31.005585910971444
30.38466852382576
30.641982161284496
30.762215995237355
29.62594632116733
29.793605914942688
29.7117750636461
30.984360882133938
30.645022025877342
30.63741131078984
30.741627141969975
29.47177121329303
30.746952619659087
29.51504948737178
29.705970018773915
30.870528678547892
29.62852349890762
30.0176040741255
30.466062038648456
30.000722224563926
31.0124118820449
30.841446490614324
30.011006907279143
30.316806238594246
29.81384638309044
31.08159512082842
30.57201919207333
29.570757165323773
29.76533673475812
29.616122277555764
31.046917638463576
30.56626280052789
30.310967392953298
29.54357483089389
29.704705554276803
30.010994708908157
29.890665986484425
30.238562798999805
30.97505756063262
30.31157719860865
-1
32.55250509619892
32.45859387671529
32.39719987092676
33.021958217606
31.4233528713203
32.897370460487025
32.89442769196162
31.704132368641087
31.968449910235194
32.492214998188835
31.6612105334587
32.20451025089521
31.57940970555816
32.936818890882975
32.778275144024775
32.99511463810126
31.681273938328538
32.33882107440389
32.88171583661678
33.00317978987875
32.21175493440112
32.7128126922625
32.83235721915842
32.44120923590461
31.538063196262197
31.972066455679844
31.820407887614536
32.02250270398898
31.982270067304533
32.66554243033197
32.63185684495309
31.553007431978365
31.583511174546146
31.895849436321342
32.49479443531357
32.35551716034541
32.40144344702208
32.01171879804495
33.0009883218375
31.916163130956484
32.893559038998866
31.46184130198987
31.72727796357555
31.87914251751628
31.679232182828827
32.958962767928355
32.36266428736437
32.05371677053112
32.33573233920325
31.83392749491845
32.71370479375001
31.771013839930735
32.08920995192725
32.82557073593679
32.579638143068166
32.40375560161534
33.03351857680075
31.887320519392546
32.826228195911725
-1
33.28435102192641
32.96899429711092
33.50421803103023
32.965784053606455
33.020296803571206
32.807298926145
32.74118395611592
33.18315792358508
33.20854284414307
33.30720042683104
33.28139441844793
33.07907808033434
32.611276666666484
33.48184889099422
33.219389258236866
33.510563040233635
32.15651535725449
33.274493003709146
32.08069487181025
32.64721316806203
32.84409040309939
33.32039021391571
32.458049446134666
33.49115411204094
32.540552675110256
32.01424508474365
32.54727555136923
32.28977359480154
32.06832162696905
33.40576936522428
32.293625379122155
32.19148114710922
32.28509370390104
32.46841724851774
32.38448922287268
32.45989062603591
32.692297095985566
33.61089512531556
33.568173289748096
33.32907667891546
33.50623805107231
32.26100447624286
32.0743508997605
33.48522647769578
32.072523088767355
32.946754936981655
33.59310651733774
32.86476046845869
32.67003209597575
32.19714562639585
33.33622370326821
32.96583122846844
32.80182381795446
32.451223317166544
33.15651644489223
33.51236346597973
32.34021228667414
32.332320724123015
-1
32.543909449148316
33.65386061064314
32.927175582818755
33.63971399931443
32.770095689323014
32.29347488590641
33.36683824532191
32.696551713711884
32.74051451117304
33.80231551100025
32.74240050642093
32.37248496236345
33.0434844226421
32.283900584381115
32.78595896777884
32.74422257128876
32.5892654228979
32.378016150866806
33.37808967816249
32.304209518264805
33.62514365981473
32.27313126523457
32.61251800355532
33.11840272946506
32.52078087832141
32.8090673569911
32.38978684243364
32.43138297583502
32.7036817160903
33.30962204415226
32.67189154045624
32.414003171233595
32.45438337635665
33.575536366813225
33.05231039073128
33.77383864590793
33.736141928556705
32.810968055354515
33.78707076249995
33.02585432888762
33.834475295291924
33.48482462576653
33.225785444637395
32.34993339675265
32.65125913110081
32.90858157331445
33.010304284256016
33.47656326357723
33.36949055006855
32.644569793658896
33.13942065267668
32.942037019174144
32.87833830027083
32.40982146598699
32.69761637920067
33.673345905416674
32.490348933268486
32.577088283377314
-1
32.96145661892638
33.073118372384855
32.11381303130642
31.906161490689865
32.82873561053429
32.10427931578768
32.74048265218927
31.91787846029496
31.814058171414192
32.60947821279989
31.680404048164768
32.192954620382565
33.23088481841767
33.26065844712807
32.72027617000197
33.21343142500611
31.748376305696283
32.42524462503995
32.33320821241928
32.07210695773163
32.42031002738306
32.20753856692541
32.81058531073711
32.540486493875605
32.919093739172595
32.408329085597956
32.43552364517689
32.63920150506433
33.18147101773542
33.30861072655888
31.90532272190348
32.45224014875944
33.1454934514956
31.679723978279657
32.5010122548332
32.948793674125284
32.45006715263965
32.0540662827418
32.011531693401345
32.567733425802295
32.545529435074236
31.724442479054268
32.48160397146069
32.279694697489134
33.29294320066279
33.17612544363996
32.799304154046325
31.770454317715302
32.81111176611864
31.69378408969102
32.30501499315201
32.62008306623127
32.73038186438666
32.05893825054264
32.32123433060933
32.21856520405879
32.797784356731874
33.22918608056067
32.43922243429617
-1
28.907526975804462
28.96347723595664
28.066796109080343
29.052645204009817
28.258704703247474
28.364059863137076
28.551562788997153
28.37402581722958
29.437859464600788
29.549794000885587
29.47976365781604
28.727931994174046
29.509380799231053
29.657628485566963
29.034222577028444
29.342191942627526
28.320424589019325
28.65175281551327
29.22235296448102
29.30323094139136
28.26410798615025
28.550158017209352
29.14049515241191
28.994489980753947
28.81111563549963
28.80069480089401
28.31451130112654
28.094116281982267
28.16735231058748
29.23856426305301
29.558420198524367
29.149310515740925
28.38825997875467
28.38692955539151
29.5835448619354
29.60050960327415
29.305481390666152
28.327505841209383
28.60008564791587
28.61979553822657
29.032033964349633
29.635238831293126
29.047888898415525
28.25454764980262
29.60805715375745
29.27385127438206
28.373453425197145
29.462733633574256
28.863843810709046
29.22045577716709
28.102575197553556
29.357028730862485
28.810265191005623
28.92760228872008
29.67580366190738
29.674497216337922
28.485514527822563
28.873380378870767
28.283739143894877
28.15686399366294
28.524657937442903
28.727866407748813
29.261141701178122
29.163448562620136
29.108131786690187
28.743957883453017
29.13951208966284
-1
32.47704658311919
32.53864786563671
32.651307679779976
33.614637217470694
33.15811632024344
32.28316087529752
32.43802220079655
33.15478179046191
33.84955311690501
33.03224359500534
32.23284694941669
32.39997684747539
33.24541532787116
32.71826049910945
33.09354374191261
33.661265329755764
33.865083820817304
32.80440265966035
32.25093224412285
33.40158128807862
33.02755012642704
33.40813814182808
33.25006178771962
33.77073446257993
33.064432171523364
32.96781587894467
33.59531365016307
33.78245066435433
32.611775660849865
32.87198873614286
33.04238877485405
32.77389965241868
32.397846260712086
32.238274504841556
33.74165854390461
32.748103471952575
32.24001707054465
33.26457542781204
32.384296807625546
33.1283281796541
32.64517110818722
33.28023026812745
32.66830126879447
33.01769092154394
32.80810241851986
32.46484159138574
33.78595270810952
32.25675745572506
33.58788293112844
32.844774277419965
32.23744990500035
33.40686637626605
32.546392614372095
32.954988997818255
33.43073261971509
32.257294376937345
33.35619254414236
33.46696292130361
-1
31.56883946570884
31.017194869892776
31.456435230384493
31.39847147091533
30.587785692818606
30.220954407547435
30.57228172517358
30.39872
33.08096
33.528
33.528
32.18688
32.63392
34.42208
30.39872
33.97504
32.18688
29.0576
32.18688
32.63392
31.73984
32.63392
31.73984
33.97504
32.63392
31.2928
31.73984
29.50464
32.63392
22.79904
31.45155228893797
30.855420559893712
30.040233334546677
31.20241633359076
30.152550190756084
31.178605192600195
31.266464150534624
30.643582157608712
31.437286660394502
30.101096849726183
30.898800463111613
31.289861821484564
31.603930646363185
30.165826225764064
31.425714782038767
30.569406699797447
31.009141383766554
30.9479665644568
30.933115397401078
30.221848603503116
30.34848714405544
30.849893274452832
30.317923428274757
31.627055553201206
30.4376130107501
30.059615357060128
31.153303503588347
31.12408618491681
30.87059275958342
31.203490647874517
30.48774415182642
30.70613453536395
30.693942184109652
30.07201998495245
30.398269742133408
30.142948822026508
31.632234884503646
31.3642453334329
30.458235307444205
31.466647886457537
31.434136544920005
30.34842773733467
30.422408293792543
30.86004797685342
31.5759694014509
30.674243594285038
30.04304326471254
31.308553587778523
31.530296300335706
-1
33.11528502675422
33.77734679470309
33.284224293429176
33.63067040551194
32.859308929489316
32.68578131188988
33.7050157267382
29.0576
33.528
31.73984
32.18688
31.73984
33.08096
32.18688
31.73984
33.528
32.63392
31.2928
32.18688
31.73984
30.845760000000002
31.2928
32.63392
31.73984
32.63392
31.2928
32.18688
31.73984
32.18688
33.555050887923656
32.89172363981196
32.55801568949813
32.986081541729675
33.87357500424004
33.16138441338358
33.337866892621584
33.281596823577885
33.83469550649916
33.54082989739161
33.6263796395102
32.564181880084845
32.70748647639849
32.90480895858948
32.768631928471585
32.94086583759587
32.96993080558375
32.895546542952914
33.099042718425494
33.044241547062754
33.883396657012746
32.5478942050026
33.78077998962275
33.70011704653741
33.59544301879292
32.57934881010829
33.18430607022612
33.730844153776886
32.82357773887198
32.9171738105349
33.14495603908858
33.3801343159152
33.13515489528542
32.27086116644907
32.38638285002961
33.10721501224103
32.85324782378545
32.59625746340813
32.89572791285308
33.72897447051831
33.68506544510336
32.471180363320464
33.754148718790184
33.42162050725137
32.954961882859536
-1
31.493437957439003
30.7898196608067
30.802238733092366
31.54647675024338
31.29854379258577
32.1869641735394
31.680687565192056
29.95168
33.528
31.2928
32.63392
31.2928
32.18688
31.73984
30.39872
30.39872
32.63392
32.18688
33.08096
33.528
31.2928
31.73984
32.63392
32.18688
31.73984
31.73984
27.26944
33.08096
31.2928
30.856615446902524
31.6785622369398
31.392995218133457
31.91226750525486
31.506999508640288
32.21130013107625
32.20878078989035
30.881291384789147
32.188615640906846
31.548729583650122
31.433924303042765
31.174204024090272
32.02892181501953
30.767167230627717
30.74028603713611
30.993432188665892
32.1476115319712
30.625040166682393
30.59748270044084
31.75956775159089
30.787005449964383
31.86891455038981
31.151538950577088
30.86368583035159
31.886505777502553
30.633736161049693
30.844909443133776
31.837916194786143
31.633635130632136
31.44058854380568
30.755216233904914
31.570782463413586
30.989350752288185
31.63804938973892
31.121259578369223
31.604307267371453
31.11924390933078
31.694746384609186
31.318151909214173
31.345779366667898
31.398237667711754
32.19765739391779
30.638804441619317
31.875059852363112
31.19448106837993
30.743053320606553
31.303122126376195
31.595037291914625
-1
33.3275871876428
33.12863522606804
32.57417717043999
32.94614948103189
32.48910589083519
33.70010226380409
33.32263262512531
33.08096
30.39872
30.39872
30.845760000000002
33.97504
30.39872
31.73984
25.034240000000004
31.2928
29.50464
32.63392
32.63392
32.18688
30.845760000000002
33.528
30.845760000000002
33.08096
33.08096
32.18688
32.18688
33.97504
32.63392
33.28813874973904
33.20019384587956
32.48448772816996
32.67786140762501
33.136831274116055
32.274356620426815
32.79023284365711
33.26996015596952
33.66138387087611
33.093903849210065
33.8241796110698
32.39357656464986
33.501515401392844
32.838058896040636
32.25025103181343
33.70310687654106
33.44793873632178
33.64708785305301
33.23861643135389
32.71759482853787
32.31089470505874
33.41097478889867
32.597596776455205
32.82727785953449
33.011262466887544
33.0576939949027
33.66552514418555
33.247957276742525
32.95639031721419
32.621404036699985
32.693489332566614
33.509018254751815
33.25921011292803
32.9949110594323
32.80567715754755
32.25265702049135
32.32436776237785
32.44685578440268
32.61525595139653
33.032354115759034
32.42568851755667
33.37893529971254
32.86701285512138
33.09453186250356
33.135297837419635
-1
28.618872145167533
28.75548848861712
27.667568473165467
28.54690454830057
28.06365792659771
28.324458103813253
28.618211187504258
28.7584065052213
33.97504
29.95168
32.63392
33.08096
31.2928
32.63392
30.845760000000002
31.2928
33.528
30.845760000000002
33.08096
31.73984
33.97504
31.73984
29.50464
30.39872
33.08096
32.18688
30.845760000000002
31.73984
33.528
29.50464
32.63392
28.71075787087235
28.00823475637891
28.757873477160146
27.75624772843178
27.584337890887024
28.08391044157887
28.791242700109322
28.539719048592094
28.12672653424299
28.033697817118327
28.55343965662654
27.50460655463009
28.496924687617994
28.2187623431632
28.084770515598578
28.135546099313743
28.674277154008102
28.97674904174982
27.852462702805003
28.078518999524846
28.97193101782233
28.467111240483558
28.530813282903797
27.715284435583474
27.878832374329544
27.73841312671316
29.008013348128642
27.829318228890568
28.765224612981566
28.693926065936065
28.34683115167535
27.639349912595385
27.90490564931598
27.886071748308797
28.287340192426495
29.04853092142847
28.82121197850535
28.043245019418745
27.542963388486225
28.414623582390693
28.48615887443798
28.25761648499776
27.606274222732097
28.489373313148278
27.72671022536665
27.839661383879754
28.714915083424675
28.736750598260645
27.98544507214646
27.97439497002703
29.03066218036512
28.686689023395783
27.678267012785632
-1
27.520089243660532
28.311005314055635
28.042355297729582
29.09761517346824
28.905867195901372
28.24514713977661
28.65771194303932
28.754303014812745
33.528
32.18688
32.18688
33.528
33.528
31.73984
31.73984
33.08096
30.845760000000002
33.08096
32.18688
33.08096
31.73984
33.08096
33.528
33.08096
33.528
33.08096
29.0576
32.18688
32.18688
18.32864
27.26944
27.80581777023092
28.542385209561
28.337870661121507
29.094725753455645
29.034372510276953
28.160035265208233
28.401059843904676
28.197235625080857
28.378203125930007
27.866419180852954
27.88702448626806
27.92890044710325
28.013853402888383
27.709083057695533
28.337318239216792
27.903285548607705
27.64217967579355
28.111366347108323
28.13072704111937
28.86393430055097
28.4437363004541
28.786825463002756
28.068618463079176
28.785428227250637
27.716077728190598
28.29545667021493
29.021220418955725
28.019388259435196
28.279535782140083
28.252185457370867
27.86412911980578
27.900344325435206
28.432365364278077
28.270029855992412
27.988055575378272
28.699382367957824
28.732572805534105
29.011035865610438
28.687281706556675
27.671876143482283
27.848908271496573
27.894189116221774
28.72350725865493
27.856092948178414
27.824091617107115
28.404364234606877
28.32173114504597
28.242027196844123
27.66267538049197
27.89331317797691
29.116853175286273
27.6111319648154
28.19403562616738
-1
32.52805648910379
32.95242929434474
32.62585388698562
33.51538291046439
33.203688754843846
33.51566699226238
32.26115293611628
33.08096
30.845760000000002
32.18688
31.2928
32.18688
32.63392
30.845760000000002
32.63392
31.2928
33.528
31.73984
32.18688
33.528
32.18688
31.2928
32.18688
31.2928
33.528
31.73984
32.63392
31.2928
31.73984
32.26728804983753
32.56361156503363
32.6964620128729
33.38759845567884
32.88164487491205
32.8629807615537
33.140998585361984
32.3036673536098
33.57732670127569
33.600646903588675
32.88900778427432
33.572906526006435
32.588134416138345
32.426588671396615
33.16315834282286
32.39659870595852
32.46312623497882
32.49982301708799
33.34537704022309
33.48657224137518
32.250720215741424
33.43429405878506
32.91635375194698
33.49183536409907
32.29155556995627
32.91978666747937
32.336634627712726
32.758301453907166
33.36495487563494
32.3565393271699
32.101939649286656
33.061873556036275
33.1724368997291
32.39594053249895
33.17832091047887
32.618244048737985
33.599085947772714
33.135487995772124
32.71451136519997
33.13793286792877
33.53635697953406
32.20740101741926
33.005961137808036
32.62900790506925
32.61142009146309
-1
30.827206239051474
29.641081787341502
29.919383809958845
30.81393723561064
30.443983302009787
29.528932064105717
29.560285159323133
31.2928
33.08096
31.2928
33.08096
32.18688
32.18688
30.39872
29.95168
32.18688
29.95168
31.2928
29.95168
32.18688
31.2928
31.73984
33.08096
33.97504
32.18688
32.18688
32.18688
31.73984
33.528
29.609086006952555
29.857115769108297
29.65526138112159
29.930958203267494
29.58059428817293
29.904947319052354
31.007933487956603
29.519501654519804
29.98523322337537
30.393093463163222
29.525671452744138
30.49916453461864
30.415957420921035
30.190856607210772
30.023022241492946
29.905147599497045
30.623928286170802
30.735985492643728
30.02031179239321
30.943611343613743
31.003609650509635
29.960362783842633
30.346723598511897
29.675453824365682
30.1736851486897
29.91385234013426
29.672720552963092
30.066446408732414
30.567341006365783
31.01360350128033
30.884865549384028
30.696420655750888
30.39500191473122
30.548257482610733
30.108348578410638
30.940057886324166
30.760902979511986
29.48739969725762
30.876864626916362
29.83710556025436
30.10192346293869
29.786250529487777
29.779238594708293
30.493867767330517
29.472903529273342
30.900651795874968
30.87736349955057
30.03392524670434
29.860542320005468
30.804554634255634
-1
27.58742727117364
27.884975036984542
27.253580382402408
28.030672220888732
27.839210861476488
27.91281818306968
28.668493408059163
28.05437798607254
29.50464
32.18688
33.08096
31.2928
33.08096
29.95168
32.18688
32.63392
31.73984
32.18688
33.08096
29.95168
32.63392
32.18688
26.822400000000002
14.75232
15.6464
0.0
11.176000000000002
16.98752
27.716480000000004
29.0576
19.669760000000004
17.43456
28.163520000000002
27.26054105512288
28.54357501670742
27.31444257897711
27.787405647143057
27.928960153636943
28.87568787619534
28.385072553381065
27.33407000292219
28.830652882837047
28.638141852457036
27.792157482944805
27.785662051004724
27.222297510626756
27.835738507253126
27.966997826158263
27.254407530756758
28.608958748669455
28.146665816754748
28.529308333241424
28.772864334752118
28.1180219029152
28.1024433187976
28.653889627362076
27.78626829720019
28.746106547698243
28.092367473482497
28.39669018360682
28.086754495671055
28.871589164895106
28.21537582332605
28.391930539653053
28.29521822018513
27.5598036652786
28.618459605813026
27.867443529697006
28.055498467164504
28.20784549490343
28.21238188553901
28.179615953195515
27.299902872690023
27.314512284601616
28.542503177579867
28.042299117435594
28.274845838761237
27.284936877165173
28.448309604243317
27.315787184115685
28.480540507592014
28.522242335034424
28.63645107546768
28.632443950063678
28.279271468992558
28.286738392678185
28.41872344441665
-1
29.207359369483715
29.337813363544413
30.12636352708186
29.93694378613365
30.2521655481801
29.670404836609755
29.67265560505966
29.95168
32.63392
32.18688
32.18688
32.18688
31.2928
30.845760000000002
33.08096
32.63392
31.73984
31.73984
32.63392
32.63392
28.163520000000002
29.024924850673425
30.145023000348427
29.184913125861
29.278110171284375
29.26580685742919
29.67785682936578
29.505310920837022
29.782671675219266
29.934615620398414
30.24682159775735
30.505694625972374
29.683547643548653
30.047123170309955
29.820773916920448
29.10228981636225
29.475511900466945
29.747552291762545
29.81896718289191
29.455332271199634
29.976220629363734
30.08758613410676
29.818184790138986
30.292138339622195
30.288039608026267
29.109332322284732
28.96428208425415
29.478368703661317
30.528677543503143
30.128288055821812
30.386608378741357
29.59892996028298
30.245795819154928
29.481168211040085
29.4727009644094
29.496480742037384
30.51572741530379
29.091023948857938
30.22164475767315
30.454117679763396
29.44681482299997
29.008393859348104
29.390910851741825
30.332838083441814
30.497004155268307
29.945628217009663
29.116656868649603
29.4838178070387
29.006544102479506
29.0653425376129
30.121389996395674
30.31706510106478
29.63993221424614
28.91318765453664
29.525564851490497
-1
31.565298068381278
30.581085767494297
31.489456904654062
31.52703655765208
30.444766575331453
31.327796976976384
30.37124220442717
33.08096
30.39872
27.716480000000004
31.73984
31.73984
33.08096
31.73984
33.08096
30.39872
30.39872
33.08096
32.63392
31.73984
31.73984
29.0576
26.822400000000002
32.63392
31.73984
29.0576
33.528
32.18688
34.42208
30.553750970211983
30.43652190119331
30.811389082602414
30.152277820105507
30.561959687544466
30.595057432941392
31.06915919616519
30.92155421581371
31.323259950249902
30.99705567874945
31.407418530569196
30.507521868108732
30.727428904712376
31.391612970665886
30.729366922637713
30.242936624480567
30.90860553962453
31.12144669450897
30.364461647895297
30.545635311080478
30.49087196865222
30.575959060908954
30.96297116269411
30.21625189555813
30.81461264779267
31.417826597418703
30.83613511480701
31.610721752168175
30.13947083338873
31.107661654047444
30.324501332942337
30.90434023006607
30.17291128359572
30.16958609689401
30.697908792304617
30.19181111599329
30.51200536199904
31.527602293838854
30.06356666187679
31.16414006363626
30.376744468763945
30.09844070919539
31.117079038040707
30.235063654781296
30.02262806026531
30.984440552176157
31.315079009016195
30.590290788723422
31.448462553360127
-1
33.163329521337715
33.61269980416676
33.72260311425067
33.835023111876524
33.57855139707246
33.40575989928396
30.845760000000002
31.73984
32.63392
33.08096
32.63392
32.18688
30.39872
32.63392
32.18688
31.2928
33.528
30.845760000000002
33.08096
29.0576
20.563840000000003
14.75232
0.8940800000000001
23.246080000000003
32.63392
33.528
32.18688
32.18688
31.2928
32.18688
31.73984
33.36875067797126
33.38440319058603
33.25309614640921
33.09833462435193
33.2885670082003
33.09452065136127
32.62594916068183
33.34708944612129
33.28508102937214
33.802850770183014
33.0376259925203
32.890833796906094
33.386900760030976
33.59246406220725
33.474638116477465
32.86458498710092
33.64083922718035
33.786026271248055
32.392225222528346
33.027085765776576
33.25875177310782
32.24675107521808
32.56543749396996
33.540742318458676
33.63198245510043
33.85655445820169
33.183299590068046
32.89770289855302
32.47583929229746
32.52245475407108
33.050853173219494
33.34263133882837
33.334293493355716
33.17847312276328
33.46602373027831
33.03498449526321
32.52828576938597
32.66858286672259
32.42582170805944
32.55460389664262
32.702965176081
33.44996805041477
33.28937086730772
33.85085109360558
33.419873845412035
33.74497830208953
-1
30.063899778679993
30.10362886985276
30.44934268709338
30.334242250234823
30.07080866842877
29.60405361303797
29.636791275386475
29.0576
33.08096
31.73984
32.63392
31.2928
32.18688
32.18688
31.73984
31.73984
32.63392
32.63392
32.63392
31.73984
32.63392
31.2928
32.63392
30.845760000000002
30.845760000000002
33.08096
31.2928
30.39872
32.18688
32.18688
30.495497422619668
31.082507393218606
30.11840344365787
30.94881070387588
30.549381382766164
29.659455772575598
31.03154357782093
31.005311857887687
30.18485651216739
29.694241859025162
30.87047500476333
30.670501843310873
30.98336943612416
30.40868208539336
30.721682632164253
30.931448103365717
30.604861337320425
30.717398176824375
30.976388684900183
30.977699155414655
29.455965515326625
30.286291225663643
29.976353438907744
29.572914168378848
30.56228488812111
29.46491870676591
29.944389081857768
30.186081968714298
30.412541594959684
30.924449610381036
29.947357968759423
31.028620078707203
30.64037232548212
30.287625569324724
30.888452108634926
29.791106298015066
30.892940769729424
29.627325140319805
30.326655469942214
29.489605511958814
30.437688375277517
29.769247376011236
30.27448182970273
29.749848962944693
29.979441419081223
29.861900487626585
30.69702115700883
30.411234419980453
30.79974228783852
30.67350065582028
-1
30.897188235863513
30.49434512278082
30.10459798220838
31.277900751886488
29.93373947424905
30.633421417693672
29.765117855784688
33.08096
30.845760000000002
29.0576
32.63392
33.528
32.18688
30.845760000000002
33.08096
32.63392
31.2928
32.63392
31.73984
33.528
31.73984
32.18688
32.18688
31.73984
33.08096
31.73984
32.18688
32.63392
33.08096
30.836230710314677
30.291351543310842
30.253876347521295
30.481442582899568
30.271927379201276
30.074331450998457
31.252552721877983
30.840993585240835
30.978954753693216
29.89035103219364
30.024303981928536
29.842436980447175
31.005137204485134
30.00418660322997
29.990479008836836
30.619941137893885
31.34449235155395
31.38395177301763
30.955245829782722
30.358943732752607
30.93588729664
30.765606816924073
30.502208208780917
30.924557134193638
30.841701623266378
30.43607209358017
30.470915942565743
30.74099192934165
30.72503810074203
30.311900793378268
31.098769405816018
29.946383414784805
30.940961198455383
29.735843573529902
30.011800094782544
31.135489821744972
31.30626748291188
30.894432440434034
31.231207619488615
30.426234216321646
31.246732451442554
29.87592132576168
30.731348103303414
29.811648839182276
30.540633689347924
30.139549645027866
29.839101574519404
30.119781671469035
30.282625910037144
29.887471291458017
-1
33.07921512306191
32.78020413268517
33.566817731422645
33.107969002361514
33.0946380448612
33.25800356645558
33.22955948341926
30.845760000000002
32.18688
32.18688
33.08096
32.18688
31.73984
31.73984
33.08096
33.528
32.18688
32.18688
33.528
32.63392
32.63392
32.63392
31.2928
32.63392
33.08096
32.63392
32.63392
33.08096
33.08096
33.18263870153342
33.47623481392968
32.95719849402582
32.58984407124918
32.43521978679006
32.74082950383933
32.411895746849794
32.002404685484024
32.804728773292496
32.441640371089626
32.020816902913865
32.826908073165704
32.40860589266565
32.84400777158884
32.34151411816844
33.49203844493645
32.47247037368106
32.70233011444812
32.437374964225036
32.90992001040099
32.91144541266234
32.13687536231425
32.72603577551195
33.476035627802844
33.259880903881935
32.32430470611181
33.037261028759744
32.29767836134637
32.64011757366034
32.56633071949841
33.399871949706444
32.00393213054034
32.840167344159205
32.62026913449003
32.77424568111033
33.16888939021321
32.33483325761446
32.62999476299908
32.86259803447004
32.36060797726942
32.901524909825476
32.91931569894973
33.59703491177257
33.1111868445592
32.68417232686227
-1
31.640966027308895
30.991134921284882
31.215454388594456
30.870748594756687
30.908979936321494
30.860565274044752
32.05993807393166
30.845760000000002
30.845760000000002
31.73984
32.63392
32.18688
32.18688
30.39872
30.845760000000002
33.08096
31.2928
32.63392
34.42208
32.63392
32.63392
32.18688
25.034240000000004
31.73984
33.528
32.63392
30.39872
31.2928
31.73984
29.50464
32.351929615584694
32.47552388141541
31.584640538733073
32.34411938458999
31.871561011688954
31.007467998125417
31.062606825022986
31.833163963068348
31.088215638673155
31.560020738879967
31.630536129875882
31.83862907296518
32.04892984009008
31.172567178177506
31.61574820830312
32.232342687822445
31.155564275561762
32.03200585922576
30.942315704617688
31.262954565169508
32.25307342177405
31.190614582594485
31.222679878337228
30.858316283492357
31.117974321641988
31.81408207866029
32.07411692897505
31.153161345088794
32.03838974628019
31.809365239318854
31.337920315770553
32.42328873987732
31.058877924234082
32.441472919625845
32.453711025956
32.10126795767612
31.480512678393126
32.193132935366265
32.45124712378265
32.42791612128321
32.026014585072296
31.318239592199593
32.200815207351646
32.22511155674091
31.701152279152566
31.95566931747733
31.710748021856066
-1
28.117646370916162
27.881458767624633
28.506585586798668
28.25532051450304
28.261803691461722
28.286934568519623
28.82870701244771
28.423773913297293
32.18688
32.18688
31.73984
32.63392
33.528
31.2928
30.845760000000002
33.08096
32.63392
30.845760000000002
33.08096
33.08096
32.18688
33.08096
32.18688
32.18688
33.528
32.63392
32.18688
31.73984
31.2928
33.528
27.517483414381147
27.52943886128639
28.386569373537217
28.37504221874196
28.851201070322677
28.135100154973824
28.873204605894166
28.04311751066424
28.80805744223164
28.99649099638612
27.75796268576504
27.509665108417206
28.091229582340418
27.528932774965075
28.48401902055613
27.839858809428517
27.70858197024856
28.201377183188786
28.91328408452824
27.91256942942044
28.404140239339267
28.56007934275553
28.06149106871405
27.90820606643295
27.7344234442844
28.799801375838406
28.66786464794866
28.621741646115943
27.927299481403583
28.425891058954928
28.614151404747833
27.658102447295214
28.574114315843993
28.591271224069033
27.646920536209688
28.842166348628272
27.921015061379894
27.951814783313505
28.931586587976614
28.169429936761052
28.375973157604736
28.361771400313877
27.676568901781152
28.335969603881043
27.50068227063602
27.761184148024693
28.078044471134433
27.650969845116986
28.54459242074024
27.856258719906084
28.483213452599635
27.951824360787835
27.835177740459358
-1
33.10017144481961
33.2862390164348
32.81453907145551
32.676769637037154
32.19166672948533
33.07122964719208
33.5597074375953
29.0576
29.95168
31.73984
31.2928
31.73984
32.18688
33.08096
31.73984
32.18688
33.08096
32.63392
32.63392
30.845760000000002
33.528
31.73984
31.73984
32.18688
32.18688
32.63392
31.2928
32.18688
31.2928
32.94880001426584
32.352636259193666
32.1082399647557
32.495523931225655
32.12990414819709
31.9875381138688
32.27167752048708
32.94738390721906
32.08735267592594
32.54206862859703
33.262291643025684
32.716975525637665
32.92475828868077
33.161957992302966
32.77673373342509
32.939284105987774
33.04435475256849
31.97888846094979
32.958742588528985
32.4713666440583
33.044027292961374
32.009019025930826
32.77963028182834
32.198934346906356
32.23820784435474
32.984561008022176
31.99997384493696
33.25778185905996
33.24702182574893
33.40922716708008
33.42073504861945
33.246857132326035
32.63876352021879
33.06750429630294
32.90709441960676
33.391598659417504
32.370216907897266
33.45891010990408
32.82876760877238
32.30008872052438
32.747529116211986
32.17168945995261
32.43980486138699
33.440572696193
32.82728393866112
32.05578285479291
-1
30.484809211623574
30.09983876644639
30.742318460145036
30.642824778552697
30.56643197307169
29.40813523295481
29.33885958594904
31.73984
31.2928
32.18688
32.18688
32.18688
32.63392
28.610560000000003
32.18688
27.716480000000004
29.50464
33.528
32.63392
32.63392
30.845760000000002
19.22272
10.281920000000001
6.258560000000001
0.0
14.305280000000002
25.034240000000004
20.563840000000003
24.14016
19.669760000000004
17.881600000000002
24.5872
29.509417368063684
30.425881448253985
29.871249206964432
29.303018616741024
30.714920139309314
29.91515597197002
29.181633751692953
29.50564152413394
29.933121800784193
29.653689628922052
30.2058460844621
30.028343912390653
29.652767611119533
30.74989096891126
30.030943980321986
29.455921127965734
29.59653573077867
30.01854309264363
30.48143693675859
29.530286603178812
30.6123430091676
30.62372204888
29.309316737709885
30.227919459493098
30.55021546602797
29.250393093967457
30.31079925913587
29.52234659096296
30.75677194938459
29.21676393124459
30.559932283005363
29.594813023800405
30.3236035744753
29.383809303823003
30.437831012737618
30.060003727412376
30.448810812624114
29.631468250517795
30.510327368378622
30.546142415775794
29.879360833513626
30.05284992791834
30.232923528113105
29.710003010238434
29.39574084389861
29.535038083500158
30.2734670716607
30.477330514675884
30.3462831257478
30.047752174156006
29.606567949817716
-1
32.77342450583819
32.05314825507372
33.02131621870291
32.184260835664944
32.722138175897605
32.415439850157355
33.0164527947302
32.63392
30.845760000000002
28.610560000000003
33.528
33.528
31.73984
31.73984
33.08096
30.845760000000002
30.845760000000002
31.73984
32.18688
33.528
29.0576
29.95168
26.822400000000002
32.18688
29.95168
32.18688
33.08096
31.2928
32.18688
33.480790903056096
32.786937104706475
33.12640021168601
32.587774044362575
33.28604256499014
32.81238214885897
32.16909228258706
32.20447209565188
33.55328305144943
32.447804986741936
32.22464777021638
32.646969620549186
32.88852711535802
32.695471269739926
33.506217554917654
31.963294469907378
32.268265831873556
33.136426412598965
32.616940506973656
33.10255225830545
33.55573468821828
32.26490146079559
32.38763047923532
32.4957290960915
32.65374487195326
32.59555541600978
32.99004809824496
33.07183253596681
32.831643960792476
33.15997853457768
32.09721268090158
32.633899130765755
32.098934833577665
33.013112839352516
33.13987579645541
33.50800676889915
33.13512434718792
32.09322784587934
32.45470053565031
33.5857845060079
33.55783617196082
33.554155154065306
33.33485657548589
32.30702076223716
33.219097325544354
32.84896631893646
-1
29.440306189922165
28.578909920726794
29.598437202888068
29.548488076777453
28.84849205288399
29.376163915094242
29.746153295296285
33.08096
32.63392
32.63392
32.18688
33.528
30.39872
32.18688
32.18688
32.18688
31.73984
32.63392
33.08096
29.0576
29.50464
13.411200000000001
6.258560000000001
12.517120000000002
18.32864
24.5872
21.90496
15.19936
13.858240000000002
17.43456
27.716480000000004
18.77568
17.43456
22.352000000000004
23.246080000000003
20.563840000000003
29.78847748864278
28.682399088196615
28.889347088002197
29.87135062068242
29.90329654329313
29.6541441672986
29.36341806171258
29.513479341862585
28.991145773312816
28.752451398367334
28.466377086565732
28.440340444220002
29.376390829911823
29.50789190345363
29.799497523321055
29.22701666113415
29.77292283347167
28.494201707719856
29.221945464825676
28.513737047798212
29.472707603908958
28.957655640358617
29.111014493196013
28.34327995181275
29.503177928993555
29.746748227383286
29.607911535212747
28.99316608770217
29.0685427861352
29.213456826860575
29.129825559297153
29.78462737546642
28.43025591539277
29.475135184101433
29.295221321829647
29.4691502280024
29.35747349217015
29.695942314147622
28.577593948660855
29.630958235626263
29.722664662308226
29.535318346384315
29.473299288142947
29.766780670799275
29.730626482952914
28.951709918676606
29.07486746510748
29.645985168155768
28.65098950513809
29.80918627448128
29.34908602477252
29.881300947637
-1
31.13975970021025
31.786260219588623
31.837892164307885
30.60041813818055
30.905324934801715
31.583817427377195
31.40222577854709
32.63392
31.2928
33.08096
31.73984
30.845760000000002
33.08096
32.63392
33.97504
33.08096
32.63392
33.97504
30.39872
32.18688
32.18688
15.6464
30.39872
33.528
32.63392
31.73984
29.50464
33.08096
33.08096
28.163520000000002
31.247883503002313
31.30224553916083
31.164071879072015
31.81550313676281
31.51442251212209
31.551695922763574
30.816699936100264
31.112852401651974
30.38617744742739
31.829955849201564
31.11854723361087
30.457902294727017
30.641398533796597
30.426375914330674
30.890988364106768
31.65195499951017
31.108475109754217
30.875213911599356
30.523270085885127
31.656239893316183
30.451271155773547
31.02102868572743
31.55910587357358
30.34556069457969
30.951461804803508
30.757590473550543
31.205833678786313
31.892963964159865
30.628985565428028
30.84595830119054
31.156243270574638
31.085121465892158
30.715230778044052
31.76848070819754
30.479389828310616
31.820267571810145
31.3024929380367
30.678666269058326
30.671672604296166
31.04476524389489
30.937576402649665
31.16214431058319
30.596500223378797
30.774021334424823
31.007166024146812
31.39795957826197
31.64665977194444
30.28520483515293
-1
29.625397827998434
28.96451453537533
28.903592562175806
30.046147039136525
29.093819503374668
29.244431792984138
29.9012768335556
30.845760000000002
32.63392
33.528
33.08096
33.528
31.73984
31.2928
33.08096
30.845760000000002
32.18688
32.18688
32.18688
32.18688
32.18688
24.14016
15.19936
29.50464
30.845760000000002
31.73984
33.08096
30.845760000000002
30.845760000000002
32.63392
29.126637758941325
30.201423349305756
29.7372048532084
29.860831501958103
30.3215624459338
29.503598542405147
29.868417094469674
29.989536716678256
29.28314462302838
29.77351790061148
29.076296144259334
30.20118652811918
30.54842446670501
29.486723911720595
30.2124921686371
30.003085370296116
30.031129147299698
29.80150740265289
29.230420052072542
29.073483805591174
29.199895349840677
29.000950125537997
30.207846812756014
30.26957534465089
30.035912232616795
29.090692360813666
30.37703353748761
29.435408944683488
30.099056030900172
29.860093970388245
30.097786127146083
29.72705342260919
29.403006500728463
30.54681324883024
29.27289488014372
29.905747485070147
30.30667158964086
29.96260241211625
29.571656162381096
29.501919359334778
29.9381656916709
29.207973828009003
29.32879528055702
28.923856203429015
30.111923167825317
30.258666646965153
30.123154698104482
29.474453900210356
28.945947493425095
30.41419813147444
29.14630608876713
-1
32.80593861782321
32.114188196757794
33.35985796753622
33.428747325004736
32.753600377860145
32.48775651431326
32.617125076831194
32.63392
31.2928
33.528
31.2928
32.63392
32.63392
32.63392
33.08096
29.50464
31.73984
31.2928
33.08096
31.2928
31.73984
26.822400000000002
19.669760000000004
27.26944
29.50464
32.63392
27.26944
27.26944
30.845760000000002
31.73984
31.73984
32.13351292031122
32.26023628141878
32.66995881020457
31.988578670345937
32.124888107278345
32.70157002620915
32.19820247756561
32.71793501925509
32.59037557815127
32.59577948635109
33.43669331714187
32.41898360687681
32.30568363655237
32.38776934425236
32.80970394616051
32.04898204617145
33.21156763975549
32.04401318606019
32.2007200886758
33.27850154352966
32.19754905143221
33.30982131058891
32.384376481359375
33.2471127227393
32.81700980135433
32.4148120517986
32.58628625008217
33.487595992734825
32.78739098603885
33.415032007727774
33.37947309525983
32.56340553786683
32.3105404199738
32.231590835282454
32.45847264401696
32.69490929415278
32.48165169558718
33.4525116551267
32.71660995150162
32.68280578438674
32.34071942360732
32.773417789133724
32.82181605635704
32.77207881798331
32.458000210502156
32.563678711468135
-1
30.183763243168755
31.118959093515944
30.53085159887963
30.721829730599474
30.200341579721282
31.18888115688249
30.191650410053438
29.0576
31.73984
33.08096
30.845760000000002
32.18688
32.63392
33.97504
32.63392
30.39872
31.73984
29.50464
30.845760000000002
33.97504
31.73984
23.69312
14.75232
32.18688
32.18688
31.73984
31.2928
33.08096
33.528
33.08096
30.67894550826663
30.020639638083985
30.362310339907676
30.075855575295424
30.633082686164723
30.000433793978136
30.87457833925976
30.625615708884542
30.25901582201215
31.23313163047959
30.13312453846705
31.350571467800656
31.13888665037426
30.585831811760645
31.29567711208853
30.326050077260856
30.59639539255294
30.79807327992191
30.916700843170478
30.62246461866051
30.525106242733255
29.89503447220379
31.26877070185048
30.41198141452333
31.136047974783022
30.522736164956495
29.80392885025861
31.130354475155684
30.05923135944973
30.804012968193714
29.79723034799825
31.17241241281773
30.2952274195835
30.60731319954524
31.17724900585736
31.16901856905279
31.12655828123191
30.715763666863474
30.56296224119456
30.931411524859367
30.931008665895142
30.61473070083098
31.2598332656546
30.989002291348285
29.890072900720742
30.148986332175163
30.753389645502462
29.95562337443045
30.52227586891668
-1
31.0357264170497
30.226681321937672
29.649066808263942
29.574601935173657
29.511070837215986
29.466888874642617
30.69557538275819
29.533412642840297
30.851719174503966
30.928782383320954
29.713284582303164
30.847132700029267
30.182087423793945
29.94887917695443
30.797412206014844
30.83603963846375
29.456034861364376
30.7516852531889
30.428119593309354
30.022191269643976
31.089942175311762
30.58170267454319
30.416092782503014
30.749495148655498
29.927026448873413
29.91494697492784
31.075748521812525
30.75660456571812
29.484278041890594
30.858993819984924
30.16159737681935
30.563775855113516
30.739720943696863
30.513659120418634
30.227320073208013
30.72394948158027
30.742761331256553
29.52958778498444
30.07655332563664
30.14619503859618
30.74087262896468
30.035943503805434
29.869238229656304
29.826287747661965
30.978428894932232
29.844396405453654
30.894323780106056
30.74789508796126
30.17148166815771
29.708023636406413
30.018642610559922
30.44864624038784
30.229005601408524
30.75390700219259
30.372881749887828
29.778235290995546
31.076621360544642
30.017132456333634
30.605428778630454
29.71066889939458
29.776368758691696
29.94823039885912
30.023479862081622
-1
32.83878199004896
31.992737265031778
31.580904255831815
32.97133704923255
31.7611368266314
32.012573498652905
32.77894498242284
32.458678930979666
33.01740765219348
31.617875785136018
32.70098910891674
32.491073154573904
32.53088937166079
32.48505553473306
32.31143046644238
32.14308083694566
32.795276116057984
31.80509788761613
32.621069714450144
31.803688785029244
31.44646415930962
31.450589378172282
32.6290226050155
32.00720649002297
31.747999236628104
32.00526596774097
32.546828071340805
32.66096895139279
32.23224390839124
31.78756071209647
32.69868792071319
32.49615037511575
32.597739056853904
31.96480008813024
32.33454210337788
32.89253665395879
32.87371516638572
31.955284892340664
32.32087412279442
32.52139936675434
32.82527481393079
32.88482599499064
32.954415425450684
32.84599170330886
31.920748237489295
32.56905874670305
32.976272455406765
32.74998066443799
31.91612389884191
31.66636279226059
31.5817755437197
31.763674578417543
32.563603010181126
32.288465331872864
31.824537624290883
32.19286534407253
32.78889318320427
32.46680995351818
32.96848448469629
-1
29.981815855187648
28.82077210406916
29.774683483163106
29.41494448620243
29.21140417503483
28.92306492591277
28.768985495327343
29.4402167010625
28.97898431902805
29.717149099411586
29.6798819062715
28.50464170476428
29.73678823686759
29.736566662150675
29.54760508839377
29.198980570984
28.974455988168764
29.274417641048515
28.342401069231
28.573746940628716
29.95301403007064
28.414752787781712
28.771494143748985
29.01195868042569
28.733520142899334
28.683810143405196
29.637294144114655
29.831540759063525
29.060158886138748
28.478617351174705
29.208486948143072
29.88639222084505
28.68263669882866
29.228983945753328
29.74175297862462
29.926340200736185
29.779873951271334
29.849493505790555
29.85338469517679
29.936165879980265
28.609556720491256
29.77410844500953
29.553678470138667
29.435930363607405
28.689425916663552
29.070752848195628
28.422667562017924
29.45562388172438
29.382913167606706
29.473407874019735
28.956869942590867
28.596704930568066
29.380547966902046
29.311507009824393
29.55324692573318
28.92805803945368
28.906125873606083
29.927420646947475
29.918509935572143
28.767608514757008
28.86627602833605
29.585906219999632
29.232602127079222
28.673294788661096
29.603797201511796
29.76123518134713
-1
32.58880866765968
31.822109453233185
31.683296414620607
33.182511175013154
31.834357065054206
32.69254503116519
32.89448235777429
33.109657358135934
32.18878875275464
32.94140063879355
32.50004313553821
32.329199706911815
32.028768735765276
32.679210888819796
31.76273041952579
33.2759742028063
32.56225261793278
32.41576272927874
31.978303048556214
32.348197927076654
32.339443645086675
32.57313987402427
32.051371574710565
32.34576397026818
32.28796714967808
31.704505728777708
31.864040154949876
32.71362471186489
32.97519371022314
31.731663452951032
32.35333126395708
32.02390817603649
33.093937739234676
31.81033172635822
31.782713571823137
32.744018633041996
31.76313421903717
32.44672102846399
31.73114059864019
33.170329648351284
32.132558876370574
33.22239585745171
32.49650942462701
32.12485147838513
33.31353362170142
32.60322218551351
32.58603509171052
31.94877728869849
31.82585342714279
31.81243101088909
32.410372134872745
32.815420664523074
32.554882505966525
33.30414514066555
33.21140042575013
33.092412168304605
32.65189435235764
32.98211372008465
31.968762523686628
-1
32.43794732242613
31.220959347150156
32.11284748880473
32.54395524742989
31.71397445439
32.27244618876415
31.515462407255498
32.74593085762488
31.698093993840377
31.539590304991556
32.27338164887637
31.59874657391738
31.139257146172405
32.26540613260219
32.61430508256528
31.613780543157475
31.636430442814003
31.326554029453717
32.12454142965957
31.994420175734312
32.25862753421202
32.76435451224357
32.21428263111926
31.404582999782555
31.298045176856974
32.704646265481784
31.18508308467066
32.280118362596
31.468610036929576
31.29723558014028
31.50823730517979
32.18444361030174
31.322203696344232
31.43491621793551
31.325418545128013
32.490040998009974
31.750211400927206
31.52668760552851
32.05436102955015
31.999798279879432
32.16883397123636
32.16653076961843
32.655869095694406
31.339949712301348
31.35281339422158
32.491250004717536
31.92735859006318
31.39289768681599
31.2171835416511
31.358452753070573
31.46580231658626
32.36013463690287
31.483701428145526
31.19872345160993
32.022706559325094
32.58617585260599
32.44107607737099
31.8377768100773
31.522245559799376
31.367187065029352
-1
27.542900209094295
27.95323669480474
27.26025572713839
28.0110313653262
28.380556507461893
27.848868194165753
27.58773767627261
27.256813918080784
28.249705425786505
27.52450567706949
27.710796417687522
27.23475780885167
28.200739947738633
27.444721579401676
28.229043013747194
27.757423909459956
26.995598486294796
27.03474746365695
27.564825758988132
27.830678739659422
28.044769612495227
27.11069895462943
27.99166402210569
28.408646266629596
27.499579692163625
27.80474648350978
27.36002280529886
28.56233208274051
28.114885159661945
27.953300212438542
28.08948975757413
28.276896126568396
28.459858026509554
27.152280312789316
27.276688962517962
28.02126066811482
27.069199784090177
27.388296463800955
28.267289843073687
28.464534867756004
27.86051861006832
27.328062104740525
28.091576357349034
28.24661474687312
28.262419377480843
27.323956721852284
28.432897594573333
28.54527839792837
28.335420962267257
26.9713163518926
26.953595541081434
26.9858066842353
27.72413087343004
27.96612096010804
27.51036129443796
28.544955053661383
27.554171799957775
28.060247741164478
27.050412425924826
27.508978392683613
28.047836933587803
27.095380190440736
27.124739620688942
27.255372821129395
28.01168235711847
28.41599756792656
27.3182786102843
26.97337530843097
27.78058030709602
28.416623715646892
-1
28.361497952095007
28.26411350488431
28.275658956815175
28.81300936549243
27.683726525561333
28.72478333123608
27.488541108245233
27.996569224776483
27.822458967646924
28.35079021838815
28.509830143033174
28.300688461686313
27.697612545934643
28.122020603193967
28.490822173791944
28.701927036255377
28.829305184448028
28.667355539344072
27.78289698062871
27.503684090447912
27.96669674946472
27.271908772319634
27.87294096159476
28.050216370637898
28.592843620630678
27.79425730753394
27.78221120971735
27.84566982738617
28.45609036680352
27.970440876043366
27.87034254627393
27.37863064531114
27.311398024249957
27.866987747120543
27.46178464176864
27.38922603530651
27.389971389369677
27.582790091255912
27.32295871336449
28.304411836434667
28.752589966565687
28.355967141293732
28.098176306833082
28.10777310199954
27.62117690019757
27.340252364771924
28.027532398192534
28.33627202000245
28.024349196935173
27.47592328690782
27.620569324444396
28.87456659103245
27.302655052700278
28.42619058921377
28.778846167990377
27.41446424596098
27.531247236423358
27.48127796970637
27.815298969295537
28.862763852684182
27.7318700939288
27.31582397002713
27.575114495402126
28.615180911864414
27.528914164725393
28.854050167152632
28.421758213017185
28.13390622347124
28.322588012851536
-1
32.553274863520684
32.608827193386894
32.40846953115196
33.15073806188596
33.57945454956793
33.38074786207445
33.17287164899965
33.27836638830463
33.29322072371367
32.69833033402441
32.99956432362369
32.664551515831036
32.70315559825395
32.714715400246426
32.453845851943356
33.66517991884225
33.39994615840993
33.620980538611136
33.029466779764746
33.179787706021365
33.70050463096111
33.872693806113055
32.89454135988288
33.31754295740484
33.804134507545065
32.51868583705146
33.38089392240487
33.318100242585594
33.515074400675495
32.59205103403133
32.98162117510734
32.53450613121568
33.665502608400196
32.89741357294043
32.39411230020519
32.89373486891846
33.754923656535105
33.1212667358555
33.886978771623916
32.91091324764324
33.50577521069633
32.33705115403287
32.645974680963796
32.37919380845221
33.35443081002319
33.67357739596941
33.43269815263232
32.28854946922215
33.35152659887499
33.16442196639023
32.87065969395726
33.34349513880224
33.202375164383035
33.59703227202557
32.62284683200415
33.651889733549226
33.23715005447335
32.86680018328793
-1
31.44718029724439
31.890437572897962
31.162156946051713
31.252509378392944
31.095972140657146
30.77722398833426
30.683146650953777
31.79552052144385
31.16469695345074
31.78436403677389
31.336815391020703
30.884818070806006
31.55675080507726
31.933542427784698
30.350866448937904
30.867560124743893
30.94069079094113
31.655335528828132
31.377857626629307
31.155584561831613
30.574874444713227
31.098965948334534
31.13677910274724
31.676423852024165
30.741086707734365
31.060385359660536
30.566517075307775
30.4995585177774
30.855727116578834
31.275725611147212
31.352256373389046
30.34539818541718
30.38344598190538
30.573577257426304
31.226565913607338
31.29027346061413
30.453181746824534
30.59472338081985
31.539683608453952
30.888599765877302
30.5703692608567
30.805210269300286
31.57170844291616
31.476667933680233
31.031650824566626
30.68130471256111
30.92301275079251
30.934561324681816
31.246406417509
31.89964086159046
30.734879621524886
30.996826411145523
30.48614937105771
30.78936212672794
31.460142146684678
31.31873464604408
30.618316537279917
30.861982752067608
31.09012562377546
31.256601187949926
31.80187995640936
31.929029773434337
-1
33.0442075416301
32.118184067712825
32.29656347190982
32.99294591009479
32.167637750239756
32.15493618132669
32.695735592048344
32.36002581984349
32.001887543229145
33.04503615567666
32.39833253387615
32.10135486045095
32.0071032525928
32.226999733528885
32.68095662328806
32.35161370201854
32.85906827862977
32.03025835707184
32.01085097785335
32.51074853286444
32.30584227144764
32.09778432729647
32.65475322456177
33.31848044129671
32.38144238369316
33.32563220768543
33.20210841029643
32.362463598571374
32.29343044662257
32.76199230159588
33.188808392294355
32.48954434847437
33.073731068211394
32.51675159995852
32.389460905343086
33.51567931157876
33.15655003646297
32.72637190275824
32.530111456968456
32.77492845032469
33.42388968571376
32.331460326787145
33.15934232050281
32.74487827301781
32.60453563412228
33.52238880321317
32.87042750779319
32.56820793992823
32.559850388131835
32.85838504540525
31.990723232999255
33.09121695346618
32.93925338682016
32.60099795978227
33.246727650867754
32.05999032231082
32.60656138840534
33.05707380608926
32.77424461318027
-1
31.892195060887946
31.969028322763574
32.54673076286808
32.23210161735526
32.551811759110876
32.29712140599239
31.96369915588022
32.42732019107695
31.45795165293071
32.344473947867904
31.833008995175554
32.6118431321447
32.813054831260175
32.085442203813024
32.01910225225736
33.00254370301652
32.74255222774279
31.483044181519325
31.736963066653463
32.55228498657949
32.25765004114152
32.455270675986256
31.75059669893458
32.375162683429615
32.506959455658766
32.281001442690425
31.45152490826735
32.74943973298968
32.90987766309093
31.872497228451216
32.029507048750254
32.568666327619304
32.037086180467604
31.783171242877025
32.49619881702324
31.87091880844736
31.678078219642437
31.64649185224659
33.00637901077921
32.387614654107495
31.412252562901628
31.621099621390112
31.407378297219932
32.91696735514318
32.51215783978626
32.348537261325916
32.568762723420434
32.409502042811525
32.82159643315564
32.91338969184594
32.46782713081334
32.28749242776003
31.70084374108073
32.664445887202156
31.898706877277924
32.373369810007766
32.88286411010116
32.50972672437153
33.03391833579809
31.874095597161535
-1
32.876769450375264
32.769225075084236
31.579453082327042
32.4715833391669
31.41082192838108
31.656990159923033
32.63527902306629
32.89002189722357
31.674084438542007
31.843056764992472
31.74972092508814
32.79554066286301
32.917895946013324
31.923863922557466
31.734674855939595
32.12209717134754
32.484967460952106
31.902534582439632
32.08897554022337
31.634840486598836
32.54073317738832
32.55250023724716
32.537393358569844
33.003543845454075
31.91699540190312
32.37679990554344
32.37469980582966
32.715633243402266
32.14587594589315
31.73463726312448
32.219669128973806
31.80355389802702
32.0371524917396
31.755282760599275
32.37665886898324
31.4357603396301
32.145873296419964
32.509993242900656
32.1472675842604
32.130576734834904
32.52304149471862
32.23195757810819
32.1315089786778
31.69755244507496
32.573476329682805
32.16236315871122
31.806964443850404
32.32506416053208
32.32835663127338
31.52417961252925
32.47548345896413
32.18246139315144
31.642099793046086
32.51751023310316
32.68685738180612
31.49001251233766
32.74412890095545
32.75802948986454
32.820832728382676
32.23028582581201
-1
31.228759424014335
31.078361969490597
32.069084578925995
31.19477772901302
31.834354593910017
30.792010273056803
31.155914671722034
31.697813707948402
31.428268280405348
31.878410629705
31.725204895044477
31.407753111914715
31.55210431181899
31.17007243950976
31.71816232638185
31.310033454136715
30.648199114752938
32.15928376316065
30.859519049502506
31.84855090401955
32.16391294517841
30.74721706434423
30.669955263974256
32.17838803187085
31.717253168720784
31.10881241769622
31.359296464363773
31.682578902495113
31.25478817425843
31.0126821403055
31.351268663373297
31.257031050869333
32.0146471470783
31.028053511284472
30.76513873861556
31.361539558309143
30.79132000068559
31.362290264394495
32.05619556121793
31.71405964223343
32.15164090518815
31.936139797442074
30.86240413516074
32.103386693692826
31.206091487642418
30.719543923327826
31.252026721992127
31.778790503865604
30.629729522378522
30.651956496642736
32.01654911444401
31.243965724082894
31.852633790295606
31.65763632878336
31.071543819189163
31.70355890303176
32.03409327109352
31.338322244882814
31.748480382696023
32.21684838920365
30.597852881577456
-1
31.184900041394606
31.39009398461745
30.457743503649642
31.747010557735404
31.41411224873951
31.02106165866176
31.895937786410148
31.520561770636984
30.37973791439092
31.3497814938264
31.876651319442423
31.81203399103577
30.73546671547122
31.45104486148872
30.876519182123292
31.009077505656492
31.419431131471814
31.47015551226502
30.50034325146035
31.41775441133193
31.05614029765071
31.589427878338114
31.17856062000544
30.82792745397482
31.6970336480896
31.749119736443273
30.432035262672418
30.995421239245925
30.75981210457591
31.111294288202306
31.04300952755476
31.040681913667143
30.434583204172842
31.582254081483907
30.321638597341455
30.575182591764154
31.53481671927767
31.755089777295744
30.64353253425772
31.730431975105265
31.116485322710368
31.39853291211735
30.888484115081223
31.180129883326778
31.836225341931016
30.435035143875677
31.667396215264986
31.047123781542858
30.968897915700754
31.886477433961772
30.9500079209655
31.27334113386081
31.589890322737006
30.52014498274764
30.900355896155187
30.60281374635623
30.981209568086662
31.23391825245298
31.389991692928067
30.45193385958501
31.84288062133719
31.911362498427778
-1
33.55435953325858
34.03695743671322
33.18720964201986
32.60738924175498
33.18791222728528
33.79040396666091
33.97998560852939
33.099492912287346
33.208283909958524
33.4428501453264
33.94946298352612
32.66518077973543
33.58815661223802
34.114489763961984
32.757225858341
32.702553083015054
32.596396725950896
33.376426769852536
32.58369912052355
32.51261522868769
33.243637255702374
33.039105881570975
33.77460295164494
34.0798012917104
32.85638339683594
32.79007426204051
33.95510886172546
33.27639837486871
34.01374264568173
33.55848535549721
33.911714921839724
33.70633601190254
32.72573596564766
33.02704997300427
33.087757505957775
32.55647473288762
33.26242087371157
33.89085075763922
33.80312474937037
33.111612366282564
33.45874692644037
33.27656375331555
32.95880125574005
32.679597512269936
32.95450466547681
32.518508224074374
33.02235744232458
32.56519152218866
33.01525175249058
33.57290725165123
33.84472588796632
33.42565581700869
33.65204089777187
33.40545205539815
33.33159147250066
33.17079497452729
33.3817974729269
34.04305745235178
-1
28.33003505036769
28.080358918406944
27.301625545536634
28.118592752523323
27.83561528621529
27.322260217769422
27.266346902485804
27.74991217599796
28.176082361250035
27.89194566532734
28.530912211271573
27.169713249261257
28.457965531025856
27.15789179583728
28.41441466246282
27.095993477016407
27.66086367274346
28.239111318079537
28.200495904901125
27.9450938406844
27.70849946076216
27.17728216037695
27.174174538859354
27.458362729783314
27.17382875716014
28.19915194514737
27.241892319849068
27.60462652105654
28.342458593371358
27.204359506945938
28.28823093159606
28.042860325660296
27.209212672183547
27.092005345811884
27.13271264566372
27.142017139017504
28.30202008102996
27.90291079317182
26.962143024459145
26.9862889980481
27.348721280317484
28.33686044625201
27.761413670196713
27.61080537514498
28.059221926754866
28.005231077626025
28.21522863930337
27.91492266253883
28.021011107458097
28.46593263581008
27.471511651542396
27.954490121356645
27.900395872499086
27.326193785861218
27.710961726330577
27.954126140284263
27.804890672525712
28.489414975510226
27.32302058178059
28.40560429281049
28.12736893622954
27.965085283896652
27.979724326690523
28.028929388560538
27.793170451137133
28.555615515149437
27.025541218535874
27.168583084334816
27.23402697128644
28.180881224035982
-1
28.79571304132089
28.81127851901167
27.454419216501268
27.371926463723884
27.90377033222703
28.761683192172015
27.70696941793542
27.366576863318528
27.804339849236545
28.072346244907845
28.056478264989533
28.282495841150116
27.766490879613894
27.26537411206072
27.37225804617721
27.53391180767493
27.333511733881945
28.473646091426335
28.024109016988575
27.725394152690438
27.58772988807084
28.16567672925758
28.786837065214662
27.50402420471682
28.332679467468182
27.934292412162925
27.808669202279894
27.699120286683904
28.271931059581878
28.057424182574362
28.270570783845944
28.71514265629141
28.247297619640722
27.62948970484727
27.9979085712357
27.59295056830154
27.30127876930814
27.954088439330643
28.80576049367392
28.572876746363054
27.749503293643013
27.583071045180336
28.431113150134678
27.71346233029465
28.58857961448083
27.883462433437966
27.529211375867174
28.475489838466906
28.08982768807153
27.31222175327774
28.05409760680091
27.83882917298853
28.00651502307033
27.346073541438987
27.404902702372755
28.146239535043716
28.4514509890735
28.249648407190783
28.3330556803846
28.463647067179032
27.516442283118206
28.569923176098243
27.77127122641565
27.477213223959172
28.105177100161796
28.41845372155028
28.46294587319004
27.81371916295701
27.903254395138003
-1
32.13386748578393
32.571337415571
33.317253377126434
33.28329122809275
32.02126371241179
32.00566992557904
32.591691683628405
32.30931099444722
33.25777062402101
32.89048776134844
31.796214451368762
32.11816090185025
32.976618889764644
32.14768948727426
32.4448284765072
33.28540358317909
31.807843614150837
32.69807304429974
33.02415121121225
31.81511923112981
33.27603027709228
32.10019744977867
32.70547837781516
32.112702779650625
32.45069974154327
32.805024659770076
32.77773686301045
32.783590607813295
32.365007513900174
33.30251538738031
31.80479187680995
32.835685156697785
32.957040616488285
31.990064043200157
32.816891827676706
32.19299960802328
32.74535104524415
32.78178506312401
33.204434038053485
32.226546759574866
33.126472210135304
33.30220718016554
32.05938135066247
32.60908161809442
32.410354592391926
32.967893729969695
32.172226035586185
31.86964451970071
33.15659666199399
32.68921720107712
33.07371176620538
32.22860287805735
32.04003814766192
31.988644274662953
32.4105900419879
32.96739307795571
33.025388527590124
33.03143215367453
32.23016858037497
-1
33.20586744416975
32.077061694484144
32.266507079553875
31.83611470795694
31.807511965927716
32.7196788439709
32.89077303314245
32.864447723283874
32.448743307187435
33.19171318779499
33.10813943602865
32.45153897303998
33.26669667024204
32.226982099398676
32.519237935368636
32.60087016976781
32.11871132312221
33.25157405072248
32.19932821018193
31.95440613696635
32.64819297271309
31.88585400443308
32.02224823245968
32.765661665309
31.98674092736963
32.42634437734647
32.685230258212854
32.34664667607508
33.00925818803799
33.026363278630974
33.25575957041726
32.42583422983726
32.797368458940376
32.68134681708744
33.20130182652951
32.017380638169804
31.92382093684808
32.813909383460874
32.72112310800759
32.03366398184426
33.01333796566073
32.2449073801959
31.776574577084514
32.973792513497386
31.76354954821983
33.29673195127074
33.178780365787645
32.25673767101528
32.556600044022915
32.03710107295596
31.7739800535522
31.805831485981056
32.291034267697555
32.235749164075216
31.833511564283803
32.66487194909355
31.781346060602438
32.13928920738209
33.20756617507496
-1
31.8314215761528
30.967209190611747
32.35978305637737
31.014143172917404
31.960210156979283
31.763509028404705
31.189458489687684
31.331778256930406
32.117795512148255
31.060376835512322
32.205348345554206
30.861875868644297
30.920124228211602
31.697161024563638
32.237788185838
31.008363395789985
31.901763095870567
31.650561637593718
32.39820242605869
32.3651695756921
30.846231452050016
31.350300590903554
32.15295805758196
31.84841513802904
30.88622540553024
31.088762459051903
32.161397591159094
31.367097634657117
31.02482591361781
32.01952914223129
31.516937423448056
32.3287898257389
31.634056475069716
31.793443704923607
32.33643130145531
31.6066229862694
30.944514028610172
31.403299255315527
32.00139912669475
31.392329327809524
31.21590148794418
31.632792355728743
32.431867323282326
30.96070356288979
32.173148958369104
32.298675966456045
31.56946773023281
31.106846577364884
32.406416535239565
31.903756649385905
31.427755268374217
31.888972902712833
31.765628207260168
31.04917597967176
31.301104469616885
31.316400182702083
30.997960444531127
31.65395962582321
32.34235883785328
31.764590697974914
32.313232137319126
-1
30.42881438961101
30.302633735961884
31.939624393696942
30.329650416659234
31.723407913727566
30.328279939018817
31.09292632195122
31.030751581178325
30.841563626908354
30.602955438878123
31.854191342571866
31.385331775898162
30.419993768690055
30.43090360643821
30.589563895247537
31.9308675585273
30.362403790031696
30.7411068201874
31.156731161421707
30.493832580314415
31.80127005268296
30.87078831576152
30.749597994380476
31.894285502210202
30.970444201740424
31.035357590969944
31.781947324508785
31.54615552292774
31.778511609758223
30.640693392881072
31.93415969937681
30.277902012847072
30.679145571235118
31.423410941711094
30.777757086217736
30.72068556522909
30.626431895168373
30.369929084189977
31.901975145743307
31.602399342661982
30.813619535500685
30.465739237008208
30.861424975048667
31.9125358220118
30.522984423052698
30.895614040999003
31.544179614900287
30.49824362313903
30.429143278665933
30.68691198847725
31.725309740771777
31.549388077039342
31.431551255469916
30.96163883360995
30.955333419839533
30.963308108265785
31.210733014789213
30.938509873418237
30.536235376009977
31.081589091759167
30.54036228403859
31.603929153950357
-1
