CPU Identifier;Autoscope Description;Detector ID;Detector Title;Date;Time;Status;Data Interval;Ticks (millisec.);State;Speed;Length;Class;Average Flow Rate;Volume;Arithmetic Mean Speed;Class A Count;Class B Count;Class C Count;Class D Count;Class E Count;Average Time Headway;Average Time Occupancy;Level Of Service;Space Mean Speed;Space Occupancy;Density;
040548FF08FBB421;IDS-04B -- ??????-????? -- 1 -- None -- 78 -- 0 -- Solo Pro II MVP -- 172.26.2.164;109;Lane 1;3/5/2012;0:00:00;100;15 Minutes;;;;;;244;61;95.770;0;46;15;0;0;14.754;2.672;A;92.453;1.188;2.637;
040548FF08FBB421;IDS-04B -- ??????-????? -- 1 -- None -- 78 -- 0 -- Solo Pro II MVP -- 172.26.2.164;110;Lane 2;3/5/2012;0:00:00;100;15 Minutes;;;;;;84;21;114.332;0;15;4;1;1;42.855;0.852;A;113.289;0.406;0.738;
040548FF08FBB421;IDS-04B -- ??????-????? -- 1 -- None -- 78 -- 0 -- Solo Pro II MVP -- 172.26.2.164;113;Total;3/5/2012;0:00:00;100;15 Minutes;;;;;;164;82;100.523;0;61;19;1;1;28.805;1.762;A;97.023;0.797;1.688;
040549FF29CED021;IDS-05B -- ?????-?????? -- 1 -- None -- 78 -- 0 -- Solo Pro II MVP -- 172.26.2.165;109;Lane 1;3/5/2012;0:15:00;100;15 Minutes;;;;;;0;0;0.000;0;0;0;0;0;255.996;0.000;A;0.000;100.000;0.000;
040549FF29CED021;IDS-05B -- ?????-?????? -- 1 -- None -- 78 -- 0 -- Solo Pro II MVP -- 172.26.2.165;110;Lane 2;3/5/2012;0:15:00;100;15 Minutes;;;;;;216;54;64.887;0;42;11;0;1;16.664;3.000;A;61.363;1.621;3.520;
040549FF29CED021;IDS-05B -- ?????-?????? -- 1 -- None -- 78 -- 0 -- Solo Pro II MVP -- 172.26.2.165;113;Total;3/5/2012;0:15:00;100;15 Minutes;;;;;;108;54;64.887;0;42;11;0;1;255.996;1.500;A;61.363;0.809;1.758;
040549FF29CED021;IDS-05B -- ?????-?????? -- 1 -- None -- 78 -- 0 -- Solo Pro II MVP -- 172.26.2.165;109;Lane 1;3/5/2012;0:30:00; 99;15 Minutes;;;;;;0;0;0.000;0;0;0;0;0;255.996;0.000;A;0.000;100.000;0.000;
040549FF29CED021;IDS-05B -- ?????-?????? -- 1 -- None -- 78 -- 0 -- Solo Pro II MVP -- 172.26.2.165;110;Lane 2;3/5/2012;0:30:00; 99;15 Minutes;;;;;;224;56;62.926;0;40;10;2;3;16.070;3.250;A;60.516;2.047;3.699;
040549FF29CED021;IDS-05B -- ?????-?????? -- 1 -- None -- 78 -- 0 -- Solo Pro II MVP -- 172.26.2.165;113;Total;3/5/2012;0:30:00; 99;15 Minutes;;;;;;112;56;62.926;0;40;10;2;3;255.996;1.625;A;60.516;1.023;1.848;
040549FF29CED021;IDS-05B -- ?????-?????? -- 1 -- None -- 78 -- 0 -- Solo Pro II MVP -- 172.26.2.165;109;Lane 1;3/5/2012;0:45:00;100;15 Minutes;;;;;;0;0;0.000;0;0;0;0;0;255.996;0.000;A;0.000;100.000;0.000;
040549FF29CED021;IDS-05B -- ?????-?????? -- 1 -- None -- 78 -- 0 -- Solo Pro II MVP -- 172.26.2.165;110;Lane 2;3/5/2012;0:45:00;100;15 Minutes;;;;;;172;43;61.000;0;32;7;1;3;20.930;2.379;A;58.828;1.602;2.922;
040549FF29CED021;IDS-05B -- ?????-?????? -- 1 -- None -- 78 -- 0 -- Solo Pro II MVP -- 172.26.2.165;113;Total;3/5/2012;0:45:00;100;15 Minutes;;;;;;86;43;61.000;0;32;7;1;3;255.996;1.188;A;58.828;0.801;1.461;
040549FF29CED021;IDS-05B -- ?????-?????? -- 1 -- None -- 78 -- 0 -- Solo Pro II MVP -- 172.26.2.165;109;Lane 1;3/5/2012;1:00:00;100;15 Minutes;;;;;;4;1;47.000;0;1;0;0;0;255.996;0.059;A;47.012;0.016;0.082;
040549FF29CED021;IDS-05B -- ?????-?????? -- 1 -- None -- 78 -- 0 -- Solo Pro II MVP -- 172.26.2.165;110;Lane 2;3/5/2012;1:00:00;100;15 Minutes;;;;;;168;42;58.402;0;31;8;0;3;21.426;2.598;A;56.520;1.590;2.969;
040549FF29CED021;IDS-05B -- ?????-?????? -- 1 -- None -- 78 -- 0 -- Solo Pro II MVP -- 172.26.2.165;113;Total;3/5/2012;1:00:00;100;15 Minutes;;;;;;86;43;58.137;0;32;8;0;3;255.996;1.328;A;56.254;0.805;1.527;
040549FF29CED021;IDS-05B -- ?????-?????? -- 1 -- None -- 78 -- 0 -- Solo Pro II MVP -- 172.26.2.165;109;Lane 1;3/5/2012;1:15:00;100;15 Minutes;;;;;;0;0;0.000;0;0;0;0;0;255.996;0.000;A;0.000;100.000;0.000;
040549FF29CED021;IDS-05B -- ?????-?????? -- 1 -- None -- 78 -- 0 -- Solo Pro II MVP -- 172.26.2.165;110;Lane 2;3/5/2012;1:15:00;100;15 Minutes;;;;;;280;70;60.582;0;51;12;2;4;12.855;4.211;A;57.543;2.551;4.863;
040549FF29CED021;IDS-05B -- ?????-?????? -- 1 -- None -- 78 -- 0 -- Solo Pro II MVP -- 172.26.2.165;113;Total;3/5/2012;1:15:00;100;15 Minutes;;;;;;140;70;60.582;0;51;12;2;4;255.996;2.105;A;57.543;1.273;2.430;
040549FF29CED021;IDS-05B -- ?????-?????? -- 1 -- None -- 78 -- 0 -- Solo Pro II MVP -- 172.26.2.165;109;Lane 1;3/5/2012;1:30:00;100;15 Minutes;;;;;;0;0;0.000;0;0;0;0;0;255.996;0.000;A;0.000;100.000;0.000;
040549FF29CED021;IDS-05B -- ?????-?????? -- 1 -- None -- 78 -- 0 -- Solo Pro II MVP -- 172.26.2.165;110;Lane 2;3/5/2012;1:30:00;100;15 Minutes;;;;;;180;45;63.488;0;32;11;1;1;20.000;2.648;A;60.352;1.512;2.980;
040549FF29CED021;IDS-05B -- ?????-?????? -- 1 -- None -- 78 -- 0 -- Solo Pro II MVP -- 172.26.2.165;113;Total;3/5/2012;1:30:00;100;15 Minutes;;;;;;90;45;63.488;0;32;11;1;1;255.996;1.324;A;60.352;0.754;1.488;
040549FF29CED021;IDS-05B -- ?????-?????? -- 1 -- None -- 78 -- 0 -- Solo Pro II MVP -- 172.26.2.165;109;Lane 1;3/5/2012;1:45:00;100;15 Minutes;;;;;;0;0;0.000;0;0;0;0;0;255.996;0.000;A;0.000;100.000;0.000;
040549FF29CED021;IDS-05B -- ?????-?????? -- 1 -- None -- 78 -- 0 -- Solo Pro II MVP -- 172.26.2.165;110;Lane 2;3/5/2012;1:45:00;100;15 Minutes;;;;;;224;56;63.926;0;40;12;1;2;16.070;2.859;A;61.391;1.820;3.648;
040549FF29CED021;IDS-05B -- ?????-?????? -- 1 -- None -- 78 -- 0 -- Solo Pro II MVP -- 172.26.2.165;113;Total;3/5/2012;1:45:00;100;15 Minutes;;;;;;112;56;63.926;0;40;12;1;2;255.996;1.430;A;61.391;0.910;1.824;
040549FF29CED021;IDS-05B -- ?????-?????? -- 1 -- None -- 78 -- 0 -- Solo Pro II MVP -- 172.26.2.165;109;Lane 1;3/5/2012;2:00:00;100;15 Minutes;;;;;;0;0;0.000;0;0;0;0;0;255.996;0.000;A;0.000;100.000;0.000;
040549FF29CED021;IDS-05B -- ?????-?????? -- 1 -- None -- 78 -- 0 -- Solo Pro II MVP -- 172.26.2.165;110;Lane 2;3/5/2012;2:00:00;100;15 Minutes;;;;;;212;53;60.016;0;41;11;1;0;16.980;2.754;A;58.254;1.695;3.637;
040549FF29CED021;IDS-05B -- ?????-?????? -- 1 -- None -- 78 -- 0 -- Solo Pro II MVP -- 172.26.2.165;113;Total;3/5/2012;2:00:00;100;15 Minutes;;;;;;106;53;60.016;0;41;11;1;0;255.996;1.375;A;58.254;0.848;1.816;
040549FF29CED021;IDS-05B -- ?????-?????? -- 1 -- None -- 78 -- 0 -- Solo Pro II MVP -- 172.26.2.165;109;Lane 1;3/5/2012;2:15:00;100;15 Minutes;;;;;;0;0;0.000;0;0;0;0;0;255.996;0.000;A;0.000;100.000;0.000;
040549FF29CED021;IDS-05B -- ?????-?????? -- 1 -- None -- 78 -- 0 -- Solo Pro II MVP -- 172.26.2.165;110;Lane 2;3/5/2012;2:15:00;100;15 Minutes;;;;;;164;41;65.289;0;29;6;4;2;21.949;2.344;A;63.176;1.453;2.594;
040549FF29CED021;IDS-05B -- ?????-?????? -- 1 -- None -- 78 -- 0 -- Solo Pro II MVP -- 172.26.2.165;113;Total;3/5/2012;2:15:00;100;15 Minutes;;;;;;82;41;65.289;0;29;6;4;2;255.996;1.172;A;63.176;0.727;1.297;
040549FF29CED021;IDS-05B -- ?????-?????? -- 1 -- None -- 78 -- 0 -- Solo Pro II MVP -- 172.26.2.165;109;Lane 1;3/5/2012;2:30:00;100;15 Minutes;;;;;;0;0;0.000;0;0;0;0;0;255.996;0.000;A;0.000;100.000;0.000;
040549FF29CED021;IDS-05B -- ?????-?????? -- 1 -- None -- 78 -- 0 -- Solo Pro II MVP -- 172.26.2.165;110;Lane 2;3/5/2012;2:30:00;100;15 Minutes;;;;;;228;57;61.770;0;44;9;4;0;15.789;2.879;A;58.926;1.738;3.867;
040549FF29CED021;IDS-05B -- ?????-?????? -- 1 -- None -- 78 -- 0 -- Solo Pro II MVP -- 172.26.2.165;113;Total;3/5/2012;2:30:00;100;15 Minutes;;;;;;114;57;61.770;0;44;9;4;0;255.996;1.438;A;58.926;0.867;1.934;
040549FF29CED021;IDS-05B -- ?????-?????? -- 1 -- None -- 78 -- 0 -- Solo Pro II MVP -- 172.26.2.165;109;Lane 1;3/5/2012;2:45:00;100;15 Minutes;;;;;;0;0;0.000;0;0;0;0;0;255.996;0.000;A;0.000;100.000;0.000;
040549FF29CED021;IDS-05B -- ?????-?????? -- 1 -- None -- 78 -- 0 -- Solo Pro II MVP -- 172.26.2.165;110;Lane 2;3/5/2012;2:45:00;100;15 Minutes;;;;;;228;57;62.191;0;40;12;3;2;15.789;3.176;A;59.938;2.098;3.801;
040549FF29CED021;IDS-05B -- ?????-?????? -- 1 -- None -- 78 -- 0 -- Solo Pro II MVP -- 172.26.2.165;113;Total;3/5/2012;2:45:00;100;15 Minutes;;;;;;114;57;62.191;0;40;12;3;2;255.996;1.586;A;59.938;1.047;1.898;
040549FF29CED021;IDS-05B -- ?????-?????? -- 1 -- None -- 78 -- 0 -- Solo Pro II MVP -- 172.26.2.165;109;Lane 1;3/5/2012;3:00:00;100;15 Minutes;;;;;;0;0;0.000;0;0;0;0;0;255.996;0.000;A;0.000;100.000;0.000;
040549FF29CED021;IDS-05B -- ?????-?????? -- 1 -- None -- 78 -- 0 -- Solo Pro II MVP -- 172.26.2.165;110;Lane 2;3/5/2012;3:00:00;100;15 Minutes;;;;;;160;40;65.148;0;33;6;0;0;22.500;2.148;A;63.012;1.117;2.539;
040549FF29CED021;IDS-05B -- ?????-?????? -- 1 -- None -- 78 -- 0 -- Solo Pro II MVP -- 172.26.2.165;113;Total;3/5/2012;3:00:00;100;15 Minutes;;;;;;80;40;65.148;0;33;6;0;0;255.996;1.074;A;63.012;0.559;1.270;
040549FF29CED021;IDS-05B -- ?????-?????? -- 1 -- None -- 78 -- 0 -- Solo Pro II MVP -- 172.26.2.165;109;Lane 1;3/5/2012;3:15:00;100;15 Minutes;;;;;;0;0;0.000;0;0;0;0;0;255.996;0.000;A;0.000;100.000;0.000;
040549FF29CED021;IDS-05B -- ?????-?????? -- 1 -- None -- 78 -- 0 -- Solo Pro II MVP -- 172.26.2.165;110;Lane 2;3/5/2012;3:15:00;100;15 Minutes;;;;;;200;50;57.758;0;34;12;1;3;18.000;3.250;A;54.680;1.988;3.656;
040549FF29CED021;IDS-05B -- ?????-?????? -- 1 -- None -- 78 -- 0 -- Solo Pro II MVP -- 172.26.2.165;113;Total;3/5/2012;3:15:00;100;15 Minutes;;;;;;100;50;57.758;0;34;12;1;3;255.996;1.625;A;54.680;0.992;1.828;
040549FF29CED021;IDS-05B -- ?????-?????? -- 1 -- None -- 78 -- 0 -- Solo Pro II MVP -- 172.26.2.165;109;Lane 1;3/5/2012;3:30:00;100;15 Minutes;;;;;;0;0;0.000;0;0;0;0;0;255.996;0.000;A;0.000;100.000;0.000;
040549FF29CED021;IDS-05B -- ?????-?????? -- 1 -- None -- 78 -- 0 -- Solo Pro II MVP -- 172.26.2.165;110;Lane 2;3/5/2012;3:30:00;100;15 Minutes;;;;;;184;46;62.977;0;35;7;2;2;19.563;2.355;A;60.730;1.570;3.027;
040549FF29CED021;IDS-05B -- ?????-?????? -- 1 -- None -- 78 -- 0 -- Solo Pro II MVP -- 172.26.2.165;113;Total;3/5/2012;3:30:00;100;15 Minutes;;;;;;92;46;62.977;0;35;7;2;2;255.996;1.176;A;60.730;0.785;1.512;
040549FF29CED021;IDS-05B -- ?????-?????? -- 1 -- None -- 78 -- 0 -- Solo Pro II MVP -- 172.26.2.165;109;Lane 1;3/5/2012;3:45:00;100;15 Minutes;;;;;;0;0;0.000;0;0;0;0;0;255.996;0.000;A;0.000;100.000;0.000;
040549FF29CED021;IDS-05B -- ?????-?????? -- 1 -- None -- 78 -- 0 -- Solo Pro II MVP -- 172.26.2.165;110;Lane 2;3/5/2012;3:45:00;100;15 Minutes;;;;;;244;61;62.457;0;46;12;1;1;14.754;3.688;A;60.273;1.902;4.047;
040549FF29CED021;IDS-05B -- ?????-?????? -- 1 -- None -- 78 -- 0 -- Solo Pro II MVP -- 172.26.2.165;113;Total;3/5/2012;3:45:00;100;15 Minutes;;;;;;122;61;62.457;0;46;12;1;1;255.996;1.844;A;60.273;0.949;2.023;
040549FF29CED021;IDS-05B -- ?????-?????? -- 1 -- None -- 78 -- 0 -- Solo Pro II MVP -- 172.26.2.165;109;Lane 1;3/5/2012;4:00:00;100;15 Minutes;;;;;;0;0;0.000;0;0;0;0;0;255.996;0.000;A;0.000;100.000;0.000;
040549FF29CED021;IDS-05B -- ?????-?????? -- 1 -- None -- 78 -- 0 -- Solo Pro II MVP -- 172.26.2.165;110;Lane 2;3/5/2012;4:00:00;100;15 Minutes;;;;;;248;62;60.738;0;51;8;1;2;14.516;3.105;A;58.879;2.051;4.211;
040549FF29CED021;IDS-05B -- ?????-?????? -- 1 -- None -- 78 -- 0 -- Solo Pro II MVP -- 172.26.2.165;113;Total;3/5/2012;4:00:00;100;15 Minutes;;;;;;124;62;60.738;0;51;8;1;2;255.996;1.551;A;58.879;1.023;2.105;
040549FF29CED021;IDS-05B -- ?????-?????? -- 1 -- None -- 78 -- 0 -- Solo Pro II MVP -- 172.26.2.165;109;Lane 1;3/5/2012;4:15:00;100;15 Minutes;;;;;;0;0;0.000;0;0;0;0;0;255.996;0.000;A;0.000;100.000;0.000;
040549FF29CED021;IDS-05B -- ?????-?????? -- 1 -- None -- 78 -- 0 -- Solo Pro II MVP -- 172.26.2.165;110;Lane 2;3/5/2012;4:15:00;100;15 Minutes;;;;;;272;68;60.352;0;52;15;0;1;13.234;3.512;A;59.063;2.129;4.602;
040549FF29CED021;IDS-05B -- ?????-?????? -- 1 -- None -- 78 -- 0 -- Solo Pro II MVP -- 172.26.2.165;113;Total;3/5/2012;4:15:00;100;15 Minutes;;;;;;136;68;60.352;0;52;15;0;1;255.996;1.754;A;59.063;1.063;2.301;
040549FF29CED021;IDS-05B -- ?????-?????? -- 1 -- None -- 78 -- 0 -- Solo Pro II MVP -- 172.26.2.165;109;Lane 1;3/5/2012;4:30:00;100;15 Minutes;;;;;;0;0;0.000;0;0;0;0;0;255.996;0.000;A;0.000;100.000;0.000;
040549FF29CED021;IDS-05B -- ?????-?????? -- 1 -- None -- 78 -- 0 -- Solo Pro II MVP -- 172.26.2.165;110;Lane 2;3/5/2012;4:30:00;100;15 Minutes;;;;;;356;89;61.727;0;69;17;1;2;10.109;4.617;A;59.500;2.867;5.980;
040549FF29CED021;IDS-05B -- ?????-?????? -- 1 -- None -- 78 -- 0 -- Solo Pro II MVP -- 172.26.2.165;113;Total;3/5/2012;4:30:00;100;15 Minutes;;;;;;178;89;61.727;0;69;17;1;2;255.996;2.309;A;59.500;1.434;2.988;
040549FF29CED021;IDS-05B -- ?????-?????? -- 1 -- None -- 78 -- 0 -- Solo Pro II MVP -- 172.26.2.165;109;Lane 1;3/5/2012;4:45:00;100;15 Minutes;;;;;;0;0;0.000;0;0;0;0;0;255.996;0.000;A;0.000;100.000;0.000;
040549FF29CED021;IDS-05B -- ?????-?????? -- 1 -- None -- 78 -- 0 -- Solo Pro II MVP -- 172.26.2.165;110;Lane 2;3/5/2012;4:45:00;100;15 Minutes;;;;;;336;84;59.449;0;65;17;1;1;10.711;4.398;A;57.797;2.676;5.813;
040549FF29CED021;IDS-05B -- ?????-?????? -- 1 -- None -- 78 -- 0 -- Solo Pro II MVP -- 172.26.2.165;113;Total;3/5/2012;4:45:00;100;15 Minutes;;;;;;168;84;59.449;0;65;17;1;1;255.996;2.199;A;57.797;1.336;2.906;
040549FF29CED021;IDS-05B -- ?????-?????? -- 1 -- None -- 78 -- 0 -- Solo Pro II MVP -- 172.26.2.165;109;Lane 1;3/5/2012;5:00:00;100;15 Minutes;;;;;;0;0;0.000;0;0;0;0;0;255.996;0.000;A;0.000;100.000;0.000;
040549FF29CED021;IDS-05B -- ?????-?????? -- 1 -- None -- 78 -- 0 -- Solo Pro II MVP -- 172.26.2.165;110;Lane 2;3/5/2012;5:00:00;100;15 Minutes;;;;;;360;90;59.500;0;69;18;2;1;10.000;4.930;A;57.457;3.027;6.262;
040549FF29CED021;IDS-05B -- ?????-?????? -- 1 -- None -- 78 -- 0 -- Solo Pro II MVP -- 172.26.2.165;113;Total;3/5/2012;5:00:00;100;15 Minutes;;;;;;180;90;59.500;0;69;18;2;1;255.996;2.465;A;57.457;1.512;3.129;
040549FF29CED021;IDS-05B -- ?????-?????? -- 1 -- None -- 78 -- 0 -- Solo Pro II MVP -- 172.26.2.165;109;Lane 1;3/5/2012;5:15:00;100;15 Minutes;;;;;;0;0;0.000;0;0;0;0;0;255.996;0.000;A;0.000;100.000;0.000;
040549FF29CED021;IDS-05B -- ?????-?????? -- 1 -- None -- 78 -- 0 -- Solo Pro II MVP -- 172.26.2.165;110;Lane 2;3/5/2012;5:15:00;100;15 Minutes;;;;;;412;103;57.988;0;77;22;2;1;8.734;5.461;A;56.344;3.426;7.309;
040549FF29CED021;IDS-05B -- ?????-?????? -- 1 -- None -- 78 -- 0 -- Solo Pro II MVP -- 172.26.2.165;113;Total;3/5/2012;5:15:00;100;15 Minutes;;;;;;206;103;57.988;0;77;22;2;1;255.996;2.730;A;56.344;1.711;3.652;
040549FF29CED021;IDS-05B -- ?????-?????? -- 1 -- None -- 78 -- 0 -- Solo Pro II MVP -- 172.26.2.165;109;Lane 1;3/5/2012;5:30:00;100;15 Minutes;;;;;;0;0;0.000;0;0;0;0;0;255.996;0.000;A;0.000;100.000;0.000;
040549FF29CED021;IDS-05B -- ?????-?????? -- 1 -- None -- 78 -- 0 -- Solo Pro II MVP -- 172.26.2.165;110;Lane 2;3/5/2012;5:30:00;100;15 Minutes;;;;;;500;125;59.477;0;100;19;3;3;7.199;6.316;A;57.496;4.059;8.695;
040549FF29CED021;IDS-05B -- ?????-?????? -- 1 -- None -- 78 -- 0 -- Solo Pro II MVP -- 172.26.2.165;113;Total;3/5/2012;5:30:00;100;15 Minutes;;;;;;250;125;59.477;0;100;19;3;3;255.996;3.156;A;57.496;2.027;4.348;
040549FF29CED021;IDS-05B -- ?????-?????? -- 1 -- None -- 78 -- 0 -- Solo Pro II MVP -- 172.26.2.165;109;Lane 1;3/5/2012;5:45:00;100;15 Minutes;;;;;;0;0;0.000;0;0;0;0;0;255.996;0.000;A;0.000;100.000;0.000;
040549FF29CED021;IDS-05B -- ?????-?????? -- 1 -- None -- 78 -- 0 -- Solo Pro II MVP -- 172.26.2.165;110;Lane 2;3/5/2012;5:45:00;100;15 Minutes;;;;;;484;121;59.875;0;84;23;10;3;7.438;6.848;A;57.367;4.473;8.434;
040549FF29CED021;IDS-05B -- ?????-?????? -- 1 -- None -- 78 -- 0 -- Solo Pro II MVP -- 172.26.2.165;113;Total;3/5/2012;5:45:00;100;15 Minutes;;;;;;242;121;59.875;0;84;23;10;3;255.996;3.422;A;57.367;2.234;4.215;
040549FF29CED021;IDS-05B -- ?????-?????? -- 1 -- None -- 78 -- 0 -- Solo Pro II MVP -- 172.26.2.165;109;Lane 1;3/5/2012;6:00:00;100;15 Minutes;;;;;;8;2;51.000;0;0;2;0;0;255.996;0.168;A;51.000;0.098;0.156;
040549FF29CED021;IDS-05B -- ?????-?????? -- 1 -- None -- 78 -- 0 -- Solo Pro II MVP -- 172.26.2.165;110;Lane 2;3/5/2012;6:00:00;100;15 Minutes;;;;;;508;127;65.359;0;60;32;16;18;7.086;7.531;A;63.758;6.059;7.965;
040549FF29CED021;IDS-05B -- ?????-?????? -- 1 -- None -- 78 -- 0 -- Solo Pro II MVP -- 172.26.2.165;113;Total;3/5/2012;6:00:00;100;15 Minutes;;;;;;258;129;65.137;0;60;34;16;18;228.543;3.848;A;63.512;3.078;4.059;
040549FF29CED021;IDS-05B -- ?????-?????? -- 1 -- None -- 78 -- 0 -- Solo Pro II MVP -- 172.26.2.165;109;Lane 1;3/5/2012;6:15:00;100;15 Minutes;;;;;;12;3;58.332;0;1;1;1;0;255.996;0.168;A;55.836;0.133;0.215;
040549FF29CED021;IDS-05B -- ?????-?????? -- 1 -- None -- 78 -- 0 -- Solo Pro II MVP -- 172.26.2.165;110;Lane 2;3/5/2012;6:15:00;100;15 Minutes;;;;;;496;124;65.215;0;45;38;14;26;7.258;8.297;A;63.102;6.625;7.859;
040549FF29CED021;IDS-05B -- ?????-?????? -- 1 -- None -- 78 -- 0 -- Solo Pro II MVP -- 172.26.2.165;113;Total;3/5/2012;6:15:00;100;15 Minutes;;;;;;254;127;65.055;0;46;39;15;26;153.629;4.230;A;62.906;3.379;4.035;
040549FF29CED021;IDS-05B -- ?????-?????? -- 1 -- None -- 78 -- 0 -- Solo Pro II MVP -- 172.26.2.165;109;Lane 1;3/5/2012;6:30:00;100;15 Minutes;;;;;;0;0;0.000;0;0;0;0;0;255.996;0.000;A;0.000;100.000;0.000;
040549FF29CED021;IDS-05B -- ?????-?????? -- 1 -- None -- 78 -- 0 -- Solo Pro II MVP -- 172.26.2.165;110;Lane 2;3/5/2012;6:30:00;100;15 Minutes;;;;;;548;137;66.555;0;55;50;12;20;6.566;8.223;A;65.203;6.293;8.402;
040549FF29CED021;IDS-05B -- ?????-?????? -- 1 -- None -- 78 -- 0 -- Solo Pro II MVP -- 172.26.2.165;113;Total;3/5/2012;6:30:00;100;15 Minutes;;;;;;274;137;66.555;0;55;50;12;20;255.996;4.109;A;65.203;3.145;4.199;
040549FF29CED021;IDS-05B -- ?????-?????? -- 1 -- None -- 78 -- 0 -- Solo Pro II MVP -- 172.26.2.165;109;Lane 1;3/5/2012;6:45:00;100;15 Minutes;;;;;;0;0;0.000;0;0;0;0;0;255.996;0.000;A;0.000;100.000;0.000;
040549FF29CED021;IDS-05B -- ?????-?????? -- 1 -- None -- 78 -- 0 -- Solo Pro II MVP -- 172.26.2.165;110;Lane 2;3/5/2012;6:45:00;100;15 Minutes;;;;;;524;131;73.914;0;53;40;15;22;6.867;7.758;A;71.789;5.844;7.297;
040549FF29CED021;IDS-05B -- ?????-?????? -- 1 -- None -- 78 -- 0 -- Solo Pro II MVP -- 172.26.2.165;113;Total;3/5/2012;6:45:00;100;15 Minutes;;;;;;262;131;73.914;0;53;40;15;22;255.996;3.879;A;71.789;2.922;3.648;
040549FF29CED021;IDS-05B -- ?????-?????? -- 1 -- None -- 78 -- 0 -- Solo Pro II MVP -- 172.26.2.165;109;Lane 1;3/5/2012;7:00:00;100;15 Minutes;;;;;;4;1;46.000;0;0;1;0;0;255.996;0.082;A;46.020;0.051;0.086;
040549FF29CED021;IDS-05B -- ?????-?????? -- 1 -- None -- 78 -- 0 -- Solo Pro II MVP -- 172.26.2.165;110;Lane 2;3/5/2012;7:00:00;100;15 Minutes;;;;;;564;141;69.535;0;51;48;14;28;6.383;9.227;A;67.922;7.051;8.301;
040549FF29CED021;IDS-05B -- ?????-?????? -- 1 -- None -- 78 -- 0 -- Solo Pro II MVP -- 172.26.2.165;113;Total;3/5/2012;7:00:00;100;15 Minutes;;;;;;284;142;69.371;0;51;49;14;28;255.996;4.652;A;67.695;3.551;4.191;
040549FF29CED021;IDS-05B -- ?????-?????? -- 1 -- None -- 78 -- 0 -- Solo Pro II MVP -- 172.26.2.165;109;Lane 1;3/5/2012;7:15:00;100;15 Minutes;;;;;;4;1;101.000;0;1;0;0;0;255.996;0.023;A;101.133;0.016;0.039;
040549FF29CED021;IDS-05B -- ?????-?????? -- 1 -- None -- 78 -- 0 -- Solo Pro II MVP -- 172.26.2.165;110;Lane 2;3/5/2012;7:15:00;100;15 Minutes;;;;;;600;150;72.504;0;72;57;9;12;6.000;8.531;A;70.086;5.625;8.559;
040549FF29CED021;IDS-05B -- ?????-?????? -- 1 -- None -- 78 -- 0 -- Solo Pro II MVP -- 172.26.2.165;113;Total;3/5/2012;7:15:00;100;15 Minutes;;;;;;302;151;72.695;0;73;57;9;12;255.996;4.277;A;70.230;2.816;4.297;
040549FF29CED021;IDS-05B -- ?????-?????? -- 1 -- None -- 78 -- 0 -- Solo Pro II MVP -- 172.26.2.165;109;Lane 1;3/5/2012;7:30:00;100;15 Minutes;;;;;;4;1;47.000;0;1;0;0;0;255.996;0.051;A;47.012;0.039;0.082;
040549FF29CED021;IDS-05B -- ?????-?????? -- 1 -- None -- 78 -- 0 -- Solo Pro II MVP -- 172.26.2.165;110;Lane 2;3/5/2012;7:30:00;100;15 Minutes;;;;;;672;168;73.234;0;87;58;9;14;5.355;9.063;A;70.813;5.820;9.488;
040549FF29CED021;IDS-05B -- ?????-?????? -- 1 -- None -- 78 -- 0 -- Solo Pro II MVP -- 172.26.2.165;113;Total;3/5/2012;7:30:00;100;15 Minutes;;;;;;338;169;73.082;0;88;58;9;14;255.996;4.555;A;70.602;2.930;4.785;
040549FF29CED021;IDS-05B -- ?????-?????? -- 1 -- None -- 78 -- 0 -- Solo Pro II MVP -- 172.26.2.165;109;Lane 1;3/5/2012;7:45:00;100;15 Minutes;;;;;;4;1;55.000;0;0;0;1;0;255.996;0.105;A;55.023;0.086;0.070;
040549FF29CED021;IDS-05B -- ?????-?????? -- 1 -- None -- 78 -- 0 -- Solo Pro II MVP -- 172.26.2.165;110;Lane 2;3/5/2012;7:45:00;100;15 Minutes;;;;;;708;177;73.629;0;97;52;7;19;5.082;10.184;A;71.137;6.344;9.949;
040549FF29CED021;IDS-05B -- ?????-?????? -- 1 -- None -- 78 -- 0 -- Solo Pro II MVP -- 172.26.2.165;113;Total;3/5/2012;7:45:00;100;15 Minutes;;;;;;356;178;73.527;0;97;52;8;19;255.996;5.145;A;71.020;3.207;5.012;
040549FF29CED021;IDS-05B -- ?????-?????? -- 1 -- None -- 78 -- 0 -- Solo Pro II MVP -- 172.26.2.165;109;Lane 1;3/5/2012;8:00:00;100;15 Minutes;;;;;;0;0;0.000;0;0;0;0;0;255.996;0.000;A;0.000;100.000;0.000;
040549FF29CED021;IDS-05B -- ?????-?????? -- 1 -- None -- 78 -- 0 -- Solo Pro II MVP -- 172.26.2.165;110;Lane 2;3/5/2012;8:00:00;100;15 Minutes;;;;;;672;168;71.559;0;88;41;12;27;5.355;10.410;A;68.773;7.266;9.770;
040549FF29CED021;IDS-05B -- ?????-?????? -- 1 -- None -- 78 -- 0 -- Solo Pro II MVP -- 172.26.2.165;113;Total;3/5/2012;8:00:00;100;15 Minutes;;;;;;336;168;71.559;0;88;41;12;27;255.996;5.203;A;68.773;3.633;4.883;
040549FF29CED021;IDS-05B -- ?????-?????? -- 1 -- None -- 78 -- 0 -- Solo Pro II MVP -- 172.26.2.165;109;Lane 1;3/5/2012;8:15:00;100;15 Minutes;;;;;;4;1;75.000;0;0;0;1;0;255.996;0.078;A;75.066;0.055;0.051;
040549FF29CED021;IDS-05B -- ?????-?????? -- 1 -- None -- 78 -- 0 -- Solo Pro II MVP -- 172.26.2.165;110;Lane 2;3/5/2012;8:15:00;100;15 Minutes;;;;;;680;170;74.332;0;82;50;8;30;5.293;9.969;A;71.820;7.063;9.465;
040549FF29CED021;IDS-05B -- ?????-?????? -- 1 -- None -- 78 -- 0 -- Solo Pro II MVP -- 172.26.2.165;113;Total;3/5/2012;8:15:00;100;15 Minutes;;;;;;342;171;74.336;0;82;50;9;30;255.996;5.023;A;71.840;3.559;4.758;
040549FF29CED021;IDS-05B -- ?????-?????? -- 1 -- None -- 78 -- 0 -- Solo Pro II MVP -- 172.26.2.165;109;Lane 1;3/5/2012;8:30:00;100;15 Minutes;;;;;;0;0;0.000;0;0;0;0;0;255.996;0.000;A;0.000;100.000;0.000;
040549FF29CED021;IDS-05B -- ?????-?????? -- 1 -- None -- 78 -- 0 -- Solo Pro II MVP -- 172.26.2.165;110;Lane 2;3/5/2012;8:30:00;100;15 Minutes;;;;;;708;177;72.152;0;88;60;10;19;5.082;10.250;A;70.332;6.758;10.066;
040549FF29CED021;IDS-05B -- ?????-?????? -- 1 -- None -- 78 -- 0 -- Solo Pro II MVP -- 172.26.2.165;113;Total;3/5/2012;8:30:00;100;15 Minutes;;;;;;354;177;72.152;0;88;60;10;19;255.996;5.125;A;70.332;3.379;5.031;
040549FF29CED021;IDS-05B -- ?????-?????? -- 1 -- None -- 78 -- 0 -- Solo Pro II MVP -- 172.26.2.165;109;Lane 1;3/5/2012;8:45:00;100;15 Minutes;;;;;;20;5;51.199;0;1;2;1;0;180.000;0.598;A;43.602;0.227;0.457;
040549FF29CED021;IDS-05B -- ?????-?????? -- 1 -- None -- 78 -- 0 -- Solo Pro II MVP -- 172.26.2.165;110;Lane 2;3/5/2012;8:45:00;100;15 Minutes;;;;;;728;182;68.004;0;90;59;14;18;4.941;11.066;A;65.523;7.453;11.109;
040549FF29CED021;IDS-05B -- ?????-?????? -- 1 -- None -- 78 -- 0 -- Solo Pro II MVP -- 172.26.2.165;113;Total;3/5/2012;8:45:00;100;15 Minutes;;;;;;374;187;67.555;0;91;61;15;18;92.469;5.832;A;64.656;3.836;5.781;
040549FF29CED021;IDS-05B -- ?????-?????? -- 1 -- None -- 78 -- 0 -- Solo Pro II MVP -- 172.26.2.165;109;Lane 1;3/5/2012;9:00:00;100;15 Minutes;;;;;;0;0;0.000;0;0;0;0;0;255.996;0.000;A;0.000;100.000;0.000;
040549FF29CED021;IDS-05B -- ?????-?????? -- 1 -- None -- 78 -- 0 -- Solo Pro II MVP -- 172.26.2.165;110;Lane 2;3/5/2012;9:00:00;100;15 Minutes;;;;;;796;199;66.691;0;103;64;13;19;4.520;12.254;A;64.246;8.117;12.387;
040549FF29CED021;IDS-05B -- ?????-?????? -- 1 -- None -- 78 -- 0 -- Solo Pro II MVP -- 172.26.2.165;113;Total;3/5/2012;9:00:00;100;15 Minutes;;;;;;398;199;66.691;0;103;64;13;19;255.996;6.125;A;64.246;4.059;6.191;
040549FF29CED021;IDS-05B -- ?????-?????? -- 1 -- None -- 78 -- 0 -- Solo Pro II MVP -- 172.26.2.165;109;Lane 1;3/5/2012;9:15:00;100;15 Minutes;;;;;;4;1;75.000;0;1;0;0;0;255.996;0.027;A;75.066;0.020;0.051;
040549FF29CED021;IDS-05B -- ?????-?????? -- 1 -- None -- 78 -- 0 -- Solo Pro II MVP -- 172.26.2.165;110;Lane 2;3/5/2012;9:15:00;100;15 Minutes;;;;;;892;223;63.324;0;92;70;17;41;4.035;16.102;A;62.012;11.922;14.383;
040549FF29CED021;IDS-05B -- ?????-?????? -- 1 -- None -- 78 -- 0 -- Solo Pro II MVP -- 172.26.2.165;113;Total;3/5/2012;9:15:00;100;15 Minutes;;;;;;448;224;63.379;0;93;70;17;41;255.996;8.063;A;62.059;5.969;7.219;
040549FF29CED021;IDS-05B -- ?????-?????? -- 1 -- None -- 78 -- 0 -- Solo Pro II MVP -- 172.26.2.165;109;Lane 1;3/5/2012;9:30:00;100;15 Minutes;;;;;;8;2;43.500;0;1;1;0;0;255.996;0.223;A;42.539;0.289;0.188;
040549FF29CED021;IDS-05B -- ?????-?????? -- 1 -- None -- 78 -- 0 -- Solo Pro II MVP -- 172.26.2.165;110;Lane 2;3/5/2012;9:30:00;100;15 Minutes;;;;;;844;211;63.289;0;78;83;24;24;4.262;14.629;A;61.805;10.027;13.652;
040549FF29CED021;IDS-05B -- ?????-?????? -- 1 -- None -- 78 -- 0 -- Solo Pro II MVP -- 172.26.2.165;113;Total;3/5/2012;9:30:00;100;15 Minutes;;;;;;426;213;63.102;0;79;84;24;24;227.129;7.426;A;61.543;5.125;6.922;
040549FF29CED021;IDS-05B -- ?????-?????? -- 1 -- None -- 78 -- 0 -- Solo Pro II MVP -- 172.26.2.165;109;Lane 1;3/5/2012;9:45:00;100;15 Minutes;;;;;;4;1;94.000;0;0;1;0;0;255.996;0.039;A;94.023;0.023;0.039;
040549FF29CED021;IDS-05B -- ?????-?????? -- 1 -- None -- 78 -- 0 -- Solo Pro II MVP -- 172.26.2.165;110;Lane 2;3/5/2012;9:45:00;100;15 Minutes;;;;;;860;215;64.270;0;81;92;18;22;4.184;14.105;A;62.180;9.852;13.828;
040549FF29CED021;IDS-05B -- ?????-?????? -- 1 -- None -- 78 -- 0 -- Solo Pro II MVP -- 172.26.2.165;113;Total;3/5/2012;9:45:00;100;15 Minutes;;;;;;432;216;64.406;0;81;93;18;22;255.996;7.070;A;62.277;4.930;6.934;
040549FF29CED021;IDS-05B -- ?????-?????? -- 1 -- None -- 78 -- 0 -- Solo Pro II MVP -- 172.26.2.165;109;Lane 1;3/5/2012;10:00:00;100;15 Minutes;;;;;;8;2;81.500;0;2;0;0;0;255.996;0.078;A;70.090;0.043;0.113;
040549FF29CED021;IDS-05B -- ?????-?????? -- 1 -- None -- 78 -- 0 -- Solo Pro II MVP -- 172.26.2.165;110;Lane 2;3/5/2012;10:00:00;100;15 Minutes;;;;;;924;231;64.230;0;87;90;24;30;3.895;15.215;A;62.703;11.375;14.734;
040549FF29CED021;IDS-05B -- ?????-?????? -- 1 -- None -- 78 -- 0 -- Solo Pro II MVP -- 172.26.2.165;113;Total;3/5/2012;10:00:00;100;15 Minutes;;;;;;466;233;64.379;0;89;90;24;30;226.945;7.645;A;62.762;5.703;7.422;
040549FF29CED021;IDS-05B -- ?????-?????? -- 1 -- None -- 78 -- 0 -- Solo Pro II MVP -- 172.26.2.165;109;Lane 1;3/5/2012;10:15:00;100;15 Minutes;;;;;;4;1;61.000;0;0;1;0;0;255.996;0.090;A;61.020;0.145;0.063;
040549FF29CED021;IDS-05B -- ?????-?????? -- 1 -- None -- 78 -- 0 -- Solo Pro II MVP -- 172.26.2.165;110;Lane 2;3/5/2012;10:15:00;100;15 Minutes;;;;;;964;241;59.711;0;88;90;29;34;3.734;16.703;A;58.273;12.684;16.539;
040549FF29CED021;IDS-05B -- ?????-?????? -- 1 -- None -- 78 -- 0 -- Solo Pro II MVP -- 172.26.2.165;113;Total;3/5/2012;10:15:00;100;15 Minutes;;;;;;484;242;59.719;0;88;91;29;34;255.996;8.395;A;58.285;6.414;8.301;
040549FF29CED021;IDS-05B -- ?????-?????? -- 1 -- None -- 78 -- 0 -- Solo Pro II MVP -- 172.26.2.165;109;Lane 1;3/5/2012;10:30:00;100;15 Minutes;;;;;;12;3;97.000;0;2;1;0;0;255.996;0.078;A;89.730;0.059;0.133;
040549FF29CED021;IDS-05B -- ?????-?????? -- 1 -- None -- 78 -- 0 -- Solo Pro II MVP -- 172.26.2.165;110;Lane 2;3/5/2012;10:30:00;100;15 Minutes;;;;;;896;224;58.594;0;76;99;17;31;4.016;17.168;A;57.043;12.324;15.707;
040549FF29CED021;IDS-05B -- ?????-?????? -- 1 -- None -- 78 -- 0 -- Solo Pro II MVP -- 172.26.2.165;113;Total;3/5/2012;10:30:00;100;15 Minutes;;;;;;454;227;59.098;0;78;100;17;31;152.008;8.621;A;57.320;6.160;7.918;
040549FF29CED021;IDS-05B -- ?????-?????? -- 1 -- None -- 78 -- 0 -- Solo Pro II MVP -- 172.26.2.165;109;Lane 1;3/5/2012;10:45:00;100;15 Minutes;;;;;;8;2;43.000;0;1;1;0;0;255.996;0.125;A;40.191;0.082;0.195;
040549FF29CED021;IDS-05B -- ?????-?????? -- 1 -- None -- 78 -- 0 -- Solo Pro II MVP -- 172.26.2.165;110;Lane 2;3/5/2012;10:45:00;100;15 Minutes;;;;;;1020;255;57.047;0;95;94;29;37;3.527;18.453;A;55.809;14.332;18.273;
040549FF29CED021;IDS-05B -- ?????-?????? -- 1 -- None -- 78 -- 0 -- Solo Pro II MVP -- 172.26.2.165;113;Total;3/5/2012;10:45:00;100;15 Minutes;;;;;;514;257;56.938;0;96;95;29;37;226.762;9.289;A;55.660;7.211;9.234;
040549FF29CED021;IDS-05B -- ?????-?????? -- 1 -- None -- 78 -- 0 -- Solo Pro II MVP -- 172.26.2.165;109;Lane 1;3/5/2012;11:00:00;100;15 Minutes;;;;;;8;2;58.000;0;0;1;1;0;255.996;0.145;A;57.941;0.121;0.137;
040549FF29CED021;IDS-05B -- ?????-?????? -- 1 -- None -- 78 -- 0 -- Solo Pro II MVP -- 172.26.2.165;110;Lane 2;3/5/2012;11:00:00;100;15 Minutes;;;;;;1020;255;56.484;0;89;96;30;40;3.527;19.734;A;55.695;15.172;18.313;
040549FF29CED021;IDS-05B -- ?????-?????? -- 1 -- None -- 78 -- 0 -- Solo Pro II MVP -- 172.26.2.165;113;Total;3/5/2012;11:00:00;100;15 Minutes;;;;;;514;257;56.496;0;89;97;31;40;226.762;9.938;A;55.754;7.648;9.219;
040549FF29CED021;IDS-05B -- ?????-?????? -- 1 -- None -- 78 -- 0 -- Solo Pro II MVP -- 172.26.2.165;109;Lane 1;3/5/2012;11:15:00;100;15 Minutes;;;;;;8;2;47.500;0;2;0;0;0;255.996;0.094;A;44.219;0.082;0.180;
040549FF29CED021;IDS-05B -- ?????-?????? -- 1 -- None -- 78 -- 0 -- Solo Pro II MVP -- 172.26.2.165;110;Lane 2;3/5/2012;11:15:00;100;15 Minutes;;;;;;904;226;57.957;0;75;89;25;36;3.980;16.773;A;57.016;13.035;15.852;
040549FF29CED021;IDS-05B -- ?????-?????? -- 1 -- None -- 78 -- 0 -- Solo Pro II MVP -- 172.26.2.165;113;Total;3/5/2012;11:15:00;100;15 Minutes;;;;;;456;228;57.867;0;77;89;25;36;226.988;8.434;A;56.871;6.563;8.016;
040549FF29CED021;IDS-05B -- ?????-?????? -- 1 -- None -- 78 -- 0 -- Solo Pro II MVP -- 172.26.2.165;109;Lane 1;3/5/2012;11:30:00;100;15 Minutes;;;;;;4;1;36.000;0;0;1;0;0;255.996;0.230;A;36.008;0.063;0.109;
040549FF29CED021;IDS-05B -- ?????-?????? -- 1 -- None -- 78 -- 0 -- Solo Pro II MVP -- 172.26.2.165;110;Lane 2;3/5/2012;11:30:00;100;15 Minutes;;;;;;908;227;59.898;0;72;94;23;37;3.961;16.520;A;58.863;12.559;15.422;
040549FF29CED021;IDS-05B -- ?????-?????? -- 1 -- None -- 78 -- 0 -- Solo Pro II MVP -- 172.26.2.165;113;Total;3/5/2012;11:30:00;100;15 Minutes;;;;;;456;228;59.793;0;72;95;23;37;255.996;8.375;A;58.699;6.309;7.766;
040549FF29CED021;IDS-05B -- ?????-?????? -- 1 -- None -- 78 -- 0 -- Solo Pro II MVP -- 172.26.2.165;109;Lane 1;3/5/2012;11:45:00;100;15 Minutes;;;;;;12;3;45.664;0;2;0;1;0;255.996;0.246;A;45.594;0.160;0.262;
040549FF29CED021;IDS-05B -- ?????-?????? -- 1 -- None -- 78 -- 0 -- Solo Pro II MVP -- 172.26.2.165;110;Lane 2;3/5/2012;11:45:00;100;15 Minutes;;;;;;960;240;57.125;0;84;98;27;30;3.750;18.211;A;55.875;13.391;17.180;
040549FF29CED021;IDS-05B -- ?????-?????? -- 1 -- None -- 78 -- 0 -- Solo Pro II MVP -- 172.26.2.165;113;Total;3/5/2012;11:45:00;100;15 Minutes;;;;;;486;243;56.980;0;86;98;28;30;151.875;9.227;A;55.719;6.777;8.719;
040549FF29CED021;IDS-05B -- ?????-?????? -- 1 -- None -- 78 -- 0 -- Solo Pro II MVP -- 172.26.2.165;109;Lane 1;3/5/2012;12:00:00; 99;15 Minutes;;;;;;12;3;65.664;0;3;0;0;0;255.996;0.098;A;65.164;0.070;0.184;
040549FF29CED021;IDS-05B -- ?????-?????? -- 1 -- None -- 78 -- 0 -- Solo Pro II MVP -- 172.26.2.165;110;Lane 2;3/5/2012;12:00:00; 99;15 Minutes;;;;;;976;244;55.320;0;82;91;25;46;3.688;19.242;A;53.996;15.430;18.074;
040549FF29CED021;IDS-05B -- ?????-?????? -- 1 -- None -- 78 -- 0 -- Solo Pro II MVP -- 172.26.2.165;113;Total;3/5/2012;12:00:00; 99;15 Minutes;;;;;;494;247;55.449;0;85;91;25;46;151.844;9.668;A;54.109;7.738;9.129;
040549FF29CED021;IDS-05B -- ?????-?????? -- 1 -- None -- 78 -- 0 -- Solo Pro II MVP -- 172.26.2.165;109;Lane 1;3/5/2012;12:15:00;100;15 Minutes;;;;;;12;3;75.332;0;2;0;1;0;255.996;0.148;A;73.578;0.109;0.160;
040549FF29CED021;IDS-05B -- ?????-?????? -- 1 -- None -- 78 -- 0 -- Solo Pro II MVP -- 172.26.2.165;110;Lane 2;3/5/2012;12:15:00;100;15 Minutes;;;;;;876;219;55.750;0;85;72;22;38;4.109;16.465;A;54.422;13.160;16.094;
040549FF29CED021;IDS-05B -- ?????-?????? -- 1 -- None -- 78 -- 0 -- Solo Pro II MVP -- 172.26.2.165;113;Total;3/5/2012;12:15:00;100;15 Minutes;;;;;;444;222;56.016;0;87;72;23;38;152.055;8.305;A;54.613;6.625;8.129;
040549FF29CED021;IDS-05B -- ?????-?????? -- 1 -- None -- 78 -- 0 -- Solo Pro II MVP -- 172.26.2.165;109;Lane 1;3/5/2012;12:30:00;100;15 Minutes;;;;;;8;2;47.000;0;1;0;1;0;255.996;0.207;A;46.992;0.137;0.168;
040549FF29CED021;IDS-05B -- ?????-?????? -- 1 -- None -- 78 -- 0 -- Solo Pro II MVP -- 172.26.2.165;110;Lane 2;3/5/2012;12:30:00;100;15 Minutes;;;;;;864;216;56.395;0;67;87;30;32;4.164;16.035;A;55.031;12.730;15.699;
040549FF29CED021;IDS-05B -- ?????-?????? -- 1 -- None -- 78 -- 0 -- Solo Pro II MVP -- 172.26.2.165;113;Total;3/5/2012;12:30:00;100;15 Minutes;;;;;;436;218;56.309;0;68;87;31;32;227.082;8.121;A;54.945;6.430;7.934;
040549FF29CED021;IDS-05B -- ?????-?????? -- 1 -- None -- 78 -- 0 -- Solo Pro II MVP -- 172.26.2.165;109;Lane 1;3/5/2012;12:45:00;100;15 Minutes;;;;;;4;1;66.000;0;0;0;1;0;255.996;0.070;A;66.063;0.066;0.059;
040549FF29CED021;IDS-05B -- ?????-?????? -- 1 -- None -- 78 -- 0 -- Solo Pro II MVP -- 172.26.2.165;110;Lane 2;3/5/2012;12:45:00;100;15 Minutes;;;;;;840;210;59.621;0;75;85;23;27;4.285;14.480;A;58.434;10.992;14.375;
040549FF29CED021;IDS-05B -- ?????-?????? -- 1 -- None -- 78 -- 0 -- Solo Pro II MVP -- 172.26.2.165;113;Total;3/5/2012;12:45:00;100;15 Minutes;;;;;;422;211;59.652;0;75;85;24;27;255.996;7.273;A;58.465;5.531;7.215;
040549FF29CED021;IDS-05B -- ?????-?????? -- 1 -- None -- 78 -- 0 -- Solo Pro II MVP -- 172.26.2.165;109;Lane 1;3/5/2012;13:00:00;100;15 Minutes;;;;;;12;3;45.664;0;1;2;0;0;255.996;0.539;A;43.855;0.129;0.273;
040549FF29CED021;IDS-05B -- ?????-?????? -- 1 -- None -- 78 -- 0 -- Solo Pro II MVP -- 172.26.2.165;110;Lane 2;3/5/2012;13:00:00;100;15 Minutes;;;;;;828;207;58.574;0;58;98;25;26;4.348;15.168;A;57.570;11.691;14.379;
040549FF29CED021;IDS-05B -- ?????-?????? -- 1 -- None -- 78 -- 0 -- Solo Pro II MVP -- 172.26.2.165;113;Total;3/5/2012;13:00:00;100;15 Minutes;;;;;;420;210;58.387;0;59;100;25;26;152.172;7.852;A;57.316;5.914;7.324;
040549FF29CED021;IDS-05B -- ?????-?????? -- 1 -- None -- 78 -- 0 -- Solo Pro II MVP -- 172.26.2.165;109;Lane 1;3/5/2012;13:15:00;100;15 Minutes;;;;;;0;0;0.000;0;0;0;0;0;255.996;0.000;A;0.000;100.000;0.000;
040549FF29CED021;IDS-05B -- ?????-?????? -- 1 -- None -- 78 -- 0 -- Solo Pro II MVP -- 172.26.2.165;110;Lane 2;3/5/2012;13:15:00;100;15 Minutes;;;;;;832;208;60.000;0;64;86;26;32;4.324;15.152;A;58.789;11.699;14.148;
040549FF29CED021;IDS-05B -- ?????-?????? -- 1 -- None -- 78 -- 0 -- Solo Pro II MVP -- 172.26.2.165;113;Total;3/5/2012;13:15:00;100;15 Minutes;;;;;;416;208;60.000;0;64;86;26;32;255.996;7.574;A;58.789;5.848;7.074;
040549FF29CED021;IDS-05B -- ?????-?????? -- 1 -- None -- 78 -- 0 -- Solo Pro II MVP -- 172.26.2.165;109;Lane 1;3/5/2012;13:30:00;100;15 Minutes;;;;;;8;2;46.000;0;2;0;0;0;255.996;0.145;A;45.988;0.063;0.172;
040549FF29CED021;IDS-05B -- ?????-?????? -- 1 -- None -- 78 -- 0 -- Solo Pro II MVP -- 172.26.2.165;110;Lane 2;3/5/2012;13:30:00;100;15 Minutes;;;;;;748;187;54.980;0;47;84;14;42;4.813;15.996;A;53.871;12.574;13.883;
040549FF29CED021;IDS-05B -- ?????-?????? -- 1 -- None -- 78 -- 0 -- Solo Pro II MVP -- 172.26.2.165;113;Total;3/5/2012;13:30:00;100;15 Minutes;;;;;;378;189;54.887;0;49;84;14;42;227.406;8.070;A;53.773;6.324;7.027;
040549FF29CED021;IDS-05B -- ?????-?????? -- 1 -- None -- 78 -- 0 -- Solo Pro II MVP -- 172.26.2.165;109;Lane 1;3/5/2012;13:45:00;100;15 Minutes;;;;;;4;1;70.000;0;0;0;1;0;255.996;0.090;A;70.016;0.063;0.055;
040549FF29CED021;IDS-05B -- ?????-?????? -- 1 -- None -- 78 -- 0 -- Solo Pro II MVP -- 172.26.2.165;110;Lane 2;3/5/2012;13:45:00;100;15 Minutes;;;;;;868;217;59.285;0;83;79;25;29;4.145;15.879;A;57.438;11.594;15.109;
040549FF29CED021;IDS-05B -- ?????-?????? -- 1 -- None -- 78 -- 0 -- Solo Pro II MVP -- 172.26.2.165;113;Total;3/5/2012;13:45:00;100;15 Minutes;;;;;;436;218;59.332;0;83;79;26;29;255.996;7.984;A;57.484;5.828;7.582;
040549FF29CED021;IDS-05B -- ?????-?????? -- 1 -- None -- 78 -- 0 -- Solo Pro II MVP -- 172.26.2.165;109;Lane 1;3/5/2012;14:00:00;100;15 Minutes;;;;;;12;3;58.332;0;1;1;1;0;255.996;0.180;A;56.254;0.109;0.211;
040549FF29CED021;IDS-05B -- ?????-?????? -- 1 -- None -- 78 -- 0 -- Solo Pro II MVP -- 172.26.2.165;110;Lane 2;3/5/2012;14:00:00;100;15 Minutes;;;;;;816;204;59.797;0;73;85;17;29;4.410;14.152;A;58.859;10.785;13.863;
040549FF29CED021;IDS-05B -- ?????-?????? -- 1 -- None -- 78 -- 0 -- Solo Pro II MVP -- 172.26.2.165;113;Total;3/5/2012;14:00:00;100;15 Minutes;;;;;;414;207;59.777;0;74;86;18;29;152.203;7.164;A;58.820;5.449;7.035;
040549FF29CED021;IDS-05B -- ?????-?????? -- 1 -- None -- 78 -- 0 -- Solo Pro II MVP -- 172.26.2.165;109;Lane 1;3/5/2012;14:15:00;100;15 Minutes;;;;;;8;2;53.500;0;1;1;0;0;255.996;0.129;A;53.301;0.078;0.148;
040549FF29CED021;IDS-05B -- ?????-?????? -- 1 -- None -- 78 -- 0 -- Solo Pro II MVP -- 172.26.2.165;110;Lane 2;3/5/2012;14:15:00;100;15 Minutes;;;;;;808;202;58.633;0;78;62;25;37;4.453;14.477;A;57.453;11.965;14.063;
040549FF29CED021;IDS-05B -- ?????-?????? -- 1 -- None -- 78 -- 0 -- Solo Pro II MVP -- 172.26.2.165;113;Total;3/5/2012;14:15:00;100;15 Minutes;;;;;;408;204;58.582;0;79;63;25;37;227.227;7.301;A;57.410;6.020;7.105;
040549FF29CED021;IDS-05B -- ?????-?????? -- 1 -- None -- 78 -- 0 -- Solo Pro II MVP -- 172.26.2.165;109;Lane 1;3/5/2012;14:30:00;100;15 Minutes;;;;;;4;1;57.000;0;1;0;0;0;255.996;0.035;A;57.035;0.020;0.066;
040549FF29CED021;IDS-05B -- ?????-?????? -- 1 -- None -- 78 -- 0 -- Solo Pro II MVP -- 172.26.2.165;110;Lane 2;3/5/2012;14:30:00;100;15 Minutes;;;;;;852;213;55.945;0;83;74;15;40;4.223;15.828;A;54.426;12.277;15.652;
040549FF29CED021;IDS-05B -- ?????-?????? -- 1 -- None -- 78 -- 0 -- Solo Pro II MVP -- 172.26.2.165;113;Total;3/5/2012;14:30:00;100;15 Minutes;;;;;;428;214;55.953;0;84;74;15;40;255.996;7.930;A;54.438;6.148;7.859;
040549FF29CED021;IDS-05B -- ?????-?????? -- 1 -- None -- 78 -- 0 -- Solo Pro II MVP -- 172.26.2.165;109;Lane 1;3/5/2012;14:45:00;100;15 Minutes;;;;;;0;0;0.000;0;0;0;0;0;255.996;0.000;A;0.000;100.000;0.000;
040549FF29CED021;IDS-05B -- ?????-?????? -- 1 -- None -- 78 -- 0 -- Solo Pro II MVP -- 172.26.2.165;110;Lane 2;3/5/2012;14:45:00;100;15 Minutes;;;;;;840;210;59.160;0;92;77;24;17;4.285;13.621;A;57.332;9.977;14.648;
040549FF29CED021;IDS-05B -- ?????-?????? -- 1 -- None -- 78 -- 0 -- Solo Pro II MVP -- 172.26.2.165;113;Total;3/5/2012;14:45:00;100;15 Minutes;;;;;;420;210;59.160;0;92;77;24;17;255.996;6.809;A;57.332;4.988;7.324;
040549FF29CED021;IDS-05B -- ?????-?????? -- 1 -- None -- 78 -- 0 -- Solo Pro II MVP -- 172.26.2.165;109;Lane 1;3/5/2012;15:00:00;100;15 Minutes;;;;;;4;1;59.000;0;0;1;0;0;255.996;0.102;A;59.039;0.035;0.066;
040549FF29CED021;IDS-05B -- ?????-?????? -- 1 -- None -- 78 -- 0 -- Solo Pro II MVP -- 172.26.2.165;110;Lane 2;3/5/2012;15:00:00;100;15 Minutes;;;;;;836;209;59.430;0;87;77;21;24;4.305;14.070;A;57.797;10.605;14.461;
040549FF29CED021;IDS-05B -- ?????-?????? -- 1 -- None -- 78 -- 0 -- Solo Pro II MVP -- 172.26.2.165;113;Total;3/5/2012;15:00:00;100;15 Minutes;;;;;;420;210;59.426;0;87;78;21;24;255.996;7.086;A;57.805;5.320;7.266;
040549FF29CED021;IDS-05B -- ?????-?????? -- 1 -- None -- 78 -- 0 -- Solo Pro II MVP -- 172.26.2.165;109;Lane 1;3/5/2012;15:15:00;100;15 Minutes;;;;;;12;3;46.664;0;3;0;0;0;255.996;0.113;A;44.238;0.074;0.270;
040549FF29CED021;IDS-05B -- ?????-?????? -- 1 -- None -- 78 -- 0 -- Solo Pro II MVP -- 172.26.2.165;110;Lane 2;3/5/2012;15:15:00;100;15 Minutes;;;;;;872;218;53.703;0;69;103;25;19;4.125;15.895;A;51.656;12.023;16.879;
040549FF29CED021;IDS-05B -- ?????-?????? -- 1 -- None -- 78 -- 0 -- Solo Pro II MVP -- 172.26.2.165;113;Total;3/5/2012;15:15:00;100;15 Minutes;;;;;;442;221;53.609;0;72;103;25;19;152.063;8.004;A;51.539;6.055;8.574;
040549FF29CED021;IDS-05B -- ?????-?????? -- 1 -- None -- 78 -- 0 -- Solo Pro II MVP -- 172.26.2.165;109;Lane 1;3/5/2012;15:30:00;100;15 Minutes;;;;;;4;1;51.000;0;0;1;0;0;255.996;0.078;A;51.000;0.047;0.078;
040549FF29CED021;IDS-05B -- ?????-?????? -- 1 -- None -- 78 -- 0 -- Solo Pro II MVP -- 172.26.2.165;110;Lane 2;3/5/2012;15:30:00;100;15 Minutes;;;;;;852;213;56.000;0;73;88;33;19;4.223;15.492;A;53.773;11.746;15.844;
040549FF29CED021;IDS-05B -- ?????-?????? -- 1 -- None -- 78 -- 0 -- Solo Pro II MVP -- 172.26.2.165;113;Total;3/5/2012;15:30:00;100;15 Minutes;;;;;;428;214;55.977;0;73;89;33;19;255.996;7.785;A;53.758;5.898;7.961;
040549FF29CED021;IDS-05B -- ?????-?????? -- 1 -- None -- 78 -- 0 -- Solo Pro II MVP -- 172.26.2.165;109;Lane 1;3/5/2012;15:45:00;100;15 Minutes;;;;;;20;5;57.199;0;3;2;0;0;180.000;0.309;A;54.875;0.180;0.363;
040549FF29CED021;IDS-05B -- ?????-?????? -- 1 -- None -- 78 -- 0 -- Solo Pro II MVP -- 172.26.2.165;110;Lane 2;3/5/2012;15:45:00;100;15 Minutes;;;;;;864;216;55.832;0;59;96;33;28;4.164;16.609;A;53.527;12.793;16.141;
040549FF29CED021;IDS-05B -- ?????-?????? -- 1 -- None -- 78 -- 0 -- Solo Pro II MVP -- 172.26.2.165;113;Total;3/5/2012;15:45:00;100;15 Minutes;;;;;;442;221;55.863;0;62;98;33;28;92.082;8.457;A;53.559;6.484;8.250;
040549FF29CED021;IDS-05B -- ?????-?????? -- 1 -- None -- 78 -- 0 -- Solo Pro II MVP -- 172.26.2.165;109;Lane 1;3/5/2012;16:00:00;100;15 Minutes;;;;;;8;2;47.000;0;2;0;0;0;255.996;0.133;A;46.828;0.082;0.168;
040549FF29CED021;IDS-05B -- ?????-?????? -- 1 -- None -- 78 -- 0 -- Solo Pro II MVP -- 172.26.2.165;110;Lane 2;3/5/2012;16:00:00;100;15 Minutes;;;;;;808;202;58.957;0;62;95;20;24;4.453;14.211;A;57.449;10.734;14.063;
040549FF29CED021;IDS-05B -- ?????-?????? -- 1 -- None -- 78 -- 0 -- Solo Pro II MVP -- 172.26.2.165;113;Total;3/5/2012;16:00:00;100;15 Minutes;;;;;;408;204;58.840;0;64;95;20;24;227.227;7.172;A;57.320;5.410;7.117;
040549FF29CED021;IDS-05B -- ?????-?????? -- 1 -- None -- 78 -- 0 -- Solo Pro II MVP -- 172.26.2.165;109;Lane 1;3/5/2012;16:15:00;100;15 Minutes;;;;;;8;2;67.500;0;2;0;0;0;255.996;0.152;A;66.906;0.035;0.117;
040549FF29CED021;IDS-05B -- ?????-?????? -- 1 -- None -- 78 -- 0 -- Solo Pro II MVP -- 172.26.2.165;110;Lane 2;3/5/2012;16:15:00;100;15 Minutes;;;;;;808;202;60.484;0;81;74;22;25;4.453;13.203;A;58.719;10.316;13.758;
040549FF29CED021;IDS-05B -- ?????-?????? -- 1 -- None -- 78 -- 0 -- Solo Pro II MVP -- 172.26.2.165;113;Total;3/5/2012;16:15:00;100;15 Minutes;;;;;;408;204;60.551;0;83;74;22;25;227.227;6.676;A;58.789;5.172;6.938;
040549FF29CED021;IDS-05B -- ?????-?????? -- 1 -- None -- 78 -- 0 -- Solo Pro II MVP -- 172.26.2.165;109;Lane 1;3/5/2012;16:30:00;100;15 Minutes;;;;;;12;3;61.000;0;2;1;0;0;255.996;0.152;A;61.000;0.090;0.195;
040549FF29CED021;IDS-05B -- ?????-?????? -- 1 -- None -- 78 -- 0 -- Solo Pro II MVP -- 172.26.2.165;110;Lane 2;3/5/2012;16:30:00;100;15 Minutes;;;;;;468;117;66.957;0;46;57;7;7;7.691;6.750;A;64.441;4.652;7.262;
040549FF29CED021;IDS-05B -- ?????-?????? -- 1 -- None -- 78 -- 0 -- Solo Pro II MVP -- 172.26.2.165;113;Total;3/5/2012;16:30:00;100;15 Minutes;;;;;;240;120;66.805;0;48;58;7;7;153.844;3.449;A;64.352;2.371;3.727;
040549FF29CED021;IDS-05B -- ?????-?????? -- 1 -- None -- 78 -- 0 -- Solo Pro II MVP -- 172.26.2.165;109;Lane 1;3/5/2012;16:45:00;100;15 Minutes;;;;;;0;0;0.000;0;0;0;0;0;255.996;0.000;A;0.000;100.000;0.000;
040549FF29CED021;IDS-05B -- ?????-?????? -- 1 -- None -- 78 -- 0 -- Solo Pro II MVP -- 172.26.2.165;110;Lane 2;3/5/2012;16:45:00;100;15 Minutes;;;;;;112;28;76.961;0;18;8;0;2;32.141;1.145;A;71.703;0.801;1.559;
040549FF29CED021;IDS-05B -- ?????-?????? -- 1 -- None -- 78 -- 0 -- Solo Pro II MVP -- 172.26.2.165;113;Total;3/5/2012;16:45:00;100;15 Minutes;;;;;;56;28;76.961;0;18;8;0;2;255.996;0.570;A;71.703;0.398;0.777;
040549FF29CED021;IDS-05B -- ?????-?????? -- 1 -- None -- 78 -- 0 -- Solo Pro II MVP -- 172.26.2.165;109;Lane 1;3/5/2012;17:00:00;100;15 Minutes;;;;;;116;29;57.824;0;22;7;0;0;31.031;1.410;A;55.898;0.926;2.074;
040549FF29CED021;IDS-05B -- ?????-?????? -- 1 -- None -- 78 -- 0 -- Solo Pro II MVP -- 172.26.2.165;110;Lane 2;3/5/2012;17:00:00;100;15 Minutes;;;;;;596;149;49.891;0;53;71;12;13;6.039;11.402;A;48.016;8.367;12.410;
040549FF29CED021;IDS-05B -- ?????-?????? -- 1 -- None -- 78 -- 0 -- Solo Pro II MVP -- 172.26.2.165;113;Total;3/5/2012;17:00:00;100;15 Minutes;;;;;;356;178;51.184;0;75;78;12;13;18.535;6.406;A;49.145;4.602;7.242;
040549FF29CED021;IDS-05B -- ?????-?????? -- 1 -- None -- 78 -- 0 -- Solo Pro II MVP -- 172.26.2.165;109;Lane 1;3/5/2012;17:15:00;100;15 Minutes;;;;;;276;69;56.199;0;46;19;1;1;13.043;8.656;A;41.871;2.414;6.590;
040549FF29CED021;IDS-05B -- ?????-?????? -- 1 -- None -- 78 -- 0 -- Solo Pro II MVP -- 172.26.2.165;110;Lane 2;3/5/2012;17:15:00;100;15 Minutes;;;;;;1216;304;50.613;0;109;123;32;35;2.957;23.371;A;46.852;17.793;25.953;
040549FF29CED021;IDS-05B -- ?????-?????? -- 1 -- None -- 78 -- 0 -- Solo Pro II MVP -- 172.26.2.165;113;Total;3/5/2012;17:15:00;100;15 Minutes;;;;;;746;373;51.648;0;155;142;33;36;8.000;16.012;A;45.840;10.031;16.273;
040549FF29CED021;IDS-05B -- ?????-?????? -- 1 -- None -- 78 -- 0 -- Solo Pro II MVP -- 172.26.2.165;109;Lane 1;3/5/2012;17:30:00;100;15 Minutes;;;;;;4;1;62.000;0;1;0;0;0;255.996;0.035;A;62.000;0.027;0.063;
040549FF29CED021;IDS-05B -- ?????-?????? -- 1 -- None -- 78 -- 0 -- Solo Pro II MVP -- 172.26.2.165;110;Lane 2;3/5/2012;17:30:00;100;15 Minutes;;;;;;744;186;64.477;0;87;68;14;16;4.836;10.496;A;63.051;8.004;11.797;
040549FF29CED021;IDS-05B -- ?????-?????? -- 1 -- None -- 78 -- 0 -- Solo Pro II MVP -- 172.26.2.165;113;Total;3/5/2012;17:30:00;100;15 Minutes;;;;;;374;187;64.465;0;88;68;14;16;255.996;5.266;A;63.043;4.016;5.930;
040549FF29CED021;IDS-05B -- ?????-?????? -- 1 -- None -- 78 -- 0 -- Solo Pro II MVP -- 172.26.2.165;109;Lane 1;3/5/2012;17:45:00;100;15 Minutes;;;;;;0;0;0.000;0;0;0;0;0;255.996;0.000;A;0.000;100.000;0.000;
040549FF29CED021;IDS-05B -- ?????-?????? -- 1 -- None -- 78 -- 0 -- Solo Pro II MVP -- 172.26.2.165;110;Lane 2;3/5/2012;17:45:00;100;15 Minutes;;;;;;808;202;66.254;0;112;60;13;17;4.453;10.574;A;64.316;8.066;12.563;
040549FF29CED021;IDS-05B -- ?????-?????? -- 1 -- None -- 78 -- 0 -- Solo Pro II MVP -- 172.26.2.165;113;Total;3/5/2012;17:45:00;100;15 Minutes;;;;;;404;202;66.254;0;112;60;13;17;255.996;5.285;A;64.316;4.031;6.281;
040549FF29CED021;IDS-05B -- ?????-?????? -- 1 -- None -- 78 -- 0 -- Solo Pro II MVP -- 172.26.2.165;109;Lane 1;3/5/2012;18:00:00;100;15 Minutes;;;;;;20;5;63.000;0;4;1;0;0;180.000;0.270;A;60.035;0.152;0.332;
040549FF29CED021;IDS-05B -- ?????-?????? -- 1 -- None -- 78 -- 0 -- Solo Pro II MVP -- 172.26.2.165;110;Lane 2;3/5/2012;18:00:00;100;15 Minutes;;;;;;832;208;64.906;0;102;70;13;22;4.324;11.820;A;63.168;9.105;13.168;
040549FF29CED021;IDS-05B -- ?????-?????? -- 1 -- None -- 78 -- 0 -- Solo Pro II MVP -- 172.26.2.165;113;Total;3/5/2012;18:00:00;100;15 Minutes;;;;;;426;213;64.863;0;106;71;13;22;92.160;6.043;A;63.090;4.629;6.750;
040549FF29CED021;IDS-05B -- ?????-?????? -- 1 -- None -- 78 -- 0 -- Solo Pro II MVP -- 172.26.2.165;109;Lane 1;3/5/2012;18:15:00;100;15 Minutes;;;;;;252;63;61.109;0;49;13;0;0;14.285;2.828;A;57.754;1.887;4.363;
040549FF29CED021;IDS-05B -- ?????-?????? -- 1 -- None -- 78 -- 0 -- Solo Pro II MVP -- 172.26.2.165;110;Lane 2;3/5/2012;18:15:00;100;15 Minutes;;;;;;1120;280;57.070;0;139;97;14;29;3.211;17.426;A;55.094;13.598;20.328;
040549FF29CED021;IDS-05B -- ?????-?????? -- 1 -- None -- 78 -- 0 -- Solo Pro II MVP -- 172.26.2.165;113;Total;3/5/2012;18:15:00;100;15 Minutes;;;;;;686;343;57.813;0;188;110;14;29;8.746;10.125;A;55.539;7.711;12.352;
040549FF29CED021;IDS-05B -- ?????-?????? -- 1 -- None -- 78 -- 0 -- Solo Pro II MVP -- 172.26.2.165;109;Lane 1;3/5/2012;18:30:00;100;15 Minutes;;;;;;140;35;67.027;0;26;8;0;1;25.711;1.496;A;52.238;0.996;2.680;
040549FF29CED021;IDS-05B -- ?????-?????? -- 1 -- None -- 78 -- 0 -- Solo Pro II MVP -- 172.26.2.165;110;Lane 2;3/5/2012;18:30:00;100;15 Minutes;;;;;;1028;257;57.105;0;121;90;18;28;3.500;15.691;A;55.895;13.297;18.391;
040549FF29CED021;IDS-05B -- ?????-?????? -- 1 -- None -- 78 -- 0 -- Solo Pro II MVP -- 172.26.2.165;113;Total;3/5/2012;18:30:00;100;15 Minutes;;;;;;584;292;58.297;0;147;98;18;29;14.605;8.594;A;55.410;7.086;10.539;
040549FF29CED021;IDS-05B -- ?????-?????? -- 1 -- None -- 78 -- 0 -- Solo Pro II MVP -- 172.26.2.165;109;Lane 1;3/5/2012;18:45:00;100;15 Minutes;;;;;;80;20;64.250;0;17;3;0;0;45.000;0.922;A;63.242;0.594;1.262;
040549FF29CED021;IDS-05B -- ?????-?????? -- 1 -- None -- 78 -- 0 -- Solo Pro II MVP -- 172.26.2.165;110;Lane 2;3/5/2012;18:45:00;100;15 Minutes;;;;;;968;242;54.391;0;112;86;17;24;3.719;16.492;A;52.777;12.801;18.340;
040549FF29CED021;IDS-05B -- ?????-?????? -- 1 -- None -- 78 -- 0 -- Solo Pro II MVP -- 172.26.2.165;113;Total;3/5/2012;18:45:00;100;15 Minutes;;;;;;524;262;55.145;0;129;89;17;24;24.359;8.707;A;53.484;6.656;9.797;
040549FF29CED021;IDS-05B -- ?????-?????? -- 1 -- None -- 78 -- 0 -- Solo Pro II MVP -- 172.26.2.165;109;Lane 1;3/5/2012;19:00:00;100;15 Minutes;;;;;;36;9;66.219;0;9;0;0;0;100.000;0.426;A;61.637;0.227;0.582;
040549FF29CED021;IDS-05B -- ?????-?????? -- 1 -- None -- 78 -- 0 -- Solo Pro II MVP -- 172.26.2.165;110;Lane 2;3/5/2012;19:00:00;100;15 Minutes;;;;;;904;226;57.027;0;121;83;7;15;3.980;15.574;A;54.566;9.820;16.566;
040549FF29CED021;IDS-05B -- ?????-?????? -- 1 -- None -- 78 -- 0 -- Solo Pro II MVP -- 172.26.2.165;113;Total;3/5/2012;19:00:00;100;15 Minutes;;;;;;470;235;57.383;0;130;83;7;15;51.988;8.000;A;54.809;5.012;8.574;
040549FF29CED021;IDS-05B -- ?????-?????? -- 1 -- None -- 78 -- 0 -- Solo Pro II MVP -- 172.26.2.165;109;Lane 1;3/5/2012;19:15:00;100;15 Minutes;;;;;;4;1;60.000;0;1;0;0;0;255.996;0.020;A;60.012;0.012;0.066;
040549FF29CED021;IDS-05B -- ?????-?????? -- 1 -- None -- 78 -- 0 -- Solo Pro II MVP -- 172.26.2.165;110;Lane 2;3/5/2012;19:15:00;100;15 Minutes;;;;;;716;179;57.742;0;102;70;3;4;5.027;10.719;A;55.117;6.816;12.988;
040549FF29CED021;IDS-05B -- ?????-?????? -- 1 -- None -- 78 -- 0 -- Solo Pro II MVP -- 172.26.2.165;113;Total;3/5/2012;19:15:00;100;15 Minutes;;;;;;360;180;57.754;0;103;70;3;4;255.996;5.367;A;55.141;3.414;6.527;
040549FF29CED021;IDS-05B -- ?????-?????? -- 1 -- None -- 78 -- 0 -- Solo Pro II MVP -- 172.26.2.165;109;Lane 1;3/5/2012;19:30:00;100;15 Minutes;;;;;;8;2;58.000;0;1;0;0;1;255.996;0.074;A;57.738;0.000;0.137;
040549FF29CED021;IDS-05B -- ?????-?????? -- 1 -- None -- 78 -- 0 -- Solo Pro II MVP -- 172.26.2.165;110;Lane 2;3/5/2012;19:30:00;100;15 Minutes;;;;;;620;155;58.695;0;90;61;1;3;5.805;9.391;A;56.641;5.664;10.945;
040549FF29CED021;IDS-05B -- ?????-?????? -- 1 -- None -- 78 -- 0 -- Solo Pro II MVP -- 172.26.2.165;113;Total;3/5/2012;19:30:00;100;15 Minutes;;;;;;314;157;58.688;0;91;61;1;4;227.902;4.730;A;56.652;2.922;5.539;
040549FF29CED021;IDS-05B -- ?????-?????? -- 1 -- None -- 78 -- 0 -- Solo Pro II MVP -- 172.26.2.165;109;Lane 1;3/5/2012;19:45:00;100;15 Minutes;;;;;;8;2;51.500;0;1;1;0;0;255.996;0.113;A;49.758;0.066;0.160;
040549FF29CED021;IDS-05B -- ?????-?????? -- 1 -- None -- 78 -- 0 -- Solo Pro II MVP -- 172.26.2.165;110;Lane 2;3/5/2012;19:45:00;100;15 Minutes;;;;;;580;145;60.668;0;82;56;1;6;6.203;9.148;A;58.156;5.336;9.973;
040549FF29CED021;IDS-05B -- ?????-?????? -- 1 -- None -- 78 -- 0 -- Solo Pro II MVP -- 172.26.2.165;113;Total;3/5/2012;19:45:00;100;15 Minutes;;;;;;294;147;60.543;0;83;57;1;6;228.102;4.629;A;58.023;2.703;5.066;
040549FF29CED021;IDS-05B -- ?????-?????? -- 1 -- None -- 78 -- 0 -- Solo Pro II MVP -- 172.26.2.165;109;Lane 1;3/5/2012;20:00:00;100;15 Minutes;;;;;;8;2;47.500;0;2;0;0;0;255.996;0.109;A;45.621;0.066;0.172;
040549FF29CED021;IDS-05B -- ?????-?????? -- 1 -- None -- 78 -- 0 -- Solo Pro II MVP -- 172.26.2.165;110;Lane 2;3/5/2012;20:00:00;100;15 Minutes;;;;;;548;137;59.328;0;90;43;1;2;6.566;7.547;A;56.711;4.613;9.660;
040549FF29CED021;IDS-05B -- ?????-?????? -- 1 -- None -- 78 -- 0 -- Solo Pro II MVP -- 172.26.2.165;113;Total;3/5/2012;20:00:00;100;15 Minutes;;;;;;278;139;59.156;0;92;43;1;2;228.281;3.828;A;56.512;2.340;4.918;
040549FF29CED021;IDS-05B -- ?????-?????? -- 1 -- None -- 78 -- 0 -- Solo Pro II MVP -- 172.26.2.165;109;Lane 1;3/5/2012;20:15:00;100;15 Minutes;;;;;;12;3;54.000;0;2;0;1;0;255.996;0.215;A;53.020;0.145;0.223;
040549FF29CED021;IDS-05B -- ?????-?????? -- 1 -- None -- 78 -- 0 -- Solo Pro II MVP -- 172.26.2.165;110;Lane 2;3/5/2012;20:15:00;100;15 Minutes;;;;;;632;158;58.715;0;92;60;1;3;5.695;9.086;A;56.656;5.594;11.152;
040549FF29CED021;IDS-05B -- ?????-?????? -- 1 -- None -- 78 -- 0 -- Solo Pro II MVP -- 172.26.2.165;113;Total;3/5/2012;20:15:00;100;15 Minutes;;;;;;322;161;58.625;0;94;60;2;3;152.848;4.648;A;56.582;2.867;5.688;
040549FF29CED021;IDS-05B -- ?????-?????? -- 1 -- None -- 78 -- 0 -- Solo Pro II MVP -- 172.26.2.165;109;Lane 1;3/5/2012;20:30:00;100;15 Minutes;;;;;;4;1;57.000;0;1;0;0;0;255.996;0.012;A;57.035;0.012;0.066;
040549FF29CED021;IDS-05B -- ?????-?????? -- 1 -- None -- 78 -- 0 -- Solo Pro II MVP -- 172.26.2.165;110;Lane 2;3/5/2012;20:30:00;100;15 Minutes;;;;;;520;130;57.129;0;77;46;2;5;6.922;8.379;A;55.055;5.141;9.441;
040549FF29CED021;IDS-05B -- ?????-?????? -- 1 -- None -- 78 -- 0 -- Solo Pro II MVP -- 172.26.2.165;113;Total;3/5/2012;20:30:00;100;15 Minutes;;;;;;262;131;57.129;0;78;46;2;5;255.996;4.195;A;55.070;2.574;4.754;
040549FF29CED021;IDS-05B -- ?????-?????? -- 1 -- None -- 78 -- 0 -- Solo Pro II MVP -- 172.26.2.165;109;Lane 1;3/5/2012;20:45:00;100;15 Minutes;;;;;;0;0;0.000;0;0;0;0;0;255.996;0.000;A;0.000;100.000;0.000;
040549FF29CED021;IDS-05B -- ?????-?????? -- 1 -- None -- 78 -- 0 -- Solo Pro II MVP -- 172.26.2.165;110;Lane 2;3/5/2012;20:45:00;100;15 Minutes;;;;;;536;134;59.895;0;98;31;1;4;6.715;7.758;A;56.719;4.699;9.449;
040549FF29CED021;IDS-05B -- ?????-?????? -- 1 -- None -- 78 -- 0 -- Solo Pro II MVP -- 172.26.2.165;113;Total;3/5/2012;20:45:00;100;15 Minutes;;;;;;268;134;59.895;0;98;31;1;4;255.996;3.879;A;56.719;2.348;4.723;
040549FF29CED021;IDS-05B -- ?????-?????? -- 1 -- None -- 78 -- 0 -- Solo Pro II MVP -- 172.26.2.165;109;Lane 1;3/5/2012;21:00:00;100;15 Minutes;;;;;;0;0;0.000;0;0;0;0;0;255.996;0.000;A;0.000;100.000;0.000;
040549FF29CED021;IDS-05B -- ?????-?????? -- 1 -- None -- 78 -- 0 -- Solo Pro II MVP -- 172.26.2.165;110;Lane 2;3/5/2012;21:00:00;100;15 Minutes;;;;;;524;131;59.266;0;90;37;1;3;6.867;7.137;A;56.813;4.512;9.223;
040549FF29CED021;IDS-05B -- ?????-?????? -- 1 -- None -- 78 -- 0 -- Solo Pro II MVP -- 172.26.2.165;113;Total;3/5/2012;21:00:00;100;15 Minutes;;;;;;262;131;59.266;0;90;37;1;3;255.996;3.566;A;56.813;2.254;4.609;
040549FF29CED021;IDS-05B -- ?????-?????? -- 1 -- None -- 78 -- 0 -- Solo Pro II MVP -- 172.26.2.165;109;Lane 1;3/5/2012;21:15:00;100;15 Minutes;;;;;;4;1;80.000;0;0;1;0;0;255.996;0.039;A;80.020;0.031;0.047;
040549FF29CED021;IDS-05B -- ?????-?????? -- 1 -- None -- 78 -- 0 -- Solo Pro II MVP -- 172.26.2.165;110;Lane 2;3/5/2012;21:15:00;100;15 Minutes;;;;;;484;121;61.121;0;80;36;1;4;7.438;7.164;A;58.332;4.188;8.297;
040549FF29CED021;IDS-05B -- ?????-?????? -- 1 -- None -- 78 -- 0 -- Solo Pro II MVP -- 172.26.2.165;113;Total;3/5/2012;21:15:00;100;15 Minutes;;;;;;244;122;61.277;0;80;37;1;4;255.996;3.602;A;58.461;2.109;4.172;
040549FF29CED021;IDS-05B -- ?????-?????? -- 1 -- None -- 78 -- 0 -- Solo Pro II MVP -- 172.26.2.165;109;Lane 1;3/5/2012;21:30:00;100;15 Minutes;;;;;;8;2;61.500;0;2;0;0;0;255.996;0.082;A;60.344;0.059;0.129;
040549FF29CED021;IDS-05B -- ?????-?????? -- 1 -- None -- 78 -- 0 -- Solo Pro II MVP -- 172.26.2.165;110;Lane 2;3/5/2012;21:30:00;100;15 Minutes;;;;;;468;117;62.449;0;69;39;1;8;7.691;7.617;A;59.691;4.797;7.840;
040549FF29CED021;IDS-05B -- ?????-?????? -- 1 -- None -- 78 -- 0 -- Solo Pro II MVP -- 172.26.2.165;113;Total;3/5/2012;21:30:00;100;15 Minutes;;;;;;238;119;62.434;0;71;39;1;8;228.844;3.848;A;59.703;2.430;3.984;
040549FF29CED021;IDS-05B -- ?????-?????? -- 1 -- None -- 78 -- 0 -- Solo Pro II MVP -- 172.26.2.165;109;Lane 1;3/5/2012;21:45:00;100;15 Minutes;;;;;;0;0;0.000;0;0;0;0;0;255.996;0.000;A;0.000;100.000;0.000;
040549FF29CED021;IDS-05B -- ?????-?????? -- 1 -- None -- 78 -- 0 -- Solo Pro II MVP -- 172.26.2.165;110;Lane 2;3/5/2012;21:45:00;100;15 Minutes;;;;;;472;118;63.813;0;77;33;0;7;7.625;6.957;A;58.824;4.117;8.023;
040549FF29CED021;IDS-05B -- ?????-?????? -- 1 -- None -- 78 -- 0 -- Solo Pro II MVP -- 172.26.2.165;113;Total;3/5/2012;21:45:00;100;15 Minutes;;;;;;236;118;63.813;0;77;33;0;7;255.996;3.477;A;58.824;2.059;4.012;
040549FF29CED021;IDS-05B -- ?????-?????? -- 1 -- None -- 78 -- 0 -- Solo Pro II MVP -- 172.26.2.165;109;Lane 1;3/5/2012;22:00:00;100;15 Minutes;;;;;;4;1;79.000;0;1;0;0;0;255.996;0.023;A;79.051;0.023;0.047;
040549FF29CED021;IDS-05B -- ?????-?????? -- 1 -- None -- 78 -- 0 -- Solo Pro II MVP -- 172.26.2.165;110;Lane 2;3/5/2012;22:00:00;100;15 Minutes;;;;;;408;102;65.293;0;61;33;2;5;8.820;5.973;A;62.484;3.578;6.527;
040549FF29CED021;IDS-05B -- ?????-?????? -- 1 -- None -- 78 -- 0 -- Solo Pro II MVP -- 172.26.2.165;113;Total;3/5/2012;22:00:00;100;15 Minutes;;;;;;206;103;65.426;0;62;33;2;5;255.996;2.996;A;62.609;1.801;3.289;
CPU Identifier;Autoscope Description;Detector ID;Detector Title;Date;Time;Status;Data Interval;Ticks (millisec.);State;Speed;Length;Class;Average Flow Rate;Volume;Arithmetic Mean Speed;Class A Count;Class B Count;Class C Count;Class D Count;Class E Count;Average Time Headway;Average Time Occupancy;Level Of Service;Space Mean Speed;Space Occupancy;Density;
040549FF29CED021;IDS-05B -- ?????-?????? -- 1 -- None -- 78 -- 0 -- Solo Pro II MVP -- 172.26.2.165;109;Lane 1;3/5/2012;22:15:00;100;15 Minutes;;;;;;4;1;61.000;0;0;1;0;0;255.996;0.039;A;61.020;0.035;0.063;
040549FF29CED021;IDS-05B -- ?????-?????? -- 1 -- None -- 78 -- 0 -- Solo Pro II MVP -- 172.26.2.165;110;Lane 2;3/5/2012;22:15:00;100;15 Minutes;;;;;;408;102;62.418;0;62;37;1;2;8.820;5.840;A;59.336;3.527;6.875;
040549FF29CED021;IDS-05B -- ?????-?????? -- 1 -- None -- 78 -- 0 -- Solo Pro II MVP -- 172.26.2.165;113;Total;3/5/2012;22:15:00;100;15 Minutes;;;;;;206;103;62.406;0;62;38;1;2;255.996;2.938;A;59.352;1.781;3.469;
040549FF29CED021;IDS-05B -- ?????-?????? -- 1 -- None -- 78 -- 0 -- Solo Pro II MVP -- 172.26.2.165;109;Lane 1;3/5/2012;22:30:00;100;15 Minutes;;;;;;0;0;0.000;0;0;0;0;0;255.996;0.000;A;0.000;100.000;0.000;
040549FF29CED021;IDS-05B -- ?????-?????? -- 1 -- None -- 78 -- 0 -- Solo Pro II MVP -- 172.26.2.165;110;Lane 2;3/5/2012;22:30:00;100;15 Minutes;;;;;;320;80;63.000;0;47;21;6;6;11.250;5.559;A;60.211;3.391;5.313;
040549FF29CED021;IDS-05B -- ?????-?????? -- 1 -- None -- 78 -- 0 -- Solo Pro II MVP -- 172.26.2.165;113;Total;3/5/2012;22:30:00;100;15 Minutes;;;;;;160;80;63.000;0;47;21;6;6;255.996;2.777;A;60.211;1.695;2.656;
040549FF29CED021;IDS-05B -- ?????-?????? -- 1 -- None -- 78 -- 0 -- Solo Pro II MVP -- 172.26.2.165;109;Lane 1;3/5/2012;22:45:00;100;15 Minutes;;;;;;4;1;79.000;0;1;0;0;0;255.996;0.047;A;79.051;0.012;0.047;
040549FF29CED021;IDS-05B -- ?????-?????? -- 1 -- None -- 78 -- 0 -- Solo Pro II MVP -- 172.26.2.165;110;Lane 2;3/5/2012;22:45:00;100;15 Minutes;;;;;;340;85;60.293;0;53;25;3;4;10.586;5.047;A;58.023;3.359;5.859;
040549FF29CED021;IDS-05B -- ?????-?????? -- 1 -- None -- 78 -- 0 -- Solo Pro II MVP -- 172.26.2.165;113;Total;3/5/2012;22:45:00;100;15 Minutes;;;;;;172;86;60.508;0;54;25;3;4;255.996;2.547;A;58.203;1.680;2.953;
040549FF29CED021;IDS-05B -- ?????-?????? -- 1 -- None -- 78 -- 0 -- Solo Pro II MVP -- 172.26.2.165;109;Lane 1;3/5/2012;23:00:00;100;15 Minutes;;;;;;0;0;0.000;0;0;0;0;0;255.996;0.000;A;0.000;100.000;0.000;
040549FF29CED021;IDS-05B -- ?????-?????? -- 1 -- None -- 78 -- 0 -- Solo Pro II MVP -- 172.26.2.165;110;Lane 2;3/5/2012;23:00:00;100;15 Minutes;;;;;;320;80;63.512;0;38;35;3;4;11.250;4.980;A;61.098;3.000;5.234;
040549FF29CED021;IDS-05B -- ?????-?????? -- 1 -- None -- 78 -- 0 -- Solo Pro II MVP -- 172.26.2.165;113;Total;3/5/2012;23:00:00;100;15 Minutes;;;;;;160;80;63.512;0;38;35;3;4;255.996;2.488;A;61.098;1.500;2.617;
040549FF29CED021;IDS-05B -- ?????-?????? -- 1 -- None -- 78 -- 0 -- Solo Pro II MVP -- 172.26.2.165;109;Lane 1;3/5/2012;23:15:00;100;15 Minutes;;;;;;0;0;0.000;0;0;0;0;0;255.996;0.000;A;0.000;100.000;0.000;
040549FF29CED021;IDS-05B -- ?????-?????? -- 1 -- None -- 78 -- 0 -- Solo Pro II MVP -- 172.26.2.165;110;Lane 2;3/5/2012;23:15:00;100;15 Minutes;;;;;;276;69;61.129;0;35;31;2;1;13.043;4.195;A;58.535;2.500;4.715;
040549FF29CED021;IDS-05B -- ?????-?????? -- 1 -- None -- 78 -- 0 -- Solo Pro II MVP -- 172.26.2.165;113;Total;3/5/2012;23:15:00;100;15 Minutes;;;;;;138;69;61.129;0;35;31;2;1;255.996;2.098;A;58.535;1.250;2.355;
040549FF29CED021;IDS-05B -- ?????-?????? -- 1 -- None -- 78 -- 0 -- Solo Pro II MVP -- 172.26.2.165;109;Lane 1;3/5/2012;23:30:00;100;15 Minutes;;;;;;0;0;0.000;0;0;0;0;0;255.996;0.000;A;0.000;100.000;0.000;
040549FF29CED021;IDS-05B -- ?????-?????? -- 1 -- None -- 78 -- 0 -- Solo Pro II MVP -- 172.26.2.165;110;Lane 2;3/5/2012;23:30:00;100;15 Minutes;;;;;;264;66;61.816;0;39;20;3;4;13.633;4.398;A;58.664;2.625;4.500;
040549FF29CED021;IDS-05B -- ?????-?????? -- 1 -- None -- 78 -- 0 -- Solo Pro II MVP -- 172.26.2.165;113;Total;3/5/2012;23:30:00;100;15 Minutes;;;;;;132;66;61.816;0;39;20;3;4;255.996;2.199;A;58.664;1.313;2.250;
040549FF29CED021;IDS-05B -- ?????-?????? -- 1 -- None -- 78 -- 0 -- Solo Pro II MVP -- 172.26.2.165;109;Lane 1;3/5/2012;23:45:00;100;15 Minutes;;;;;;0;0;0.000;0;0;0;0;0;255.996;0.000;A;0.000;100.000;0.000;
040549FF29CED021;IDS-05B -- ?????-?????? -- 1 -- None -- 78 -- 0 -- Solo Pro II MVP -- 172.26.2.165;110;Lane 2;3/5/2012;23:45:00;100;15 Minutes;;;;;;208;52;66.691;0;34;14;0;4;17.305;3.051;A;61.945;1.820;3.355;
040549FF29CED021;IDS-05B -- ?????-?????? -- 1 -- None -- 78 -- 0 -- Solo Pro II MVP -- 172.26.2.165;113;Total;3/5/2012;23:45:00;100;15 Minutes;;;;;;104;52;66.691;0;34;14;0;4;255.996;1.523;A;61.945;0.910;1.676;
040549FF29CED021;IDS-05B -- ?????-?????? -- 1 -- None -- 78 -- 0 -- Solo Pro II MVP -- 172.26.2.165;109;Lane 1;4/5/2012;0:00:00;100;15 Minutes;;;;;;0;0;0.000;0;0;0;0;0;255.996;0.000;A;0.000;100.000;0.000;