CPU Identifier;Autoscope Description;Detector ID;Detector Title;Date;Time;Status;Data Interval;Ticks (millisec.);State;Speed;Length;Class;Average Flow Rate;Volume;Arithmetic Mean Speed;Class A Count;Class B Count;Class C Count;Class D Count;Class E Count;Average Time Headway;Average Time Occupancy;Level Of Service;Space Mean Speed;Space Occupancy;Density;
040548FFDECBD021;IDS-07A -- ?????-????? (???????????) -- 1 -- None -- 77 -- 0 -- Solo Pro II MVP -- 172.26.2.147;109;Lane 1;3/5/2012;0:00:00;100;15 Minutes;;;;;;0;0;0.000;0;0;0;0;0;255.996;0.000;A;0.000;100.000;0.000;
040548FFDECBD021;IDS-07A -- ?????-????? (???????????) -- 1 -- None -- 77 -- 0 -- Solo Pro II MVP -- 172.26.2.147;110;Lane 2;3/5/2012;0:00:00;100;15 Minutes;;;;;;224;56;65.211;0;36;20;0;0;16.070;2.293;A;62.688;1.469;3.570;
040548FFDECBD021;IDS-07A -- ?????-????? (???????????) -- 1 -- None -- 77 -- 0 -- Solo Pro II MVP -- 172.26.2.147;113;Total;3/5/2012;0:00:00;100;15 Minutes;;;;;;112;56;65.211;0;36;20;0;0;255.996;1.145;A;62.688;0.734;1.785;
040548FFDECBD021;IDS-07A -- ?????-????? (???????????) -- 1 -- None -- 77 -- 0 -- Solo Pro II MVP -- 172.26.2.147;109;Lane 1;3/5/2012;0:15:00;100;15 Minutes;;;;;;0;0;0.000;0;0;0;0;0;255.996;0.000;A;0.000;100.000;0.000;
040548FFDECBD021;IDS-07A -- ?????-????? (???????????) -- 1 -- None -- 77 -- 0 -- Solo Pro II MVP -- 172.26.2.147;110;Lane 2;3/5/2012;0:15:00;100;15 Minutes;;;;;;228;57;66.418;0;40;17;0;0;15.789;2.379;A;64.082;1.445;3.555;
040548FFDECBD021;IDS-07A -- ?????-????? (???????????) -- 1 -- None -- 77 -- 0 -- Solo Pro II MVP -- 172.26.2.147;113;Total;3/5/2012;0:15:00;100;15 Minutes;;;;;;114;57;66.418;0;40;17;0;0;255.996;1.188;A;64.082;0.723;1.777;
040548FFDECBD021;IDS-07A -- ?????-????? (???????????) -- 1 -- None -- 77 -- 0 -- Solo Pro II MVP -- 172.26.2.147;109;Lane 1;3/5/2012;0:30:00;100;15 Minutes;;;;;;8;2;30.000;0;1;1;0;0;255.996;0.199;A;30.004;0.109;0.266;
040548FFDECBD021;IDS-07A -- ?????-????? (???????????) -- 1 -- None -- 77 -- 0 -- Solo Pro II MVP -- 172.26.2.147;110;Lane 2;3/5/2012;0:30:00;100;15 Minutes;;;;;;196;49;64.652;0;32;17;0;0;18.367;2.129;A;62.496;1.359;3.133;
040548FFDECBD021;IDS-07A -- ?????-????? (???????????) -- 1 -- None -- 77 -- 0 -- Solo Pro II MVP -- 172.26.2.147;113;Total;3/5/2012;0:30:00;100;15 Minutes;;;;;;102;51;63.293;0;33;18;0;0;234.184;1.164;A;59.949;0.719;1.699;
040548FFDECBD021;IDS-07A -- ?????-????? (???????????) -- 1 -- None -- 77 -- 0 -- Solo Pro II MVP -- 172.26.2.147;109;Lane 1;3/5/2012;0:45:00;100;15 Minutes;;;;;;16;4;20.500;0;2;1;1;0;225.000;0.625;A;16.496;0.508;0.969;
040548FFDECBD021;IDS-07A -- ?????-????? (???????????) -- 1 -- None -- 77 -- 0 -- Solo Pro II MVP -- 172.26.2.147;110;Lane 2;3/5/2012;0:45:00;100;15 Minutes;;;;;;192;48;63.645;0;30;18;0;0;18.750;2.098;A;60.664;1.359;3.164;
040548FFDECBD021;IDS-07A -- ?????-????? (???????????) -- 1 -- None -- 77 -- 0 -- Solo Pro II MVP -- 172.26.2.147;113;Total;3/5/2012;0:45:00;100;15 Minutes;;;;;;104;52;60.324;0;32;19;1;0;121.875;1.359;A;50.305;0.805;2.066;
040548FFDECBD021;IDS-07A -- ?????-????? (???????????) -- 1 -- None -- 77 -- 0 -- Solo Pro II MVP -- 172.26.2.147;109;Lane 1;3/5/2012;1:00:00;100;15 Minutes;;;;;;0;0;0.000;0;0;0;0;0;255.996;0.000;A;0.000;100.000;0.000;
040548FFDECBD021;IDS-07A -- ?????-????? (???????????) -- 1 -- None -- 77 -- 0 -- Solo Pro II MVP -- 172.26.2.147;110;Lane 2;3/5/2012;1:00:00;100;15 Minutes;;;;;;176;44;67.883;0;30;14;0;0;20.453;1.871;A;64.645;1.121;2.719;
040548FFDECBD021;IDS-07A -- ?????-????? (???????????) -- 1 -- None -- 77 -- 0 -- Solo Pro II MVP -- 172.26.2.147;113;Total;3/5/2012;1:00:00;100;15 Minutes;;;;;;88;44;67.883;0;30;14;0;0;255.996;0.934;A;64.645;0.559;1.359;
040548FFDECBD021;IDS-07A -- ?????-????? (???????????) -- 1 -- None -- 77 -- 0 -- Solo Pro II MVP -- 172.26.2.147;109;Lane 1;3/5/2012;1:15:00;100;15 Minutes;;;;;;0;0;0.000;0;0;0;0;0;255.996;0.000;A;0.000;100.000;0.000;
040548FFDECBD021;IDS-07A -- ?????-????? (???????????) -- 1 -- None -- 77 -- 0 -- Solo Pro II MVP -- 172.26.2.147;110;Lane 2;3/5/2012;1:15:00;100;15 Minutes;;;;;;144;36;62.750;0;26;10;0;0;25.000;1.746;A;59.461;0.988;2.418;
040548FFDECBD021;IDS-07A -- ?????-????? (???????????) -- 1 -- None -- 77 -- 0 -- Solo Pro II MVP -- 172.26.2.147;113;Total;3/5/2012;1:15:00;100;15 Minutes;;;;;;72;36;62.750;0;26;10;0;0;255.996;0.871;A;59.461;0.492;1.207;
040548FFDECBD021;IDS-07A -- ?????-????? (???????????) -- 1 -- None -- 77 -- 0 -- Solo Pro II MVP -- 172.26.2.147;109;Lane 1;3/5/2012;1:30:00;100;15 Minutes;;;;;;4;1;46.000;0;1;0;0;0;255.996;0.074;A;46.020;0.020;0.086;
040548FFDECBD021;IDS-07A -- ?????-????? (???????????) -- 1 -- None -- 77 -- 0 -- Solo Pro II MVP -- 172.26.2.147;110;Lane 2;3/5/2012;1:30:00;100;15 Minutes;;;;;;156;39;60.125;0;24;15;0;0;23.074;1.691;A;58.918;1.121;2.645;
040548FFDECBD021;IDS-07A -- ?????-????? (???????????) -- 1 -- None -- 77 -- 0 -- Solo Pro II MVP -- 172.26.2.147;113;Total;3/5/2012;1:30:00;100;15 Minutes;;;;;;80;40;59.773;0;25;15;0;0;255.996;0.883;A;58.508;0.570;1.367;
040548FFDECBD021;IDS-07A -- ?????-????? (???????????) -- 1 -- None -- 77 -- 0 -- Solo Pro II MVP -- 172.26.2.147;109;Lane 1;3/5/2012;1:45:00;100;15 Minutes;;;;;;8;2;27.000;0;2;0;0;0;255.996;0.066;A;5.664;0.000;1.410;
040548FFDECBD021;IDS-07A -- ?????-????? (???????????) -- 1 -- None -- 77 -- 0 -- Solo Pro II MVP -- 172.26.2.147;110;Lane 2;3/5/2012;1:45:00;100;15 Minutes;;;;;;132;33;54.848;0;21;10;1;1;27.270;1.910;A;52.715;1.141;2.504;
040548FFDECBD021;IDS-07A -- ?????-????? (???????????) -- 1 -- None -- 77 -- 0 -- Solo Pro II MVP -- 172.26.2.147;113;Total;3/5/2012;1:45:00;100;15 Minutes;;;;;;70;35;53.254;0;23;10;1;1;238.633;0.988;A;35.754;0.605;1.957;
040548FFDECBD021;IDS-07A -- ?????-????? (???????????) -- 1 -- None -- 77 -- 0 -- Solo Pro II MVP -- 172.26.2.147;109;Lane 1;3/5/2012;2:00:00;100;15 Minutes;;;;;;0;0;0.000;0;0;0;0;0;255.996;0.000;A;0.000;100.000;0.000;
040548FFDECBD021;IDS-07A -- ?????-????? (???????????) -- 1 -- None -- 77 -- 0 -- Solo Pro II MVP -- 172.26.2.147;110;Lane 2;3/5/2012;2:00:00;100;15 Minutes;;;;;;164;41;60.094;0;30;11;0;0;21.949;1.992;A;56.793;1.184;2.887;
040548FFDECBD021;IDS-07A -- ?????-????? (???????????) -- 1 -- None -- 77 -- 0 -- Solo Pro II MVP -- 172.26.2.147;113;Total;3/5/2012;2:00:00;100;15 Minutes;;;;;;82;41;60.094;0;30;11;0;0;255.996;0.996;A;56.793;0.590;1.441;
040548FFDECBD021;IDS-07A -- ?????-????? (???????????) -- 1 -- None -- 77 -- 0 -- Solo Pro II MVP -- 172.26.2.147;109;Lane 1;3/5/2012;2:15:00;100;15 Minutes;;;;;;4;1;81.000;0;0;1;0;0;255.996;0.039;A;81.008;0.031;0.047;
040548FFDECBD021;IDS-07A -- ?????-????? (???????????) -- 1 -- None -- 77 -- 0 -- Solo Pro II MVP -- 172.26.2.147;110;Lane 2;3/5/2012;2:15:00;100;15 Minutes;;;;;;156;39;56.203;0;26;13;0;0;23.074;1.703;A;53.633;1.203;2.906;
040548FFDECBD021;IDS-07A -- ?????-????? (???????????) -- 1 -- None -- 77 -- 0 -- Solo Pro II MVP -- 172.26.2.147;113;Total;3/5/2012;2:15:00;100;15 Minutes;;;;;;80;40;56.824;0;26;14;0;0;255.996;0.871;A;54.090;0.617;1.477;
040548FFDECBD021;IDS-07A -- ?????-????? (???????????) -- 1 -- None -- 77 -- 0 -- Solo Pro II MVP -- 172.26.2.147;109;Lane 1;3/5/2012;2:30:00;100;15 Minutes;;;;;;0;0;0.000;0;0;0;0;0;255.996;0.000;A;0.000;100.000;0.000;
040548FFDECBD021;IDS-07A -- ?????-????? (???????????) -- 1 -- None -- 77 -- 0 -- Solo Pro II MVP -- 172.26.2.147;110;Lane 2;3/5/2012;2:30:00;100;15 Minutes;;;;;;156;39;62.051;0;28;10;0;1;23.074;1.828;A;59.309;1.129;2.629;
040548FFDECBD021;IDS-07A -- ?????-????? (???????????) -- 1 -- None -- 77 -- 0 -- Solo Pro II MVP -- 172.26.2.147;113;Total;3/5/2012;2:30:00;100;15 Minutes;;;;;;78;39;62.051;0;28;10;0;1;255.996;0.914;A;59.309;0.563;1.313;
040548FFDECBD021;IDS-07A -- ?????-????? (???????????) -- 1 -- None -- 77 -- 0 -- Solo Pro II MVP -- 172.26.2.147;109;Lane 1;3/5/2012;2:45:00;100;15 Minutes;;;;;;8;2;57.500;0;1;1;0;0;255.996;0.070;A;52.195;0.051;0.152;
040548FFDECBD021;IDS-07A -- ?????-????? (???????????) -- 1 -- None -- 77 -- 0 -- Solo Pro II MVP -- 172.26.2.147;110;Lane 2;3/5/2012;2:45:00;100;15 Minutes;;;;;;144;36;57.027;0;18;15;2;1;25.000;1.945;A;54.184;1.434;2.656;
040548FFDECBD021;IDS-07A -- ?????-????? (???????????) -- 1 -- None -- 77 -- 0 -- Solo Pro II MVP -- 172.26.2.147;113;Total;3/5/2012;2:45:00;100;15 Minutes;;;;;;76;38;57.051;0;19;16;2;1;237.500;1.008;A;54.078;0.742;1.402;
040548FFDECBD021;IDS-07A -- ?????-????? (???????????) -- 1 -- None -- 77 -- 0 -- Solo Pro II MVP -- 172.26.2.147;109;Lane 1;3/5/2012;3:00:00;100;15 Minutes;;;;;;4;1;44.000;0;0;1;0;0;255.996;0.086;A;44.012;0.063;0.090;
040548FFDECBD021;IDS-07A -- ?????-????? (???????????) -- 1 -- None -- 77 -- 0 -- Solo Pro II MVP -- 172.26.2.147;110;Lane 2;3/5/2012;3:00:00;100;15 Minutes;;;;;;156;39;61.332;0;23;15;1;0;23.074;1.855;A;58.563;1.219;2.660;
040548FFDECBD021;IDS-07A -- ?????-????? (???????????) -- 1 -- None -- 77 -- 0 -- Solo Pro II MVP -- 172.26.2.147;113;Total;3/5/2012;3:00:00;100;15 Minutes;;;;;;80;40;60.898;0;23;16;1;0;255.996;0.969;A;58.082;0.637;1.375;
040548FFDECBD021;IDS-07A -- ?????-????? (???????????) -- 1 -- None -- 77 -- 0 -- Solo Pro II MVP -- 172.26.2.147;109;Lane 1;3/5/2012;3:15:00;100;15 Minutes;;;;;;0;0;0.000;0;0;0;0;0;255.996;0.000;A;0.000;100.000;0.000;
040548FFDECBD021;IDS-07A -- ?????-????? (???????????) -- 1 -- None -- 77 -- 0 -- Solo Pro II MVP -- 172.26.2.147;110;Lane 2;3/5/2012;3:15:00;100;15 Minutes;;;;;;168;42;60.832;0;30;11;1;0;21.426;2.051;A;58.977;1.227;2.848;
040548FFDECBD021;IDS-07A -- ?????-????? (???????????) -- 1 -- None -- 77 -- 0 -- Solo Pro II MVP -- 172.26.2.147;113;Total;3/5/2012;3:15:00;100;15 Minutes;;;;;;84;42;60.832;0;30;11;1;0;255.996;1.023;A;58.977;0.613;1.422;
040548FFDECBD021;IDS-07A -- ?????-????? (???????????) -- 1 -- None -- 77 -- 0 -- Solo Pro II MVP -- 172.26.2.147;109;Lane 1;3/5/2012;3:30:00;100;15 Minutes;;;;;;0;0;0.000;0;0;0;0;0;255.996;0.000;A;0.000;100.000;0.000;
040548FFDECBD021;IDS-07A -- ?????-????? (???????????) -- 1 -- None -- 77 -- 0 -- Solo Pro II MVP -- 172.26.2.147;110;Lane 2;3/5/2012;3:30:00;100;15 Minutes;;;;;;184;46;61.953;0;32;13;1;0;19.563;2.070;A;59.949;1.324;3.066;
040548FFDECBD021;IDS-07A -- ?????-????? (???????????) -- 1 -- None -- 77 -- 0 -- Solo Pro II MVP -- 172.26.2.147;113;Total;3/5/2012;3:30:00;100;15 Minutes;;;;;;92;46;61.953;0;32;13;1;0;255.996;1.035;A;59.949;0.660;1.531;
040548FFDECBD021;IDS-07A -- ?????-????? (???????????) -- 1 -- None -- 77 -- 0 -- Solo Pro II MVP -- 172.26.2.147;109;Lane 1;3/5/2012;3:45:00;100;15 Minutes;;;;;;12;3;17.332;0;2;1;0;0;255.996;0.199;A;8.898;0.000;1.348;
040548FFDECBD021;IDS-07A -- ?????-????? (???????????) -- 1 -- None -- 77 -- 0 -- Solo Pro II MVP -- 172.26.2.147;110;Lane 2;3/5/2012;3:45:00;100;15 Minutes;;;;;;200;50;58.578;0;32;17;1;0;18.000;2.355;A;56.313;1.609;3.551;
040548FFDECBD021;IDS-07A -- ?????-????? (???????????) -- 1 -- None -- 77 -- 0 -- Solo Pro II MVP -- 172.26.2.147;113;Total;3/5/2012;3:45:00;100;15 Minutes;;;;;;106;53;56.242;0;34;18;1;0;159.000;1.277;A;43.266;0.879;2.449;
040548FFDECBD021;IDS-07A -- ?????-????? (???????????) -- 1 -- None -- 77 -- 0 -- Solo Pro II MVP -- 172.26.2.147;109;Lane 1;3/5/2012;4:00:00;100;15 Minutes;;;;;;8;2;45.500;0;0;1;1;0;255.996;0.148;A;45.242;0.141;0.176;
040548FFDECBD021;IDS-07A -- ?????-????? (???????????) -- 1 -- None -- 77 -- 0 -- Solo Pro II MVP -- 172.26.2.147;110;Lane 2;3/5/2012;4:00:00;100;15 Minutes;;;;;;232;58;56.980;0;37;20;1;0;15.516;2.832;A;54.895;1.828;4.223;
040548FFDECBD021;IDS-07A -- ?????-????? (???????????) -- 1 -- None -- 77 -- 0 -- Solo Pro II MVP -- 172.26.2.147;113;Total;3/5/2012;4:00:00;100;15 Minutes;;;;;;120;60;56.598;0;37;21;2;0;232.758;1.488;A;54.508;0.977;2.199;
040548FFDECBD021;IDS-07A -- ?????-????? (???????????) -- 1 -- None -- 77 -- 0 -- Solo Pro II MVP -- 172.26.2.147;109;Lane 1;3/5/2012;4:15:00;100;15 Minutes;;;;;;12;3;73.664;0;1;1;1;0;255.996;0.211;A;64.691;0.105;0.184;
040548FFDECBD021;IDS-07A -- ?????-????? (???????????) -- 1 -- None -- 77 -- 0 -- Solo Pro II MVP -- 172.26.2.147;110;Lane 2;3/5/2012;4:15:00;100;15 Minutes;;;;;;296;74;57.172;0;46;25;3;0;12.160;3.523;A;55.609;2.473;5.320;
040548FFDECBD021;IDS-07A -- ?????-????? (???????????) -- 1 -- None -- 77 -- 0 -- Solo Pro II MVP -- 172.26.2.147;113;Total;3/5/2012;4:15:00;100;15 Minutes;;;;;;154;77;57.816;0;47;26;4;0;156.078;1.867;A;55.918;1.289;2.754;
040548FFDECBD021;IDS-07A -- ?????-????? (???????????) -- 1 -- None -- 77 -- 0 -- Solo Pro II MVP -- 172.26.2.147;109;Lane 1;3/5/2012;4:30:00;100;15 Minutes;;;;;;12;3;78.332;0;1;2;0;0;255.996;0.090;A;38.234;0.078;0.313;
040548FFDECBD021;IDS-07A -- ?????-????? (???????????) -- 1 -- None -- 77 -- 0 -- Solo Pro II MVP -- 172.26.2.147;110;Lane 2;3/5/2012;4:30:00;100;15 Minutes;;;;;;272;68;54.820;0;49;17;2;0;13.234;3.168;A;53.594;2.207;5.074;
040548FFDECBD021;IDS-07A -- ?????-????? (???????????) -- 1 -- None -- 77 -- 0 -- Solo Pro II MVP -- 172.26.2.147;113;Total;3/5/2012;4:30:00;100;15 Minutes;;;;;;142;71;55.816;0;50;19;2;0;156.617;1.629;A;52.699;1.141;2.691;
040548FFDECBD021;IDS-07A -- ?????-????? (???????????) -- 1 -- None -- 77 -- 0 -- Solo Pro II MVP -- 172.26.2.147;109;Lane 1;3/5/2012;4:45:00;100;15 Minutes;;;;;;8;2;76.000;0;1;1;0;0;255.996;0.098;A;49.367;0.063;0.160;
040548FFDECBD021;IDS-07A -- ?????-????? (???????????) -- 1 -- None -- 77 -- 0 -- Solo Pro II MVP -- 172.26.2.147;110;Lane 2;3/5/2012;4:45:00;100;15 Minutes;;;;;;264;66;61.422;0;49;17;0;0;13.633;2.887;A;59.406;1.867;4.441;
040548FFDECBD021;IDS-07A -- ?????-????? (???????????) -- 1 -- None -- 77 -- 0 -- Solo Pro II MVP -- 172.26.2.147;113;Total;3/5/2012;4:45:00;100;15 Minutes;;;;;;136;68;61.852;0;50;18;0;0;231.816;1.492;A;59.055;0.965;2.301;
040548FFDECBD021;IDS-07A -- ?????-????? (???????????) -- 1 -- None -- 77 -- 0 -- Solo Pro II MVP -- 172.26.2.147;109;Lane 1;3/5/2012;5:00:00;100;15 Minutes;;;;;;4;1;48.000;0;0;1;0;0;255.996;0.043;A;48.012;0.043;0.082;
040548FFDECBD021;IDS-07A -- ?????-????? (???????????) -- 1 -- None -- 77 -- 0 -- Solo Pro II MVP -- 172.26.2.147;110;Lane 2;3/5/2012;5:00:00;100;15 Minutes;;;;;;332;83;56.734;0;54;28;0;0;10.840;3.988;A;55.410;2.664;5.988;
040548FFDECBD021;IDS-07A -- ?????-????? (???????????) -- 1 -- None -- 77 -- 0 -- Solo Pro II MVP -- 172.26.2.147;113;Total;3/5/2012;5:00:00;100;15 Minutes;;;;;;168;84;56.629;0;54;29;0;0;255.996;2.016;A;55.309;1.352;3.035;
040548FFDECBD021;IDS-07A -- ?????-????? (???????????) -- 1 -- None -- 77 -- 0 -- Solo Pro II MVP -- 172.26.2.147;109;Lane 1;3/5/2012;5:15:00;100;15 Minutes;;;;;;8;2;48.000;0;1;1;0;0;255.996;0.070;A;27.980;0.000;0.285;
040548FFDECBD021;IDS-07A -- ?????-????? (???????????) -- 1 -- None -- 77 -- 0 -- Solo Pro II MVP -- 172.26.2.147;110;Lane 2;3/5/2012;5:15:00;100;15 Minutes;;;;;;424;106;59.828;0;73;32;0;0;8.488;4.719;A;58.449;3.121;7.254;
040548FFDECBD021;IDS-07A -- ?????-????? (???????????) -- 1 -- None -- 77 -- 0 -- Solo Pro II MVP -- 172.26.2.147;113;Total;3/5/2012;5:15:00;100;15 Minutes;;;;;;216;108;59.609;0;74;33;0;0;229.242;2.395;A;57.293;1.598;3.770;
040548FFDECBD021;IDS-07A -- ?????-????? (???????????) -- 1 -- None -- 77 -- 0 -- Solo Pro II MVP -- 172.26.2.147;109;Lane 1;3/5/2012;5:30:00;100;15 Minutes;;;;;;8;2;86.000;0;1;1;0;0;255.996;0.047;A;77.602;0.043;0.102;
040548FFDECBD021;IDS-07A -- ?????-????? (???????????) -- 1 -- None -- 77 -- 0 -- Solo Pro II MVP -- 172.26.2.147;110;Lane 2;3/5/2012;5:30:00;100;15 Minutes;;;;;;416;104;63.191;0;73;28;1;2;8.652;4.480;A;61.605;2.980;6.750;
040548FFDECBD021;IDS-07A -- ?????-????? (???????????) -- 1 -- None -- 77 -- 0 -- Solo Pro II MVP -- 172.26.2.147;113;Total;3/5/2012;5:30:00;100;15 Minutes;;;;;;212;106;63.621;0;74;29;1;2;229.324;2.262;A;61.848;1.508;3.426;
040548FFDECBD021;IDS-07A -- ?????-????? (???????????) -- 1 -- None -- 77 -- 0 -- Solo Pro II MVP -- 172.26.2.147;109;Lane 1;3/5/2012;5:45:00;100;15 Minutes;;;;;;4;1;37.000;0;0;0;1;0;255.996;0.113;A;37.004;0.094;0.105;
040548FFDECBD021;IDS-07A -- ?????-????? (???????????) -- 1 -- None -- 77 -- 0 -- Solo Pro II MVP -- 172.26.2.147;110;Lane 2;3/5/2012;5:45:00;100;15 Minutes;;;;;;432;108;65.785;0;80;26;1;1;8.332;4.359;A;64.250;2.824;6.723;
040548FFDECBD021;IDS-07A -- ?????-????? (???????????) -- 1 -- None -- 77 -- 0 -- Solo Pro II MVP -- 172.26.2.147;113;Total;3/5/2012;5:45:00;100;15 Minutes;;;;;;218;109;65.520;0;80;26;2;1;255.996;2.234;A;63.816;1.445;3.414;
040548FFDECBD021;IDS-07A -- ?????-????? (???????????) -- 1 -- None -- 77 -- 0 -- Solo Pro II MVP -- 172.26.2.147;109;Lane 1;3/5/2012;6:00:00;100;15 Minutes;;;;;;8;2;23.500;0;0;0;0;0;255.996;0.277;A;3.828;0.000;2.086;
040548FFDECBD021;IDS-07A -- ?????-????? (???????????) -- 1 -- None -- 77 -- 0 -- Solo Pro II MVP -- 172.26.2.147;110;Lane 2;3/5/2012;6:00:00;100;15 Minutes;;;;;;480;120;66.164;0;52;41;11;14;7.500;7.152;A;65.004;5.180;7.383;
040548FFDECBD021;IDS-07A -- ?????-????? (???????????) -- 1 -- None -- 77 -- 0 -- Solo Pro II MVP -- 172.26.2.147;113;Total;3/5/2012;6:00:00;100;15 Minutes;;;;;;244;122;65.465;0;52;41;11;14;228.750;3.715;A;51.512;2.617;4.734;
040548FFDECBD021;IDS-07A -- ?????-????? (???????????) -- 1 -- None -- 77 -- 0 -- Solo Pro II MVP -- 172.26.2.147;109;Lane 1;3/5/2012;6:15:00;100;15 Minutes;;;;;;8;2;53.500;0;1;1;0;0;255.996;0.270;A;52.723;0.082;0.148;
040548FFDECBD021;IDS-07A -- ?????-????? (???????????) -- 1 -- None -- 77 -- 0 -- Solo Pro II MVP -- 172.26.2.147;110;Lane 2;3/5/2012;6:15:00;100;15 Minutes;;;;;;484;121;64.824;0;40;38;24;19;7.438;8.188;A;63.586;6.398;7.609;
040548FFDECBD021;IDS-07A -- ?????-????? (???????????) -- 1 -- None -- 77 -- 0 -- Solo Pro II MVP -- 172.26.2.147;113;Total;3/5/2012;6:15:00;100;15 Minutes;;;;;;246;123;64.641;0;41;39;24;19;228.719;4.227;A;63.375;3.242;3.879;
040548FFDECBD021;IDS-07A -- ?????-????? (???????????) -- 1 -- None -- 77 -- 0 -- Solo Pro II MVP -- 172.26.2.147;109;Lane 1;3/5/2012;6:30:00;100;15 Minutes;;;;;;8;2;77.000;0;1;1;0;0;255.996;0.074;A;70.164;0.047;0.113;
040548FFDECBD021;IDS-07A -- ?????-????? (???????????) -- 1 -- None -- 77 -- 0 -- Solo Pro II MVP -- 172.26.2.147;110;Lane 2;3/5/2012;6:30:00;100;15 Minutes;;;;;;584;146;65.805;0;43;66;16;21;6.164;9.273;A;63.758;7.145;9.156;
040548FFDECBD021;IDS-07A -- ?????-????? (???????????) -- 1 -- None -- 77 -- 0 -- Solo Pro II MVP -- 172.26.2.147;113;Total;3/5/2012;6:30:00;100;15 Minutes;;;;;;296;148;65.957;0;44;67;16;21;228.082;4.672;A;63.836;3.590;4.637;
040548FFDECBD021;IDS-07A -- ?????-????? (???????????) -- 1 -- None -- 77 -- 0 -- Solo Pro II MVP -- 172.26.2.147;109;Lane 1;3/5/2012;6:45:00;100;15 Minutes;;;;;;172;43;3.441;0;21;11;2;7;20.930;2.852;A;1.129;0.000;152.359;
040548FFDECBD021;IDS-07A -- ?????-????? (???????????) -- 1 -- None -- 77 -- 0 -- Solo Pro II MVP -- 172.26.2.147;110;Lane 2;3/5/2012;6:45:00;100;15 Minutes;;;;;;688;172;68.922;0;67;65;18;22;5.230;9.879;A;66.160;7.566;10.398;
040548FFDECBD021;IDS-07A -- ?????-????? (???????????) -- 1 -- None -- 77 -- 0 -- Solo Pro II MVP -- 172.26.2.147;113;Total;3/5/2012;6:45:00;100;15 Minutes;;;;;;430;215;55.824;0;88;76;20;29;13.078;6.363;A;5.301;5.715;81.117;
040548FFDECBD021;IDS-07A -- ?????-????? (???????????) -- 1 -- None -- 77 -- 0 -- Solo Pro II MVP -- 172.26.2.147;109;Lane 1;3/5/2012;7:00:00;100;15 Minutes;;;;;;576;144;3.824;0;66;41;11;26;6.250;8.660;A;1.750;0.000;175.000;
040548FFDECBD021;IDS-07A -- ?????-????? (???????????) -- 1 -- None -- 77 -- 0 -- Solo Pro II MVP -- 172.26.2.147;110;Lane 2;3/5/2012;7:00:00;100;15 Minutes;;;;;;832;208;71.922;0;70;76;30;32;4.324;11.230;A;69.500;10.004;11.969;
040548FFDECBD021;IDS-07A -- ?????-????? (???????????) -- 1 -- None -- 77 -- 0 -- Solo Pro II MVP -- 172.26.2.147;113;Total;3/5/2012;7:00:00;100;15 Minutes;;;;;;704;352;44.063;0;136;117;41;58;5.285;9.945;A;4.129;0.000;170.504;
040548FFDECBD021;IDS-07A -- ?????-????? (???????????) -- 1 -- None -- 77 -- 0 -- Solo Pro II MVP -- 172.26.2.147;109;Lane 1;3/5/2012;7:15:00;100;15 Minutes;;;;;;436;109;3.199;0;39;48;5;16;8.254;7.039;A;1.473;0.000;175.000;
040548FFDECBD021;IDS-07A -- ?????-????? (???????????) -- 1 -- None -- 77 -- 0 -- Solo Pro II MVP -- 172.26.2.147;110;Lane 2;3/5/2012;7:15:00;100;15 Minutes;;;;;;824;206;70.480;0;66;98;29;13;4.367;11.109;A;68.531;8.605;12.023;
040548FFDECBD021;IDS-07A -- ?????-????? (???????????) -- 1 -- None -- 77 -- 0 -- Solo Pro II MVP -- 172.26.2.147;113;Total;3/5/2012;7:15:00;100;15 Minutes;;;;;;630;315;47.199;0;105;146;34;29;6.309;9.074;A;4.098;0.000;153.746;
040548FFDECBD021;IDS-07A -- ?????-????? (???????????) -- 1 -- None -- 77 -- 0 -- Solo Pro II MVP -- 172.26.2.147;109;Lane 1;3/5/2012;7:30:00;100;15 Minutes;;;;;;412;103;4.930;0;33;39;9;22;8.734;8.969;A;2.473;0.000;166.621;
040548FFDECBD021;IDS-07A -- ?????-????? (???????????) -- 1 -- None -- 77 -- 0 -- Solo Pro II MVP -- 172.26.2.147;110;Lane 2;3/5/2012;7:30:00;100;15 Minutes;;;;;;928;232;69.703;0;80;120;14;16;3.879;12.133;A;66.945;8.785;13.859;
040548FFDECBD021;IDS-07A -- ?????-????? (???????????) -- 1 -- None -- 77 -- 0 -- Solo Pro II MVP -- 172.26.2.147;113;Total;3/5/2012;7:30:00;100;15 Minutes;;;;;;670;335;49.789;0;113;159;23;38;6.305;10.551;A;7.426;0.000;90.223;
040548FFDECBD021;IDS-07A -- ?????-????? (???????????) -- 1 -- None -- 77 -- 0 -- Solo Pro II MVP -- 172.26.2.147;109;Lane 1;3/5/2012;7:45:00;100;15 Minutes;;;;;;304;76;9.840;0;16;41;5;14;11.840;6.395;A;8.113;0.000;37.469;
040548FFDECBD021;IDS-07A -- ?????-????? (???????????) -- 1 -- None -- 77 -- 0 -- Solo Pro II MVP -- 172.26.2.147;110;Lane 2;3/5/2012;7:45:00;100;15 Minutes;;;;;;996;249;71.813;0;108;105;19;17;3.613;12.250;A;69.887;9.051;14.250;
040548FFDECBD021;IDS-07A -- ?????-????? (???????????) -- 1 -- None -- 77 -- 0 -- Solo Pro II MVP -- 172.26.2.147;113;Total;3/5/2012;7:45:00;100;15 Minutes;;;;;;650;325;57.320;0;124;146;24;31;7.727;9.320;A;25.141;7.746;25.852;
040548FFDECBD021;IDS-07A -- ?????-????? (???????????) -- 1 -- None -- 77 -- 0 -- Solo Pro II MVP -- 172.26.2.147;109;Lane 1;3/5/2012;8:00:00;100;15 Minutes;;;;;;272;68;11.117;0;22;32;5;8;13.234;5.402;A;7.121;0.000;38.195;
040548FFDECBD021;IDS-07A -- ?????-????? (???????????) -- 1 -- None -- 77 -- 0 -- Solo Pro II MVP -- 172.26.2.147;110;Lane 2;3/5/2012;8:00:00;100;15 Minutes;;;;;;840;210;72.652;0;91;89;20;9;4.285;10.180;A;69.961;7.352;12.004;
040548FFDECBD021;IDS-07A -- ?????-????? (???????????) -- 1 -- None -- 77 -- 0 -- Solo Pro II MVP -- 172.26.2.147;113;Total;3/5/2012;8:00:00;100;15 Minutes;;;;;;556;278;57.598;0;113;121;25;17;8.758;7.789;A;22.156;6.203;25.094;
040548FFDECBD021;IDS-07A -- ?????-????? (???????????) -- 1 -- None -- 77 -- 0 -- Solo Pro II MVP -- 172.26.2.147;109;Lane 1;3/5/2012;8:15:00;100;15 Minutes;;;;;;328;82;11.180;0;14;49;11;8;10.973;6.715;A;5.398;0.000;60.758;
040548FFDECBD021;IDS-07A -- ?????-????? (???????????) -- 1 -- None -- 77 -- 0 -- Solo Pro II MVP -- 172.26.2.147;110;Lane 2;3/5/2012;8:15:00;100;15 Minutes;;;;;;804;201;66.883;0;87;74;20;20;4.477;11.781;A;64.535;8.691;12.457;
040548FFDECBD021;IDS-07A -- ?????-????? (???????????) -- 1 -- None -- 77 -- 0 -- Solo Pro II MVP -- 172.26.2.147;113;Total;3/5/2012;8:15:00;100;15 Minutes;;;;;;566;283;50.742;0;101;123;31;28;7.723;9.246;A;15.461;8.008;36.605;
040548FFDECBD021;IDS-07A -- ?????-????? (???????????) -- 1 -- None -- 77 -- 0 -- Solo Pro II MVP -- 172.26.2.147;109;Lane 1;3/5/2012;8:30:00;100;15 Minutes;;;;;;144;36;14.527;0;11;24;1;0;25.000;2.301;A;5.309;0.000;27.125;
040548FFDECBD021;IDS-07A -- ?????-????? (???????????) -- 1 -- None -- 77 -- 0 -- Solo Pro II MVP -- 172.26.2.147;110;Lane 2;3/5/2012;8:30:00;100;15 Minutes;;;;;;844;211;69.965;0;97;94;18;2;4.262;10.367;A;66.844;7.004;12.625;
040548FFDECBD021;IDS-07A -- ?????-????? (???????????) -- 1 -- None -- 77 -- 0 -- Solo Pro II MVP -- 172.26.2.147;113;Total;3/5/2012;8:30:00;100;15 Minutes;;;;;;494;247;61.883;0;108;118;19;2;14.629;6.332;A;24.852;4.547;19.875;
040548FFDECBD021;IDS-07A -- ?????-????? (???????????) -- 1 -- None -- 77 -- 0 -- Solo Pro II MVP -- 172.26.2.147;109;Lane 1;3/5/2012;8:45:00;100;15 Minutes;;;;;;148;37;7.051;0;10;24;3;0;24.324;2.324;A;3.418;0.000;43.297;
040548FFDECBD021;IDS-07A -- ?????-????? (???????????) -- 1 -- None -- 77 -- 0 -- Solo Pro II MVP -- 172.26.2.147;110;Lane 2;3/5/2012;8:45:00;100;15 Minutes;;;;;;868;217;62.859;0;76;98;19;22;4.145;12.973;A;61.016;9.719;14.223;
040548FFDECBD021;IDS-07A -- ?????-????? (???????????) -- 1 -- None -- 77 -- 0 -- Solo Pro II MVP -- 172.26.2.147;113;Total;3/5/2012;8:45:00;100;15 Minutes;;;;;;508;254;54.730;0;86;122;22;22;14.234;7.648;A;17.668;6.352;28.750;
040548FFDECBD021;IDS-07A -- ?????-????? (???????????) -- 1 -- None -- 77 -- 0 -- Solo Pro II MVP -- 172.26.2.147;109;Lane 1;3/5/2012;9:00:00;100;15 Minutes;;;;;;104;26;9.500;0;10;11;4;0;34.613;1.738;A;6.238;0.000;16.668;
040548FFDECBD021;IDS-07A -- ?????-????? (???????????) -- 1 -- None -- 77 -- 0 -- Solo Pro II MVP -- 172.26.2.147;110;Lane 2;3/5/2012;9:00:00;100;15 Minutes;;;;;;848;212;64.531;0;80;97;17;18;4.242;12.918;A;61.844;9.047;13.711;
040548FFDECBD021;IDS-07A -- ?????-????? (???????????) -- 1 -- None -- 77 -- 0 -- Solo Pro II MVP -- 172.26.2.147;113;Total;3/5/2012;9:00:00;100;15 Minutes;;;;;;476;238;58.520;0;90;108;21;18;19.426;7.328;A;31.336;5.438;15.188;
040548FFDECBD021;IDS-07A -- ?????-????? (???????????) -- 1 -- None -- 77 -- 0 -- Solo Pro II MVP -- 172.26.2.147;109;Lane 1;3/5/2012;9:15:00;100;15 Minutes;;;;;;52;13;16.383;0;8;2;3;0;69.230;0.582;A;7.633;0.000;6.813;
040548FFDECBD021;IDS-07A -- ?????-????? (???????????) -- 1 -- None -- 77 -- 0 -- Solo Pro II MVP -- 172.26.2.147;110;Lane 2;3/5/2012;9:15:00;100;15 Minutes;;;;;;972;243;60.414;0;78;112;31;22;3.703;15.711;A;58.820;11.992;16.523;
040548FFDECBD021;IDS-07A -- ?????-????? (???????????) -- 1 -- None -- 77 -- 0 -- Solo Pro II MVP -- 172.26.2.147;113;Total;3/5/2012;9:15:00;100;15 Minutes;;;;;;512;256;58.180;0;86;114;34;22;36.465;8.145;A;43.895;6.473;11.664;
040548FFDECBD021;IDS-07A -- ?????-????? (???????????) -- 1 -- None -- 77 -- 0 -- Solo Pro II MVP -- 172.26.2.147;109;Lane 1;3/5/2012;9:30:00;100;15 Minutes;;;;;;36;9;19.441;0;5;3;0;1;100.000;0.551;A;9.566;0.000;3.762;
040548FFDECBD021;IDS-07A -- ?????-????? (???????????) -- 1 -- None -- 77 -- 0 -- Solo Pro II MVP -- 172.26.2.147;110;Lane 2;3/5/2012;9:30:00;100;15 Minutes;;;;;;1020;255;59.145;0;81;124;32;17;3.527;15.957;A;56.953;11.855;17.906;
040548FFDECBD021;IDS-07A -- ?????-????? (???????????) -- 1 -- None -- 77 -- 0 -- Solo Pro II MVP -- 172.26.2.147;113;Total;3/5/2012;9:30:00;100;15 Minutes;;;;;;528;264;57.789;0;86;127;32;18;51.762;8.254;A;48.762;6.266;10.828;
040548FFDECBD021;IDS-07A -- ?????-????? (???????????) -- 1 -- None -- 77 -- 0 -- Solo Pro II MVP -- 172.26.2.147;109;Lane 1;3/5/2012;9:45:00;100;15 Minutes;;;;;;32;8;44.250;0;3;5;0;0;112.500;0.488;A;19.082;0.348;1.676;
040548FFDECBD021;IDS-07A -- ?????-????? (???????????) -- 1 -- None -- 77 -- 0 -- Solo Pro II MVP -- 172.26.2.147;110;Lane 2;3/5/2012;9:45:00;100;15 Minutes;;;;;;996;249;57.930;0;75;122;24;27;3.613;17.285;A;56.145;12.594;17.738;
040548FFDECBD021;IDS-07A -- ?????-????? (???????????) -- 1 -- None -- 77 -- 0 -- Solo Pro II MVP -- 172.26.2.147;113;Total;3/5/2012;9:45:00;100;15 Minutes;;;;;;514;257;57.504;0;78;127;24;27;58.055;8.887;A;52.969;6.477;9.703;
040548FFDECBD021;IDS-07A -- ?????-????? (???????????) -- 1 -- None -- 77 -- 0 -- Solo Pro II MVP -- 172.26.2.147;109;Lane 1;3/5/2012;10:00:00;100;15 Minutes;;;;;;20;5;57.398;0;3;0;1;0;180.000;0.277;A;10.441;0.156;1.914;
040548FFDECBD021;IDS-07A -- ?????-????? (???????????) -- 1 -- None -- 77 -- 0 -- Solo Pro II MVP -- 172.26.2.147;110;Lane 2;3/5/2012;10:00:00;100;15 Minutes;;;;;;996;249;57.578;0;68;127;32;21;3.613;18.164;A;56.195;12.684;17.723;
040548FFDECBD021;IDS-07A -- ?????-????? (???????????) -- 1 -- None -- 77 -- 0 -- Solo Pro II MVP -- 172.26.2.147;113;Total;3/5/2012;10:00:00;100;15 Minutes;;;;;;508;254;57.574;0;71;127;33;21;91.805;9.219;A;51.734;6.418;9.816;
040548FFDECBD021;IDS-07A -- ?????-????? (???????????) -- 1 -- None -- 77 -- 0 -- Solo Pro II MVP -- 172.26.2.147;109;Lane 1;3/5/2012;10:15:00;100;15 Minutes;;;;;;12;3;61.332;0;1;1;0;0;255.996;0.266;A;26.305;0.031;0.453;
040548FFDECBD021;IDS-07A -- ?????-????? (???????????) -- 1 -- None -- 77 -- 0 -- Solo Pro II MVP -- 172.26.2.147;110;Lane 2;3/5/2012;10:15:00;100;15 Minutes;;;;;;908;227;59.754;0;75;99;35;16;3.961;15.406;A;58.578;10.703;15.500;
040548FFDECBD021;IDS-07A -- ?????-????? (???????????) -- 1 -- None -- 77 -- 0 -- Solo Pro II MVP -- 172.26.2.147;113;Total;3/5/2012;10:15:00;100;15 Minutes;;;;;;460;230;59.777;0;76;100;35;16;151.980;7.836;A;57.656;5.363;7.977;
040548FFDECBD021;IDS-07A -- ?????-????? (???????????) -- 1 -- None -- 77 -- 0 -- Solo Pro II MVP -- 172.26.2.147;109;Lane 1;3/5/2012;10:30:00;100;15 Minutes;;;;;;28;7;41.285;0;5;2;0;0;128.570;0.316;A;17.371;0.258;1.609;
040548FFDECBD021;IDS-07A -- ?????-????? (???????????) -- 1 -- None -- 77 -- 0 -- Solo Pro II MVP -- 172.26.2.147;110;Lane 2;3/5/2012;10:30:00;100;15 Minutes;;;;;;984;246;56.035;0;78;104;34;28;3.656;19.305;A;54.648;13.809;18.004;
040548FFDECBD021;IDS-07A -- ?????-????? (???????????) -- 1 -- None -- 77 -- 0 -- Solo Pro II MVP -- 172.26.2.147;113;Total;3/5/2012;10:30:00;100;15 Minutes;;;;;;506;253;55.625;0;83;106;34;28;66.113;9.809;A;51.586;7.051;9.809;
040548FFDECBD021;IDS-07A -- ?????-????? (???????????) -- 1 -- None -- 77 -- 0 -- Solo Pro II MVP -- 172.26.2.147;109;Lane 1;3/5/2012;10:45:00;100;15 Minutes;;;;;;16;4;70.250;0;1;2;1;0;225.000;0.395;A;52.137;0.145;0.305;
040548FFDECBD021;IDS-07A -- ?????-????? (???????????) -- 1 -- None -- 77 -- 0 -- Solo Pro II MVP -- 172.26.2.147;110;Lane 2;3/5/2012;10:45:00;100;15 Minutes;;;;;;1036;259;56.770;0;78;127;27;25;3.473;18.734;A;55.297;13.340;18.734;
040548FFDECBD021;IDS-07A -- ?????-????? (???????????) -- 1 -- None -- 77 -- 0 -- Solo Pro II MVP -- 172.26.2.147;113;Total;3/5/2012;10:45:00;100;15 Minutes;;;;;;526;263;56.977;0;79;129;28;25;114.234;9.563;A;55.277;6.734;9.516;
040548FFDECBD021;IDS-07A -- ?????-????? (???????????) -- 1 -- None -- 77 -- 0 -- Solo Pro II MVP -- 172.26.2.147;109;Lane 1;3/5/2012;11:00:00;100;15 Minutes;;;;;;12;3;24.000;0;1;1;0;1;255.996;0.375;A;12.320;0.000;0.973;
040548FFDECBD021;IDS-07A -- ?????-????? (???????????) -- 1 -- None -- 77 -- 0 -- Solo Pro II MVP -- 172.26.2.147;110;Lane 2;3/5/2012;11:00:00;100;15 Minutes;;;;;;992;248;56.965;0;85;114;23;23;3.629;18.117;A;55.977;12.523;17.719;
040548FFDECBD021;IDS-07A -- ?????-????? (???????????) -- 1 -- None -- 77 -- 0 -- Solo Pro II MVP -- 172.26.2.147;113;Total;3/5/2012;11:00:00;100;15 Minutes;;;;;;502;251;56.570;0;86;115;23;24;151.813;9.246;A;53.699;6.402;9.348;
040548FFDECBD021;IDS-07A -- ?????-????? (???????????) -- 1 -- None -- 77 -- 0 -- Solo Pro II MVP -- 172.26.2.147;109;Lane 1;3/5/2012;11:15:00;100;15 Minutes;;;;;;20;5;54.797;0;2;3;0;0;180.000;0.285;A;23.859;0.141;0.836;
040548FFDECBD021;IDS-07A -- ?????-????? (???????????) -- 1 -- None -- 77 -- 0 -- Solo Pro II MVP -- 172.26.2.147;110;Lane 2;3/5/2012;11:15:00;100;15 Minutes;;;;;;912;228;60.074;0;78;99;27;23;3.945;15.609;A;58.953;11.117;15.469;
040548FFDECBD021;IDS-07A -- ?????-????? (???????????) -- 1 -- None -- 77 -- 0 -- Solo Pro II MVP -- 172.26.2.147;113;Total;3/5/2012;11:15:00;100;15 Minutes;;;;;;466;233;59.961;0;80;102;27;23;91.973;7.945;A;57.148;5.633;8.152;
040548FFDECBD021;IDS-07A -- ?????-????? (???????????) -- 1 -- None -- 77 -- 0 -- Solo Pro II MVP -- 172.26.2.147;109;Lane 1;3/5/2012;11:30:00;100;15 Minutes;;;;;;12;3;48.332;0;0;1;1;0;255.996;0.219;A;46.855;0.148;0.254;
040548FFDECBD021;IDS-07A -- ?????-????? (???????????) -- 1 -- None -- 77 -- 0 -- Solo Pro II MVP -- 172.26.2.147;110;Lane 2;3/5/2012;11:30:00;100;15 Minutes;;;;;;792;198;61.941;0;81;78;23;13;4.543;13.008;A;60.684;8.563;13.051;
040548FFDECBD021;IDS-07A -- ?????-????? (???????????) -- 1 -- None -- 77 -- 0 -- Solo Pro II MVP -- 172.26.2.147;113;Total;3/5/2012;11:30:00;100;15 Minutes;;;;;;402;201;61.738;0;81;79;24;13;152.270;6.613;A;60.418;4.355;6.652;
040548FFDECBD021;IDS-07A -- ?????-????? (???????????) -- 1 -- None -- 77 -- 0 -- Solo Pro II MVP -- 172.26.2.147;109;Lane 1;3/5/2012;11:45:00;100;15 Minutes;;;;;;12;3;7.332;0;1;1;0;0;255.996;0.152;A;4.957;0.000;2.418;
040548FFDECBD021;IDS-07A -- ?????-????? (???????????) -- 1 -- None -- 77 -- 0 -- Solo Pro II MVP -- 172.26.2.147;110;Lane 2;3/5/2012;11:45:00;100;15 Minutes;;;;;;836;209;59.250;0;80;83;29;17;4.305;14.039;A;58.125;10.320;14.379;
040548FFDECBD021;IDS-07A -- ?????-????? (???????????) -- 1 -- None -- 77 -- 0 -- Solo Pro II MVP -- 172.26.2.147;113;Total;3/5/2012;11:45:00;100;15 Minutes;;;;;;424;212;58.516;0;81;84;29;17;152.152;7.094;A;50.473;5.246;8.398;
040548FFDECBD021;IDS-07A -- ?????-????? (???????????) -- 1 -- None -- 77 -- 0 -- Solo Pro II MVP -- 172.26.2.147;109;Lane 1;3/5/2012;12:00:00;100;15 Minutes;;;;;;16;4;28.500;0;3;0;0;0;225.000;0.203;A;8.785;0.113;1.820;
040548FFDECBD021;IDS-07A -- ?????-????? (???????????) -- 1 -- None -- 77 -- 0 -- Solo Pro II MVP -- 172.26.2.147;110;Lane 2;3/5/2012;12:00:00;100;15 Minutes;;;;;;788;197;58.535;0;79;89;18;11;4.566;12.844;A;57.387;8.832;13.730;
040548FFDECBD021;IDS-07A -- ?????-????? (???????????) -- 1 -- None -- 77 -- 0 -- Solo Pro II MVP -- 172.26.2.147;113;Total;3/5/2012;12:00:00;100;15 Minutes;;;;;;402;201;57.938;0;82;89;18;11;114.781;6.523;A;51.699;4.488;7.773;
040548FFDECBD021;IDS-07A -- ?????-????? (???????????) -- 1 -- None -- 77 -- 0 -- Solo Pro II MVP -- 172.26.2.147;109;Lane 1;3/5/2012;12:15:00;100;15 Minutes;;;;;;20;5;52.797;0;2;2;0;0;180.000;0.605;A;35.836;0.129;0.555;
040548FFDECBD021;IDS-07A -- ?????-????? (???????????) -- 1 -- None -- 77 -- 0 -- Solo Pro II MVP -- 172.26.2.147;110;Lane 2;3/5/2012;12:15:00;100;15 Minutes;;;;;;772;193;59.492;0;79;79;23;12;4.660;12.168;A;57.984;8.891;13.313;
040548FFDECBD021;IDS-07A -- ?????-????? (???????????) -- 1 -- None -- 77 -- 0 -- Solo Pro II MVP -- 172.26.2.147;113;Total;3/5/2012;12:15:00;100;15 Minutes;;;;;;396;198;59.320;0;81;81;23;12;92.328;6.387;A;57.094;4.516;6.934;
040548FFDECBD021;IDS-07A -- ?????-????? (???????????) -- 1 -- None -- 77 -- 0 -- Solo Pro II MVP -- 172.26.2.147;109;Lane 1;3/5/2012;12:30:00;100;15 Minutes;;;;;;12;3;62.000;0;1;1;1;0;255.996;0.219;A;61.324;0.152;0.195;
040548FFDECBD021;IDS-07A -- ?????-????? (???????????) -- 1 -- None -- 77 -- 0 -- Solo Pro II MVP -- 172.26.2.147;110;Lane 2;3/5/2012;12:30:00;100;15 Minutes;;;;;;852;213;57.973;0;94;83;24;12;4.223;12.508;A;57.242;9.582;14.883;
040548FFDECBD021;IDS-07A -- ?????-????? (???????????) -- 1 -- None -- 77 -- 0 -- Solo Pro II MVP -- 172.26.2.147;113;Total;3/5/2012;12:30:00;100;15 Minutes;;;;;;432;216;58.031;0;95;84;25;12;152.109;6.363;A;57.293;4.867;7.539;
040548FFDECBD021;IDS-07A -- ?????-????? (???????????) -- 1 -- None -- 77 -- 0 -- Solo Pro II MVP -- 172.26.2.147;109;Lane 1;3/5/2012;12:45:00;100;15 Minutes;;;;;;8;2;50.000;0;0;1;1;0;255.996;0.184;A;49.035;0.129;0.160;
040548FFDECBD021;IDS-07A -- ?????-????? (???????????) -- 1 -- None -- 77 -- 0 -- Solo Pro II MVP -- 172.26.2.147;110;Lane 2;3/5/2012;12:45:00;100;15 Minutes;;;;;;864;216;60.016;0;96;80;23;15;4.164;12.867;A;58.863;9.516;14.676;
040548FFDECBD021;IDS-07A -- ?????-????? (???????????) -- 1 -- None -- 77 -- 0 -- Solo Pro II MVP -- 172.26.2.147;113;Total;3/5/2012;12:45:00;100;15 Minutes;;;;;;436;218;59.926;0;96;81;24;15;227.082;6.523;A;58.754;4.820;7.418;
040548FFDECBD021;IDS-07A -- ?????-????? (???????????) -- 1 -- None -- 77 -- 0 -- Solo Pro II MVP -- 172.26.2.147;109;Lane 1;3/5/2012;13:00:00;100;15 Minutes;;;;;;24;6;47.000;0;2;2;2;0;150.000;0.586;A;34.844;0.371;0.688;
040548FFDECBD021;IDS-07A -- ?????-????? (???????????) -- 1 -- None -- 77 -- 0 -- Solo Pro II MVP -- 172.26.2.147;110;Lane 2;3/5/2012;13:00:00;100;15 Minutes;;;;;;772;193;60.195;0;84;76;21;11;4.660;11.039;A;58.711;8.352;13.148;
040548FFDECBD021;IDS-07A -- ?????-????? (???????????) -- 1 -- None -- 77 -- 0 -- Solo Pro II MVP -- 172.26.2.147;113;Total;3/5/2012;13:00:00;100;15 Minutes;;;;;;398;199;59.797;0;86;78;23;11;77.328;5.813;A;57.523;4.348;6.918;
040548FFDECBD021;IDS-07A -- ?????-????? (???????????) -- 1 -- None -- 77 -- 0 -- Solo Pro II MVP -- 172.26.2.147;109;Lane 1;3/5/2012;13:15:00;100;15 Minutes;;;;;;16;4;50.500;0;0;3;1;0;225.000;0.387;A;39.813;0.250;0.398;
040548FFDECBD021;IDS-07A -- ?????-????? (???????????) -- 1 -- None -- 77 -- 0 -- Solo Pro II MVP -- 172.26.2.147;110;Lane 2;3/5/2012;13:15:00;100;15 Minutes;;;;;;780;195;60.855;0;91;68;23;13;4.613;11.730;A;59.184;8.387;13.176;
040548FFDECBD021;IDS-07A -- ?????-????? (???????????) -- 1 -- None -- 77 -- 0 -- Solo Pro II MVP -- 172.26.2.147;113;Total;3/5/2012;13:15:00;100;15 Minutes;;;;;;398;199;60.645;0;91;71;24;13;114.805;6.059;A;58.609;4.313;6.789;
040548FFDECBD021;IDS-07A -- ?????-????? (???????????) -- 1 -- None -- 77 -- 0 -- Solo Pro II MVP -- 172.26.2.147;109;Lane 1;3/5/2012;13:30:00;100;15 Minutes;;;;;;4;1;52.000;0;0;1;0;0;255.996;0.090;A;52.012;0.055;0.074;
040548FFDECBD021;IDS-07A -- ?????-????? (???????????) -- 1 -- None -- 77 -- 0 -- Solo Pro II MVP -- 172.26.2.147;110;Lane 2;3/5/2012;13:30:00;100;15 Minutes;;;;;;872;218;62.883;0;94;83;23;18;4.125;12.992;A;61.258;9.523;14.234;
040548FFDECBD021;IDS-07A -- ?????-????? (???????????) -- 1 -- None -- 77 -- 0 -- Solo Pro II MVP -- 172.26.2.147;113;Total;3/5/2012;13:30:00;100;15 Minutes;;;;;;438;219;62.832;0;94;84;23;18;255.996;6.539;A;61.207;4.789;7.152;
040548FFDECBD021;IDS-07A -- ?????-????? (???????????) -- 1 -- None -- 77 -- 0 -- Solo Pro II MVP -- 172.26.2.147;109;Lane 1;3/5/2012;13:45:00;100;15 Minutes;;;;;;16;4;69.750;0;4;0;0;0;225.000;0.184;A;68.426;0.094;0.230;
040548FFDECBD021;IDS-07A -- ?????-????? (???????????) -- 1 -- None -- 77 -- 0 -- Solo Pro II MVP -- 172.26.2.147;110;Lane 2;3/5/2012;13:45:00;100;15 Minutes;;;;;;776;194;64.098;0;84;69;22;18;4.637;11.258;A;62.988;8.734;12.316;
040548FFDECBD021;IDS-07A -- ?????-????? (???????????) -- 1 -- None -- 77 -- 0 -- Solo Pro II MVP -- 172.26.2.147;113;Total;3/5/2012;13:45:00;100;15 Minutes;;;;;;396;198;64.211;0;88;69;22;18;114.816;5.719;A;63.090;4.410;6.273;
040548FFDECBD021;IDS-07A -- ?????-????? (???????????) -- 1 -- None -- 77 -- 0 -- Solo Pro II MVP -- 172.26.2.147;109;Lane 1;3/5/2012;14:00:00;100;15 Minutes;;;;;;16;4;82.750;0;3;0;1;0;225.000;0.242;A;69.625;0.102;0.227;
040548FFDECBD021;IDS-07A -- ?????-????? (???????????) -- 1 -- None -- 77 -- 0 -- Solo Pro II MVP -- 172.26.2.147;110;Lane 2;3/5/2012;14:00:00;100;15 Minutes;;;;;;832;208;64.387;0;104;74;17;13;4.324;10.805;A;62.742;8.270;13.258;
040548FFDECBD021;IDS-07A -- ?????-????? (???????????) -- 1 -- None -- 77 -- 0 -- Solo Pro II MVP -- 172.26.2.147;113;Total;3/5/2012;14:00:00;100;15 Minutes;;;;;;424;212;64.734;0;107;74;18;13;114.660;5.523;A;62.859;4.176;6.742;
040548FFDECBD021;IDS-07A -- ?????-????? (???????????) -- 1 -- None -- 77 -- 0 -- Solo Pro II MVP -- 172.26.2.147;109;Lane 1;3/5/2012;14:15:00;100;15 Minutes;;;;;;4;1;7.000;0;1;0;0;0;255.996;0.035;A;7.000;0.000;0.570;
040548FFDECBD021;IDS-07A -- ?????-????? (???????????) -- 1 -- None -- 77 -- 0 -- Solo Pro II MVP -- 172.26.2.147;110;Lane 2;3/5/2012;14:15:00;100;15 Minutes;;;;;;804;201;61.602;0;82;82;22;14;4.477;11.781;A;59.605;8.621;13.488;
040548FFDECBD021;IDS-07A -- ?????-????? (???????????) -- 1 -- None -- 77 -- 0 -- Solo Pro II MVP -- 172.26.2.147;113;Total;3/5/2012;14:15:00;100;15 Minutes;;;;;;404;202;61.328;0;83;82;22;14;255.996;5.906;A;57.465;4.340;7.027;
040548FFDECBD021;IDS-07A -- ?????-????? (???????????) -- 1 -- None -- 77 -- 0 -- Solo Pro II MVP -- 172.26.2.147;109;Lane 1;3/5/2012;14:30:00;100;15 Minutes;;;;;;12;3;60.332;0;1;2;0;0;255.996;0.156;A;50.348;0.090;0.238;
040548FFDECBD021;IDS-07A -- ?????-????? (???????????) -- 1 -- None -- 77 -- 0 -- Solo Pro II MVP -- 172.26.2.147;110;Lane 2;3/5/2012;14:30:00;100;15 Minutes;;;;;;916;229;60.422;0;104;81;24;19;3.930;13.879;A;59.098;10.363;15.496;
040548FFDECBD021;IDS-07A -- ?????-????? (???????????) -- 1 -- None -- 77 -- 0 -- Solo Pro II MVP -- 172.26.2.147;113;Total;3/5/2012;14:30:00;100;15 Minutes;;;;;;464;232;60.422;0;105;83;24;19;151.965;7.016;A;58.965;5.227;7.867;
040548FFDECBD021;IDS-07A -- ?????-????? (???????????) -- 1 -- None -- 77 -- 0 -- Solo Pro II MVP -- 172.26.2.147;109;Lane 1;3/5/2012;14:45:00;100;15 Minutes;;;;;;12;3;42.664;0;1;1;0;0;255.996;0.230;A;37.977;0.105;0.313;
040548FFDECBD021;IDS-07A -- ?????-????? (???????????) -- 1 -- None -- 77 -- 0 -- Solo Pro II MVP -- 172.26.2.147;110;Lane 2;3/5/2012;14:45:00;100;15 Minutes;;;;;;872;218;62.188;0;84;98;22;14;4.125;12.309;A;61.047;9.844;14.281;
040548FFDECBD021;IDS-07A -- ?????-????? (???????????) -- 1 -- None -- 77 -- 0 -- Solo Pro II MVP -- 172.26.2.147;113;Total;3/5/2012;14:45:00;100;15 Minutes;;;;;;442;221;61.922;0;85;99;22;14;152.063;6.270;A;60.547;4.980;7.297;
040548FFDECBD021;IDS-07A -- ?????-????? (???????????) -- 1 -- None -- 77 -- 0 -- Solo Pro II MVP -- 172.26.2.147;109;Lane 1;3/5/2012;15:00:00;100;15 Minutes;;;;;;12;3;46.664;0;1;2;0;0;255.996;0.254;A;46.586;0.137;0.254;
040548FFDECBD021;IDS-07A -- ?????-????? (???????????) -- 1 -- None -- 77 -- 0 -- Solo Pro II MVP -- 172.26.2.147;110;Lane 2;3/5/2012;15:00:00;100;15 Minutes;;;;;;832;208;63.262;0;90;86;12;19;4.324;11.254;A;61.457;8.973;13.535;
040548FFDECBD021;IDS-07A -- ?????-????? (???????????) -- 1 -- None -- 77 -- 0 -- Solo Pro II MVP -- 172.26.2.147;113;Total;3/5/2012;15:00:00;100;15 Minutes;;;;;;422;211;63.027;0;91;88;12;19;152.160;5.754;A;61.180;4.551;6.895;
040548FFDECBD021;IDS-07A -- ?????-????? (???????????) -- 1 -- None -- 77 -- 0 -- Solo Pro II MVP -- 172.26.2.147;109;Lane 1;3/5/2012;15:15:00;100;15 Minutes;;;;;;4;1;54.000;0;0;1;0;0;255.996;0.039;A;54.027;0.039;0.070;
040548FFDECBD021;IDS-07A -- ?????-????? (???????????) -- 1 -- None -- 77 -- 0 -- Solo Pro II MVP -- 172.26.2.147;110;Lane 2;3/5/2012;15:15:00;100;15 Minutes;;;;;;496;124;70.055;0;61;45;8;9;7.258;5.910;A;67.473;4.559;7.348;
040548FFDECBD021;IDS-07A -- ?????-????? (???????????) -- 1 -- None -- 77 -- 0 -- Solo Pro II MVP -- 172.26.2.147;113;Total;3/5/2012;15:15:00;100;15 Minutes;;;;;;250;125;69.926;0;61;46;8;9;255.996;2.973;A;67.336;2.297;3.711;
040548FFDECBD021;IDS-07A -- ?????-????? (???????????) -- 1 -- None -- 77 -- 0 -- Solo Pro II MVP -- 172.26.2.147;109;Lane 1;3/5/2012;15:30:00;100;15 Minutes;;;;;;32;8;67.125;0;5;3;0;0;112.500;0.496;A;54.695;0.223;0.582;
040548FFDECBD021;IDS-07A -- ?????-????? (???????????) -- 1 -- None -- 77 -- 0 -- Solo Pro II MVP -- 172.26.2.147;110;Lane 2;3/5/2012;15:30:00;100;15 Minutes;;;;;;1000;250;61.414;0;107;106;22;15;3.598;13.953;A;59.598;10.488;16.777;
040548FFDECBD021;IDS-07A -- ?????-????? (???????????) -- 1 -- None -- 77 -- 0 -- Solo Pro II MVP -- 172.26.2.147;113;Total;3/5/2012;15:30:00;100;15 Minutes;;;;;;516;258;61.590;0;112;109;22;15;58.047;7.223;A;59.445;5.352;8.680;
040548FFDECBD021;IDS-07A -- ?????-????? (???????????) -- 1 -- None -- 77 -- 0 -- Solo Pro II MVP -- 172.26.2.147;109;Lane 1;3/5/2012;15:45:00;100;15 Minutes;;;;;;12;3;36.664;0;1;2;0;0;255.996;0.203;A;12.543;0.148;0.953;
040548FFDECBD021;IDS-07A -- ?????-????? (???????????) -- 1 -- None -- 77 -- 0 -- Solo Pro II MVP -- 172.26.2.147;110;Lane 2;3/5/2012;15:45:00;100;15 Minutes;;;;;;1004;251;57.605;0;115;94;23;18;3.582;15.426;A;56.406;11.578;17.797;
040548FFDECBD021;IDS-07A -- ?????-????? (???????????) -- 1 -- None -- 77 -- 0 -- Solo Pro II MVP -- 172.26.2.147;113;Total;3/5/2012;15:45:00;100;15 Minutes;;;;;;508;254;57.355;0;116;96;23;18;151.789;7.813;A;54.168;5.863;9.375;
040548FFDECBD021;IDS-07A -- ?????-????? (???????????) -- 1 -- None -- 77 -- 0 -- Solo Pro II MVP -- 172.26.2.147;109;Lane 1;3/5/2012;16:00:00;100;15 Minutes;;;;;;56;14;69.500;0;12;2;0;0;64.285;0.680;A;65.586;0.367;0.852;
040548FFDECBD021;IDS-07A -- ?????-????? (???????????) -- 1 -- None -- 77 -- 0 -- Solo Pro II MVP -- 172.26.2.147;110;Lane 2;3/5/2012;16:00:00;100;15 Minutes;;;;;;1072;268;57.199;0;102;108;33;22;3.355;17.793;A;55.824;13.262;19.203;
040548FFDECBD021;IDS-07A -- ?????-????? (???????????) -- 1 -- None -- 77 -- 0 -- Solo Pro II MVP -- 172.26.2.147;113;Total;3/5/2012;16:00:00;100;15 Minutes;;;;;;564;282;57.809;0;114;110;33;22;33.820;9.234;A;56.223;6.781;10.031;
040548FFDECBD021;IDS-07A -- ?????-????? (???????????) -- 1 -- None -- 77 -- 0 -- Solo Pro II MVP -- 172.26.2.147;109;Lane 1;3/5/2012;16:15:00;100;15 Minutes;;;;;;12;3;55.332;0;1;2;0;0;255.996;0.262;A;53.512;0.105;0.223;
040548FFDECBD021;IDS-07A -- ?????-????? (???????????) -- 1 -- None -- 77 -- 0 -- Solo Pro II MVP -- 172.26.2.147;110;Lane 2;3/5/2012;16:15:00;100;15 Minutes;;;;;;884;221;60.105;0;101;87;18;15;4.070;13.141;A;58.383;9.660;15.141;
040548FFDECBD021;IDS-07A -- ?????-????? (???????????) -- 1 -- None -- 77 -- 0 -- Solo Pro II MVP -- 172.26.2.147;113;Total;3/5/2012;16:15:00;100;15 Minutes;;;;;;448;224;60.043;0;102;89;18;15;152.035;6.699;A;58.313;4.883;7.680;
040548FFDECBD021;IDS-07A -- ?????-????? (???????????) -- 1 -- None -- 77 -- 0 -- Solo Pro II MVP -- 172.26.2.147;109;Lane 1;3/5/2012;16:30:00;100;15 Minutes;;;;;;20;5;48.797;0;2;1;0;0;180.000;0.480;A;47.254;0.129;0.422;
040548FFDECBD021;IDS-07A -- ?????-????? (???????????) -- 1 -- None -- 77 -- 0 -- Solo Pro II MVP -- 172.26.2.147;110;Lane 2;3/5/2012;16:30:00;100;15 Minutes;;;;;;908;227;63.180;0;98;86;25;16;3.961;12.746;A;61.484;9.785;14.766;
040548FFDECBD021;IDS-07A -- ?????-????? (???????????) -- 1 -- None -- 77 -- 0 -- Solo Pro II MVP -- 172.26.2.147;113;Total;3/5/2012;16:30:00;100;15 Minutes;;;;;;464;232;62.867;0;100;87;25;16;91.980;6.613;A;61.090;4.965;7.594;
040548FFDECBD021;IDS-07A -- ?????-????? (???????????) -- 1 -- None -- 77 -- 0 -- Solo Pro II MVP -- 172.26.2.147;109;Lane 1;3/5/2012;16:45:00;100;15 Minutes;;;;;;8;2;45.500;0;1;0;0;0;255.996;0.230;A;45.508;0.039;0.176;
040548FFDECBD021;IDS-07A -- ?????-????? (???????????) -- 1 -- None -- 77 -- 0 -- Solo Pro II MVP -- 172.26.2.147;110;Lane 2;3/5/2012;16:45:00;100;15 Minutes;;;;;;896;224;62.195;0;104;87;18;15;4.016;12.293;A;60.438;9.168;14.824;
040548FFDECBD021;IDS-07A -- ?????-????? (???????????) -- 1 -- None -- 77 -- 0 -- Solo Pro II MVP -- 172.26.2.147;113;Total;3/5/2012;16:45:00;100;15 Minutes;;;;;;452;226;62.047;0;105;87;18;15;227.008;6.262;A;60.262;4.609;7.500;
040548FFDECBD021;IDS-07A -- ?????-????? (???????????) -- 1 -- None -- 77 -- 0 -- Solo Pro II MVP -- 172.26.2.147;109;Lane 1;3/5/2012;17:00:00;100;15 Minutes;;;;;;32;8;56.500;0;4;2;1;0;112.500;0.520;A;52.852;0.266;0.605;
040548FFDECBD021;IDS-07A -- ?????-????? (???????????) -- 1 -- None -- 77 -- 0 -- Solo Pro II MVP -- 172.26.2.147;110;Lane 2;3/5/2012;17:00:00;100;15 Minutes;;;;;;840;210;62.609;0;105;72;16;17;4.285;11.941;A;61.477;8.801;13.660;
040548FFDECBD021;IDS-07A -- ?????-????? (???????????) -- 1 -- None -- 77 -- 0 -- Solo Pro II MVP -- 172.26.2.147;113;Total;3/5/2012;17:00:00;100;15 Minutes;;;;;;436;218;62.383;0;109;74;17;17;58.391;6.230;A;61.109;4.535;7.133;
040548FFDECBD021;IDS-07A -- ?????-????? (???????????) -- 1 -- None -- 77 -- 0 -- Solo Pro II MVP -- 172.26.2.147;109;Lane 1;3/5/2012;17:15:00; 99;15 Minutes;;;;;;48;12;58.582;0;7;4;1;0;75.000;1.047;A;53.055;0.414;0.902;
040548FFDECBD021;IDS-07A -- ?????-????? (???????????) -- 1 -- None -- 77 -- 0 -- Solo Pro II MVP -- 172.26.2.147;110;Lane 2;3/5/2012;17:15:00; 99;15 Minutes;;;;;;964;241;61.695;0;122;88;20;11;3.734;13.098;A;60.156;9.648;16.023;
040548FFDECBD021;IDS-07A -- ?????-????? (???????????) -- 1 -- None -- 77 -- 0 -- Solo Pro II MVP -- 172.26.2.147;113;Total;3/5/2012;17:15:00; 99;15 Minutes;;;;;;506;253;61.547;0;129;92;21;11;39.367;7.070;A;59.777;5.031;8.461;
040548FFDECBD021;IDS-07A -- ?????-????? (???????????) -- 1 -- None -- 77 -- 0 -- Solo Pro II MVP -- 172.26.2.147;109;Lane 1;3/5/2012;17:30:00;100;15 Minutes;;;;;;64;16;69.563;0;11;4;1;0;56.250;0.750;A;34.543;0.391;1.852;
040548FFDECBD021;IDS-07A -- ?????-????? (???????????) -- 1 -- None -- 77 -- 0 -- Solo Pro II MVP -- 172.26.2.147;110;Lane 2;3/5/2012;17:30:00;100;15 Minutes;;;;;;920;230;62.559;0;124;79;14;12;3.910;10.844;A;61.125;8.664;15.051;
040548FFDECBD021;IDS-07A -- ?????-????? (???????????) -- 1 -- None -- 77 -- 0 -- Solo Pro II MVP -- 172.26.2.147;113;Total;3/5/2012;17:30:00;100;15 Minutes;;;;;;492;246;63.016;0;135;83;15;12;30.078;5.797;A;58.211;4.516;8.449;
040548FFDECBD021;IDS-07A -- ?????-????? (???????????) -- 1 -- None -- 77 -- 0 -- Solo Pro II MVP -- 172.26.2.147;109;Lane 1;3/5/2012;17:45:00;100;15 Minutes;;;;;;48;12;61.250;0;9;2;0;0;75.000;0.406;A;16.875;0.246;2.844;
040548FFDECBD021;IDS-07A -- ?????-????? (???????????) -- 1 -- None -- 77 -- 0 -- Solo Pro II MVP -- 172.26.2.147;110;Lane 2;3/5/2012;17:45:00;100;15 Minutes;;;;;;868;217;65.926;0;116;81;8;12;4.145;10.586;A;63.945;7.770;13.570;
040548FFDECBD021;IDS-07A -- ?????-????? (???????????) -- 1 -- None -- 77 -- 0 -- Solo Pro II MVP -- 172.26.2.147;113;Total;3/5/2012;17:45:00;100;15 Minutes;;;;;;458;229;65.680;0;125;83;8;12;39.570;5.496;A;55.793;4.016;8.207;
040548FFDECBD021;IDS-07A -- ?????-????? (???????????) -- 1 -- None -- 77 -- 0 -- Solo Pro II MVP -- 172.26.2.147;109;Lane 1;3/5/2012;18:00:00;100;15 Minutes;;;;;;64;16;55.500;0;11;3;0;1;56.250;0.922;A;49.152;0.582;1.301;
040548FFDECBD021;IDS-07A -- ?????-????? (???????????) -- 1 -- None -- 77 -- 0 -- Solo Pro II MVP -- 172.26.2.147;110;Lane 2;3/5/2012;18:00:00;100;15 Minutes;;;;;;856;214;60.824;0;106;82;10;15;4.203;11.336;A;58.598;8.730;14.605;
040548FFDECBD021;IDS-07A -- ?????-????? (???????????) -- 1 -- None -- 77 -- 0 -- Solo Pro II MVP -- 172.26.2.147;113;Total;3/5/2012;18:00:00;100;15 Minutes;;;;;;460;230;60.453;0;117;85;10;16;30.227;6.129;A;57.824;4.660;7.953;
040548FFDECBD021;IDS-07A -- ?????-????? (???????????) -- 1 -- None -- 77 -- 0 -- Solo Pro II MVP -- 172.26.2.147;109;Lane 1;3/5/2012;18:15:00;100;15 Minutes;;;;;;16;4;54.250;0;3;1;0;0;225.000;0.266;A;50.730;0.105;0.313;
040548FFDECBD021;IDS-07A -- ?????-????? (???????????) -- 1 -- None -- 77 -- 0 -- Solo Pro II MVP -- 172.26.2.147;110;Lane 2;3/5/2012;18:15:00;100;15 Minutes;;;;;;808;202;65.824;0;117;63;11;10;4.453;9.684;A;63.598;7.102;12.703;
040548FFDECBD021;IDS-07A -- ?????-????? (???????????) -- 1 -- None -- 77 -- 0 -- Solo Pro II MVP -- 172.26.2.147;113;Total;3/5/2012;18:15:00;100;15 Minutes;;;;;;412;206;65.602;0;120;64;11;10;114.727;4.973;A;63.285;3.605;6.508;
040548FFDECBD021;IDS-07A -- ?????-????? (???????????) -- 1 -- None -- 77 -- 0 -- Solo Pro II MVP -- 172.26.2.147;109;Lane 1;3/5/2012;18:30:00;100;15 Minutes;;;;;;12;3;42.332;0;2;0;1;0;255.996;0.211;A;22.234;0.000;0.539;
040548FFDECBD021;IDS-07A -- ?????-????? (???????????) -- 1 -- None -- 77 -- 0 -- Solo Pro II MVP -- 172.26.2.147;110;Lane 2;3/5/2012;18:30:00;100;15 Minutes;;;;;;752;188;63.207;0;96;63;16;11;4.785;9.742;A;60.258;7.430;12.477;
040548FFDECBD021;IDS-07A -- ?????-????? (???????????) -- 1 -- None -- 77 -- 0 -- Solo Pro II MVP -- 172.26.2.147;113;Total;3/5/2012;18:30:00;100;15 Minutes;;;;;;382;191;62.879;0;98;63;17;11;152.391;4.977;A;58.684;3.777;6.508;
040548FFDECBD021;IDS-07A -- ?????-????? (???????????) -- 1 -- None -- 77 -- 0 -- Solo Pro II MVP -- 172.26.2.147;109;Lane 1;3/5/2012;18:45:00;100;15 Minutes;;;;;;8;2;28.500;0;1;1;0;0;255.996;0.121;A;16.492;0.160;0.484;
040548FFDECBD021;IDS-07A -- ?????-????? (???????????) -- 1 -- None -- 77 -- 0 -- Solo Pro II MVP -- 172.26.2.147;110;Lane 2;3/5/2012;18:45:00;100;15 Minutes;;;;;;584;146;70.211;0;60;67;9;9;6.164;6.633;A;68.051;5.238;8.578;
040548FFDECBD021;IDS-07A -- ?????-????? (???????????) -- 1 -- None -- 77 -- 0 -- Solo Pro II MVP -- 172.26.2.147;113;Total;3/5/2012;18:45:00;100;15 Minutes;;;;;;296;148;69.648;0;61;68;9;9;228.082;3.375;A;65.293;2.672;4.531;
040548FFDECBD021;IDS-07A -- ?????-????? (???????????) -- 1 -- None -- 77 -- 0 -- Solo Pro II MVP -- 172.26.2.147;109;Lane 1;3/5/2012;19:00:00;100;15 Minutes;;;;;;16;4;33.750;0;2;2;0;0;225.000;0.324;A;25.344;0.207;0.629;
040548FFDECBD021;IDS-07A -- ?????-????? (???????????) -- 1 -- None -- 77 -- 0 -- Solo Pro II MVP -- 172.26.2.147;110;Lane 2;3/5/2012;19:00:00;100;15 Minutes;;;;;;748;187;63.949;0;94;84;4;4;4.813;9.836;A;61.367;5.918;12.188;
040548FFDECBD021;IDS-07A -- ?????-????? (???????????) -- 1 -- None -- 77 -- 0 -- Solo Pro II MVP -- 172.26.2.147;113;Total;3/5/2012;19:00:00;100;15 Minutes;;;;;;382;191;63.316;0;96;86;4;4;114.906;5.078;A;59.594;3.043;6.406;
040548FFDECBD021;IDS-07A -- ?????-????? (???????????) -- 1 -- None -- 77 -- 0 -- Solo Pro II MVP -- 172.26.2.147;109;Lane 1;3/5/2012;19:15:00;100;15 Minutes;;;;;;40;10;36.898;0;4;3;1;1;90.000;0.406;A;6.570;0.000;6.086;
040548FFDECBD021;IDS-07A -- ?????-????? (???????????) -- 1 -- None -- 77 -- 0 -- Solo Pro II MVP -- 172.26.2.147;110;Lane 2;3/5/2012;19:15:00;100;15 Minutes;;;;;;716;179;61.891;0;109;66;3;0;5.027;8.793;A;59.785;5.297;11.973;
040548FFDECBD021;IDS-07A -- ?????-????? (???????????) -- 1 -- None -- 77 -- 0 -- Solo Pro II MVP -- 172.26.2.147;113;Total;3/5/2012;19:15:00;100;15 Minutes;;;;;;378;189;60.570;0;113;69;4;1;47.512;4.598;A;41.852;2.926;9.031;
040548FFDECBD021;IDS-07A -- ?????-????? (???????????) -- 1 -- None -- 77 -- 0 -- Solo Pro II MVP -- 172.26.2.147;109;Lane 1;3/5/2012;19:30:00;100;15 Minutes;;;;;;16;4;46.000;0;3;1;0;0;225.000;0.219;A;34.816;0.148;0.457;
040548FFDECBD021;IDS-07A -- ?????-????? (???????????) -- 1 -- None -- 77 -- 0 -- Solo Pro II MVP -- 172.26.2.147;110;Lane 2;3/5/2012;19:30:00;100;15 Minutes;;;;;;720;180;60.375;0;110;65;3;2;5.000;8.363;A;57.676;5.766;12.480;
040548FFDECBD021;IDS-07A -- ?????-????? (???????????) -- 1 -- None -- 77 -- 0 -- Solo Pro II MVP -- 172.26.2.147;113;Total;3/5/2012;19:30:00;100;15 Minutes;;;;;;368;184;60.063;0;113;66;3;2;115.000;4.289;A;56.867;2.953;6.469;
040548FFDECBD021;IDS-07A -- ?????-????? (???????????) -- 1 -- None -- 77 -- 0 -- Solo Pro II MVP -- 172.26.2.147;109;Lane 1;3/5/2012;19:45:00;100;15 Minutes;;;;;;24;6;52.000;0;5;1;0;0;150.000;0.203;A;17.617;0.000;1.359;
040548FFDECBD021;IDS-07A -- ?????-????? (???????????) -- 1 -- None -- 77 -- 0 -- Solo Pro II MVP -- 172.26.2.147;110;Lane 2;3/5/2012;19:45:00;100;15 Minutes;;;;;;668;167;56.340;0;91;75;1;0;5.387;8.273;A;53.387;5.492;12.512;
040548FFDECBD021;IDS-07A -- ?????-????? (???????????) -- 1 -- None -- 77 -- 0 -- Solo Pro II MVP -- 172.26.2.147;113;Total;3/5/2012;19:45:00;100;15 Minutes;;;;;;346;173;56.188;0;96;76;1;0;77.691;4.238;A;49.875;2.828;6.934;
040548FFDECBD021;IDS-07A -- ?????-????? (???????????) -- 1 -- None -- 77 -- 0 -- Solo Pro II MVP -- 172.26.2.147;109;Lane 1;3/5/2012;20:00:00;100;15 Minutes;;;;;;40;10;24.098;0;8;2;0;0;90.000;0.500;A;10.531;0.000;3.797;
040548FFDECBD021;IDS-07A -- ?????-????? (???????????) -- 1 -- None -- 77 -- 0 -- Solo Pro II MVP -- 172.26.2.147;110;Lane 2;3/5/2012;20:00:00;100;15 Minutes;;;;;;572;143;62.746;0;68;73;0;1;6.293;7.137;A;60.301;4.492;9.484;
040548FFDECBD021;IDS-07A -- ?????-????? (???????????) -- 1 -- None -- 77 -- 0 -- Solo Pro II MVP -- 172.26.2.147;113;Total;3/5/2012;20:00:00;100;15 Minutes;;;;;;306;153;60.219;0;76;75;0;1;48.145;3.816;A;46.074;2.457;6.641;
040548FFDECBD021;IDS-07A -- ?????-????? (???????????) -- 1 -- None -- 77 -- 0 -- Solo Pro II MVP -- 172.26.2.147;109;Lane 1;3/5/2012;20:15:00;100;15 Minutes;;;;;;36;9;40.887;0;6;3;0;0;100.000;0.434;A;15.145;0.320;2.375;
040548FFDECBD021;IDS-07A -- ?????-????? (???????????) -- 1 -- None -- 77 -- 0 -- Solo Pro II MVP -- 172.26.2.147;110;Lane 2;3/5/2012;20:15:00;100;15 Minutes;;;;;;648;162;62.734;0;102;60;0;0;5.555;7.332;A;60.602;4.633;10.691;
040548FFDECBD021;IDS-07A -- ?????-????? (???????????) -- 1 -- None -- 77 -- 0 -- Solo Pro II MVP -- 172.26.2.147;113;Total;3/5/2012;20:15:00;100;15 Minutes;;;;;;342;171;61.582;0;108;63;0;0;52.777;3.883;A;52.336;2.465;6.531;
040548FFDECBD021;IDS-07A -- ?????-????? (???????????) -- 1 -- None -- 77 -- 0 -- Solo Pro II MVP -- 172.26.2.147;109;Lane 1;3/5/2012;20:30:00;100;15 Minutes;;;;;;36;9;58.664;0;4;4;0;0;100.000;0.441;A;44.977;0.238;0.797;
040548FFDECBD021;IDS-07A -- ?????-????? (???????????) -- 1 -- None -- 77 -- 0 -- Solo Pro II MVP -- 172.26.2.147;110;Lane 2;3/5/2012;20:30:00;100;15 Minutes;;;;;;560;140;61.441;0;70;68;1;0;6.426;6.242;A;58.695;4.242;9.539;
040548FFDECBD021;IDS-07A -- ?????-????? (???????????) -- 1 -- None -- 77 -- 0 -- Solo Pro II MVP -- 172.26.2.147;113;Total;3/5/2012;20:30:00;100;15 Minutes;;;;;;298;149;61.273;0;74;72;1;0;53.211;3.340;A;57.633;2.242;5.168;
040548FFDECBD021;IDS-07A -- ?????-????? (???????????) -- 1 -- None -- 77 -- 0 -- Solo Pro II MVP -- 172.26.2.147;109;Lane 1;3/5/2012;20:45:00;100;15 Minutes;;;;;;8;2;65.500;0;2;0;0;0;255.996;0.109;A;57.086;0.043;0.137;
040548FFDECBD021;IDS-07A -- ?????-????? (???????????) -- 1 -- None -- 77 -- 0 -- Solo Pro II MVP -- 172.26.2.147;110;Lane 2;3/5/2012;20:45:00;100;15 Minutes;;;;;;448;112;63.875;0;64;46;1;1;8.035;5.258;A;60.930;3.344;7.352;
040548FFDECBD021;IDS-07A -- ?????-????? (???????????) -- 1 -- None -- 77 -- 0 -- Solo Pro II MVP -- 172.26.2.147;113;Total;3/5/2012;20:45:00;100;15 Minutes;;;;;;228;114;63.902;0;66;46;1;1;229.016;2.684;A;60.859;1.695;3.746;
040548FFDECBD021;IDS-07A -- ?????-????? (???????????) -- 1 -- None -- 77 -- 0 -- Solo Pro II MVP -- 172.26.2.147;109;Lane 1;3/5/2012;21:00:00;100;15 Minutes;;;;;;12;3;21.664;0;2;1;0;0;255.996;0.109;A;19.258;0.000;0.621;
040548FFDECBD021;IDS-07A -- ?????-????? (???????????) -- 1 -- None -- 77 -- 0 -- Solo Pro II MVP -- 172.26.2.147;110;Lane 2;3/5/2012;21:00:00;100;15 Minutes;;;;;;584;146;66.766;0;95;49;0;1;6.164;6.625;A;64.051;3.883;9.117;
040548FFDECBD021;IDS-07A -- ?????-????? (???????????) -- 1 -- None -- 77 -- 0 -- Solo Pro II MVP -- 172.26.2.147;113;Total;3/5/2012;21:00:00;100;15 Minutes;;;;;;298;149;65.855;0;97;50;0;1;153.082;3.367;A;61.184;1.992;4.867;
040548FFDECBD021;IDS-07A -- ?????-????? (???????????) -- 1 -- None -- 77 -- 0 -- Solo Pro II MVP -- 172.26.2.147;109;Lane 1;3/5/2012;21:15:00;100;15 Minutes;;;;;;32;8;33.875;0;4;3;0;0;112.500;0.254;A;18.082;0.000;1.770;
040548FFDECBD021;IDS-07A -- ?????-????? (???????????) -- 1 -- None -- 77 -- 0 -- Solo Pro II MVP -- 172.26.2.147;110;Lane 2;3/5/2012;21:15:00;100;15 Minutes;;;;;;416;104;63.238;0;72;30;1;1;8.652;5.199;A;61.059;3.035;6.813;
040548FFDECBD021;IDS-07A -- ?????-????? (???????????) -- 1 -- None -- 77 -- 0 -- Solo Pro II MVP -- 172.26.2.147;113;Total;3/5/2012;21:15:00;100;15 Minutes;;;;;;224;112;61.141;0;76;33;1;1;60.574;2.727;A;52.199;1.652;4.289;
040548FFDECBD021;IDS-07A -- ?????-????? (???????????) -- 1 -- None -- 77 -- 0 -- Solo Pro II MVP -- 172.26.2.147;109;Lane 1;3/5/2012;21:30:00;100;15 Minutes;;;;;;8;2;31.000;0;1;1;0;0;255.996;0.090;A;28.938;0.094;0.273;
040548FFDECBD021;IDS-07A -- ?????-????? (???????????) -- 1 -- None -- 77 -- 0 -- Solo Pro II MVP -- 172.26.2.147;110;Lane 2;3/5/2012;21:30:00;100;15 Minutes;;;;;;460;115;59.832;0;75;38;1;1;7.824;5.043;A;57.863;3.582;7.949;
040548FFDECBD021;IDS-07A -- ?????-????? (???????????) -- 1 -- None -- 77 -- 0 -- Solo Pro II MVP -- 172.26.2.147;113;Total;3/5/2012;21:30:00;100;15 Minutes;;;;;;234;117;59.340;0;76;39;1;1;228.910;2.566;A;56.891;1.832;4.109;
040548FFDECBD021;IDS-07A -- ?????-????? (???????????) -- 1 -- None -- 77 -- 0 -- Solo Pro II MVP -- 172.26.2.147;109;Lane 1;3/5/2012;21:45:00;100;15 Minutes;;;;;;4;1;18.000;0;1;0;0;0;255.996;0.047;A;18.004;0.047;0.219;
040548FFDECBD021;IDS-07A -- ?????-????? (???????????) -- 1 -- None -- 77 -- 0 -- Solo Pro II MVP -- 172.26.2.147;110;Lane 2;3/5/2012;21:45:00;100;15 Minutes;;;;;;400;100;64.770;0;70;29;0;1;9.000;4.230;A;61.852;2.797;6.465;
040548FFDECBD021;IDS-07A -- ?????-????? (???????????) -- 1 -- None -- 77 -- 0 -- Solo Pro II MVP -- 172.26.2.147;113;Total;3/5/2012;21:45:00;100;15 Minutes;;;;;;202;101;64.305;0;71;29;0;1;255.996;2.137;A;60.395;1.414;3.344;
040548FFDECBD021;IDS-07A -- ?????-????? (???????????) -- 1 -- None -- 77 -- 0 -- Solo Pro II MVP -- 172.26.2.147;109;Lane 1;3/5/2012;22:00:00;100;15 Minutes;;;;;;4;1;41.000;0;1;0;0;0;255.996;0.043;A;41.008;0.035;0.094;
040548FFDECBD021;IDS-07A -- ?????-????? (???????????) -- 1 -- None -- 77 -- 0 -- Solo Pro II MVP -- 172.26.2.147;110;Lane 2;3/5/2012;22:00:00;100;15 Minutes;;;;;;404;101;67.563;0;63;35;2;1;8.910;4.551;A;64.348;2.816;6.277;
040548FFDECBD021;IDS-07A -- ?????-????? (???????????) -- 1 -- None -- 77 -- 0 -- Solo Pro II MVP -- 172.26.2.147;113;Total;3/5/2012;22:00:00;100;15 Minutes;;;;;;204;102;67.301;0;64;35;2;1;255.996;2.297;A;63.988;1.426;3.188;
040548FFDECBD021;IDS-07A -- ?????-????? (???????????) -- 1 -- None -- 77 -- 0 -- Solo Pro II MVP -- 172.26.2.147;109;Lane 1;3/5/2012;22:15:00;100;15 Minutes;;;;;;28;7;62.426;0;4;2;0;0;128.570;0.227;A;19.168;0.164;1.457;
040548FFDECBD021;IDS-07A -- ?????-????? (???????????) -- 1 -- None -- 77 -- 0 -- Solo Pro II MVP -- 172.26.2.147;110;Lane 2;3/5/2012;22:15:00;100;15 Minutes;;;;;;336;84;63.402;0;55;28;0;0;10.711;3.422;A;60.398;2.234;5.563;
040548FFDECBD021;IDS-07A -- ?????-????? (???????????) -- 1 -- None -- 77 -- 0 -- Solo Pro II MVP -- 172.26.2.147;113;Total;3/5/2012;22:15:00;100;15 Minutes;;;;;;182;91;63.328;0;59;30;0;0;69.641;1.824;A;51.824;1.199;3.512;
040548FFDECBD021;IDS-07A -- ?????-????? (???????????) -- 1 -- None -- 77 -- 0 -- Solo Pro II MVP -- 172.26.2.147;109;Lane 1;3/5/2012;22:30:00;100;15 Minutes;;;;;;8;2;70.500;0;1;1;0;0;255.996;0.090;A;47.250;0.063;0.168;
040548FFDECBD021;IDS-07A -- ?????-????? (???????????) -- 1 -- None -- 77 -- 0 -- Solo Pro II MVP -- 172.26.2.147;110;Lane 2;3/5/2012;22:30:00;100;15 Minutes;;;;;;384;96;64.195;0;66;29;1;0;9.375;3.875;A;61.699;2.543;6.223;
040548FFDECBD021;IDS-07A -- ?????-????? (???????????) -- 1 -- None -- 77 -- 0 -- Solo Pro II MVP -- 172.26.2.147;113;Total;3/5/2012;22:30:00;100;15 Minutes;;;;;;196;98;64.324;0;67;30;1;0;229.688;1.980;A;61.316;1.305;3.195;
040548FFDECBD021;IDS-07A -- ?????-????? (???????????) -- 1 -- None -- 77 -- 0 -- Solo Pro II MVP -- 172.26.2.147;109;Lane 1;3/5/2012;22:45:00;100;15 Minutes;;;;;;4;1;39.000;0;0;1;0;0;255.996;0.051;A;39.008;0.051;0.102;
040548FFDECBD021;IDS-07A -- ?????-????? (???????????) -- 1 -- None -- 77 -- 0 -- Solo Pro II MVP -- 172.26.2.147;110;Lane 2;3/5/2012;22:45:00;100;15 Minutes;;;;;;344;86;65.418;0;60;25;0;1;10.465;3.461;A;63.215;2.332;5.441;
040548FFDECBD021;IDS-07A -- ?????-????? (???????????) -- 1 -- None -- 77 -- 0 -- Solo Pro II MVP -- 172.26.2.147;113;Total;3/5/2012;22:45:00;100;15 Minutes;;;;;;174;87;65.113;0;60;26;0;1;255.996;1.754;A;62.766;1.188;2.770;
040548FFDECBD021;IDS-07A -- ?????-????? (???????????) -- 1 -- None -- 77 -- 0 -- Solo Pro II MVP -- 172.26.2.147;109;Lane 1;3/5/2012;23:00:00;100;15 Minutes;;;;;;12;3;23.000;0;2;0;0;0;255.996;0.090;A;5.328;0.000;2.250;
040548FFDECBD021;IDS-07A -- ?????-????? (???????????) -- 1 -- None -- 77 -- 0 -- Solo Pro II MVP -- 172.26.2.147;110;Lane 2;3/5/2012;23:00:00;100;15 Minutes;;;;;;304;76;65.695;0;51;23;1;1;11.840;3.301;A;62.789;2.105;4.840;
040548FFDECBD021;IDS-07A -- ?????-????? (???????????) -- 1 -- None -- 77 -- 0 -- Solo Pro II MVP -- 172.26.2.147;113;Total;3/5/2012;23:00:00;100;15 Minutes;;;;;;158;79;64.074;0;53;23;1;1;155.918;1.695;A;44.551;1.102;3.543;
040548FFDECBD021;IDS-07A -- ?????-????? (???????????) -- 1 -- None -- 77 -- 0 -- Solo Pro II MVP -- 172.26.2.147;109;Lane 1;3/5/2012;23:15:00;100;15 Minutes;;;;;;0;0;0.000;0;0;0;0;0;255.996;0.000;A;0.000;100.000;0.000;
040548FFDECBD021;IDS-07A -- ?????-????? (???????????) -- 1 -- None -- 77 -- 0 -- Solo Pro II MVP -- 172.26.2.147;110;Lane 2;3/5/2012;23:15:00;100;15 Minutes;;;;;;316;79;66.098;0;52;27;0;0;11.391;3.328;A;62.984;2.055;5.016;
040548FFDECBD021;IDS-07A -- ?????-????? (???????????) -- 1 -- None -- 77 -- 0 -- Solo Pro II MVP -- 172.26.2.147;113;Total;3/5/2012;23:15:00;100;15 Minutes;;;;;;158;79;66.098;0;52;27;0;0;255.996;1.664;A;62.984;1.027;2.508;
040548FFDECBD021;IDS-07A -- ?????-????? (???????????) -- 1 -- None -- 77 -- 0 -- Solo Pro II MVP -- 172.26.2.147;109;Lane 1;3/5/2012;23:30:00;100;15 Minutes;;;;;;12;3;43.000;0;2;1;0;0;255.996;0.141;A;42.180;0.000;0.281;
040548FFDECBD021;IDS-07A -- ?????-????? (???????????) -- 1 -- None -- 77 -- 0 -- Solo Pro II MVP -- 172.26.2.147;110;Lane 2;3/5/2012;23:30:00;100;15 Minutes;;;;;;276;69;63.809;0;46;22;1;0;13.043;2.910;A;61.430;1.977;4.492;
040548FFDECBD021;IDS-07A -- ?????-????? (???????????) -- 1 -- None -- 77 -- 0 -- Solo Pro II MVP -- 172.26.2.147;113;Total;3/5/2012;23:30:00;100;15 Minutes;;;;;;144;72;62.941;0;48;23;1;0;156.520;1.523;A;60.281;1.051;2.387;
040548FFDECBD021;IDS-07A -- ?????-????? (???????????) -- 1 -- None -- 77 -- 0 -- Solo Pro II MVP -- 172.26.2.147;109;Lane 1;3/5/2012;23:45:00;100;15 Minutes;;;;;;20;5;43.199;0;3;2;0;0;180.000;0.340;A;42.285;0.219;0.473;
040548FFDECBD021;IDS-07A -- ?????-????? (???????????) -- 1 -- None -- 77 -- 0 -- Solo Pro II MVP -- 172.26.2.147;110;Lane 2;3/5/2012;23:45:00;100;15 Minutes;;;;;;252;63;61.063;0;40;22;1;0;14.285;2.980;A;57.418;1.828;4.387;
040548FFDECBD021;IDS-07A -- ?????-????? (???????????) -- 1 -- None -- 77 -- 0 -- Solo Pro II MVP -- 172.26.2.147;113;Total;3/5/2012;23:45:00;100;15 Minutes;;;;;;136;68;59.750;0;43;24;1;0;97.141;1.660;A;55.945;1.012;2.430;
