CPU Identifier;Autoscope Description;Detector ID;Detector Title;Date;Time;Status;Data Interval;Ticks (millisec.);State;Speed;Length;Class;Average Flow Rate;Volume;Arithmetic Mean Speed;Class A Count;Class B Count;Class C Count;Class D Count;Class E Count;Average Time Headway;Average Time Occupancy;Level Of Service;Space Mean Speed;Space Occupancy;Density;
040548FFC60BB521;IDS-12B -- ???????-????? -- 1 -- None -- 80 -- 0 -- Solo Pro II MVP -- 172.26.2.172;109;Lane 1;3/5/2012;0:00:00;100;15 Minutes;;;;;;260;65;93.781;0;49;11;1;4;13.844;2.277;A;89.777;1.750;2.895;
040548FFC60BB521;IDS-12B -- ???????-????? -- 1 -- None -- 80 -- 0 -- Solo Pro II MVP -- 172.26.2.172;110;Lane 2;3/5/2012;0:00:00;100;15 Minutes;;;;;;84;21;120.094;0;11;7;3;0;42.855;0.660;A;116.168;0.430;0.723;
040548FFC60BB521;IDS-12B -- ???????-????? -- 1 -- None -- 80 -- 0 -- Solo Pro II MVP -- 172.26.2.172;113;Total;3/5/2012;0:00:00;100;15 Minutes;;;;;;172;86;100.207;0;60;18;4;4;28.348;1.469;A;95.051;1.078;1.809;
040548FFC60BB521;IDS-12B -- ???????-????? -- 1 -- None -- 80 -- 0 -- Solo Pro II MVP -- 172.26.2.172;109;Lane 1;3/5/2012;0:15:00;100;15 Minutes;;;;;;244;61;95.672;0;43;16;2;0;14.754;2.141;A;92.930;1.449;2.625;
040548FFC60BB521;IDS-12B -- ???????-????? -- 1 -- None -- 80 -- 0 -- Solo Pro II MVP -- 172.26.2.172;110;Lane 2;3/5/2012;0:15:00;100;15 Minutes;;;;;;60;15;109.465;0;11;2;1;1;60.000;0.477;A;108.418;0.359;0.551;
040548FFC60BB521;IDS-12B -- ???????-????? -- 1 -- None -- 80 -- 0 -- Solo Pro II MVP -- 172.26.2.172;113;Total;3/5/2012;0:15:00;100;15 Minutes;;;;;;152;76;98.395;0;54;18;3;1;37.375;1.309;A;95.625;0.906;1.586;
040548FFC60BB521;IDS-12B -- ???????-????? -- 1 -- None -- 80 -- 0 -- Solo Pro II MVP -- 172.26.2.172;109;Lane 1;3/5/2012;0:30:00; 99;15 Minutes;;;;;;200;50;93.598;0;41;5;4;0;18.000;1.609;A;91.082;1.156;2.195;
040548FFC60BB521;IDS-12B -- ???????-????? -- 1 -- None -- 80 -- 0 -- Solo Pro II MVP -- 172.26.2.172;110;Lane 2;3/5/2012;0:30:00; 99;15 Minutes;;;;;;56;14;113.211;0;8;5;1;0;64.285;0.457;A;111.656;0.297;0.500;
040548FFC60BB521;IDS-12B -- ???????-????? -- 1 -- None -- 80 -- 0 -- Solo Pro II MVP -- 172.26.2.172;113;Total;3/5/2012;0:30:00; 99;15 Minutes;;;;;;128;64;97.891;0;49;10;5;0;41.141;1.031;A;94.906;0.727;1.348;
040548FFC60BB521;IDS-12B -- ???????-????? -- 1 -- None -- 80 -- 0 -- Solo Pro II MVP -- 172.26.2.172;109;Lane 1;3/5/2012;0:45:00;100;15 Minutes;;;;;;236;59;93.590;0;44;9;5;1;15.254;2.164;A;90.629;1.520;2.602;
040548FFC60BB521;IDS-12B -- ???????-????? -- 1 -- None -- 80 -- 0 -- Solo Pro II MVP -- 172.26.2.172;110;Lane 2;3/5/2012;0:45:00;100;15 Minutes;;;;;;116;29;105.723;0;21;6;2;0;31.031;0.871;A;103.762;0.629;1.117;
040548FFC60BB521;IDS-12B -- ???????-????? -- 1 -- None -- 80 -- 0 -- Solo Pro II MVP -- 172.26.2.172;113;Total;3/5/2012;0:45:00;100;15 Minutes;;;;;;176;88;97.590;0;65;15;7;1;23.141;1.516;A;94.574;1.070;1.859;
040548FFC60BB521;IDS-12B -- ???????-????? -- 1 -- None -- 80 -- 0 -- Solo Pro II MVP -- 172.26.2.172;109;Lane 1;3/5/2012;1:00:00;100;15 Minutes;;;;;;148;37;88.242;0;31;6;0;0;24.324;1.371;A;86.301;0.859;1.715;
040548FFC60BB521;IDS-12B -- ???????-????? -- 1 -- None -- 80 -- 0 -- Solo Pro II MVP -- 172.26.2.172;110;Lane 2;3/5/2012;1:00:00;100;15 Minutes;;;;;;68;17;108.820;0;10;5;2;0;52.938;0.523;A;107.051;0.402;0.633;
040548FFC60BB521;IDS-12B -- ???????-????? -- 1 -- None -- 80 -- 0 -- Solo Pro II MVP -- 172.26.2.172;113;Total;3/5/2012;1:00:00;100;15 Minutes;;;;;;108;54;94.719;0;41;11;2;0;38.629;0.945;A;91.910;0.633;1.172;
040548FFC60BB521;IDS-12B -- ???????-????? -- 1 -- None -- 80 -- 0 -- Solo Pro II MVP -- 172.26.2.172;109;Lane 1;3/5/2012;1:15:00;100;15 Minutes;;;;;;188;47;90.531;0;40;3;2;2;19.148;1.535;A;88.207;1.168;2.129;
040548FFC60BB521;IDS-12B -- ???????-????? -- 1 -- None -- 80 -- 0 -- Solo Pro II MVP -- 172.26.2.172;110;Lane 2;3/5/2012;1:15:00;100;15 Minutes;;;;;;36;9;113.219;0;6;1;2;0;100.000;0.273;A;109.711;0.211;0.328;
040548FFC60BB521;IDS-12B -- ???????-????? -- 1 -- None -- 80 -- 0 -- Solo Pro II MVP -- 172.26.2.172;113;Total;3/5/2012;1:15:00;100;15 Minutes;;;;;;112;56;94.176;0;46;4;4;2;59.574;0.902;A;91.078;0.688;1.227;
040548FFC60BB521;IDS-12B -- ???????-????? -- 1 -- None -- 80 -- 0 -- Solo Pro II MVP -- 172.26.2.172;109;Lane 1;3/5/2012;1:30:00;100;15 Minutes;;;;;;184;46;88.848;0;40;6;0;0;19.563;1.625;A;87.094;1.070;2.109;
040548FFC60BB521;IDS-12B -- ???????-????? -- 1 -- None -- 80 -- 0 -- Solo Pro II MVP -- 172.26.2.172;110;Lane 2;3/5/2012;1:30:00;100;15 Minutes;;;;;;36;9;125.109;0;3;4;2;0;100.000;0.250;A;123.574;0.184;0.289;
040548FFC60BB521;IDS-12B -- ???????-????? -- 1 -- None -- 80 -- 0 -- Solo Pro II MVP -- 172.26.2.172;113;Total;3/5/2012;1:30:00;100;15 Minutes;;;;;;110;55;94.781;0;43;10;2;0;59.781;0.938;A;91.516;0.621;1.199;
040548FFC60BB521;IDS-12B -- ???????-????? -- 1 -- None -- 80 -- 0 -- Solo Pro II MVP -- 172.26.2.172;109;Lane 1;3/5/2012;1:45:00;100;15 Minutes;;;;;;200;50;87.117;0;41;7;1;0;18.000;1.715;A;84.750;1.141;2.359;
040548FFC60BB521;IDS-12B -- ???????-????? -- 1 -- None -- 80 -- 0 -- Solo Pro II MVP -- 172.26.2.172;110;Lane 2;3/5/2012;1:45:00;100;15 Minutes;;;;;;44;11;116.543;0;10;1;0;0;81.816;0.367;A;115.602;0.207;0.379;
040548FFC60BB521;IDS-12B -- ???????-????? -- 1 -- None -- 80 -- 0 -- Solo Pro II MVP -- 172.26.2.172;113;Total;3/5/2012;1:45:00;100;15 Minutes;;;;;;122;61;92.426;0;51;8;1;0;49.906;1.039;A;89.035;0.668;1.367;
040548FFC60BB521;IDS-12B -- ???????-????? -- 1 -- None -- 80 -- 0 -- Solo Pro II MVP -- 172.26.2.172;109;Lane 1;3/5/2012;2:00:00;100;15 Minutes;;;;;;148;37;90.188;0;31;2;1;3;24.324;1.270;A;86.980;1.016;1.699;
040548FFC60BB521;IDS-12B -- ???????-????? -- 1 -- None -- 80 -- 0 -- Solo Pro II MVP -- 172.26.2.172;110;Lane 2;3/5/2012;2:00:00;100;15 Minutes;;;;;;40;10;116.699;0;7;2;1;0;90.000;0.340;A;114.953;0.195;0.348;
040548FFC60BB521;IDS-12B -- ???????-????? -- 1 -- None -- 80 -- 0 -- Solo Pro II MVP -- 172.26.2.172;113;Total;3/5/2012;2:00:00;100;15 Minutes;;;;;;94;47;95.828;0;38;4;2;3;57.160;0.805;A;91.730;0.598;1.023;
040548FFC60BB521;IDS-12B -- ???????-????? -- 1 -- None -- 80 -- 0 -- Solo Pro II MVP -- 172.26.2.172;109;Lane 1;3/5/2012;2:15:00;100;15 Minutes;;;;;;172;43;88.625;0;32;7;3;1;20.930;1.453;A;85.203;1.168;2.016;
040548FFC60BB521;IDS-12B -- ???????-????? -- 1 -- None -- 80 -- 0 -- Solo Pro II MVP -- 172.26.2.172;110;Lane 2;3/5/2012;2:15:00;100;15 Minutes;;;;;;52;13;101.383;0;9;1;2;1;69.230;0.449;A;97.453;0.367;0.531;
040548FFC60BB521;IDS-12B -- ???????-????? -- 1 -- None -- 80 -- 0 -- Solo Pro II MVP -- 172.26.2.172;113;Total;3/5/2012;2:15:00;100;15 Minutes;;;;;;112;56;91.586;0;41;8;5;2;45.078;0.949;A;87.766;0.766;1.273;
040548FFC60BB521;IDS-12B -- ???????-????? -- 1 -- None -- 80 -- 0 -- Solo Pro II MVP -- 172.26.2.172;109;Lane 1;3/5/2012;2:30:00;100;15 Minutes;;;;;;144;36;90.637;0;26;8;2;0;25.000;1.270;A;88.402;0.922;1.629;
040548FFC60BB521;IDS-12B -- ???????-????? -- 1 -- None -- 80 -- 0 -- Solo Pro II MVP -- 172.26.2.172;110;Lane 2;3/5/2012;2:30:00;100;15 Minutes;;;;;;32;8;106.125;0;4;2;2;0;112.500;0.266;A;105.680;0.238;0.301;
040548FFC60BB521;IDS-12B -- ???????-????? -- 1 -- None -- 80 -- 0 -- Solo Pro II MVP -- 172.26.2.172;113;Total;3/5/2012;2:30:00;100;15 Minutes;;;;;;88;44;93.453;0;30;10;4;0;68.750;0.766;A;91.113;0.582;0.965;
040548FFC60BB521;IDS-12B -- ???????-????? -- 1 -- None -- 80 -- 0 -- Solo Pro II MVP -- 172.26.2.172;109;Lane 1;3/5/2012;2:45:00;100;15 Minutes;;;;;;152;38;92.340;0;29;5;2;2;23.684;1.215;A;89.434;0.996;1.699;
040548FFC60BB521;IDS-12B -- ???????-????? -- 1 -- None -- 80 -- 0 -- Solo Pro II MVP -- 172.26.2.172;110;Lane 2;3/5/2012;2:45:00;100;15 Minutes;;;;;;28;7;113.570;0;5;2;0;0;128.570;0.230;A;112.906;0.141;0.246;
040548FFC60BB521;IDS-12B -- ???????-????? -- 1 -- None -- 80 -- 0 -- Solo Pro II MVP -- 172.26.2.172;113;Total;3/5/2012;2:45:00;100;15 Minutes;;;;;;90;45;95.641;0;34;7;2;2;76.125;0.723;A;92.422;0.563;0.973;
040548FFC60BB521;IDS-12B -- ???????-????? -- 1 -- None -- 80 -- 0 -- Solo Pro II MVP -- 172.26.2.172;109;Lane 1;3/5/2012;3:00:00;100;15 Minutes;;;;;;156;39;87.152;0;27;7;5;0;23.074;1.512;A;84.453;1.012;1.844;
040548FFC60BB521;IDS-12B -- ???????-????? -- 1 -- None -- 80 -- 0 -- Solo Pro II MVP -- 172.26.2.172;110;Lane 2;3/5/2012;3:00:00;100;15 Minutes;;;;;;36;9;110.332;0;3;3;2;1;100.000;0.238;A;106.523;0.000;0.336;
040548FFC60BB521;IDS-12B -- ???????-????? -- 1 -- None -- 80 -- 0 -- Solo Pro II MVP -- 172.26.2.172;113;Total;3/5/2012;3:00:00;100;15 Minutes;;;;;;96;48;91.500;0;30;10;7;1;61.535;0.875;A;87.867;0.629;1.090;
040548FFC60BB521;IDS-12B -- ???????-????? -- 1 -- None -- 80 -- 0 -- Solo Pro II MVP -- 172.26.2.172;109;Lane 1;3/5/2012;3:15:00;100;15 Minutes;;;;;;172;43;97.488;0;28;6;6;3;20.930;1.484;A;93.500;1.121;1.836;
040548FFC60BB521;IDS-12B -- ???????-????? -- 1 -- None -- 80 -- 0 -- Solo Pro II MVP -- 172.26.2.172;110;Lane 2;3/5/2012;3:15:00;100;15 Minutes;;;;;;64;16;110.813;0;12;3;1;0;56.250;0.473;A;109.090;0.336;0.586;
040548FFC60BB521;IDS-12B -- ???????-????? -- 1 -- None -- 80 -- 0 -- Solo Pro II MVP -- 172.26.2.172;113;Total;3/5/2012;3:15:00;100;15 Minutes;;;;;;118;59;101.102;0;40;9;7;3;38.590;0.977;A;97.270;0.723;1.211;
040548FFC60BB521;IDS-12B -- ???????-????? -- 1 -- None -- 80 -- 0 -- Solo Pro II MVP -- 172.26.2.172;109;Lane 1;3/5/2012;3:30:00;100;15 Minutes;;;;;;156;39;90.512;0;32;6;0;0;23.074;1.336;A;88.488;0.879;1.762;
040548FFC60BB521;IDS-12B -- ???????-????? -- 1 -- None -- 80 -- 0 -- Solo Pro II MVP -- 172.26.2.172;110;Lane 2;3/5/2012;3:30:00;100;15 Minutes;;;;;;56;14;113.500;0;9;1;3;1;64.285;0.441;A;110.676;0.402;0.504;
040548FFC60BB521;IDS-12B -- ???????-????? -- 1 -- None -- 80 -- 0 -- Solo Pro II MVP -- 172.26.2.172;113;Total;3/5/2012;3:30:00;100;15 Minutes;;;;;;106;53;96.582;0;41;7;3;1;43.680;0.887;A;93.438;0.648;1.133;
040548FFC60BB521;IDS-12B -- ???????-????? -- 1 -- None -- 80 -- 0 -- Solo Pro II MVP -- 172.26.2.172;109;Lane 1;3/5/2012;3:45:00;100;15 Minutes;;;;;;196;49;92.836;0;39;7;2;1;18.367;1.691;A;90.152;1.191;2.172;
040548FFC60BB521;IDS-12B -- ???????-????? -- 1 -- None -- 80 -- 0 -- Solo Pro II MVP -- 172.26.2.172;110;Lane 2;3/5/2012;3:45:00;100;15 Minutes;;;;;;36;9;104.109;0;9;0;0;0;100.000;0.289;A;103.113;0.176;0.348;
040548FFC60BB521;IDS-12B -- ???????-????? -- 1 -- None -- 80 -- 0 -- Solo Pro II MVP -- 172.26.2.172;113;Total;3/5/2012;3:45:00;100;15 Minutes;;;;;;116;58;94.586;0;48;7;2;1;59.184;0.988;A;91.945;0.684;1.258;
040548FFC60BB521;IDS-12B -- ???????-????? -- 1 -- None -- 80 -- 0 -- Solo Pro II MVP -- 172.26.2.172;109;Lane 1;3/5/2012;4:00:00;100;15 Minutes;;;;;;252;63;91.000;0;42;15;3;2;14.285;2.141;A;87.410;1.695;2.883;
040548FFC60BB521;IDS-12B -- ???????-????? -- 1 -- None -- 80 -- 0 -- Solo Pro II MVP -- 172.26.2.172;110;Lane 2;3/5/2012;4:00:00;100;15 Minutes;;;;;;60;15;112.598;0;10;4;1;0;60.000;0.441;A;110.082;0.305;0.543;
040548FFC60BB521;IDS-12B -- ???????-????? -- 1 -- None -- 80 -- 0 -- Solo Pro II MVP -- 172.26.2.172;113;Total;3/5/2012;4:00:00;100;15 Minutes;;;;;;156;78;95.152;0;52;19;4;2;37.141;1.289;A;91.016;0.992;1.711;
040548FFC60BB521;IDS-12B -- ???????-????? -- 1 -- None -- 80 -- 0 -- Solo Pro II MVP -- 172.26.2.172;109;Lane 1;3/5/2012;4:15:00;100;15 Minutes;;;;;;208;52;88.266;0;45;5;1;1;17.305;1.816;A;85.531;1.266;2.430;
040548FFC60BB521;IDS-12B -- ???????-????? -- 1 -- None -- 80 -- 0 -- Solo Pro II MVP -- 172.26.2.172;110;Lane 2;3/5/2012;4:15:00;100;15 Minutes;;;;;;116;29;114.824;0;20;6;3;0;31.031;0.930;A;110.754;0.621;1.047;
040548FFC60BB521;IDS-12B -- ???????-????? -- 1 -- None -- 80 -- 0 -- Solo Pro II MVP -- 172.26.2.172;113;Total;3/5/2012;4:15:00;100;15 Minutes;;;;;;162;81;97.777;0;65;11;4;1;24.168;1.371;A;93.125;0.934;1.738;
040548FFC60BB521;IDS-12B -- ???????-????? -- 1 -- None -- 80 -- 0 -- Solo Pro II MVP -- 172.26.2.172;109;Lane 1;3/5/2012;4:30:00;100;15 Minutes;;;;;;240;60;85.613;0;50;7;2;0;15.000;2.191;A;83.512;1.484;2.871;
040548FFC60BB521;IDS-12B -- ???????-????? -- 1 -- None -- 80 -- 0 -- Solo Pro II MVP -- 172.26.2.172;110;Lane 2;3/5/2012;4:30:00;100;15 Minutes;;;;;;80;20;110.250;0;14;4;1;1;45.000;0.695;A;108.879;0.492;0.734;
040548FFC60BB521;IDS-12B -- ???????-????? -- 1 -- None -- 80 -- 0 -- Solo Pro II MVP -- 172.26.2.172;113;Total;3/5/2012;4:30:00;100;15 Minutes;;;;;;160;80;91.773;0;64;11;3;1;30.000;1.441;A;88.676;0.988;1.801;
040548FFC60BB521;IDS-12B -- ???????-????? -- 1 -- None -- 80 -- 0 -- Solo Pro II MVP -- 172.26.2.172;109;Lane 1;3/5/2012;4:45:00;100;15 Minutes;;;;;;264;66;86.363;0;53;8;4;0;13.633;2.367;A;84.266;1.586;3.133;
040548FFC60BB521;IDS-12B -- ???????-????? -- 1 -- None -- 80 -- 0 -- Solo Pro II MVP -- 172.26.2.172;110;Lane 2;3/5/2012;4:45:00;100;15 Minutes;;;;;;152;38;107.000;0;25;8;3;2;23.684;1.289;A;104.355;0.910;1.453;
040548FFC60BB521;IDS-12B -- ???????-????? -- 1 -- None -- 80 -- 0 -- Solo Pro II MVP -- 172.26.2.172;113;Total;3/5/2012;4:45:00;100;15 Minutes;;;;;;208;104;93.902;0;78;16;7;2;18.656;1.828;A;90.641;1.250;2.293;
040548FFC60BB521;IDS-12B -- ???????-????? -- 1 -- None -- 80 -- 0 -- Solo Pro II MVP -- 172.26.2.172;109;Lane 1;3/5/2012;5:00:00;100;15 Minutes;;;;;;344;86;93.090;0;67;14;4;1;10.465;2.945;A;89.707;2.098;3.832;
040548FFC60BB521;IDS-12B -- ???????-????? -- 1 -- None -- 80 -- 0 -- Solo Pro II MVP -- 172.26.2.172;110;Lane 2;3/5/2012;5:00:00;100;15 Minutes;;;;;;144;36;112.027;0;23;8;4;1;25.000;1.164;A;109.469;0.824;1.313;
040548FFC60BB521;IDS-12B -- ???????-????? -- 1 -- None -- 80 -- 0 -- Solo Pro II MVP -- 172.26.2.172;113;Total;3/5/2012;5:00:00;100;15 Minutes;;;;;;244;122;98.680;0;90;22;8;2;17.730;2.055;A;94.754;1.457;2.574;
040548FFC60BB521;IDS-12B -- ???????-????? -- 1 -- None -- 80 -- 0 -- Solo Pro II MVP -- 172.26.2.172;109;Lane 1;3/5/2012;5:15:00;100;15 Minutes;;;;;;364;91;86.680;0;82;7;1;0;9.887;3.441;A;84.223;2.047;4.320;
040548FFC60BB521;IDS-12B -- ???????-????? -- 1 -- None -- 80 -- 0 -- Solo Pro II MVP -- 172.26.2.172;110;Lane 2;3/5/2012;5:15:00;100;15 Minutes;;;;;;204;51;108.215;0;34;12;5;0;17.645;1.609;A;106.586;1.129;1.910;
040548FFC60BB521;IDS-12B -- ???????-????? -- 1 -- None -- 80 -- 0 -- Solo Pro II MVP -- 172.26.2.172;113;Total;3/5/2012;5:15:00;100;15 Minutes;;;;;;284;142;94.414;0;116;19;6;0;13.766;2.523;A;91.086;1.586;3.117;
040548FFC60BB521;IDS-12B -- ???????-????? -- 1 -- None -- 80 -- 0 -- Solo Pro II MVP -- 172.26.2.172;109;Lane 1;3/5/2012;5:30:00;100;15 Minutes;;;;;;444;111;90.809;0;95;9;6;1;8.105;3.859;A;88.273;2.598;5.027;
040548FFC60BB521;IDS-12B -- ???????-????? -- 1 -- None -- 80 -- 0 -- Solo Pro II MVP -- 172.26.2.172;110;Lane 2;3/5/2012;5:30:00;100;15 Minutes;;;;;;248;62;107.047;0;43;13;4;2;14.516;2.203;A;105.445;1.492;2.352;
040548FFC60BB521;IDS-12B -- ???????-????? -- 1 -- None -- 80 -- 0 -- Solo Pro II MVP -- 172.26.2.172;113;Total;3/5/2012;5:30:00;100;15 Minutes;;;;;;346;173;96.629;0;138;22;10;3;11.309;3.031;A;93.746;2.047;3.688;
040548FFC60BB521;IDS-12B -- ???????-????? -- 1 -- None -- 80 -- 0 -- Solo Pro II MVP -- 172.26.2.172;109;Lane 1;3/5/2012;5:45:00;100;15 Minutes;;;;;;448;112;95.176;0;97;10;3;2;8.035;4.129;A;92.809;2.449;4.824;
040548FFC60BB521;IDS-12B -- ???????-????? -- 1 -- None -- 80 -- 0 -- Solo Pro II MVP -- 172.26.2.172;110;Lane 2;3/5/2012;5:45:00;100;15 Minutes;;;;;;288;72;115.469;0;59;7;5;1;12.500;2.184;A;113.891;1.363;2.527;
040548FFC60BB521;IDS-12B -- ???????-????? -- 1 -- None -- 80 -- 0 -- Solo Pro II MVP -- 172.26.2.172;113;Total;3/5/2012;5:45:00;100;15 Minutes;;;;;;368;184;103.117;0;156;17;8;3;10.266;3.156;A;100.055;1.891;3.676;
040548FFC60BB521;IDS-12B -- ???????-????? -- 1 -- None -- 80 -- 0 -- Solo Pro II MVP -- 172.26.2.172;109;Lane 1;3/5/2012;6:00:00;100;15 Minutes;;;;;;556;139;102.336;0;131;5;1;0;6.473;3.961;A;100.746;2.512;5.516;
040548FFC60BB521;IDS-12B -- ???????-????? -- 1 -- None -- 80 -- 0 -- Solo Pro II MVP -- 172.26.2.172;110;Lane 2;3/5/2012;6:00:00;100;15 Minutes;;;;;;276;69;119.504;0;66;3;0;0;13.043;1.746;A;116.199;1.090;2.375;
040548FFC60BB521;IDS-12B -- ???????-????? -- 1 -- None -- 80 -- 0 -- Solo Pro II MVP -- 172.26.2.172;113;Total;3/5/2012;6:00:00;100;15 Minutes;;;;;;416;208;108.031;0;197;8;1;0;9.758;2.852;A;105.395;1.793;3.945;
040548FFC60BB521;IDS-12B -- ???????-????? -- 1 -- None -- 80 -- 0 -- Solo Pro II MVP -- 172.26.2.172;109;Lane 1;3/5/2012;6:15:00;100;15 Minutes;;;;;;652;163;102.453;0;158;3;0;2;5.520;4.781;A;100.875;3.109;6.461;
040548FFC60BB521;IDS-12B -- ???????-????? -- 1 -- None -- 80 -- 0 -- Solo Pro II MVP -- 172.26.2.172;110;Lane 2;3/5/2012;6:15:00;100;15 Minutes;;;;;;472;118;121.379;0;113;4;0;0;7.625;2.898;A;120.199;1.699;3.926;
040548FFC60BB521;IDS-12B -- ???????-????? -- 1 -- None -- 80 -- 0 -- Solo Pro II MVP -- 172.26.2.172;113;Total;3/5/2012;6:15:00;100;15 Minutes;;;;;;562;281;110.398;0;271;7;0;2;6.570;3.840;A;108.336;2.379;5.188;
040548FFC60BB521;IDS-12B -- ???????-????? -- 1 -- None -- 80 -- 0 -- Solo Pro II MVP -- 172.26.2.172;109;Lane 1;3/5/2012;6:30:00;100;15 Minutes;;;;;;748;187;102.699;0;179;5;0;0;4.813;5.520;A;101.355;3.305;7.379;
040548FFC60BB521;IDS-12B -- ???????-????? -- 1 -- None -- 80 -- 0 -- Solo Pro II MVP -- 172.26.2.172;110;Lane 2;3/5/2012;6:30:00;100;15 Minutes;;;;;;724;181;123.793;0;173;6;1;0;4.969;4.551;A;122.945;2.668;5.887;
040548FFC60BB521;IDS-12B -- ???????-????? -- 1 -- None -- 80 -- 0 -- Solo Pro II MVP -- 172.26.2.172;113;Total;3/5/2012;6:30:00;100;15 Minutes;;;;;;736;368;113.074;0;352;11;1;0;4.891;5.035;A;110.961;2.961;6.633;
040548FFC60BB521;IDS-12B -- ???????-????? -- 1 -- None -- 80 -- 0 -- Solo Pro II MVP -- 172.26.2.172;109;Lane 1;3/5/2012;6:45:00;100;15 Minutes;;;;;;860;215;99.691;0;205;7;2;1;4.184;7.227;A;98.621;4.086;8.719;
040548FFC60BB521;IDS-12B -- ???????-????? -- 1 -- None -- 80 -- 0 -- Solo Pro II MVP -- 172.26.2.172;110;Lane 2;3/5/2012;6:45:00;100;15 Minutes;;;;;;1064;266;119.598;0;248;9;5;4;3.383;8.074;A;118.840;4.285;8.953;
040548FFC60BB521;IDS-12B -- ???????-????? -- 1 -- None -- 80 -- 0 -- Solo Pro II MVP -- 172.26.2.172;113;Total;3/5/2012;6:45:00;100;15 Minutes;;;;;;962;481;110.699;0;453;16;7;5;3.781;7.648;A;108.871;4.156;8.836;
040548FFC60BB521;IDS-12B -- ???????-????? -- 1 -- None -- 80 -- 0 -- Solo Pro II MVP -- 172.26.2.172;109;Lane 1;3/5/2012;7:00:00;100;15 Minutes;;;;;;1056;264;101.434;0;245;12;5;2;3.406;9.703;A;99.680;4.855;10.594;
040548FFC60BB521;IDS-12B -- ???????-????? -- 1 -- None -- 80 -- 0 -- Solo Pro II MVP -- 172.26.2.172;110;Lane 2;3/5/2012;7:00:00;100;15 Minutes;;;;;;1372;343;118.336;0;332;5;4;2;2.621;11.223;A;117.547;5.805;11.672;
040548FFC60BB521;IDS-12B -- ???????-????? -- 1 -- None -- 80 -- 0 -- Solo Pro II MVP -- 172.26.2.172;113;Total;3/5/2012;7:00:00;100;15 Minutes;;;;;;1214;607;110.984;0;577;17;9;4;3.012;10.461;A;109.047;5.313;11.133;
040548FFC60BB521;IDS-12B -- ???????-????? -- 1 -- None -- 80 -- 0 -- Solo Pro II MVP -- 172.26.2.172;109;Lane 1;3/5/2012;7:15:00;100;15 Minutes;;;;;;1220;305;99.570;0;288;12;1;3;2.949;10.426;A;98.461;5.852;12.391;
040548FFC60BB521;IDS-12B -- ???????-????? -- 1 -- None -- 80 -- 0 -- Solo Pro II MVP -- 172.26.2.172;110;Lane 2;3/5/2012;7:15:00;100;15 Minutes;;;;;;1572;393;115.105;0;364;21;6;2;2.289;12.363;A;114.586;6.605;13.719;
040548FFC60BB521;IDS-12B -- ???????-????? -- 1 -- None -- 80 -- 0 -- Solo Pro II MVP -- 172.26.2.172;113;Total;3/5/2012;7:15:00;100;15 Minutes;;;;;;1396;698;108.316;0;652;33;7;5;2.617;11.395;A;106.867;6.199;13.063;
040548FFC60BB521;IDS-12B -- ???????-????? -- 1 -- None -- 80 -- 0 -- Solo Pro II MVP -- 172.26.2.172;109;Lane 1;3/5/2012;7:30:00;100;15 Minutes;;;;;;1348;337;97.805;0;328;6;0;3;2.668;11.668;A;96.605;6.164;13.953;
040548FFC60BB521;IDS-12B -- ???????-????? -- 1 -- None -- 80 -- 0 -- Solo Pro II MVP -- 172.26.2.172;110;Lane 2;3/5/2012;7:30:00;100;15 Minutes;;;;;;1836;459;111.273;0;438;17;2;2;1.957;14.684;A;110.539;7.414;16.609;
040548FFC60BB521;IDS-12B -- ???????-????? -- 1 -- None -- 80 -- 0 -- Solo Pro II MVP -- 172.26.2.172;113;Total;3/5/2012;7:30:00;100;15 Minutes;;;;;;1592;796;105.570;0;766;23;2;5;2.313;13.176;A;104.180;6.762;15.281;
040548FFC60BB521;IDS-12B -- ???????-????? -- 1 -- None -- 80 -- 0 -- Solo Pro II MVP -- 172.26.2.172;109;Lane 1;3/5/2012;7:45:00;100;15 Minutes;;;;;;1304;326;97.566;0;318;5;2;1;2.758;11.688;A;96.367;5.371;13.531;
040548FFC60BB521;IDS-12B -- ???????-????? -- 1 -- None -- 80 -- 0 -- Solo Pro II MVP -- 172.26.2.172;110;Lane 2;3/5/2012;7:45:00;100;15 Minutes;;;;;;1860;465;111.301;0;451;10;3;1;1.934;14.422;A;110.629;6.691;16.813;
040548FFC60BB521;IDS-12B -- ???????-????? -- 1 -- None -- 80 -- 0 -- Solo Pro II MVP -- 172.26.2.172;113;Total;3/5/2012;7:45:00;100;15 Minutes;;;;;;1582;791;105.641;0;769;15;5;2;2.344;13.055;A;104.215;6.004;15.180;
040548FFC60BB521;IDS-12B -- ???????-????? -- 1 -- None -- 80 -- 0 -- Solo Pro II MVP -- 172.26.2.172;109;Lane 1;3/5/2012;8:00:00;100;15 Minutes;;;;;;1340;335;97.773;0;314;18;3;0;2.684;11.477;A;96.793;5.836;13.844;
040548FFC60BB521;IDS-12B -- ???????-????? -- 1 -- None -- 80 -- 0 -- Solo Pro II MVP -- 172.26.2.172;110;Lane 2;3/5/2012;8:00:00;100;15 Minutes;;;;;;1816;454;111.785;0;405;45;4;0;1.980;13.602;A;111.324;6.680;16.313;
040548FFC60BB521;IDS-12B -- ???????-????? -- 1 -- None -- 80 -- 0 -- Solo Pro II MVP -- 172.26.2.172;113;Total;3/5/2012;8:00:00;100;15 Minutes;;;;;;1578;789;105.836;0;719;63;7;0;2.332;12.539;A;104.598;6.223;15.086;
040548FFC60BB521;IDS-12B -- ???????-????? -- 1 -- None -- 80 -- 0 -- Solo Pro II MVP -- 172.26.2.172;109;Lane 1;3/5/2012;8:15:00;100;15 Minutes;;;;;;1296;324;96.477;0;304;14;2;4;2.777;11.215;A;95.336;6.121;13.594;
040548FFC60BB521;IDS-12B -- ???????-????? -- 1 -- None -- 80 -- 0 -- Solo Pro II MVP -- 172.26.2.172;110;Lane 2;3/5/2012;8:15:00;100;15 Minutes;;;;;;1828;457;111.809;0;419;34;4;0;1.969;13.316;A;111.313;7.121;16.422;
040548FFC60BB521;IDS-12B -- ???????-????? -- 1 -- None -- 80 -- 0 -- Solo Pro II MVP -- 172.26.2.172;113;Total;3/5/2012;8:15:00;100;15 Minutes;;;;;;1562;781;105.449;0;723;48;6;4;2.371;12.266;A;104.078;6.578;15.008;
040548FFC60BB521;IDS-12B -- ???????-????? -- 1 -- None -- 80 -- 0 -- Solo Pro II MVP -- 172.26.2.172;109;Lane 1;3/5/2012;8:30:00;100;15 Minutes;;;;;;1340;335;97.781;0;317;16;2;0;2.684;11.230;A;96.465;6.141;13.891;
040548FFC60BB521;IDS-12B -- ???????-????? -- 1 -- None -- 80 -- 0 -- Solo Pro II MVP -- 172.26.2.172;110;Lane 2;3/5/2012;8:30:00;100;15 Minutes;;;;;;1772;443;111.336;0;407;32;0;3;2.031;12.977;A;110.211;7.148;16.078;
040548FFC60BB521;IDS-12B -- ???????-????? -- 1 -- None -- 80 -- 0 -- Solo Pro II MVP -- 172.26.2.172;113;Total;3/5/2012;8:30:00;100;15 Minutes;;;;;;1556;778;105.500;0;724;48;2;3;2.355;12.102;A;103.785;6.617;14.992;
040548FFC60BB521;IDS-12B -- ???????-????? -- 1 -- None -- 80 -- 0 -- Solo Pro II MVP -- 172.26.2.172;109;Lane 1;3/5/2012;8:45:00;100;15 Minutes;;;;;;1316;329;100.277;0;306;22;0;1;2.734;10.941;A;98.969;6.105;13.297;
040548FFC60BB521;IDS-12B -- ???????-????? -- 1 -- None -- 80 -- 0 -- Solo Pro II MVP -- 172.26.2.172;110;Lane 2;3/5/2012;8:45:00;100;15 Minutes;;;;;;1636;409;114.449;0;358;44;6;1;2.199;11.641;A;113.438;6.648;14.422;
040548FFC60BB521;IDS-12B -- ???????-????? -- 1 -- None -- 80 -- 0 -- Solo Pro II MVP -- 172.26.2.172;113;Total;3/5/2012;8:45:00;100;15 Minutes;;;;;;1476;738;108.133;0;664;66;6;2;2.465;11.289;A;106.496;6.348;13.859;
040548FFC60BB521;IDS-12B -- ???????-????? -- 1 -- None -- 80 -- 0 -- Solo Pro II MVP -- 172.26.2.172;109;Lane 1;3/5/2012;9:00:00;100;15 Minutes;;;;;;1300;325;94.559;0;310;9;0;3;2.766;10.359;A;93.586;6.313;13.891;
040548FFC60BB521;IDS-12B -- ???????-????? -- 1 -- None -- 80 -- 0 -- Solo Pro II MVP -- 172.26.2.172;110;Lane 2;3/5/2012;9:00:00;100;15 Minutes;;;;;;1584;396;108.914;0;365;23;5;1;2.270;10.727;A;107.730;6.621;14.703;
040548FFC60BB521;IDS-12B -- ???????-????? -- 1 -- None -- 80 -- 0 -- Solo Pro II MVP -- 172.26.2.172;113;Total;3/5/2012;9:00:00;100;15 Minutes;;;;;;1442;721;102.441;0;675;32;5;4;2.516;10.543;A;100.859;6.434;14.297;
040548FFC60BB521;IDS-12B -- ???????-????? -- 1 -- None -- 80 -- 0 -- Solo Pro II MVP -- 172.26.2.172;109;Lane 1;3/5/2012;9:15:00;100;15 Minutes;;;;;;1132;283;93.000;0;278;2;1;0;3.180;7.883;A;91.820;5.266;12.328;
040548FFC60BB521;IDS-12B -- ???????-????? -- 1 -- None -- 80 -- 0 -- Solo Pro II MVP -- 172.26.2.172;110;Lane 2;3/5/2012;9:15:00;100;15 Minutes;;;;;;1288;322;107.285;0;316;3;2;0;2.793;8.063;A;105.816;5.395;12.172;
040548FFC60BB521;IDS-12B -- ???????-????? -- 1 -- None -- 80 -- 0 -- Solo Pro II MVP -- 172.26.2.172;113;Total;3/5/2012;9:15:00;100;15 Minutes;;;;;;1210;605;100.602;0;594;5;3;0;2.984;7.973;A;98.711;5.309;12.258;
040548FFC60BB521;IDS-12B -- ???????-????? -- 1 -- None -- 80 -- 0 -- Solo Pro II MVP -- 172.26.2.172;109;Lane 1;3/5/2012;9:30:00;100;15 Minutes;;;;;;1160;290;92.523;0;281;6;0;3;3.102;8.359;A;91.313;5.746;12.703;
040548FFC60BB521;IDS-12B -- ???????-????? -- 1 -- None -- 80 -- 0 -- Solo Pro II MVP -- 172.26.2.172;110;Lane 2;3/5/2012;9:30:00;100;15 Minutes;;;;;;1448;362;108.762;0;346;7;0;1;2.484;9.125;A;107.383;5.789;13.484;
040548FFC60BB521;IDS-12B -- ???????-????? -- 1 -- None -- 80 -- 0 -- Solo Pro II MVP -- 172.26.2.172;113;Total;3/5/2012;9:30:00;100;15 Minutes;;;;;;1304;652;101.539;0;627;13;0;4;2.793;8.742;A;99.527;5.719;13.102;
040548FFC60BB521;IDS-12B -- ???????-????? -- 1 -- None -- 80 -- 0 -- Solo Pro II MVP -- 172.26.2.172;109;Lane 1;3/5/2012;9:45:00;100;15 Minutes;;;;;;1164;291;92.660;0;283;5;0;3;3.090;9.285;A;91.402;5.914;12.734;
040548FFC60BB521;IDS-12B -- ???????-????? -- 1 -- None -- 80 -- 0 -- Solo Pro II MVP -- 172.26.2.172;110;Lane 2;3/5/2012;9:45:00;100;15 Minutes;;;;;;1380;345;107.133;0;336;8;0;0;2.605;9.176;A;106.152;5.750;13.000;
040548FFC60BB521;IDS-12B -- ???????-????? -- 1 -- None -- 80 -- 0 -- Solo Pro II MVP -- 172.26.2.172;113;Total;3/5/2012;9:45:00;100;15 Minutes;;;;;;1272;636;100.512;0;619;13;0;3;2.848;9.230;A;98.855;5.789;12.867;
040548FFC60BB521;IDS-12B -- ???????-????? -- 1 -- None -- 80 -- 0 -- Solo Pro II MVP -- 172.26.2.172;109;Lane 1;3/5/2012;10:00:00;100;15 Minutes;;;;;;1132;283;94.813;0;279;2;1;1;3.180;8.797;A;93.480;5.391;12.109;
040548FFC60BB521;IDS-12B -- ???????-????? -- 1 -- None -- 80 -- 0 -- Solo Pro II MVP -- 172.26.2.172;110;Lane 2;3/5/2012;10:00:00;100;15 Minutes;;;;;;1264;316;111.531;0;309;7;0;0;2.848;8.414;A;110.965;5.109;11.391;
040548FFC60BB521;IDS-12B -- ???????-????? -- 1 -- None -- 80 -- 0 -- Solo Pro II MVP -- 172.26.2.172;113;Total;3/5/2012;10:00:00;100;15 Minutes;;;;;;1198;599;103.633;0;588;9;1;1;3.012;8.605;A;101.887;5.215;11.758;
040548FFC60BB521;IDS-12B -- ???????-????? -- 1 -- None -- 80 -- 0 -- Solo Pro II MVP -- 172.26.2.172;109;Lane 1;3/5/2012;10:15:00;100;15 Minutes;;;;;;1140;285;92.918;0;274;5;2;4;3.156;9.668;A;92.004;6.121;12.391;
040548FFC60BB521;IDS-12B -- ???????-????? -- 1 -- None -- 80 -- 0 -- Solo Pro II MVP -- 172.26.2.172;110;Lane 2;3/5/2012;10:15:00;100;15 Minutes;;;;;;1260;315;108.914;0;305;10;0;0;2.855;8.473;A;108.094;5.188;11.656;
040548FFC60BB521;IDS-12B -- ???????-????? -- 1 -- None -- 80 -- 0 -- Solo Pro II MVP -- 172.26.2.172;113;Total;3/5/2012;10:15:00;100;15 Minutes;;;;;;1200;600;101.316;0;579;15;2;4;3.004;9.070;A;99.805;5.594;12.023;
040548FFC60BB521;IDS-12B -- ???????-????? -- 1 -- None -- 80 -- 0 -- Solo Pro II MVP -- 172.26.2.172;109;Lane 1;3/5/2012;10:30:00;100;15 Minutes;;;;;;1064;266;92.102;0;261;4;0;1;3.383;8.844;A;90.793;5.473;11.719;
040548FFC60BB521;IDS-12B -- ???????-????? -- 1 -- None -- 80 -- 0 -- Solo Pro II MVP -- 172.26.2.172;110;Lane 2;3/5/2012;10:30:00;100;15 Minutes;;;;;;1264;316;111.137;0;309;5;0;2;2.848;8.402;A;110.512;5.242;11.438;
040548FFC60BB521;IDS-12B -- ???????-????? -- 1 -- None -- 80 -- 0 -- Solo Pro II MVP -- 172.26.2.172;113;Total;3/5/2012;10:30:00;100;15 Minutes;;;;;;1164;582;102.438;0;570;9;0;3;3.113;8.621;A;100.531;5.305;11.578;
040548FFC60BB521;IDS-12B -- ???????-????? -- 1 -- None -- 80 -- 0 -- Solo Pro II MVP -- 172.26.2.172;109;Lane 1;3/5/2012;10:45:00;100;15 Minutes;;;;;;1140;285;92.961;0;275;5;3;2;3.156;9.531;A;91.543;5.859;12.453;
040548FFC60BB521;IDS-12B -- ???????-????? -- 1 -- None -- 80 -- 0 -- Solo Pro II MVP -- 172.26.2.172;110;Lane 2;3/5/2012;10:45:00;100;15 Minutes;;;;;;1272;318;109.035;0;315;2;1;0;2.828;8.535;A;108.254;5.152;11.750;
040548FFC60BB521;IDS-12B -- ???????-????? -- 1 -- None -- 80 -- 0 -- Solo Pro II MVP -- 172.26.2.172;113;Total;3/5/2012;10:45:00;100;15 Minutes;;;;;;1206;603;101.438;0;590;7;4;2;2.992;9.031;A;99.656;5.453;12.102;
040548FFC60BB521;IDS-12B -- ???????-????? -- 1 -- None -- 80 -- 0 -- Solo Pro II MVP -- 172.26.2.172;109;Lane 1;3/5/2012;11:00:00;100;15 Minutes;;;;;;1156;289;91.754;0;281;6;2;0;3.113;9.555;A;90.555;5.852;12.766;
040548FFC60BB521;IDS-12B -- ???????-????? -- 1 -- None -- 80 -- 0 -- Solo Pro II MVP -- 172.26.2.172;110;Lane 2;3/5/2012;11:00:00;100;15 Minutes;;;;;;1320;330;109.223;0;321;7;1;1;2.727;9.156;A;108.723;5.594;12.141;
040548FFC60BB521;IDS-12B -- ???????-????? -- 1 -- None -- 80 -- 0 -- Solo Pro II MVP -- 172.26.2.172;113;Total;3/5/2012;11:00:00;100;15 Minutes;;;;;;1238;619;101.066;0;602;13;3;1;2.918;9.355;A;99.348;5.680;12.461;
040548FFC60BB521;IDS-12B -- ???????-????? -- 1 -- None -- 80 -- 0 -- Solo Pro II MVP -- 172.26.2.172;109;Lane 1;3/5/2012;11:15:00;100;15 Minutes;;;;;;1108;277;90.086;0;268;6;1;2;3.246;9.641;A;88.527;5.855;12.516;
040548FFC60BB521;IDS-12B -- ???????-????? -- 1 -- None -- 80 -- 0 -- Solo Pro II MVP -- 172.26.2.172;110;Lane 2;3/5/2012;11:15:00;100;15 Minutes;;;;;;1344;336;106.867;0;330;6;0;0;2.676;9.492;A;105.930;5.730;12.688;
040548FFC60BB521;IDS-12B -- ???????-????? -- 1 -- None -- 80 -- 0 -- Solo Pro II MVP -- 172.26.2.172;113;Total;3/5/2012;11:15:00;100;15 Minutes;;;;;;1226;613;99.285;0;598;12;1;2;2.961;9.566;A;97.289;5.738;12.602;
040548FFC60BB521;IDS-12B -- ???????-????? -- 1 -- None -- 80 -- 0 -- Solo Pro II MVP -- 172.26.2.172;109;Lane 1;3/5/2012;11:30:00;100;15 Minutes;;;;;;1096;274;89.258;0;253;11;6;4;3.281;9.758;A;87.898;6.219;12.469;
040548FFC60BB521;IDS-12B -- ???????-????? -- 1 -- None -- 80 -- 0 -- Solo Pro II MVP -- 172.26.2.172;110;Lane 2;3/5/2012;11:30:00;100;15 Minutes;;;;;;1356;339;107.922;0;331;5;1;1;2.652;9.309;A;107.270;5.918;12.641;
040548FFC60BB521;IDS-12B -- ???????-????? -- 1 -- None -- 80 -- 0 -- Solo Pro II MVP -- 172.26.2.172;113;Total;3/5/2012;11:30:00;100;15 Minutes;;;;;;1226;613;99.578;0;584;16;7;5;2.965;9.531;A;97.652;5.996;12.555;
040548FFC60BB521;IDS-12B -- ???????-????? -- 1 -- None -- 80 -- 0 -- Solo Pro II MVP -- 172.26.2.172;109;Lane 1;3/5/2012;11:45:00;100;15 Minutes;;;;;;1108;277;88.891;0;267;5;2;3;3.246;9.664;A;87.977;6.098;12.594;
040548FFC60BB521;IDS-12B -- ???????-????? -- 1 -- None -- 80 -- 0 -- Solo Pro II MVP -- 172.26.2.172;110;Lane 2;3/5/2012;11:45:00;100;15 Minutes;;;;;;1328;332;105.453;0;321;8;1;2;2.707;9.453;A;104.668;5.906;12.688;
040548FFC60BB521;IDS-12B -- ???????-????? -- 1 -- None -- 80 -- 0 -- Solo Pro II MVP -- 172.26.2.172;113;Total;3/5/2012;11:45:00;100;15 Minutes;;;;;;1218;609;97.918;0;588;13;3;5;2.977;9.559;A;96.293;5.949;12.648;
040548FFC60BB521;IDS-12B -- ???????-????? -- 1 -- None -- 80 -- 0 -- Solo Pro II MVP -- 172.26.2.172;109;Lane 1;3/5/2012;12:00:00; 99;15 Minutes;;;;;;1064;266;90.012;0;260;3;1;2;3.383;8.984;A;88.895;5.664;11.969;
040548FFC60BB521;IDS-12B -- ???????-????? -- 1 -- None -- 80 -- 0 -- Solo Pro II MVP -- 172.26.2.172;110;Lane 2;3/5/2012;12:00:00; 99;15 Minutes;;;;;;1232;308;105.398;0;300;6;1;1;2.922;8.922;A;104.848;5.430;11.750;
040548FFC60BB521;IDS-12B -- ???????-????? -- 1 -- None -- 80 -- 0 -- Solo Pro II MVP -- 172.26.2.172;113;Total;3/5/2012;12:00:00; 99;15 Minutes;;;;;;1148;574;98.270;0;560;9;2;3;3.152;8.953;A;96.734;5.504;11.867;
040548FFC60BB521;IDS-12B -- ???????-????? -- 1 -- None -- 80 -- 0 -- Solo Pro II MVP -- 172.26.2.172;109;Lane 1;3/5/2012;12:15:00;100;15 Minutes;;;;;;1076;269;89.254;0;258;5;5;1;3.344;9.516;A;87.836;5.684;12.250;
040548FFC60BB521;IDS-12B -- ???????-????? -- 1 -- None -- 80 -- 0 -- Solo Pro II MVP -- 172.26.2.172;110;Lane 2;3/5/2012;12:15:00;100;15 Minutes;;;;;;1356;339;106.063;0;326;11;1;1;2.652;9.633;A;105.320;5.977;12.875;
040548FFC60BB521;IDS-12B -- ???????-????? -- 1 -- None -- 80 -- 0 -- Solo Pro II MVP -- 172.26.2.172;113;Total;3/5/2012;12:15:00;100;15 Minutes;;;;;;1216;608;98.625;0;584;16;6;2;2.996;9.574;A;96.793;5.785;12.563;
040548FFC60BB521;IDS-12B -- ???????-????? -- 1 -- None -- 80 -- 0 -- Solo Pro II MVP -- 172.26.2.172;109;Lane 1;3/5/2012;12:30:00;100;15 Minutes;;;;;;1072;268;88.070;0;259;5;2;1;3.355;9.348;A;87.063;5.719;12.313;
040548FFC60BB521;IDS-12B -- ???????-????? -- 1 -- None -- 80 -- 0 -- Solo Pro II MVP -- 172.26.2.172;110;Lane 2;3/5/2012;12:30:00;100;15 Minutes;;;;;;1332;333;106.090;0;317;16;0;0;2.699;9.375;A;105.371;5.777;12.641;
040548FFC60BB521;IDS-12B -- ???????-????? -- 1 -- None -- 80 -- 0 -- Solo Pro II MVP -- 172.26.2.172;113;Total;3/5/2012;12:30:00;100;15 Minutes;;;;;;1202;601;98.055;0;576;21;2;1;3.027;9.359;A;96.277;5.691;12.484;
040548FFC60BB521;IDS-12B -- ???????-????? -- 1 -- None -- 80 -- 0 -- Solo Pro II MVP -- 172.26.2.172;109;Lane 1;3/5/2012;12:45:00;100;15 Minutes;;;;;;1080;270;88.324;0;263;5;0;2;3.332;9.387;A;87.383;5.871;12.359;
040548FFC60BB521;IDS-12B -- ???????-????? -- 1 -- None -- 80 -- 0 -- Solo Pro II MVP -- 172.26.2.172;110;Lane 2;3/5/2012;12:45:00;100;15 Minutes;;;;;;1280;320;105.500;0;314;5;0;0;2.813;9.098;A;104.754;5.570;12.219;
040548FFC60BB521;IDS-12B -- ???????-????? -- 1 -- None -- 80 -- 0 -- Solo Pro II MVP -- 172.26.2.172;113;Total;3/5/2012;12:45:00;100;15 Minutes;;;;;;1180;590;97.641;0;577;10;0;2;3.070;9.242;A;95.957;5.664;12.297;
040548FFC60BB521;IDS-12B -- ???????-????? -- 1 -- None -- 80 -- 0 -- Solo Pro II MVP -- 172.26.2.172;109;Lane 1;3/5/2012;13:00:00;100;15 Minutes;;;;;;1128;282;91.066;0;271;4;2;4;3.191;9.617;A;89.457;6.066;12.609;
040548FFC60BB521;IDS-12B -- ???????-????? -- 1 -- None -- 80 -- 0 -- Solo Pro II MVP -- 172.26.2.172;110;Lane 2;3/5/2012;13:00:00;100;15 Minutes;;;;;;1292;323;105.609;0;314;8;0;1;2.785;9.324;A;104.801;5.691;12.328;
040548FFC60BB521;IDS-12B -- ???????-????? -- 1 -- None -- 80 -- 0 -- Solo Pro II MVP -- 172.26.2.172;113;Total;3/5/2012;13:00:00;100;15 Minutes;;;;;;1210;605;98.828;0;585;12;2;5;2.988;9.469;A;97.039;5.836;12.469;
040548FFC60BB521;IDS-12B -- ???????-????? -- 1 -- None -- 80 -- 0 -- Solo Pro II MVP -- 172.26.2.172;109;Lane 1;3/5/2012;13:15:00;100;15 Minutes;;;;;;932;233;93.633;0;228;4;0;1;3.859;7.695;A;92.336;4.664;10.090;
040548FFC60BB521;IDS-12B -- ???????-????? -- 1 -- None -- 80 -- 0 -- Solo Pro II MVP -- 172.26.2.172;110;Lane 2;3/5/2012;13:15:00;100;15 Minutes;;;;;;992;248;111.043;0;244;4;0;0;3.629;6.781;A;110.188;4.047;9.000;
040548FFC60BB521;IDS-12B -- ???????-????? -- 1 -- None -- 80 -- 0 -- Solo Pro II MVP -- 172.26.2.172;113;Total;3/5/2012;13:15:00;100;15 Minutes;;;;;;962;481;102.609;0;472;8;0;1;3.742;7.238;A;100.766;4.316;9.547;
040548FFC60BB521;IDS-12B -- ???????-????? -- 1 -- None -- 80 -- 0 -- Solo Pro II MVP -- 172.26.2.172;109;Lane 1;3/5/2012;13:30:00;100;15 Minutes;;;;;;1112;278;91.160;0;273;2;2;1;3.234;9.520;A;89.742;5.645;12.391;
040548FFC60BB521;IDS-12B -- ???????-????? -- 1 -- None -- 80 -- 0 -- Solo Pro II MVP -- 172.26.2.172;110;Lane 2;3/5/2012;13:30:00;100;15 Minutes;;;;;;1312;328;106.508;0;317;9;1;1;2.742;9.395;A;105.883;5.773;12.391;
040548FFC60BB521;IDS-12B -- ???????-????? -- 1 -- None -- 80 -- 0 -- Solo Pro II MVP -- 172.26.2.172;113;Total;3/5/2012;13:30:00;100;15 Minutes;;;;;;1212;606;99.465;0;590;11;3;2;2.988;9.457;A;97.754;5.676;12.398;
040548FFC60BB521;IDS-12B -- ???????-????? -- 1 -- None -- 80 -- 0 -- Solo Pro II MVP -- 172.26.2.172;109;Lane 1;3/5/2012;13:45:00;100;15 Minutes;;;;;;1104;276;88.168;0;264;3;6;3;3.258;10.148;A;87.227;6.285;12.656;
040548FFC60BB521;IDS-12B -- ???????-????? -- 1 -- None -- 80 -- 0 -- Solo Pro II MVP -- 172.26.2.172;110;Lane 2;3/5/2012;13:45:00;100;15 Minutes;;;;;;1328;332;105.504;0;323;7;0;2;2.707;9.871;A;104.926;5.926;12.656;
040548FFC60BB521;IDS-12B -- ???????-????? -- 1 -- None -- 80 -- 0 -- Solo Pro II MVP -- 172.26.2.172;113;Total;3/5/2012;13:45:00;100;15 Minutes;;;;;;1216;608;97.633;0;587;10;6;5;2.980;10.008;A;96.020;6.039;12.664;
040548FFC60BB521;IDS-12B -- ???????-????? -- 1 -- None -- 80 -- 0 -- Solo Pro II MVP -- 172.26.2.172;109;Lane 1;3/5/2012;14:00:00;100;15 Minutes;;;;;;1140;285;90.609;0;275;8;0;2;3.156;10.414;A;89.629;6.098;12.719;
040548FFC60BB521;IDS-12B -- ???????-????? -- 1 -- None -- 80 -- 0 -- Solo Pro II MVP -- 172.26.2.172;110;Lane 2;3/5/2012;14:00:00;100;15 Minutes;;;;;;1192;298;107.266;0;293;4;1;0;3.020;8.949;A;106.695;5.238;11.172;
040548FFC60BB521;IDS-12B -- ???????-????? -- 1 -- None -- 80 -- 0 -- Solo Pro II MVP -- 172.26.2.172;113;Total;3/5/2012;14:00:00;100;15 Minutes;;;;;;1166;583;99.125;0;568;12;1;2;3.086;9.680;A;97.547;5.621;11.953;
040548FFC60BB521;IDS-12B -- ???????-????? -- 1 -- None -- 80 -- 0 -- Solo Pro II MVP -- 172.26.2.172;109;Lane 1;3/5/2012;14:15:00;100;15 Minutes;;;;;;1100;275;86.949;0;269;6;0;0;3.270;10.184;A;85.852;5.961;12.813;
040548FFC60BB521;IDS-12B -- ???????-????? -- 1 -- None -- 80 -- 0 -- Solo Pro II MVP -- 172.26.2.172;110;Lane 2;3/5/2012;14:15:00;100;15 Minutes;;;;;;1232;308;103.391;0;298;5;3;2;2.922;9.500;A;102.664;5.723;12.000;
040548FFC60BB521;IDS-12B -- ???????-????? -- 1 -- None -- 80 -- 0 -- Solo Pro II MVP -- 172.26.2.172;113;Total;3/5/2012;14:15:00;100;15 Minutes;;;;;;1166;583;95.637;0;567;11;3;2;3.094;9.840;A;93.984;5.805;12.406;
040548FFC60BB521;IDS-12B -- ???????-????? -- 1 -- None -- 80 -- 0 -- Solo Pro II MVP -- 172.26.2.172;109;Lane 1;3/5/2012;14:30:00;100;15 Minutes;;;;;;1100;275;85.000;0;259;13;1;2;3.270;10.609;A;83.609;6.516;13.156;
040548FFC60BB521;IDS-12B -- ???????-????? -- 1 -- None -- 80 -- 0 -- Solo Pro II MVP -- 172.26.2.172;110;Lane 2;3/5/2012;14:30:00;100;15 Minutes;;;;;;1320;330;102.883;0;315;12;2;1;2.727;10.055;A;101.660;6.188;12.984;
040548FFC60BB521;IDS-12B -- ???????-????? -- 1 -- None -- 80 -- 0 -- Solo Pro II MVP -- 172.26.2.172;113;Total;3/5/2012;14:30:00;100;15 Minutes;;;;;;1210;605;94.754;0;574;25;3;3;2.996;10.332;A;92.574;6.281;13.070;
040548FFC60BB521;IDS-12B -- ???????-????? -- 1 -- None -- 80 -- 0 -- Solo Pro II MVP -- 172.26.2.172;109;Lane 1;3/5/2012;14:45:00;100;15 Minutes;;;;;;1160;290;85.563;0;269;16;4;1;3.102;11.039;A;84.363;6.938;13.750;
040548FFC60BB521;IDS-12B -- ???????-????? -- 1 -- None -- 80 -- 0 -- Solo Pro II MVP -- 172.26.2.172;110;Lane 2;3/5/2012;14:45:00;100;15 Minutes;;;;;;1336;334;102.137;0;314;11;6;1;2.691;10.699;A;101.547;6.418;13.156;
040548FFC60BB521;IDS-12B -- ???????-????? -- 1 -- None -- 80 -- 0 -- Solo Pro II MVP -- 172.26.2.172;113;Total;3/5/2012;14:45:00;100;15 Minutes;;;;;;1248;624;94.434;0;583;27;10;2;2.895;10.867;A;92.766;6.613;13.453;
040548FFC60BB521;IDS-12B -- ???????-????? -- 1 -- None -- 80 -- 0 -- Solo Pro II MVP -- 172.26.2.172;109;Lane 1;3/5/2012;15:00:00;100;15 Minutes;;;;;;1184;296;84.941;0;277;13;3;3;3.039;11.543;A;83.914;7.348;14.109;
040548FFC60BB521;IDS-12B -- ???????-????? -- 1 -- None -- 80 -- 0 -- Solo Pro II MVP -- 172.26.2.172;110;Lane 2;3/5/2012;15:00:00;100;15 Minutes;;;;;;1364;341;100.668;0;314;24;1;2;2.637;10.816;A;99.992;6.734;13.641;
040548FFC60BB521;IDS-12B -- ???????-????? -- 1 -- None -- 80 -- 0 -- Solo Pro II MVP -- 172.26.2.172;113;Total;3/5/2012;15:00:00;100;15 Minutes;;;;;;1274;637;93.359;0;591;37;4;5;2.836;11.180;A;91.816;6.973;13.875;
040548FFC60BB521;IDS-12B -- ???????-????? -- 1 -- None -- 80 -- 0 -- Solo Pro II MVP -- 172.26.2.172;109;Lane 1;3/5/2012;15:15:00;100;15 Minutes;;;;;;1084;271;88.531;0;241;21;3;5;3.320;10.500;A;87.152;6.680;12.438;
040548FFC60BB521;IDS-12B -- ???????-????? -- 1 -- None -- 80 -- 0 -- Solo Pro II MVP -- 172.26.2.172;110;Lane 2;3/5/2012;15:15:00;100;15 Minutes;;;;;;1076;269;105.094;0;254;13;2;0;3.344;8.359;A;104.336;5.078;10.313;
040548FFC60BB521;IDS-12B -- ???????-????? -- 1 -- None -- 80 -- 0 -- Solo Pro II MVP -- 172.26.2.172;113;Total;3/5/2012;15:15:00;100;15 Minutes;;;;;;1080;540;96.785;0;495;34;5;5;3.332;9.430;A;94.941;5.813;11.375;
040548FFC60BB521;IDS-12B -- ???????-????? -- 1 -- None -- 80 -- 0 -- Solo Pro II MVP -- 172.26.2.172;109;Lane 1;3/5/2012;15:30:00;100;15 Minutes;;;;;;1116;279;86.906;0;250;18;5;6;3.223;10.906;A;85.742;7.152;13.016;
040548FFC60BB521;IDS-12B -- ???????-????? -- 1 -- None -- 80 -- 0 -- Solo Pro II MVP -- 172.26.2.172;110;Lane 2;3/5/2012;15:30:00;100;15 Minutes;;;;;;1284;321;101.922;0;290;22;5;4;2.801;10.441;A;101.074;6.539;12.703;
040548FFC60BB521;IDS-12B -- ???????-????? -- 1 -- None -- 80 -- 0 -- Solo Pro II MVP -- 172.26.2.172;113;Total;3/5/2012;15:30:00;100;15 Minutes;;;;;;1200;600;94.941;0;540;40;10;10;3.012;10.672;A;93.258;6.781;12.867;
040548FFC60BB521;IDS-12B -- ???????-????? -- 1 -- None -- 80 -- 0 -- Solo Pro II MVP -- 172.26.2.172;109;Lane 1;3/5/2012;15:45:00;100;15 Minutes;;;;;;1188;297;86.191;0;264;16;11;5;3.027;11.543;A;85.047;7.586;13.969;
040548FFC60BB521;IDS-12B -- ???????-????? -- 1 -- None -- 80 -- 0 -- Solo Pro II MVP -- 172.26.2.172;110;Lane 2;3/5/2012;15:45:00;100;15 Minutes;;;;;;1480;370;100.414;0;331;28;6;5;2.430;12.055;A;99.914;7.770;14.813;
040548FFC60BB521;IDS-12B -- ???????-????? -- 1 -- None -- 80 -- 0 -- Solo Pro II MVP -- 172.26.2.172;113;Total;3/5/2012;15:45:00;100;15 Minutes;;;;;;1334;667;94.082;0;595;44;17;10;2.727;11.797;A;92.699;7.621;14.391;
040548FFC60BB521;IDS-12B -- ???????-????? -- 1 -- None -- 80 -- 0 -- Solo Pro II MVP -- 172.26.2.172;109;Lane 1;3/5/2012;16:00:00;100;15 Minutes;;;;;;1280;320;84.910;0;289;16;11;4;2.813;12.457;A;83.848;8.098;15.266;
040548FFC60BB521;IDS-12B -- ???????-????? -- 1 -- None -- 80 -- 0 -- Solo Pro II MVP -- 172.26.2.172;110;Lane 2;3/5/2012;16:00:00;100;15 Minutes;;;;;;1496;374;97.074;0;342;27;2;2;2.406;12.727;A;96.031;7.816;15.578;
040548FFC60BB521;IDS-12B -- ???????-????? -- 1 -- None -- 80 -- 0 -- Solo Pro II MVP -- 172.26.2.172;113;Total;3/5/2012;16:00:00;100;15 Minutes;;;;;;1388;694;91.465;0;631;43;13;6;2.609;12.590;A;90.000;7.906;15.422;
040548FFC60BB521;IDS-12B -- ???????-????? -- 1 -- None -- 80 -- 0 -- Solo Pro II MVP -- 172.26.2.172;109;Lane 1;3/5/2012;16:15:00;100;15 Minutes;;;;;;1144;286;83.953;0;253;23;6;4;3.145;11.582;A;82.633;7.430;13.844;
040548FFC60BB521;IDS-12B -- ???????-????? -- 1 -- None -- 80 -- 0 -- Solo Pro II MVP -- 172.26.2.172;110;Lane 2;3/5/2012;16:15:00;100;15 Minutes;;;;;;1444;361;98.895;0;332;27;0;2;2.492;12.129;A;98.000;7.410;14.734;
040548FFC60BB521;IDS-12B -- ???????-????? -- 1 -- None -- 80 -- 0 -- Solo Pro II MVP -- 172.26.2.172;113;Total;3/5/2012;16:15:00;100;15 Minutes;;;;;;1294;647;92.289;0;585;50;6;6;2.816;11.855;A;90.559;7.352;14.289;
040548FFC60BB521;IDS-12B -- ???????-????? -- 1 -- None -- 80 -- 0 -- Solo Pro II MVP -- 172.26.2.172;109;Lane 1;3/5/2012;16:30:00;100;15 Minutes;;;;;;1192;298;86.273;0;254;33;6;3;3.020;11.730;A;85.141;7.465;14.000;
040548FFC60BB521;IDS-12B -- ???????-????? -- 1 -- None -- 80 -- 0 -- Solo Pro II MVP -- 172.26.2.172;110;Lane 2;3/5/2012;16:30:00;100;15 Minutes;;;;;;1436;359;99.902;0;335;18;4;2;2.504;11.711;A;98.926;7.125;14.516;
040548FFC60BB521;IDS-12B -- ???????-????? -- 1 -- None -- 80 -- 0 -- Solo Pro II MVP -- 172.26.2.172;113;Total;3/5/2012;16:30:00;100;15 Minutes;;;;;;1314;657;93.723;0;589;51;10;5;2.762;11.719;A;92.109;7.234;14.266;
040548FFC60BB521;IDS-12B -- ???????-????? -- 1 -- None -- 80 -- 0 -- Solo Pro II MVP -- 172.26.2.172;109;Lane 1;3/5/2012;16:45:00;100;15 Minutes;;;;;;1236;309;84.906;0;274;27;4;4;2.910;11.859;A;83.707;7.840;14.766;
040548FFC60BB521;IDS-12B -- ???????-????? -- 1 -- None -- 80 -- 0 -- Solo Pro II MVP -- 172.26.2.172;110;Lane 2;3/5/2012;16:45:00;100;15 Minutes;;;;;;1524;381;99.594;0;349;27;2;3;2.359;12.816;A;98.820;7.957;15.422;
040548FFC60BB521;IDS-12B -- ???????-????? -- 1 -- None -- 80 -- 0 -- Solo Pro II MVP -- 172.26.2.172;113;Total;3/5/2012;16:45:00;100;15 Minutes;;;;;;1380;690;93.016;0;623;54;6;7;2.633;12.336;A;91.379;7.840;15.102;
040548FFC60BB521;IDS-12B -- ???????-????? -- 1 -- None -- 80 -- 0 -- Solo Pro II MVP -- 172.26.2.172;109;Lane 1;3/5/2012;17:00:00;100;15 Minutes;;;;;;1240;310;85.336;0;294;7;7;1;2.902;11.980;A;84.156;7.566;14.734;
040548FFC60BB521;IDS-12B -- ???????-????? -- 1 -- None -- 80 -- 0 -- Solo Pro II MVP -- 172.26.2.172;110;Lane 2;3/5/2012;17:00:00;100;15 Minutes;;;;;;1496;374;98.164;0;352;16;2;4;2.406;12.496;A;97.496;7.824;15.344;
040548FFC60BB521;IDS-12B -- ???????-????? -- 1 -- None -- 80 -- 0 -- Solo Pro II MVP -- 172.26.2.172;113;Total;3/5/2012;17:00:00;100;15 Minutes;;;;;;1368;684;92.352;0;646;23;9;5;2.652;12.238;A;90.961;7.652;15.039;
040548FFC60BB521;IDS-12B -- ???????-????? -- 1 -- None -- 80 -- 0 -- Solo Pro II MVP -- 172.26.2.172;109;Lane 1;3/5/2012;17:15:00;100;15 Minutes;;;;;;1112;278;86.965;0;268;4;4;1;3.234;9.254;A;85.949;6.219;12.938;
040548FFC60BB521;IDS-12B -- ???????-????? -- 1 -- None -- 80 -- 0 -- Solo Pro II MVP -- 172.26.2.172;110;Lane 2;3/5/2012;17:15:00;100;15 Minutes;;;;;;1268;317;99.406;0;306;6;2;3;2.836;9.680;A;98.723;6.457;12.844;
040548FFC60BB521;IDS-12B -- ???????-????? -- 1 -- None -- 80 -- 0 -- Solo Pro II MVP -- 172.26.2.172;113;Total;3/5/2012;17:15:00;100;15 Minutes;;;;;;1190;595;93.594;0;574;10;6;4;3.035;9.465;A;92.313;6.316;12.891;
040548FFC60BB521;IDS-12B -- ???????-????? -- 1 -- None -- 80 -- 0 -- Solo Pro II MVP -- 172.26.2.172;109;Lane 1;3/5/2012;17:30:00;100;15 Minutes;;;;;;1216;304;84.832;0;295;7;2;0;2.957;9.938;A;83.859;6.910;14.500;
040548FFC60BB521;IDS-12B -- ???????-????? -- 1 -- None -- 80 -- 0 -- Solo Pro II MVP -- 172.26.2.172;110;Lane 2;3/5/2012;17:30:00;100;15 Minutes;;;;;;1524;381;97.820;0;369;7;2;3;2.359;10.953;A;97.340;7.656;15.656;
040548FFC60BB521;IDS-12B -- ???????-????? -- 1 -- None -- 80 -- 0 -- Solo Pro II MVP -- 172.26.2.172;113;Total;3/5/2012;17:30:00;100;15 Minutes;;;;;;1370;685;92.055;0;664;14;4;3;2.656;10.445;A;90.813;7.254;15.086;
040548FFC60BB521;IDS-12B -- ???????-????? -- 1 -- None -- 80 -- 0 -- Solo Pro II MVP -- 172.26.2.172;109;Lane 1;3/5/2012;17:45:00;100;15 Minutes;;;;;;1184;296;85.117;0;288;5;1;2;3.039;9.988;A;84.383;6.945;14.031;
040548FFC60BB521;IDS-12B -- ???????-????? -- 1 -- None -- 80 -- 0 -- Solo Pro II MVP -- 172.26.2.172;110;Lane 2;3/5/2012;17:45:00;100;15 Minutes;;;;;;1532;383;98.977;0;364;13;1;4;2.348;11.164;A;98.242;7.887;15.594;
040548FFC60BB521;IDS-12B -- ???????-????? -- 1 -- None -- 80 -- 0 -- Solo Pro II MVP -- 172.26.2.172;113;Total;3/5/2012;17:45:00;100;15 Minutes;;;;;;1358;679;92.934;0;652;18;2;6;2.691;10.574;A;91.629;7.379;14.820;
040548FFC60BB521;IDS-12B -- ???????-????? -- 1 -- None -- 80 -- 0 -- Solo Pro II MVP -- 172.26.2.172;109;Lane 1;3/5/2012;18:00:00;100;15 Minutes;;;;;;1284;321;84.719;0;313;6;1;1;2.801;10.559;A;83.426;7.344;15.391;
040548FFC60BB521;IDS-12B -- ???????-????? -- 1 -- None -- 80 -- 0 -- Solo Pro II MVP -- 172.26.2.172;110;Lane 2;3/5/2012;18:00:00;100;15 Minutes;;;;;;1688;422;97.750;0;405;14;1;2;2.129;12.094;A;96.887;8.516;17.422;
040548FFC60BB521;IDS-12B -- ???????-????? -- 1 -- None -- 80 -- 0 -- Solo Pro II MVP -- 172.26.2.172;113;Total;3/5/2012;18:00:00;100;15 Minutes;;;;;;1486;743;92.121;0;718;20;2;3;2.465;11.324;A;90.531;7.895;16.414;
040548FFC60BB521;IDS-12B -- ???????-????? -- 1 -- None -- 80 -- 0 -- Solo Pro II MVP -- 172.26.2.172;109;Lane 1;3/5/2012;18:15:00;100;15 Minutes;;;;;;1224;306;87.055;0;296;7;2;1;2.938;9.922;A;86.176;6.773;14.203;
040548FFC60BB521;IDS-12B -- ???????-????? -- 1 -- None -- 80 -- 0 -- Solo Pro II MVP -- 172.26.2.172;110;Lane 2;3/5/2012;18:15:00;100;15 Minutes;;;;;;1492;373;99.461;0;362;7;2;2;2.410;10.766;A;98.949;7.203;15.078;
040548FFC60BB521;IDS-12B -- ???????-????? -- 1 -- None -- 80 -- 0 -- Solo Pro II MVP -- 172.26.2.172;113;Total;3/5/2012;18:15:00;100;15 Minutes;;;;;;1358;679;93.871;0;658;14;4;3;2.672;10.344;A;92.754;6.957;14.641;
040548FFC60BB521;IDS-12B -- ???????-????? -- 1 -- None -- 80 -- 0 -- Solo Pro II MVP -- 172.26.2.172;109;Lane 1;3/5/2012;18:30:00;100;15 Minutes;;;;;;1152;288;87.695;0;282;3;1;2;3.125;9.176;A;86.434;6.230;13.328;
040548FFC60BB521;IDS-12B -- ???????-????? -- 1 -- None -- 80 -- 0 -- Solo Pro II MVP -- 172.26.2.172;110;Lane 2;3/5/2012;18:30:00;100;15 Minutes;;;;;;1508;377;100.168;0;370;7;0;0;2.387;10.691;A;98.984;7.164;15.234;
040548FFC60BB521;IDS-12B -- ???????-????? -- 1 -- None -- 80 -- 0 -- Solo Pro II MVP -- 172.26.2.172;113;Total;3/5/2012;18:30:00;100;15 Minutes;;;;;;1330;665;94.766;0;652;10;1;2;2.754;9.934;A;93.129;6.668;14.281;
040548FFC60BB521;IDS-12B -- ???????-????? -- 1 -- None -- 80 -- 0 -- Solo Pro II MVP -- 172.26.2.172;109;Lane 1;3/5/2012;18:45:00;100;15 Minutes;;;;;;1176;294;85.742;0;282;7;3;2;3.059;9.906;A;84.660;6.527;13.891;
040548FFC60BB521;IDS-12B -- ???????-????? -- 1 -- None -- 80 -- 0 -- Solo Pro II MVP -- 172.26.2.172;110;Lane 2;3/5/2012;18:45:00;100;15 Minutes;;;;;;1488;372;97.645;0;363;3;3;3;2.418;11.047;A;96.879;7.398;15.359;
040548FFC60BB521;IDS-12B -- ???????-????? -- 1 -- None -- 80 -- 0 -- Solo Pro II MVP -- 172.26.2.172;113;Total;3/5/2012;18:45:00;100;15 Minutes;;;;;;1332;666;92.391;0;645;10;6;5;2.738;10.477;A;91.027;6.938;14.633;
040548FFC60BB521;IDS-12B -- ???????-????? -- 1 -- None -- 80 -- 0 -- Solo Pro II MVP -- 172.26.2.172;109;Lane 1;3/5/2012;19:00:00;100;15 Minutes;;;;;;1100;275;82.898;0;239;19;8;8;3.270;11.664;A;81.480;6.969;13.500;
040548FFC60BB521;IDS-12B -- ???????-????? -- 1 -- None -- 80 -- 0 -- Solo Pro II MVP -- 172.26.2.172;110;Lane 2;3/5/2012;19:00:00;100;15 Minutes;;;;;;1304;326;98.488;0;296;19;5;6;2.758;12.344;A;96.926;6.867;13.453;
040548FFC60BB521;IDS-12B -- ???????-????? -- 1 -- None -- 80 -- 0 -- Solo Pro II MVP -- 172.26.2.172;113;Total;3/5/2012;19:00:00;100;15 Minutes;;;;;;1202;601;91.355;0;535;38;13;14;3.012;12.004;A;89.191;6.863;13.477;
040548FFC60BB521;IDS-12B -- ???????-????? -- 1 -- None -- 80 -- 0 -- Solo Pro II MVP -- 172.26.2.172;109;Lane 1;3/5/2012;19:15:00;100;15 Minutes;;;;;;984;246;82.961;0;208;21;9;5;3.656;9.504;A;81.398;6.438;12.086;
040548FFC60BB521;IDS-12B -- ???????-????? -- 1 -- None -- 80 -- 0 -- Solo Pro II MVP -- 172.26.2.172;110;Lane 2;3/5/2012;19:15:00;100;15 Minutes;;;;;;1220;305;98.004;0;261;24;10;9;2.949;11.402;A;96.992;7.004;12.578;
040548FFC60BB521;IDS-12B -- ???????-????? -- 1 -- None -- 80 -- 0 -- Solo Pro II MVP -- 172.26.2.172;113;Total;3/5/2012;19:15:00;100;15 Minutes;;;;;;1102;551;91.289;0;469;45;19;14;3.301;10.453;A;89.332;6.684;12.336;
040548FFC60BB521;IDS-12B -- ???????-????? -- 1 -- None -- 80 -- 0 -- Solo Pro II MVP -- 172.26.2.172;109;Lane 1;3/5/2012;19:30:00;100;15 Minutes;;;;;;980;245;84.707;0;206;18;7;8;3.672;9.871;A;82.855;6.285;11.824;
040548FFC60BB521;IDS-12B -- ???????-????? -- 1 -- None -- 80 -- 0 -- Solo Pro II MVP -- 172.26.2.172;110;Lane 2;3/5/2012;19:30:00;100;15 Minutes;;;;;;1012;253;99.844;0;213;27;9;4;3.555;8.734;A;98.813;5.535;10.238;
040548FFC60BB521;IDS-12B -- ???????-????? -- 1 -- None -- 80 -- 0 -- Solo Pro II MVP -- 172.26.2.172;113;Total;3/5/2012;19:30:00;100;15 Minutes;;;;;;996;498;92.398;0;419;45;16;12;3.613;9.301;A;90.285;5.871;11.031;
040548FFC60BB521;IDS-12B -- ???????-????? -- 1 -- None -- 80 -- 0 -- Solo Pro II MVP -- 172.26.2.172;109;Lane 1;3/5/2012;19:45:00;100;15 Minutes;;;;;;888;222;85.691;0;197;13;7;4;4.051;8.664;A;82.879;5.617;10.711;
040548FFC60BB521;IDS-12B -- ???????-????? -- 1 -- None -- 80 -- 0 -- Solo Pro II MVP -- 172.26.2.172;110;Lane 2;3/5/2012;19:45:00;100;15 Minutes;;;;;;876;219;102.082;0;174;28;3;12;4.109;7.727;A;100.969;5.152;8.676;
040548FFC60BB521;IDS-12B -- ???????-????? -- 1 -- None -- 80 -- 0 -- Solo Pro II MVP -- 172.26.2.172;113;Total;3/5/2012;19:45:00;100;15 Minutes;;;;;;882;441;93.832;0;371;41;10;16;4.078;8.195;A;91.043;5.367;9.688;
040548FFC60BB521;IDS-12B -- ???????-????? -- 1 -- None -- 80 -- 0 -- Solo Pro II MVP -- 172.26.2.172;109;Lane 1;3/5/2012;20:00:00;100;15 Minutes;;;;;;864;216;83.633;0;184;17;7;8;4.164;8.672;A;81.668;5.898;10.578;
040548FFC60BB521;IDS-12B -- ???????-????? -- 1 -- None -- 80 -- 0 -- Solo Pro II MVP -- 172.26.2.172;110;Lane 2;3/5/2012;20:00:00;100;15 Minutes;;;;;;928;232;100.316;0;190;29;6;7;3.879;8.328;A;98.832;5.414;9.387;
040548FFC60BB521;IDS-12B -- ???????-????? -- 1 -- None -- 80 -- 0 -- Solo Pro II MVP -- 172.26.2.172;113;Total;3/5/2012;20:00:00;100;15 Minutes;;;;;;896;448;92.273;0;374;46;13;15;4.020;8.500;A;89.809;5.613;9.977;
040548FFC60BB521;IDS-12B -- ???????-????? -- 1 -- None -- 80 -- 0 -- Solo Pro II MVP -- 172.26.2.172;109;Lane 1;3/5/2012;20:15:00;100;15 Minutes;;;;;;748;187;85.469;0;161;20;4;1;4.813;7.281;A;84.117;4.578;8.891;
040548FFC60BB521;IDS-12B -- ???????-????? -- 1 -- None -- 80 -- 0 -- Solo Pro II MVP -- 172.26.2.172;110;Lane 2;3/5/2012;20:15:00;100;15 Minutes;;;;;;684;171;103.156;0;138;20;6;5;5.262;6.250;A;101.891;3.883;6.711;
040548FFC60BB521;IDS-12B -- ???????-????? -- 1 -- None -- 80 -- 0 -- Solo Pro II MVP -- 172.26.2.172;113;Total;3/5/2012;20:15:00;100;15 Minutes;;;;;;716;358;93.918;0;299;40;10;6;5.035;6.766;A;91.828;4.219;7.797;
040548FFC60BB521;IDS-12B -- ???????-????? -- 1 -- None -- 80 -- 0 -- Solo Pro II MVP -- 172.26.2.172;109;Lane 1;3/5/2012;20:30:00;100;15 Minutes;;;;;;752;188;85.516;0;162;11;9;6;4.785;6.855;A;83.480;4.973;9.008;
040548FFC60BB521;IDS-12B -- ???????-????? -- 1 -- None -- 80 -- 0 -- Solo Pro II MVP -- 172.26.2.172;110;Lane 2;3/5/2012;20:30:00;100;15 Minutes;;;;;;708;177;102.004;0;138;22;9;6;5.082;6.582;A;100.832;4.063;7.020;
040548FFC60BB521;IDS-12B -- ???????-????? -- 1 -- None -- 80 -- 0 -- Solo Pro II MVP -- 172.26.2.172;113;Total;3/5/2012;20:30:00;100;15 Minutes;;;;;;730;365;93.512;0;300;33;18;12;4.934;6.719;A;91.160;4.492;8.008;
040548FFC60BB521;IDS-12B -- ???????-????? -- 1 -- None -- 80 -- 0 -- Solo Pro II MVP -- 172.26.2.172;109;Lane 1;3/5/2012;20:45:00;100;15 Minutes;;;;;;772;193;86.992;0;166;14;10;3;4.660;6.996;A;84.836;4.777;9.098;
040548FFC60BB521;IDS-12B -- ???????-????? -- 1 -- None -- 80 -- 0 -- Solo Pro II MVP -- 172.26.2.172;110;Lane 2;3/5/2012;20:45:00;100;15 Minutes;;;;;;704;176;103.590;0;136;28;9;1;5.113;6.160;A;102.406;3.781;6.871;
040548FFC60BB521;IDS-12B -- ???????-????? -- 1 -- None -- 80 -- 0 -- Solo Pro II MVP -- 172.26.2.172;113;Total;3/5/2012;20:45:00;100;15 Minutes;;;;;;738;369;94.910;0;302;42;19;4;4.887;6.578;A;92.430;4.254;7.984;
040548FFC60BB521;IDS-12B -- ???????-????? -- 1 -- None -- 80 -- 0 -- Solo Pro II MVP -- 172.26.2.172;109;Lane 1;3/5/2012;21:00:00;100;15 Minutes;;;;;;748;187;87.590;0;156;19;9;2;4.813;7.301;A;85.688;4.652;8.727;
040548FFC60BB521;IDS-12B -- ???????-????? -- 1 -- None -- 80 -- 0 -- Solo Pro II MVP -- 172.26.2.172;110;Lane 2;3/5/2012;21:00:00;100;15 Minutes;;;;;;684;171;104.734;0;144;19;6;2;5.262;5.875;A;103.805;3.582;6.586;
040548FFC60BB521;IDS-12B -- ???????-????? -- 1 -- None -- 80 -- 0 -- Solo Pro II MVP -- 172.26.2.172;113;Total;3/5/2012;21:00:00;100;15 Minutes;;;;;;716;358;95.781;0;300;38;15;4;5.035;6.586;A;93.516;4.086;7.656;
040548FFC60BB521;IDS-12B -- ???????-????? -- 1 -- None -- 80 -- 0 -- Solo Pro II MVP -- 172.26.2.172;109;Lane 1;3/5/2012;21:15:00;100;15 Minutes;;;;;;724;181;88.027;0;147;25;8;1;4.969;6.535;A;86.250;4.516;8.391;
040548FFC60BB521;IDS-12B -- ???????-????? -- 1 -- None -- 80 -- 0 -- Solo Pro II MVP -- 172.26.2.172;110;Lane 2;3/5/2012;21:15:00;100;15 Minutes;;;;;;608;152;106.223;0;121;18;6;6;5.918;5.188;A;104.559;3.391;5.813;
040548FFC60BB521;IDS-12B -- ???????-????? -- 1 -- None -- 80 -- 0 -- Solo Pro II MVP -- 172.26.2.172;113;Total;3/5/2012;21:15:00;100;15 Minutes;;;;;;666;333;96.332;0;268;43;14;7;5.441;5.859;A;93.781;3.934;7.102;
040548FFC60BB521;IDS-12B -- ???????-????? -- 1 -- None -- 80 -- 0 -- Solo Pro II MVP -- 172.26.2.172;109;Lane 1;3/5/2012;21:30:00;100;15 Minutes;;;;;;676;169;90.289;0;139;17;6;3;5.324;6.375;A;88.238;4.000;7.660;
040548FFC60BB521;IDS-12B -- ???????-????? -- 1 -- None -- 80 -- 0 -- Solo Pro II MVP -- 172.26.2.172;110;Lane 2;3/5/2012;21:30:00;100;15 Minutes;;;;;;544;136;107.645;0;102;28;4;2;6.617;4.961;A;106.043;2.961;5.129;
040548FFC60BB521;IDS-12B -- ???????-????? -- 1 -- None -- 80 -- 0 -- Solo Pro II MVP -- 172.26.2.172;113;Total;3/5/2012;21:30:00;100;15 Minutes;;;;;;610;305;98.027;0;241;45;10;5;5.969;5.668;A;95.449;3.469;6.391;
040548FFC60BB521;IDS-12B -- ???????-????? -- 1 -- None -- 80 -- 0 -- Solo Pro II MVP -- 172.26.2.172;109;Lane 1;3/5/2012;21:45:00;100;15 Minutes;;;;;;632;158;87.230;0;135;12;5;6;5.695;5.750;A;84.359;4.207;7.488;
040548FFC60BB521;IDS-12B -- ???????-????? -- 1 -- None -- 80 -- 0 -- Solo Pro II MVP -- 172.26.2.172;110;Lane 2;3/5/2012;21:45:00;100;15 Minutes;;;;;;576;144;104.512;0;106;23;10;4;6.250;5.059;A;103.063;3.426;5.586;
040548FFC60BB521;IDS-12B -- ???????-????? -- 1 -- None -- 80 -- 0 -- Solo Pro II MVP -- 172.26.2.172;113;Total;3/5/2012;21:45:00;100;15 Minutes;;;;;;604;302;95.473;0;241;35;15;10;5.973;5.402;A;92.367;3.797;6.539;
040548FFC60BB521;IDS-12B -- ???????-????? -- 1 -- None -- 80 -- 0 -- Solo Pro II MVP -- 172.26.2.172;109;Lane 1;3/5/2012;22:00:00;100;15 Minutes;;;;;;636;159;89.188;0;134;14;8;2;5.660;6.094;A;87.301;3.926;7.285;
040548FFC60BB521;IDS-12B -- ???????-????? -- 1 -- None -- 80 -- 0 -- Solo Pro II MVP -- 172.26.2.172;110;Lane 2;3/5/2012;22:00:00;100;15 Minutes;;;;;;444;111;107.465;0;80;23;3;2;8.105;4.070;A;105.387;2.320;4.211;
040548FFC60BB521;IDS-12B -- ???????-????? -- 1 -- None -- 80 -- 0 -- Solo Pro II MVP -- 172.26.2.172;113;Total;3/5/2012;22:00:00;100;15 Minutes;;;;;;540;270;96.703;0;214;37;11;4;6.883;5.082;A;94.039;3.098;5.742;
040548FFC60BB521;IDS-12B -- ???????-????? -- 1 -- None -- 80 -- 0 -- Solo Pro II MVP -- 172.26.2.172;109;Lane 1;3/5/2012;22:15:00;100;15 Minutes;;;;;;532;133;90.555;0;106;15;6;6;6.766;4.879;A;88.586;3.629;6.004;
040548FFC60BB521;IDS-12B -- ???????-????? -- 1 -- None -- 80 -- 0 -- Solo Pro II MVP -- 172.26.2.172;110;Lane 2;3/5/2012;22:15:00;100;15 Minutes;;;;;;404;101;110.633;0;78;19;3;1;8.910;3.254;A;108.477;2.105;3.723;
040548FFC60BB521;IDS-12B -- ???????-????? -- 1 -- None -- 80 -- 0 -- Solo Pro II MVP -- 172.26.2.172;113;Total;3/5/2012;22:15:00;100;15 Minutes;;;;;;468;234;99.219;0;184;34;9;7;7.836;4.066;A;96.199;2.828;4.863;
040548FFC60BB521;IDS-12B -- ???????-????? -- 1 -- None -- 80 -- 0 -- Solo Pro II MVP -- 172.26.2.172;109;Lane 1;3/5/2012;22:30:00;100;15 Minutes;;;;;;500;125;89.773;0;99;16;7;2;7.199;5.047;A;86.891;3.188;5.754;
040548FFC60BB521;IDS-12B -- ???????-????? -- 1 -- None -- 80 -- 0 -- Solo Pro II MVP -- 172.26.2.172;110;Lane 2;3/5/2012;22:30:00;100;15 Minutes;;;;;;352;88;110.145;0;68;16;3;1;10.227;2.934;A;108.973;1.898;3.227;
040548FFC60BB521;IDS-12B -- ???????-????? -- 1 -- None -- 80 -- 0 -- Solo Pro II MVP -- 172.26.2.172;113;Total;3/5/2012;22:30:00;100;15 Minutes;;;;;;426;213;98.191;0;167;32;10;3;8.711;3.988;A;94.828;2.520;4.492;
040548FFC60BB521;IDS-12B -- ???????-????? -- 1 -- None -- 80 -- 0 -- Solo Pro II MVP -- 172.26.2.172;109;Lane 1;3/5/2012;22:45:00;100;15 Minutes;;;;;;488;122;92.898;0;101;16;5;0;7.375;4.262;A;90.719;2.801;5.379;
040548FFC60BB521;IDS-12B -- ???????-????? -- 1 -- None -- 80 -- 0 -- Solo Pro II MVP -- 172.26.2.172;110;Lane 2;3/5/2012;22:45:00;100;15 Minutes;;;;;;272;68;106.500;0;46;15;6;0;13.234;2.176;A;105.313;1.547;2.582;
040548FFC60BB521;IDS-12B -- ???????-????? -- 1 -- None -- 80 -- 0 -- Solo Pro II MVP -- 172.26.2.172;113;Total;3/5/2012;22:45:00;100;15 Minutes;;;;;;380;190;97.766;0;147;31;11;0;10.305;3.219;A;95.453;2.172;3.980;
040548FFC60BB521;IDS-12B -- ???????-????? -- 1 -- None -- 80 -- 0 -- Solo Pro II MVP -- 172.26.2.172;109;Lane 1;3/5/2012;23:00:00;100;15 Minutes;;;;;;428;107;93.230;0;86;16;5;0;8.410;3.531;A;90.520;2.586;4.727;
040548FFC60BB521;IDS-12B -- ???????-????? -- 1 -- None -- 80 -- 0 -- Solo Pro II MVP -- 172.26.2.172;110;Lane 2;3/5/2012;23:00:00;100;15 Minutes;;;;;;184;46;114.391;0;32;12;1;1;19.563;1.516;A;112.629;0.977;1.633;
040548FFC60BB521;IDS-12B -- ???????-????? -- 1 -- None -- 80 -- 0 -- Solo Pro II MVP -- 172.26.2.172;113;Total;3/5/2012;23:00:00;100;15 Minutes;;;;;;306;153;99.594;0;118;28;6;1;13.984;2.523;A;96.199;1.773;3.180;
040548FFC60BB521;IDS-12B -- ???????-????? -- 1 -- None -- 80 -- 0 -- Solo Pro II MVP -- 172.26.2.172;109;Lane 1;3/5/2012;23:15:00;100;15 Minutes;;;;;;408;102;94.664;0;78;14;7;3;8.820;3.691;A;92.051;2.629;4.430;
040548FFC60BB521;IDS-12B -- ???????-????? -- 1 -- None -- 80 -- 0 -- Solo Pro II MVP -- 172.26.2.172;110;Lane 2;3/5/2012;23:15:00;100;15 Minutes;;;;;;216;54;111.387;0;39;9;3;2;16.664;1.730;A;109.148;1.180;1.977;
040548FFC60BB521;IDS-12B -- ???????-????? -- 1 -- None -- 80 -- 0 -- Solo Pro II MVP -- 172.26.2.172;113;Total;3/5/2012;23:15:00;100;15 Minutes;;;;;;312;156;100.453;0;117;23;10;5;12.742;2.711;A;97.328;1.895;3.203;
040548FFC60BB521;IDS-12B -- ???????-????? -- 1 -- None -- 80 -- 0 -- Solo Pro II MVP -- 172.26.2.172;109;Lane 1;3/5/2012;23:30:00;100;15 Minutes;;;;;;336;84;94.438;0;60;13;9;1;10.711;3.051;A;91.141;2.156;3.684;
040548FFC60BB521;IDS-12B -- ???????-????? -- 1 -- None -- 80 -- 0 -- Solo Pro II MVP -- 172.26.2.172;110;Lane 2;3/5/2012;23:30:00;100;15 Minutes;;;;;;144;36;112.719;0;25;6;4;1;25.000;1.070;A;110.785;0.793;1.297;
040548FFC60BB521;IDS-12B -- ???????-????? -- 1 -- None -- 80 -- 0 -- Solo Pro II MVP -- 172.26.2.172;113;Total;3/5/2012;23:30:00;100;15 Minutes;;;;;;240;120;99.922;0;85;19;13;2;17.855;2.059;A;96.262;1.469;2.492;
040548FFC60BB521;IDS-12B -- ???????-????? -- 1 -- None -- 80 -- 0 -- Solo Pro II MVP -- 172.26.2.172;109;Lane 1;3/5/2012;23:45:00;100;15 Minutes;;;;;;284;71;93.773;0;55;10;5;1;12.676;2.488;A;90.086;1.777;3.152;
040548FFC60BB521;IDS-12B -- ???????-????? -- 1 -- None -- 80 -- 0 -- Solo Pro II MVP -- 172.26.2.172;110;Lane 2;3/5/2012;23:45:00;100;15 Minutes;;;;;;120;30;109.098;0;24;5;1;0;30.000;1.023;A;106.676;0.645;1.121;
040548FFC60BB521;IDS-12B -- ???????-????? -- 1 -- None -- 80 -- 0 -- Solo Pro II MVP -- 172.26.2.172;113;Total;3/5/2012;23:45:00;100;15 Minutes;;;;;;202;101;98.324;0;79;15;6;1;21.336;1.754;A;94.449;1.203;2.137;
040548FFC60BB521;IDS-12B -- ???????-????? -- 1 -- None -- 80 -- 0 -- Solo Pro II MVP -- 172.26.2.172;109;Lane 1;4/5/2012;0:00:00;100;15 Minutes;;;;;;352;88;91.031;0;67;12;5;3;10.227;3.086;A;88.238;2.348;3.988;
040548FFC60BB521;IDS-12B -- ???????-????? -- 1 -- None -- 80 -- 0 -- Solo Pro II MVP -- 172.26.2.172;110;Lane 2;4/5/2012;0:00:00;100;15 Minutes;;;;;;132;33;111.242;0;21;9;2;1;27.270;1.051;A;108.375;0.738;1.215;
040548FFC60BB521;IDS-12B -- ???????-????? -- 1 -- None -- 80 -- 0 -- Solo Pro II MVP -- 172.26.2.172;113;Total;4/5/2012;0:00:00;100;15 Minutes;;;;;;242;121;96.543;0;88;21;7;4;18.746;2.066;A;92.949;1.531;2.602;
