CPU Identifier;Autoscope Description;Detector ID;Detector Title;Date;Time;Status;Data Interval;Ticks (millisec.);State;Speed;Length;Class;Average Flow Rate;Volume;Arithmetic Mean Speed;Class A Count;Class B Count;Class C Count;Class D Count;Class E Count;Average Time Headway;Average Time Occupancy;Level Of Service;Space Mean Speed;Space Occupancy;Density;
040548FF08FBB421;IDS-04B -- ??????-?????? -- 1 -- None -- 78 -- 0 -- Solo Pro II MVP -- 172.26.2.164;109;Lane 1;3/5/2012;0:00:00;100;15 Minutes;;;;;;244;61;95.770;0;46;15;0;0;14.754;2.672;A;92.453;1.188;2.637;
040548FF08FBB421;IDS-04B -- ??????-?????? -- 1 -- None -- 78 -- 0 -- Solo Pro II MVP -- 172.26.2.164;110;Lane 2;3/5/2012;0:00:00;100;15 Minutes;;;;;;84;21;114.332;0;15;4;1;1;42.855;0.852;A;113.289;0.406;0.738;
040548FF08FBB421;IDS-04B -- ??????-?????? -- 1 -- None -- 78 -- 0 -- Solo Pro II MVP -- 172.26.2.164;113;Total;3/5/2012;0:00:00;100;15 Minutes;;;;;;164;82;100.523;0;61;19;1;1;28.805;1.762;A;97.023;0.797;1.688;
040548FF08FBB421;IDS-04B -- ??????-?????? -- 1 -- None -- 78 -- 0 -- Solo Pro II MVP -- 172.26.2.164;109;Lane 1;3/5/2012;0:15:00;100;15 Minutes;;;;;;232;58;89.688;0;37;18;1;2;15.516;2.859;A;87.000;1.422;2.664;
040548FF08FBB421;IDS-04B -- ??????-?????? -- 1 -- None -- 78 -- 0 -- Solo Pro II MVP -- 172.26.2.164;110;Lane 2;3/5/2012;0:15:00;100;15 Minutes;;;;;;80;20;106.449;0;15;5;0;0;45.000;0.875;A;90.934;0.363;0.879;
040548FF08FBB421;IDS-04B -- ??????-?????? -- 1 -- None -- 78 -- 0 -- Solo Pro II MVP -- 172.26.2.164;113;Total;3/5/2012;0:15:00;100;15 Minutes;;;;;;156;78;93.984;0;52;23;1;2;30.258;1.867;A;87.977;0.887;1.770;
040548FF08FBB421;IDS-04B -- ??????-?????? -- 1 -- None -- 78 -- 0 -- Solo Pro II MVP -- 172.26.2.164;109;Lane 1;3/5/2012;0:30:00;100;15 Minutes;;;;;;188;47;92.531;0;39;8;0;0;19.148;2.059;A;89.559;0.961;2.098;
040548FF08FBB421;IDS-04B -- ??????-?????? -- 1 -- None -- 78 -- 0 -- Solo Pro II MVP -- 172.26.2.164;110;Lane 2;3/5/2012;0:30:00;100;15 Minutes;;;;;;48;12;109.082;0;7;4;1;0;75.000;0.473;A;104.980;0.227;0.457;
040548FF08FBB421;IDS-04B -- ??????-?????? -- 1 -- None -- 78 -- 0 -- Solo Pro II MVP -- 172.26.2.164;113;Total;3/5/2012;0:30:00;100;15 Minutes;;;;;;118;59;95.895;0;46;12;1;0;47.074;1.266;A;92.316;0.594;1.277;
040548FF08FBB421;IDS-04B -- ??????-?????? -- 1 -- None -- 78 -- 0 -- Solo Pro II MVP -- 172.26.2.164;109;Lane 1;3/5/2012;0:45:00;100;15 Minutes;;;;;;212;53;96.109;0;31;20;0;2;16.980;2.305;A;92.027;1.188;2.301;
040548FF08FBB421;IDS-04B -- ??????-?????? -- 1 -- None -- 78 -- 0 -- Solo Pro II MVP -- 172.26.2.164;110;Lane 2;3/5/2012;0:45:00;100;15 Minutes;;;;;;32;8;107.125;0;5;3;0;0;112.500;0.297;A;105.828;0.156;0.301;
040548FF08FBB421;IDS-04B -- ??????-?????? -- 1 -- None -- 78 -- 0 -- Solo Pro II MVP -- 172.26.2.164;113;Total;3/5/2012;0:45:00;100;15 Minutes;;;;;;122;61;97.555;0;36;23;0;2;64.738;1.301;A;93.629;0.672;1.301;
040548FF08FBB421;IDS-04B -- ??????-?????? -- 1 -- None -- 78 -- 0 -- Solo Pro II MVP -- 172.26.2.164;109;Lane 1;3/5/2012;1:00:00;100;15 Minutes;;;;;;204;51;97.078;0;37;12;1;1;17.645;2.141;A;93.871;1.055;2.172;
040548FF08FBB421;IDS-04B -- ??????-?????? -- 1 -- None -- 78 -- 0 -- Solo Pro II MVP -- 172.26.2.164;110;Lane 2;3/5/2012;1:00:00;100;15 Minutes;;;;;;40;10;112.500;0;7;3;0;0;90.000;0.379;A;109.242;0.164;0.363;
040548FF08FBB421;IDS-04B -- ??????-?????? -- 1 -- None -- 78 -- 0 -- Solo Pro II MVP -- 172.26.2.164;113;Total;3/5/2012;1:00:00;100;15 Minutes;;;;;;122;61;99.605;0;44;15;1;1;53.820;1.258;A;96.086;0.605;1.270;
040548FF08FBB421;IDS-04B -- ??????-?????? -- 1 -- None -- 78 -- 0 -- Solo Pro II MVP -- 172.26.2.164;109;Lane 1;3/5/2012;1:15:00;100;15 Minutes;;;;;;212;53;93.355;0;28;21;3;1;16.980;2.555;A;90.383;1.305;2.344;
040548FF08FBB421;IDS-04B -- ??????-?????? -- 1 -- None -- 78 -- 0 -- Solo Pro II MVP -- 172.26.2.164;110;Lane 2;3/5/2012;1:15:00;100;15 Minutes;;;;;;32;8;101.250;0;6;2;0;0;112.500;0.332;A;99.672;0.152;0.320;
040548FF08FBB421;IDS-04B -- ??????-?????? -- 1 -- None -- 78 -- 0 -- Solo Pro II MVP -- 172.26.2.164;113;Total;3/5/2012;1:15:00;100;15 Minutes;;;;;;122;61;94.391;0;34;23;3;1;64.738;1.441;A;91.500;0.727;1.332;
040548FF08FBB421;IDS-04B -- ??????-?????? -- 1 -- None -- 78 -- 0 -- Solo Pro II MVP -- 172.26.2.164;109;Lane 1;3/5/2012;1:30:00;100;15 Minutes;;;;;;164;41;89.656;0;25;11;4;0;21.949;2.105;A;86.875;1.000;1.887;
040548FF08FBB421;IDS-04B -- ??????-?????? -- 1 -- None -- 78 -- 0 -- Solo Pro II MVP -- 172.26.2.164;110;Lane 2;3/5/2012;1:30:00;100;15 Minutes;;;;;;8;2;96.000;0;1;1;0;0;255.996;0.086;A;95.813;0.039;0.082;
040548FF08FBB421;IDS-04B -- ??????-?????? -- 1 -- None -- 78 -- 0 -- Solo Pro II MVP -- 172.26.2.164;113;Total;3/5/2012;1:30:00;100;15 Minutes;;;;;;86;43;89.953;0;26;12;4;0;235.973;1.094;A;87.254;0.520;0.984;
040548FF08FBB421;IDS-04B -- ??????-?????? -- 1 -- None -- 78 -- 0 -- Solo Pro II MVP -- 172.26.2.164;109;Lane 1;3/5/2012;1:45:00;100;15 Minutes;;;;;;120;30;93.766;0;21;7;1;1;30.000;1.285;A;89.402;0.695;1.340;
040548FF08FBB421;IDS-04B -- ??????-?????? -- 1 -- None -- 78 -- 0 -- Solo Pro II MVP -- 172.26.2.164;110;Lane 2;3/5/2012;1:45:00;100;15 Minutes;;;;;;28;7;126.426;0;6;1;0;0;128.570;0.246;A;123.551;0.102;0.227;
040548FF08FBB421;IDS-04B -- ??????-?????? -- 1 -- None -- 78 -- 0 -- Solo Pro II MVP -- 172.26.2.164;113;Total;3/5/2012;1:45:00;100;15 Minutes;;;;;;74;37;99.945;0;27;8;1;1;79.285;0.766;A;94.336;0.391;0.781;
040548FF08FBB421;IDS-04B -- ??????-?????? -- 1 -- None -- 78 -- 0 -- Solo Pro II MVP -- 172.26.2.164;109;Lane 1;3/5/2012;2:00:00;100;15 Minutes;;;;;;152;38;92.367;0;24;11;1;2;23.684;1.746;A;88.371;0.938;1.719;
040548FF08FBB421;IDS-04B -- ??????-?????? -- 1 -- None -- 78 -- 0 -- Solo Pro II MVP -- 172.26.2.164;110;Lane 2;3/5/2012;2:00:00;100;15 Minutes;;;;;;28;7;118.570;0;6;1;0;0;128.570;0.246;A;117.625;0.117;0.234;
040548FF08FBB421;IDS-04B -- ??????-?????? -- 1 -- None -- 78 -- 0 -- Solo Pro II MVP -- 172.26.2.164;113;Total;3/5/2012;2:00:00;100;15 Minutes;;;;;;90;45;96.441;0;30;12;1;2;76.125;0.996;A;91.930;0.520;0.977;
040548FF08FBB421;IDS-04B -- ??????-?????? -- 1 -- None -- 78 -- 0 -- Solo Pro II MVP -- 172.26.2.164;109;Lane 1;3/5/2012;2:15:00;100;15 Minutes;;;;;;132;33;91.574;0;19;12;1;1;27.270;1.469;A;89.875;0.824;1.465;
040548FF08FBB421;IDS-04B -- ??????-?????? -- 1 -- None -- 78 -- 0 -- Solo Pro II MVP -- 172.26.2.164;110;Lane 2;3/5/2012;2:15:00;100;15 Minutes;;;;;;32;8;118.000;0;6;2;0;0;112.500;0.359;A;114.898;0.137;0.277;
040548FF08FBB421;IDS-04B -- ??????-?????? -- 1 -- None -- 78 -- 0 -- Solo Pro II MVP -- 172.26.2.164;113;Total;3/5/2012;2:15:00;100;15 Minutes;;;;;;82;41;96.730;0;25;14;1;1;69.883;0.914;A;93.863;0.473;0.871;
040548FF08FBB421;IDS-04B -- ??????-?????? -- 1 -- None -- 78 -- 0 -- Solo Pro II MVP -- 172.26.2.164;109;Lane 1;3/5/2012;2:30:00;100;15 Minutes;;;;;;196;49;93.590;0;27;18;2;2;18.367;2.449;A;88.664;1.203;2.207;
040548FF08FBB421;IDS-04B -- ??????-?????? -- 1 -- None -- 78 -- 0 -- Solo Pro II MVP -- 172.26.2.164;110;Lane 2;3/5/2012;2:30:00;100;15 Minutes;;;;;;36;9;109.332;0;7;2;0;0;100.000;0.336;A;108.023;0.145;0.332;
040548FF08FBB421;IDS-04B -- ??????-?????? -- 1 -- None -- 78 -- 0 -- Solo Pro II MVP -- 172.26.2.164;113;Total;3/5/2012;2:30:00;100;15 Minutes;;;;;;116;58;96.031;0;34;20;2;2;59.184;1.391;A;91.203;0.668;1.270;
040548FF08FBB421;IDS-04B -- ??????-?????? -- 1 -- None -- 78 -- 0 -- Solo Pro II MVP -- 172.26.2.164;109;Lane 1;3/5/2012;2:45:00;100;15 Minutes;;;;;;120;30;88.430;0;16;12;0;1;30.000;1.719;A;85.488;0.719;1.402;
040548FF08FBB421;IDS-04B -- ??????-?????? -- 1 -- None -- 78 -- 0 -- Solo Pro II MVP -- 172.26.2.164;110;Lane 2;3/5/2012;2:45:00;100;15 Minutes;;;;;;40;10;112.797;0;8;2;0;0;90.000;0.383;A;110.070;0.172;0.363;
040548FF08FBB421;IDS-04B -- ??????-?????? -- 1 -- None -- 78 -- 0 -- Solo Pro II MVP -- 172.26.2.164;113;Total;3/5/2012;2:45:00;100;15 Minutes;;;;;;80;40;94.523;0;24;14;0;1;60.000;1.051;A;90.543;0.441;0.883;
040548FF08FBB421;IDS-04B -- ??????-?????? -- 1 -- None -- 78 -- 0 -- Solo Pro II MVP -- 172.26.2.164;109;Lane 1;3/5/2012;3:00:00;100;15 Minutes;;;;;;152;38;90.500;0;21;12;4;1;23.684;1.836;A;87.641;1.035;1.730;
040548FF08FBB421;IDS-04B -- ??????-?????? -- 1 -- None -- 78 -- 0 -- Solo Pro II MVP -- 172.26.2.164;110;Lane 2;3/5/2012;3:00:00;100;15 Minutes;;;;;;20;5;106.598;0;2;3;0;0;180.000;0.250;A;104.156;0.102;0.191;
040548FF08FBB421;IDS-04B -- ??????-?????? -- 1 -- None -- 78 -- 0 -- Solo Pro II MVP -- 172.26.2.164;113;Total;3/5/2012;3:00:00;100;15 Minutes;;;;;;86;43;92.371;0;23;15;4;1;101.840;1.043;A;89.285;0.566;0.961;
040548FF08FBB421;IDS-04B -- ??????-?????? -- 1 -- None -- 78 -- 0 -- Solo Pro II MVP -- 172.26.2.164;109;Lane 1;3/5/2012;3:15:00;100;15 Minutes;;;;;;160;40;96.000;0;33;6;1;0;22.500;1.723;A;91.023;0.789;1.754;
040548FF08FBB421;IDS-04B -- ??????-?????? -- 1 -- None -- 78 -- 0 -- Solo Pro II MVP -- 172.26.2.164;110;Lane 2;3/5/2012;3:15:00;100;15 Minutes;;;;;;32;8;108.000;0;6;2;0;0;112.500;0.324;A;106.430;0.148;0.297;
040548FF08FBB421;IDS-04B -- ??????-?????? -- 1 -- None -- 78 -- 0 -- Solo Pro II MVP -- 172.26.2.164;113;Total;3/5/2012;3:15:00;100;15 Minutes;;;;;;96;48;98.000;0;39;8;1;0;67.500;1.023;A;93.273;0.469;1.027;
040548FF08FBB421;IDS-04B -- ??????-?????? -- 1 -- None -- 78 -- 0 -- Solo Pro II MVP -- 172.26.2.164;109;Lane 1;3/5/2012;3:30:00;100;15 Minutes;;;;;;168;42;96.234;0;23;15;2;2;21.426;2.117;A;91.656;1.051;1.832;
040548FF08FBB421;IDS-04B -- ??????-?????? -- 1 -- None -- 78 -- 0 -- Solo Pro II MVP -- 172.26.2.164;110;Lane 2;3/5/2012;3:30:00;100;15 Minutes;;;;;;36;9;112.219;0;6;2;1;0;100.000;0.313;A;110.020;0.172;0.324;
040548FF08FBB421;IDS-04B -- ??????-?????? -- 1 -- None -- 78 -- 0 -- Solo Pro II MVP -- 172.26.2.164;113;Total;3/5/2012;3:30:00;100;15 Minutes;;;;;;102;51;99.059;0;29;17;3;2;60.711;1.215;A;94.438;0.605;1.078;
040548FF08FBB421;IDS-04B -- ??????-?????? -- 1 -- None -- 78 -- 0 -- Solo Pro II MVP -- 172.26.2.164;109;Lane 1;3/5/2012;3:45:00;100;15 Minutes;;;;;;176;44;89.340;0;26;15;2;1;20.453;2.133;A;85.836;1.082;2.047;
040548FF08FBB421;IDS-04B -- ??????-?????? -- 1 -- None -- 78 -- 0 -- Solo Pro II MVP -- 172.26.2.164;110;Lane 2;3/5/2012;3:45:00;100;15 Minutes;;;;;;52;13;108.535;0;9;4;0;0;69.230;0.484;A;105.504;0.230;0.492;
040548FF08FBB421;IDS-04B -- ??????-?????? -- 1 -- None -- 78 -- 0 -- Solo Pro II MVP -- 172.26.2.164;113;Total;3/5/2012;3:45:00;100;15 Minutes;;;;;;114;57;93.719;0;35;19;2;1;44.840;1.309;A;89.648;0.648;1.270;
040548FF08FBB421;IDS-04B -- ??????-?????? -- 1 -- None -- 78 -- 0 -- Solo Pro II MVP -- 172.26.2.164;109;Lane 1;3/5/2012;4:00:00;100;15 Minutes;;;;;;200;50;90.840;0;29;18;2;1;18.000;2.305;A;88.102;1.230;2.270;
040548FF08FBB421;IDS-04B -- ??????-?????? -- 1 -- None -- 78 -- 0 -- Solo Pro II MVP -- 172.26.2.164;110;Lane 2;3/5/2012;4:00:00;100;15 Minutes;;;;;;52;13;108.152;0;9;3;1;0;69.230;0.527;A;105.848;0.238;0.488;
040548FF08FBB421;IDS-04B -- ??????-?????? -- 1 -- None -- 78 -- 0 -- Solo Pro II MVP -- 172.26.2.164;113;Total;3/5/2012;4:00:00;100;15 Minutes;;;;;;126;63;94.410;0;38;21;3;1;43.613;1.414;A;91.258;0.730;1.379;
040548FF08FBB421;IDS-04B -- ??????-?????? -- 1 -- None -- 78 -- 0 -- Solo Pro II MVP -- 172.26.2.164;109;Lane 1;3/5/2012;4:15:00;100;15 Minutes;;;;;;244;61;93.523;0;48;12;1;0;14.754;2.605;A;90.578;1.238;2.691;
040548FF08FBB421;IDS-04B -- ??????-?????? -- 1 -- None -- 78 -- 0 -- Solo Pro II MVP -- 172.26.2.164;110;Lane 2;3/5/2012;4:15:00;100;15 Minutes;;;;;;56;14;115.711;0;13;1;0;0;64.285;0.500;A;114.430;0.207;0.488;
040548FF08FBB421;IDS-04B -- ??????-?????? -- 1 -- None -- 78 -- 0 -- Solo Pro II MVP -- 172.26.2.164;113;Total;3/5/2012;4:15:00;100;15 Minutes;;;;;;150;75;97.664;0;61;13;1;0;39.520;1.551;A;94.246;0.715;1.590;
040548FF08FBB421;IDS-04B -- ??????-?????? -- 1 -- None -- 78 -- 0 -- Solo Pro II MVP -- 172.26.2.164;109;Lane 1;3/5/2012;4:30:00;100;15 Minutes;;;;;;220;55;85.070;0;32;17;3;3;16.363;2.824;A;82.414;1.598;2.668;
040548FF08FBB421;IDS-04B -- ??????-?????? -- 1 -- None -- 78 -- 0 -- Solo Pro II MVP -- 172.26.2.164;110;Lane 2;3/5/2012;4:30:00;100;15 Minutes;;;;;;72;18;104.719;0;12;4;1;1;50.000;0.785;A;103.648;0.406;0.691;
040548FF08FBB421;IDS-04B -- ??????-?????? -- 1 -- None -- 78 -- 0 -- Solo Pro II MVP -- 172.26.2.164;113;Total;3/5/2012;4:30:00;100;15 Minutes;;;;;;146;73;89.914;0;44;21;4;4;33.180;1.805;A;86.797;0.992;1.680;
040548FF08FBB421;IDS-04B -- ??????-?????? -- 1 -- None -- 78 -- 0 -- Solo Pro II MVP -- 172.26.2.164;109;Lane 1;3/5/2012;4:45:00;100;15 Minutes;;;;;;328;82;89.191;0;48;29;2;3;10.973;3.875;A;85.145;2.086;3.852;
040548FF08FBB421;IDS-04B -- ??????-?????? -- 1 -- None -- 78 -- 0 -- Solo Pro II MVP -- 172.26.2.164;110;Lane 2;3/5/2012;4:45:00;100;15 Minutes;;;;;;100;25;105.078;0;12;10;2;1;36.000;1.078;A;101.914;0.605;0.980;
040548FF08FBB421;IDS-04B -- ??????-?????? -- 1 -- None -- 78 -- 0 -- Solo Pro II MVP -- 172.26.2.164;113;Total;3/5/2012;4:45:00;100;15 Minutes;;;;;;214;107;92.906;0;60;39;4;4;23.484;2.477;A;88.551;1.344;2.414;
040548FF08FBB421;IDS-04B -- ??????-?????? -- 1 -- None -- 78 -- 0 -- Solo Pro II MVP -- 172.26.2.164;109;Lane 1;3/5/2012;5:00:00;100;15 Minutes;;;;;;308;77;88.336;0;41;29;5;1;11.688;3.949;A;85.813;1.938;3.586;
040548FF08FBB421;IDS-04B -- ??????-?????? -- 1 -- None -- 78 -- 0 -- Solo Pro II MVP -- 172.26.2.164;110;Lane 2;3/5/2012;5:00:00;100;15 Minutes;;;;;;164;41;108.191;0;31;10;0;0;21.949;1.590;A;106.680;0.742;1.535;
040548FF08FBB421;IDS-04B -- ??????-?????? -- 1 -- None -- 78 -- 0 -- Solo Pro II MVP -- 172.26.2.164;113;Total;3/5/2012;5:00:00;100;15 Minutes;;;;;;236;118;95.234;0;72;39;5;1;16.816;2.770;A;92.070;1.320;2.563;
040548FF08FBB421;IDS-04B -- ??????-?????? -- 1 -- None -- 78 -- 0 -- Solo Pro II MVP -- 172.26.2.164;109;Lane 1;3/5/2012;5:15:00;100;15 Minutes;;;;;;384;96;90.719;0;57;29;4;6;9.375;5.027;A;85.770;2.641;4.477;
040548FF08FBB421;IDS-04B -- ??????-?????? -- 1 -- None -- 78 -- 0 -- Solo Pro II MVP -- 172.26.2.164;110;Lane 2;3/5/2012;5:15:00;100;15 Minutes;;;;;;192;48;105.438;0;36;9;1;2;18.750;1.953;A;103.641;0.941;1.852;
040548FF08FBB421;IDS-04B -- ??????-?????? -- 1 -- None -- 78 -- 0 -- Solo Pro II MVP -- 172.26.2.164;113;Total;3/5/2012;5:15:00;100;15 Minutes;;;;;;288;144;95.625;0;93;38;5;8;14.063;3.488;A;91.000;1.773;3.164;
040548FF08FBB421;IDS-04B -- ??????-?????? -- 1 -- None -- 78 -- 0 -- Solo Pro II MVP -- 172.26.2.164;109;Lane 1;3/5/2012;5:30:00;100;15 Minutes;;;;;;464;116;85.301;0;73;30;10;3;7.758;5.922;A;82.793;3.098;5.602;
040548FF08FBB421;IDS-04B -- ??????-?????? -- 1 -- None -- 78 -- 0 -- Solo Pro II MVP -- 172.26.2.164;110;Lane 2;3/5/2012;5:30:00;100;15 Minutes;;;;;;268;67;109.340;0;50;17;0;0;13.430;2.555;A;107.336;1.191;2.496;
040548FF08FBB421;IDS-04B -- ??????-?????? -- 1 -- None -- 78 -- 0 -- Solo Pro II MVP -- 172.26.2.164;113;Total;3/5/2012;5:30:00;100;15 Minutes;;;;;;366;183;94.102;0;123;47;10;3;10.594;4.238;A;90.355;2.098;4.047;
040548FF08FBB421;IDS-04B -- ??????-?????? -- 1 -- None -- 78 -- 0 -- Solo Pro II MVP -- 172.26.2.164;109;Lane 1;3/5/2012;5:45:00;100;15 Minutes;;;;;;476;119;95.512;0;96;19;3;1;7.563;4.625;A;93.109;2.387;5.109;
040548FF08FBB421;IDS-04B -- ??????-?????? -- 1 -- None -- 78 -- 0 -- Solo Pro II MVP -- 172.26.2.164;110;Lane 2;3/5/2012;5:45:00;100;15 Minutes;;;;;;304;76;113.523;0;64;12;0;0;11.840;2.574;A;112.164;1.137;2.707;
040548FF08FBB421;IDS-04B -- ??????-?????? -- 1 -- None -- 78 -- 0 -- Solo Pro II MVP -- 172.26.2.164;113;Total;3/5/2012;5:45:00;100;15 Minutes;;;;;;390;195;102.531;0;160;31;3;1;9.699;3.598;A;99.711;1.742;3.910;
040548FF08FBB421;IDS-04B -- ??????-?????? -- 1 -- None -- 78 -- 0 -- Solo Pro II MVP -- 172.26.2.164;109;Lane 1;3/5/2012;6:00:00;100;15 Minutes;;;;;;612;153;94.730;0;90;44;7;11;5.879;5.738;A;92.391;3.926;6.621;
040548FF08FBB421;IDS-04B -- ??????-?????? -- 1 -- None -- 78 -- 0 -- Solo Pro II MVP -- 172.26.2.164;110;Lane 2;3/5/2012;6:00:00;100;15 Minutes;;;;;;432;108;113.535;0;84;21;2;1;8.332;3.168;A;112.832;1.852;3.828;
040548FF08FBB421;IDS-04B -- ??????-?????? -- 1 -- None -- 78 -- 0 -- Solo Pro II MVP -- 172.26.2.164;113;Total;3/5/2012;6:00:00;100;15 Minutes;;;;;;522;261;102.512;0;174;65;9;12;7.105;4.453;A;100.023;2.840;5.219;
040548FF08FBB421;IDS-04B -- ??????-?????? -- 1 -- None -- 78 -- 0 -- Solo Pro II MVP -- 172.26.2.164;109;Lane 1;3/5/2012;6:15:00;100;15 Minutes;;;;;;676;169;96.816;0;110;47;5;7;5.324;6.016;A;94.914;3.941;7.121;
040548FF08FBB421;IDS-04B -- ??????-?????? -- 1 -- None -- 78 -- 0 -- Solo Pro II MVP -- 172.26.2.164;110;Lane 2;3/5/2012;6:15:00;100;15 Minutes;;;;;;456;114;117.324;0;96;15;0;3;7.895;3.246;A;116.332;1.922;3.918;
040548FF08FBB421;IDS-04B -- ??????-?????? -- 1 -- None -- 78 -- 0 -- Solo Pro II MVP -- 172.26.2.164;113;Total;3/5/2012;6:15:00;100;15 Minutes;;;;;;566;283;105.074;0;206;62;5;10;6.609;4.629;A;102.617;2.887;5.516;
040548FF08FBB421;IDS-04B -- ??????-?????? -- 1 -- None -- 78 -- 0 -- Solo Pro II MVP -- 172.26.2.164;109;Lane 1;3/5/2012;6:30:00;100;15 Minutes;;;;;;828;207;97.270;0;147;49;4;7;4.348;7.559;A;96.020;4.570;8.621;
040548FF08FBB421;IDS-04B -- ??????-?????? -- 1 -- None -- 78 -- 0 -- Solo Pro II MVP -- 172.26.2.164;110;Lane 2;3/5/2012;6:30:00;100;15 Minutes;;;;;;820;205;115.023;0;164;39;0;2;4.387;5.930;A;114.086;3.438;7.188;
040548FF08FBB421;IDS-04B -- ??????-?????? -- 1 -- None -- 78 -- 0 -- Solo Pro II MVP -- 172.26.2.164;113;Total;3/5/2012;6:30:00;100;15 Minutes;;;;;;824;412;106.102;0;311;88;4;9;4.367;6.742;A;104.324;3.961;7.898;
040548FF08FBB421;IDS-04B -- ??????-?????? -- 1 -- None -- 78 -- 0 -- Solo Pro II MVP -- 172.26.2.164;109;Lane 1;3/5/2012;6:45:00;100;15 Minutes;;;;;;1092;273;98.258;0;203;55;7;8;3.293;10.266;A;96.930;5.758;11.266;
040548FF08FBB421;IDS-04B -- ??????-?????? -- 1 -- None -- 78 -- 0 -- Solo Pro II MVP -- 172.26.2.164;110;Lane 2;3/5/2012;6:45:00;100;15 Minutes;;;;;;1100;275;115.508;0;207;58;2;7;3.270;8.832;A;115.031;4.809;9.563;
040548FF08FBB421;IDS-04B -- ??????-?????? -- 1 -- None -- 78 -- 0 -- Solo Pro II MVP -- 172.26.2.164;113;Total;3/5/2012;6:45:00;100;15 Minutes;;;;;;1096;548;106.914;0;410;113;9;15;3.281;9.547;A;105.160;5.242;10.422;
040548FF08FBB421;IDS-04B -- ??????-?????? -- 1 -- None -- 78 -- 0 -- Solo Pro II MVP -- 172.26.2.164;109;Lane 1;3/5/2012;7:00:00;100;15 Minutes;;;;;;1232;308;98.121;0;250;48;5;4;2.922;11.496;A;96.508;5.859;12.766;
040548FF08FBB421;IDS-04B -- ??????-?????? -- 1 -- None -- 78 -- 0 -- Solo Pro II MVP -- 172.26.2.164;110;Lane 2;3/5/2012;7:00:00;100;15 Minutes;;;;;;1516;379;113.547;0;308;58;5;8;2.371;12.172;A;112.688;6.723;13.453;
040548FF08FBB421;IDS-04B -- ??????-?????? -- 1 -- None -- 78 -- 0 -- Solo Pro II MVP -- 172.26.2.164;113;Total;3/5/2012;7:00:00;100;15 Minutes;;;;;;1374;687;106.633;0;558;106;10;12;2.645;11.832;A;104.809;6.273;13.109;
040548FF08FBB421;IDS-04B -- ??????-?????? -- 1 -- None -- 78 -- 0 -- Solo Pro II MVP -- 172.26.2.164;109;Lane 1;3/5/2012;7:15:00;100;15 Minutes;;;;;;1288;322;94.840;0;257;54;6;5;2.793;13.035;A;93.563;6.449;13.766;
040548FF08FBB421;IDS-04B -- ??????-?????? -- 1 -- None -- 78 -- 0 -- Solo Pro II MVP -- 172.26.2.164;110;Lane 2;3/5/2012;7:15:00;100;15 Minutes;;;;;;1796;449;112.059;0;364;77;6;2;2.004;14.648;A;111.270;7.930;16.141;
040548FF08FBB421;IDS-04B -- ??????-?????? -- 1 -- None -- 78 -- 0 -- Solo Pro II MVP -- 172.26.2.164;113;Total;3/5/2012;7:15:00;100;15 Minutes;;;;;;1542;771;104.867;0;621;131;12;7;2.398;13.840;A;103.121;7.152;14.953;
040548FF08FBB421;IDS-04B -- ??????-?????? -- 1 -- None -- 78 -- 0 -- Solo Pro II MVP -- 172.26.2.164;109;Lane 1;3/5/2012;7:30:00;100;15 Minutes;;;;;;1312;328;95.566;0;260;60;3;5;2.742;13.070;A;94.027;6.441;13.953;
040548FF08FBB421;IDS-04B -- ??????-?????? -- 1 -- None -- 78 -- 0 -- Solo Pro II MVP -- 172.26.2.164;110;Lane 2;3/5/2012;7:30:00;100;15 Minutes;;;;;;1664;416;112.758;0;366;45;2;3;2.160;13.105;A;111.980;6.695;14.859;
040548FF08FBB421;IDS-04B -- ??????-?????? -- 1 -- None -- 78 -- 0 -- Solo Pro II MVP -- 172.26.2.164;113;Total;3/5/2012;7:30:00;100;15 Minutes;;;;;;1488;744;105.180;0;626;105;5;8;2.449;13.086;A;103.230;6.516;14.414;
040548FF08FBB421;IDS-04B -- ??????-?????? -- 1 -- None -- 78 -- 0 -- Solo Pro II MVP -- 172.26.2.164;109;Lane 1;3/5/2012;7:45:00;100;15 Minutes;;;;;;1428;357;95.891;0;302;47;2;6;2.520;13.895;A;94.605;6.750;15.094;
040548FF08FBB421;IDS-04B -- ??????-?????? -- 1 -- None -- 78 -- 0 -- Solo Pro II MVP -- 172.26.2.164;110;Lane 2;3/5/2012;7:45:00;100;15 Minutes;;;;;;1980;495;110.059;0;445;46;2;1;1.816;15.414;A;109.332;7.555;18.109;
040548FF08FBB421;IDS-04B -- ??????-?????? -- 1 -- None -- 78 -- 0 -- Solo Pro II MVP -- 172.26.2.164;113;Total;3/5/2012;7:45:00;100;15 Minutes;;;;;;1704;852;104.121;0;747;93;4;7;2.168;14.652;A;102.641;7.102;16.602;
040548FF08FBB421;IDS-04B -- ??????-?????? -- 1 -- None -- 78 -- 0 -- Solo Pro II MVP -- 172.26.2.164;109;Lane 1;3/5/2012;8:00:00;100;15 Minutes;;;;;;1236;309;97.254;0;248;55;3;1;2.910;11.773;A;96.230;5.570;12.844;
040548FF08FBB421;IDS-04B -- ??????-?????? -- 1 -- None -- 78 -- 0 -- Solo Pro II MVP -- 172.26.2.164;110;Lane 2;3/5/2012;8:00:00;100;15 Minutes;;;;;;1544;386;113.160;0;334;48;4;0;2.328;11.691;A;112.289;5.770;13.750;
040548FF08FBB421;IDS-04B -- ??????-?????? -- 1 -- None -- 78 -- 0 -- Solo Pro II MVP -- 172.26.2.164;113;Total;3/5/2012;8:00:00;100;15 Minutes;;;;;;1390;695;106.086;0;582;103;7;1;2.617;11.730;A;104.535;5.633;13.297;
040548FF08FBB421;IDS-04B -- ??????-?????? -- 1 -- None -- 78 -- 0 -- Solo Pro II MVP -- 172.26.2.164;109;Lane 1;3/5/2012;8:15:00;100;15 Minutes;;;;;;1340;335;92.430;0;261;68;4;2;2.684;12.703;A;91.230;6.672;14.688;
040548FF08FBB421;IDS-04B -- ??????-?????? -- 1 -- None -- 78 -- 0 -- Solo Pro II MVP -- 172.26.2.164;110;Lane 2;3/5/2012;8:15:00;100;15 Minutes;;;;;;1796;449;107.793;0;361;82;3;2;2.004;13.777;A;106.723;7.609;16.828;
040548FF08FBB421;IDS-04B -- ??????-?????? -- 1 -- None -- 78 -- 0 -- Solo Pro II MVP -- 172.26.2.164;113;Total;3/5/2012;8:15:00;100;15 Minutes;;;;;;1568;784;101.227;0;622;150;7;4;2.344;13.238;A;99.504;7.098;15.758;
040548FF08FBB421;IDS-04B -- ??????-?????? -- 1 -- None -- 78 -- 0 -- Solo Pro II MVP -- 172.26.2.164;109;Lane 1;3/5/2012;8:30:00;100;15 Minutes;;;;;;1260;315;97.027;0;231;74;9;1;2.855;11.215;A;95.316;6.160;13.219;
040548FF08FBB421;IDS-04B -- ??????-?????? -- 1 -- None -- 78 -- 0 -- Solo Pro II MVP -- 172.26.2.164;110;Lane 2;3/5/2012;8:30:00;100;15 Minutes;;;;;;1436;359;112.801;0;271;84;1;3;2.504;10.848;A;111.668;5.977;12.859;
040548FF08FBB421;IDS-04B -- ??????-?????? -- 1 -- None -- 78 -- 0 -- Solo Pro II MVP -- 172.26.2.164;113;Total;3/5/2012;8:30:00;100;15 Minutes;;;;;;1348;674;105.430;0;502;158;10;4;2.680;11.031;A;103.379;6.031;13.039;
040548FF08FBB421;IDS-04B -- ??????-?????? -- 1 -- None -- 78 -- 0 -- Solo Pro II MVP -- 172.26.2.164;109;Lane 1;3/5/2012;8:45:00;100;15 Minutes;;;;;;1320;330;95.348;0;248;78;3;1;2.727;12.160;A;91.230;6.391;14.469;
040548FF08FBB421;IDS-04B -- ??????-?????? -- 1 -- None -- 78 -- 0 -- Solo Pro II MVP -- 172.26.2.164;110;Lane 2;3/5/2012;8:45:00;100;15 Minutes;;;;;;1620;405;112.563;0;303;96;3;3;2.219;12.125;A;111.723;6.859;14.500;
040548FF08FBB421;IDS-04B -- ??????-?????? -- 1 -- None -- 78 -- 0 -- Solo Pro II MVP -- 172.26.2.164;113;Total;3/5/2012;8:45:00;100;15 Minutes;;;;;;1470;735;104.836;0;551;174;6;4;2.473;12.141;A;101.488;6.590;14.484;
040548FF08FBB421;IDS-04B -- ??????-?????? -- 1 -- None -- 78 -- 0 -- Solo Pro II MVP -- 172.26.2.164;109;Lane 1;3/5/2012;9:00:00;100;15 Minutes;;;;;;1216;304;92.629;0;215;82;4;2;2.957;10.672;A;88.738;6.160;13.703;
040548FF08FBB421;IDS-04B -- ??????-?????? -- 1 -- None -- 78 -- 0 -- Solo Pro II MVP -- 172.26.2.164;110;Lane 2;3/5/2012;9:00:00;100;15 Minutes;;;;;;1404;351;106.762;0;252;94;3;1;2.563;10.055;A;104.969;6.223;13.375;
040548FF08FBB421;IDS-04B -- ??????-?????? -- 1 -- None -- 78 -- 0 -- Solo Pro II MVP -- 172.26.2.164;113;Total;3/5/2012;9:00:00;100;15 Minutes;;;;;;1310;655;100.203;0;467;176;7;3;2.758;10.363;A;96.754;6.164;13.539;
040548FF08FBB421;IDS-04B -- ??????-?????? -- 1 -- None -- 78 -- 0 -- Solo Pro II MVP -- 172.26.2.164;109;Lane 1;3/5/2012;9:15:00;100;15 Minutes;;;;;;1292;323;89.000;0;235;80;3;3;2.785;10.633;A;86.855;6.824;14.875;
040548FF08FBB421;IDS-04B -- ??????-?????? -- 1 -- None -- 78 -- 0 -- Solo Pro II MVP -- 172.26.2.164;110;Lane 2;3/5/2012;9:15:00;100;15 Minutes;;;;;;1664;416;101.191;0;324;83;1;2;2.160;11.230;A;99.902;7.340;16.656;
040548FF08FBB421;IDS-04B -- ??????-?????? -- 1 -- None -- 78 -- 0 -- Solo Pro II MVP -- 172.26.2.164;113;Total;3/5/2012;9:15:00;100;15 Minutes;;;;;;1478;739;95.863;0;559;163;4;5;2.473;10.930;A;93.699;7.043;15.773;
040548FF08FBB421;IDS-04B -- ??????-?????? -- 1 -- None -- 78 -- 0 -- Solo Pro II MVP -- 172.26.2.164;109;Lane 1;3/5/2012;9:30:00;100;15 Minutes;;;;;;1244;311;88.645;0;226;74;7;2;2.891;10.703;A;87.297;6.715;14.250;
040548FF08FBB421;IDS-04B -- ??????-?????? -- 1 -- None -- 78 -- 0 -- Solo Pro II MVP -- 172.26.2.164;110;Lane 2;3/5/2012;9:30:00;100;15 Minutes;;;;;;1412;353;104.406;0;289;58;4;2;2.547;9.469;A;103.750;6.145;13.609;
040548FF08FBB421;IDS-04B -- ??????-?????? -- 1 -- None -- 78 -- 0 -- Solo Pro II MVP -- 172.26.2.164;113;Total;3/5/2012;9:30:00;100;15 Minutes;;;;;;1328;664;97.023;0;515;132;11;4;2.719;10.086;A;95.281;6.375;13.938;
040548FF08FBB421;IDS-04B -- ??????-?????? -- 1 -- None -- 78 -- 0 -- Solo Pro II MVP -- 172.26.2.164;109;Lane 1;3/5/2012;9:45:00;100;15 Minutes;;;;;;1288;322;89.313;0;246;69;2;4;2.793;11.477;A;87.691;6.961;14.688;
040548FF08FBB421;IDS-04B -- ??????-?????? -- 1 -- None -- 78 -- 0 -- Solo Pro II MVP -- 172.26.2.164;110;Lane 2;3/5/2012;9:45:00;100;15 Minutes;;;;;;1512;378;102.242;0;313;64;1;0;2.379;10.449;A;101.113;6.555;14.953;
040548FF08FBB421;IDS-04B -- ??????-?????? -- 1 -- None -- 78 -- 0 -- Solo Pro II MVP -- 172.26.2.164;113;Total;3/5/2012;9:45:00;100;15 Minutes;;;;;;1400;700;96.293;0;559;133;3;4;2.586;10.961;A;94.465;6.707;14.820;
040548FF08FBB421;IDS-04B -- ??????-?????? -- 1 -- None -- 78 -- 0 -- Solo Pro II MVP -- 172.26.2.164;109;Lane 1;3/5/2012;10:00:01;100;15 Minutes;;;;;;1232;308;90.148;0;207;89;5;7;2.922;11.441;A;88.891;7.148;13.859;
040548FF08FBB421;IDS-04B -- ??????-?????? -- 1 -- None -- 78 -- 0 -- Solo Pro II MVP -- 172.26.2.164;110;Lane 2;3/5/2012;10:00:01;100;15 Minutes;;;;;;1476;369;105.379;0;290;75;3;1;2.438;10.508;A;104.840;6.656;14.078;
040548FF08FBB421;IDS-04B -- ??????-?????? -- 1 -- None -- 78 -- 0 -- Solo Pro II MVP -- 172.26.2.164;113;Total;3/5/2012;10:00:01;100;15 Minutes;;;;;;1354;677;98.449;0;497;164;8;8;2.680;10.973;A;96.875;6.836;13.977;
040548FF08FBB421;IDS-04B -- ??????-?????? -- 1 -- None -- 78 -- 0 -- Solo Pro II MVP -- 172.26.2.164;109;Lane 1;3/5/2012;10:15:00; 99;15 Minutes;;;;;;1288;322;89.621;0;233;78;5;6;2.793;11.707;A;87.598;7.254;14.703;
040548FF08FBB421;IDS-04B -- ??????-?????? -- 1 -- None -- 78 -- 0 -- Solo Pro II MVP -- 172.26.2.164;110;Lane 2;3/5/2012;10:15:00; 99;15 Minutes;;;;;;1412;353;102.715;0;297;53;2;1;2.547;10.414;A;101.422;6.516;13.922;
040548FF08FBB421;IDS-04B -- ??????-?????? -- 1 -- None -- 78 -- 0 -- Solo Pro II MVP -- 172.26.2.164;113;Total;3/5/2012;10:15:00; 99;15 Minutes;;;;;;1350;675;96.469;0;530;131;7;7;2.668;11.059;A;94.270;6.836;14.320;
040548FF08FBB421;IDS-04B -- ??????-?????? -- 1 -- None -- 78 -- 0 -- Solo Pro II MVP -- 172.26.2.164;109;Lane 1;3/5/2012;10:30:00;100;15 Minutes;;;;;;1160;290;90.102;0;186;84;13;7;3.102;11.090;A;88.695;6.996;13.078;
040548FF08FBB421;IDS-04B -- ??????-?????? -- 1 -- None -- 78 -- 0 -- Solo Pro II MVP -- 172.26.2.164;110;Lane 2;3/5/2012;10:30:00;100;15 Minutes;;;;;;1364;341;106.266;0;284;52;3;2;2.637;9.750;A;105.430;6.086;12.938;
040548FF08FBB421;IDS-04B -- ??????-?????? -- 1 -- None -- 78 -- 0 -- Solo Pro II MVP -- 172.26.2.164;113;Total;3/5/2012;10:30:00;100;15 Minutes;;;;;;1262;631;98.836;0;470;136;16;9;2.867;10.418;A;97.016;6.461;13.008;
040548FF08FBB421;IDS-04B -- ??????-?????? -- 1 -- None -- 78 -- 0 -- Solo Pro II MVP -- 172.26.2.164;109;Lane 1;3/5/2012;10:45:00;100;15 Minutes;;;;;;1288;322;85.414;0;214;93;8;6;2.793;12.383;A;83.855;7.887;15.359;
040548FF08FBB421;IDS-04B -- ??????-?????? -- 1 -- None -- 78 -- 0 -- Solo Pro II MVP -- 172.26.2.164;110;Lane 2;3/5/2012;10:45:00;100;15 Minutes;;;;;;1528;382;102.688;0;313;67;2;0;2.355;11.055;A;101.758;6.855;15.016;
040548FF08FBB421;IDS-04B -- ??????-?????? -- 1 -- None -- 78 -- 0 -- Solo Pro II MVP -- 172.26.2.164;113;Total;3/5/2012;10:45:00;100;15 Minutes;;;;;;1408;704;94.785;0;527;160;10;6;2.574;11.719;A;92.656;7.270;15.195;
040548FF08FBB421;IDS-04B -- ??????-?????? -- 1 -- None -- 78 -- 0 -- Solo Pro II MVP -- 172.26.2.164;109;Lane 1;3/5/2012;11:00:00;100;15 Minutes;;;;;;1260;315;85.426;0;201;98;8;7;2.855;12.660;A;83.648;7.898;15.063;
040548FF08FBB421;IDS-04B -- ??????-?????? -- 1 -- None -- 78 -- 0 -- Solo Pro II MVP -- 172.26.2.164;110;Lane 2;3/5/2012;11:00:00;100;15 Minutes;;;;;;1332;333;101.738;0;281;51;0;1;2.699;9.570;A;100.766;6.000;13.219;
040548FF08FBB421;IDS-04B -- ??????-?????? -- 1 -- None -- 78 -- 0 -- Solo Pro II MVP -- 172.26.2.164;113;Total;3/5/2012;11:00:00;100;15 Minutes;;;;;;1296;648;93.809;0;482;149;8;8;2.777;11.113;A;91.598;6.848;14.148;
040548FF08FBB421;IDS-04B -- ??????-?????? -- 1 -- None -- 78 -- 0 -- Solo Pro II MVP -- 172.26.2.164;109;Lane 1;3/5/2012;11:15:00;100;15 Minutes;;;;;;1132;283;82.527;0;183;87;9;3;3.180;11.258;A;81.309;7.117;13.922;
040548FF08FBB421;IDS-04B -- ??????-?????? -- 1 -- None -- 78 -- 0 -- Solo Pro II MVP -- 172.26.2.164;110;Lane 2;3/5/2012;11:15:00;100;15 Minutes;;;;;;1432;358;98.105;0;291;63;3;1;2.512;10.871;A;97.188;6.891;14.734;
040548FF08FBB421;IDS-04B -- ??????-?????? -- 1 -- None -- 78 -- 0 -- Solo Pro II MVP -- 172.26.2.164;113;Total;3/5/2012;11:15:00;100;15 Minutes;;;;;;1282;641;91.227;0;474;150;12;4;2.844;11.063;A;89.422;6.926;14.336;
040548FF08FBB421;IDS-04B -- ??????-?????? -- 1 -- None -- 78 -- 0 -- Solo Pro II MVP -- 172.26.2.164;109;Lane 1;3/5/2012;11:30:00;100;15 Minutes;;;;;;1240;310;85.941;0;208;85;8;8;2.902;12.133;A;84.422;7.703;14.688;
040548FF08FBB421;IDS-04B -- ??????-?????? -- 1 -- None -- 78 -- 0 -- Solo Pro II MVP -- 172.26.2.164;110;Lane 2;3/5/2012;11:30:00;100;15 Minutes;;;;;;1356;339;101.215;0;274;64;1;0;2.652;10.043;A;100.211;6.281;13.531;
040548FF08FBB421;IDS-04B -- ??????-?????? -- 1 -- None -- 78 -- 0 -- Solo Pro II MVP -- 172.26.2.164;113;Total;3/5/2012;11:30:00;100;15 Minutes;;;;;;1298;649;93.918;0;482;149;9;8;2.777;11.086;A;91.992;6.910;14.109;
040548FF08FBB421;IDS-04B -- ??????-?????? -- 1 -- None -- 78 -- 0 -- Solo Pro II MVP -- 172.26.2.164;109;Lane 1;3/5/2012;11:45:00;100;15 Minutes;;;;;;1120;280;84.371;0;171;89;13;7;3.211;11.609;A;82.770;7.434;13.531;
040548FF08FBB421;IDS-04B -- ??????-?????? -- 1 -- None -- 78 -- 0 -- Solo Pro II MVP -- 172.26.2.164;110;Lane 2;3/5/2012;11:45:00;100;15 Minutes;;;;;;1320;330;101.809;0;272;55;1;1;2.727;9.770;A;100.570;6.023;13.125;
040548FF08FBB421;IDS-04B -- ??????-?????? -- 1 -- None -- 78 -- 0 -- Solo Pro II MVP -- 172.26.2.164;113;Total;3/5/2012;11:45:00;100;15 Minutes;;;;;;1220;610;93.805;0;443;144;14;8;2.969;10.688;A;91.535;6.613;13.328;
040548FF08FBB421;IDS-04B -- ??????-?????? -- 1 -- None -- 78 -- 0 -- Solo Pro II MVP -- 172.26.2.164;109;Lane 1;3/5/2012;12:00:00;100;15 Minutes;;;;;;1132;283;81.852;0;170;91;14;7;3.180;11.766;A;80.316;7.754;14.094;
040548FF08FBB421;IDS-04B -- ??????-?????? -- 1 -- None -- 78 -- 0 -- Solo Pro II MVP -- 172.26.2.164;110;Lane 2;3/5/2012;12:00:00;100;15 Minutes;;;;;;1300;325;98.289;0;265;60;0;0;2.766;9.820;A;97.422;5.988;13.344;
040548FF08FBB421;IDS-04B -- ??????-?????? -- 1 -- None -- 78 -- 0 -- Solo Pro II MVP -- 172.26.2.164;113;Total;3/5/2012;12:00:00;100;15 Minutes;;;;;;1216;608;90.641;0;435;151;14;7;2.973;10.793;A;88.637;6.750;13.719;
040548FF08FBB421;IDS-04B -- ??????-?????? -- 1 -- None -- 78 -- 0 -- Solo Pro II MVP -- 172.26.2.164;109;Lane 1;3/5/2012;12:15:00;100;15 Minutes;;;;;;1092;273;83.633;0;178;83;6;6;3.293;10.898;A;82.027;6.910;13.313;
040548FF08FBB421;IDS-04B -- ??????-?????? -- 1 -- None -- 78 -- 0 -- Solo Pro II MVP -- 172.26.2.164;110;Lane 2;3/5/2012;12:15:00;100;15 Minutes;;;;;;1136;284;101.445;0;225;57;1;1;3.168;8.492;A;100.695;5.219;11.281;
040548FF08FBB421;IDS-04B -- ??????-?????? -- 1 -- None -- 78 -- 0 -- Solo Pro II MVP -- 172.26.2.164;113;Total;3/5/2012;12:15:00;100;15 Minutes;;;;;;1114;557;92.715;0;403;140;7;7;3.230;9.695;A;90.590;5.973;12.297;
040548FF08FBB421;IDS-04B -- ??????-?????? -- 1 -- None -- 78 -- 0 -- Solo Pro II MVP -- 172.26.2.164;109;Lane 1;3/5/2012;12:30:00;100;15 Minutes;;;;;;1080;270;82.199;0;169;81;11;9;3.332;11.422;A;80.371;7.289;13.438;
040548FF08FBB421;IDS-04B -- ??????-?????? -- 1 -- None -- 78 -- 0 -- Solo Pro II MVP -- 172.26.2.164;110;Lane 2;3/5/2012;12:30:00;100;15 Minutes;;;;;;1272;318;100.629;0;257;61;0;0;2.828;9.480;A;99.520;5.910;12.781;
040548FF08FBB421;IDS-04B -- ??????-?????? -- 1 -- None -- 78 -- 0 -- Solo Pro II MVP -- 172.26.2.164;113;Total;3/5/2012;12:30:00;100;15 Minutes;;;;;;1176;588;92.168;0;426;142;11;9;3.078;10.449;A;89.703;6.477;13.109;
040548FF08FBB421;IDS-04B -- ??????-?????? -- 1 -- None -- 78 -- 0 -- Solo Pro II MVP -- 172.26.2.164;109;Lane 1;3/5/2012;12:45:00;100;15 Minutes;;;;;;1176;294;82.504;0;197;85;7;4;3.059;11.477;A;81.016;7.504;14.516;
040548FF08FBB421;IDS-04B -- ??????-?????? -- 1 -- None -- 78 -- 0 -- Solo Pro II MVP -- 172.26.2.164;110;Lane 2;3/5/2012;12:45:00;100;15 Minutes;;;;;;1288;322;100.754;0;254;67;1;0;2.793;9.691;A;99.793;5.949;12.906;
040548FF08FBB421;IDS-04B -- ??????-?????? -- 1 -- None -- 78 -- 0 -- Solo Pro II MVP -- 172.26.2.164;113;Total;3/5/2012;12:45:00;100;15 Minutes;;;;;;1232;616;92.043;0;451;152;8;4;2.926;10.582;A;89.801;6.621;13.719;
040548FF08FBB421;IDS-04B -- ??????-?????? -- 1 -- None -- 78 -- 0 -- Solo Pro II MVP -- 172.26.2.164;109;Lane 1;3/5/2012;13:00:00;100;15 Minutes;;;;;;1100;275;85.965;0;178;89;4;4;3.270;10.879;A;84.309;6.527;13.047;
040548FF08FBB421;IDS-04B -- ??????-?????? -- 1 -- None -- 78 -- 0 -- Solo Pro II MVP -- 172.26.2.164;110;Lane 2;3/5/2012;13:00:00;100;15 Minutes;;;;;;1168;292;103.992;0;240;51;1;0;3.082;8.570;A;102.961;5.199;11.344;
040548FF08FBB421;IDS-04B -- ??????-?????? -- 1 -- None -- 78 -- 0 -- Solo Pro II MVP -- 172.26.2.164;113;Total;3/5/2012;13:00:00;100;15 Minutes;;;;;;1134;567;95.250;0;418;140;5;4;3.176;9.723;A;92.984;5.785;12.195;
040548FF08FBB421;IDS-04B -- ??????-?????? -- 1 -- None -- 78 -- 0 -- Solo Pro II MVP -- 172.26.2.164;109;Lane 1;3/5/2012;13:15:00;100;15 Minutes;;;;;;1120;280;84.520;0;190;71;10;9;3.211;11.281;A;83.152;7.270;13.469;
040548FF08FBB421;IDS-04B -- ??????-?????? -- 1 -- None -- 78 -- 0 -- Solo Pro II MVP -- 172.26.2.164;110;Lane 2;3/5/2012;13:15:00;100;15 Minutes;;;;;;1184;296;101.047;0;234;62;0;0;3.039;8.875;A;100.230;5.523;11.813;
040548FF08FBB421;IDS-04B -- ??????-?????? -- 1 -- None -- 78 -- 0 -- Solo Pro II MVP -- 172.26.2.164;113;Total;3/5/2012;13:15:00;100;15 Minutes;;;;;;1152;576;93.016;0;424;133;10;9;3.125;10.078;A;91.078;6.305;12.648;
040548FF08FBB421;IDS-04B -- ??????-?????? -- 1 -- None -- 78 -- 0 -- Solo Pro II MVP -- 172.26.2.164;109;Lane 1;3/5/2012;13:30:00;100;15 Minutes;;;;;;1068;267;86.965;0;174;80;7;6;3.367;10.492;A;85.438;6.660;12.500;
040548FF08FBB421;IDS-04B -- ??????-?????? -- 1 -- None -- 78 -- 0 -- Solo Pro II MVP -- 172.26.2.164;110;Lane 2;3/5/2012;13:30:00;100;15 Minutes;;;;;;1152;288;102.766;0;224;62;0;1;3.125;8.664;A;101.691;5.305;11.328;
040548FF08FBB421;IDS-04B -- ??????-?????? -- 1 -- None -- 78 -- 0 -- Solo Pro II MVP -- 172.26.2.164;113;Total;3/5/2012;13:30:00;100;15 Minutes;;;;;;1110;555;95.164;0;398;142;7;7;3.246;9.578;A;93.105;5.906;11.922;
040548FF08FBB421;IDS-04B -- ??????-?????? -- 1 -- None -- 78 -- 0 -- Solo Pro II MVP -- 172.26.2.164;109;Lane 1;3/5/2012;13:45:00;100;15 Minutes;;;;;;1112;278;88.008;0;191;72;8;7;3.234;10.484;A;86.473;6.844;12.859;
040548FF08FBB421;IDS-04B -- ??????-?????? -- 1 -- None -- 78 -- 0 -- Solo Pro II MVP -- 172.26.2.164;110;Lane 2;3/5/2012;13:45:00;100;15 Minutes;;;;;;1312;328;103.793;0;266;61;1;0;2.742;9.547;A;103.027;5.871;12.734;
040548FF08FBB421;IDS-04B -- ??????-?????? -- 1 -- None -- 78 -- 0 -- Solo Pro II MVP -- 172.26.2.164;113;Total;3/5/2012;13:45:00;100;15 Minutes;;;;;;1212;606;96.551;0;457;133;9;7;2.988;10.016;A;94.652;6.273;12.805;
040548FF08FBB421;IDS-04B -- ??????-?????? -- 1 -- None -- 78 -- 0 -- Solo Pro II MVP -- 172.26.2.164;109;Lane 1;3/5/2012;14:00:00;100;15 Minutes;;;;;;1136;284;84.859;0;188;79;6;11;3.168;11.645;A;83.375;7.328;13.625;
040548FF08FBB421;IDS-04B -- ??????-?????? -- 1 -- None -- 78 -- 0 -- Solo Pro II MVP -- 172.26.2.164;110;Lane 2;3/5/2012;14:00:00;100;15 Minutes;;;;;;1236;309;101.680;0;245;62;1;1;2.910;9.328;A;100.766;5.707;12.266;
040548FF08FBB421;IDS-04B -- ??????-?????? -- 1 -- None -- 78 -- 0 -- Solo Pro II MVP -- 172.26.2.164;113;Total;3/5/2012;14:00:00;100;15 Minutes;;;;;;1186;593;93.625;0;433;141;7;12;3.039;10.484;A;91.613;6.418;12.945;
040548FF08FBB421;IDS-04B -- ??????-?????? -- 1 -- None -- 78 -- 0 -- Solo Pro II MVP -- 172.26.2.164;109;Lane 1;3/5/2012;14:15:00;100;15 Minutes;;;;;;1204;301;83.004;0;186;98;10;6;2.988;12.281;A;81.711;7.863;14.734;
040548FF08FBB421;IDS-04B -- ??????-?????? -- 1 -- None -- 78 -- 0 -- Solo Pro II MVP -- 172.26.2.164;110;Lane 2;3/5/2012;14:15:00;100;15 Minutes;;;;;;1172;293;99.879;0;228;62;1;2;3.070;8.809;A;98.953;5.477;11.844;
040548FF08FBB421;IDS-04B -- ??????-?????? -- 1 -- None -- 78 -- 0 -- Solo Pro II MVP -- 172.26.2.164;113;Total;3/5/2012;14:15:00;100;15 Minutes;;;;;;1188;594;91.328;0;414;160;11;8;3.027;10.543;A;89.395;6.570;13.289;
040548FF08FBB421;IDS-04B -- ??????-?????? -- 1 -- None -- 78 -- 0 -- Solo Pro II MVP -- 172.26.2.164;109;Lane 1;3/5/2012;14:30:00;100;15 Minutes;;;;;;1200;300;83.934;0;175;112;8;5;3.000;12.266;A;82.402;7.695;14.563;
040548FF08FBB421;IDS-04B -- ??????-?????? -- 1 -- None -- 78 -- 0 -- Solo Pro II MVP -- 172.26.2.164;110;Lane 2;3/5/2012;14:30:00;100;15 Minutes;;;;;;1232;308;96.387;0;241;66;1;0;2.922;9.813;A;95.227;6.012;12.938;
040548FF08FBB421;IDS-04B -- ??????-?????? -- 1 -- None -- 78 -- 0 -- Solo Pro II MVP -- 172.26.2.164;113;Total;3/5/2012;14:30:00;100;15 Minutes;;;;;;1216;608;90.242;0;416;178;9;5;2.961;11.039;A;88.383;6.789;13.758;
040548FF08FBB421;IDS-04B -- ??????-?????? -- 1 -- None -- 78 -- 0 -- Solo Pro II MVP -- 172.26.2.164;109;Lane 1;3/5/2012;14:45:00;100;15 Minutes;;;;;;1236;309;81.406;0;176;113;8;12;2.910;13.082;A;80.063;8.727;15.438;
040548FF08FBB421;IDS-04B -- ??????-?????? -- 1 -- None -- 78 -- 0 -- Solo Pro II MVP -- 172.26.2.164;110;Lane 2;3/5/2012;14:45:00;100;15 Minutes;;;;;;1404;351;97.797;0;284;64;1;1;2.563;10.680;A;96.930;6.723;14.484;
040548FF08FBB421;IDS-04B -- ??????-?????? -- 1 -- None -- 78 -- 0 -- Solo Pro II MVP -- 172.26.2.164;113;Total;3/5/2012;14:45:00;100;15 Minutes;;;;;;1320;660;90.121;0;460;177;9;13;2.734;11.879;A;88.184;7.590;14.969;
040548FF08FBB421;IDS-04B -- ??????-?????? -- 1 -- None -- 78 -- 0 -- Solo Pro II MVP -- 172.26.2.164;109;Lane 1;3/5/2012;15:00:00;100;15 Minutes;;;;;;1244;311;84.266;0;191;103;11;6;2.891;11.965;A;83.020;8.027;14.984;
040548FF08FBB421;IDS-04B -- ??????-?????? -- 1 -- None -- 78 -- 0 -- Solo Pro II MVP -- 172.26.2.164;110;Lane 2;3/5/2012;15:00:00;100;15 Minutes;;;;;;1260;315;100.375;0;232;81;2;0;2.855;9.387;A;99.430;5.973;12.672;
040548FF08FBB421;IDS-04B -- ??????-?????? -- 1 -- None -- 78 -- 0 -- Solo Pro II MVP -- 172.26.2.164;113;Total;3/5/2012;15:00:00;100;15 Minutes;;;;;;1252;626;92.371;0;423;184;13;6;2.871;10.676;A;90.488;6.906;13.836;
040548FF08FBB421;IDS-04B -- ??????-?????? -- 1 -- None -- 78 -- 0 -- Solo Pro II MVP -- 172.26.2.164;109;Lane 1;3/5/2012;15:15:00;100;15 Minutes;;;;;;1184;296;84.883;0;194;90;9;3;3.039;11.316;A;83.727;7.355;14.141;
040548FF08FBB421;IDS-04B -- ??????-?????? -- 1 -- None -- 78 -- 0 -- Solo Pro II MVP -- 172.26.2.164;110;Lane 2;3/5/2012;15:15:00;100;15 Minutes;;;;;;1276;319;98.211;0;233;83;1;2;2.820;9.840;A;97.566;6.367;13.078;
040548FF08FBB421;IDS-04B -- ??????-?????? -- 1 -- None -- 78 -- 0 -- Solo Pro II MVP -- 172.26.2.164;113;Total;3/5/2012;15:15:00;100;15 Minutes;;;;;;1230;615;91.797;0;427;173;10;5;2.930;10.578;A;90.324;6.809;13.617;
040548FF08FBB421;IDS-04B -- ??????-?????? -- 1 -- None -- 78 -- 0 -- Solo Pro II MVP -- 172.26.2.164;109;Lane 1;3/5/2012;15:30:00;100;15 Minutes;;;;;;1244;311;79.906;0;194;98;17;2;2.891;13.063;A;78.359;8.574;15.875;
040548FF08FBB421;IDS-04B -- ??????-?????? -- 1 -- None -- 78 -- 0 -- Solo Pro II MVP -- 172.26.2.164;110;Lane 2;3/5/2012;15:30:00;100;15 Minutes;;;;;;1496;374;94.387;0;297;74;2;1;2.406;11.980;A;93.316;7.840;16.031;
040548FF08FBB421;IDS-04B -- ??????-?????? -- 1 -- None -- 78 -- 0 -- Solo Pro II MVP -- 172.26.2.164;113;Total;3/5/2012;15:30:00;100;15 Minutes;;;;;;1370;685;87.813;0;491;172;19;3;2.648;12.520;A;85.875;8.113;15.953;
040548FF08FBB421;IDS-04B -- ??????-?????? -- 1 -- None -- 78 -- 0 -- Solo Pro II MVP -- 172.26.2.164;109;Lane 1;3/5/2012;15:45:00;100;15 Minutes;;;;;;1168;292;81.867;0;175;97;13;7;3.082;12.523;A;80.465;8.203;14.516;
040548FF08FBB421;IDS-04B -- ??????-?????? -- 1 -- None -- 78 -- 0 -- Solo Pro II MVP -- 172.26.2.164;110;Lane 2;3/5/2012;15:45:00;100;15 Minutes;;;;;;1536;384;96.824;0;265;117;2;0;2.344;12.246;A;96.000;7.973;16.000;
040548FF08FBB421;IDS-04B -- ??????-?????? -- 1 -- None -- 78 -- 0 -- Solo Pro II MVP -- 172.26.2.164;113;Total;3/5/2012;15:45:00;100;15 Minutes;;;;;;1352;676;90.363;0;440;214;15;7;2.711;12.383;A;88.563;7.988;15.266;
040548FF08FBB421;IDS-04B -- ??????-?????? -- 1 -- None -- 78 -- 0 -- Solo Pro II MVP -- 172.26.2.164;109;Lane 1;3/5/2012;16:00:00;100;15 Minutes;;;;;;1288;322;82.117;0;204;105;11;2;2.793;13.262;A;81.133;8.500;15.875;
040548FF08FBB421;IDS-04B -- ??????-?????? -- 1 -- None -- 78 -- 0 -- Solo Pro II MVP -- 172.26.2.164;110;Lane 2;3/5/2012;16:00:00;100;15 Minutes;;;;;;1312;328;97.344;0;236;90;0;2;2.742;10.875;A;96.625;6.805;13.578;
040548FF08FBB421;IDS-04B -- ??????-?????? -- 1 -- None -- 78 -- 0 -- Solo Pro II MVP -- 172.26.2.164;113;Total;3/5/2012;16:00:00;100;15 Minutes;;;;;;1300;650;89.801;0;440;195;11;4;2.766;12.066;A;88.227;7.574;14.734;
040548FF08FBB421;IDS-04B -- ??????-?????? -- 1 -- None -- 78 -- 0 -- Solo Pro II MVP -- 172.26.2.164;109;Lane 1;3/5/2012;16:15:00;100;15 Minutes;;;;;;1244;311;79.125;0;188;109;10;4;2.891;14.102;A;77.520;8.715;16.047;
040548FF08FBB421;IDS-04B -- ??????-?????? -- 1 -- None -- 78 -- 0 -- Solo Pro II MVP -- 172.26.2.164;110;Lane 2;3/5/2012;16:15:00;100;15 Minutes;;;;;;1544;386;89.078;0;238;140;3;5;2.328;14.059;A;87.523;9.254;17.641;
040548FF08FBB421;IDS-04B -- ??????-?????? -- 1 -- None -- 78 -- 0 -- Solo Pro II MVP -- 172.26.2.164;113;Total;3/5/2012;16:15:00;100;15 Minutes;;;;;;1394;697;84.637;0;426;249;13;9;2.609;14.078;A;82.758;8.941;16.844;
040548FF08FBB421;IDS-04B -- ??????-?????? -- 1 -- None -- 78 -- 0 -- Solo Pro II MVP -- 172.26.2.164;109;Lane 1;3/5/2012;16:30:00;100;15 Minutes;;;;;;740;185;86.621;0;124;51;6;3;4.863;7.738;A;84.496;4.742;8.754;
040548FF08FBB421;IDS-04B -- ??????-?????? -- 1 -- None -- 78 -- 0 -- Solo Pro II MVP -- 172.26.2.164;110;Lane 2;3/5/2012;16:30:00;100;15 Minutes;;;;;;732;183;93.645;0;122;60;1;0;4.918;6.215;A;92.285;3.996;7.930;
040548FF08FBB421;IDS-04B -- ??????-?????? -- 1 -- None -- 78 -- 0 -- Solo Pro II MVP -- 172.26.2.164;113;Total;3/5/2012;16:30:00;100;15 Minutes;;;;;;736;368;90.113;0;246;111;7;3;4.891;6.977;A;88.207;4.355;8.344;
040548FF08FBB421;IDS-04B -- ??????-?????? -- 1 -- None -- 78 -- 0 -- Solo Pro II MVP -- 172.26.2.164;109;Lane 1;3/5/2012;16:45:00;100;15 Minutes;;;;;;408;102;93.840;0;68;32;0;2;8.820;3.523;A;91.637;2.289;4.449;
040548FF08FBB421;IDS-04B -- ??????-?????? -- 1 -- None -- 78 -- 0 -- Solo Pro II MVP -- 172.26.2.164;110;Lane 2;3/5/2012;16:45:00;100;15 Minutes;;;;;;188;47;107.785;0;35;12;0;0;19.148;1.418;A;106.617;0.832;1.762;
040548FF08FBB421;IDS-04B -- ??????-?????? -- 1 -- None -- 78 -- 0 -- Solo Pro II MVP -- 172.26.2.164;113;Total;3/5/2012;16:45:00;100;15 Minutes;;;;;;298;149;98.238;0;103;44;0;2;13.984;2.469;A;95.887;1.551;3.105;
040548FF08FBB421;IDS-04B -- ??????-?????? -- 1 -- None -- 78 -- 0 -- Solo Pro II MVP -- 172.26.2.164;109;Lane 1;3/5/2012;17:00:00;100;15 Minutes;;;;;;556;139;86.645;0;99;34;5;1;6.473;5.348;A;83.113;3.379;6.688;
040548FF08FBB421;IDS-04B -- ??????-?????? -- 1 -- None -- 78 -- 0 -- Solo Pro II MVP -- 172.26.2.164;110;Lane 2;3/5/2012;17:00:00;100;15 Minutes;;;;;;508;127;90.492;0;97;26;0;4;7.086;4.703;A;88.742;3.027;5.723;
040548FF08FBB421;IDS-04B -- ??????-?????? -- 1 -- None -- 78 -- 0 -- Solo Pro II MVP -- 172.26.2.164;113;Total;3/5/2012;17:00:00;100;15 Minutes;;;;;;532;266;88.484;0;196;60;5;5;6.777;5.023;A;85.762;3.203;6.203;
040548FF08FBB421;IDS-04B -- ??????-?????? -- 1 -- None -- 78 -- 0 -- Solo Pro II MVP -- 172.26.2.164;109;Lane 1;3/5/2012;17:15:00;100;15 Minutes;;;;;;1556;389;75.305;0;223;116;31;18;2.313;18.051;A;73.328;12.758;21.219;
040548FF08FBB421;IDS-04B -- ??????-?????? -- 1 -- None -- 78 -- 0 -- Solo Pro II MVP -- 172.26.2.164;110;Lane 2;3/5/2012;17:15:00;100;15 Minutes;;;;;;2140;535;82.398;0;363;160;7;5;1.680;21.945;A;80.895;13.438;26.453;
040548FF08FBB421;IDS-04B -- ??????-?????? -- 1 -- None -- 78 -- 0 -- Solo Pro II MVP -- 172.26.2.164;113;Total;3/5/2012;17:15:00;100;15 Minutes;;;;;;1848;924;79.410;0;586;276;38;23;1.996;19.996;A;77.527;13.020;23.836;
040548FF08FBB421;IDS-04B -- ??????-?????? -- 1 -- None -- 78 -- 0 -- Solo Pro II MVP -- 172.26.2.164;109;Lane 1;3/5/2012;17:30:00;100;15 Minutes;;;;;;1108;277;86.699;0;176;76;17;6;3.246;12.695;A;84.016;7.297;13.188;
040548FF08FBB421;IDS-04B -- ??????-?????? -- 1 -- None -- 78 -- 0 -- Solo Pro II MVP -- 172.26.2.164;110;Lane 2;3/5/2012;17:30:00;100;15 Minutes;;;;;;1324;331;97.105;0;248;70;10;2;2.719;12.055;A;95.207;6.887;13.906;
040548FF08FBB421;IDS-04B -- ??????-?????? -- 1 -- None -- 78 -- 0 -- Solo Pro II MVP -- 172.26.2.164;113;Total;3/5/2012;17:30:00;100;15 Minutes;;;;;;1216;608;92.363;0;424;146;27;8;2.980;12.375;A;89.707;7.047;13.555;
040548FF08FBB421;IDS-04B -- ??????-?????? -- 1 -- None -- 78 -- 0 -- Solo Pro II MVP -- 172.26.2.164;109;Lane 1;3/5/2012;17:45:00;100;15 Minutes;;;;;;1148;287;85.531;0;212;61;9;5;3.133;10.805;A;84.160;7.105;13.641;
040548FF08FBB421;IDS-04B -- ??????-?????? -- 1 -- None -- 78 -- 0 -- Solo Pro II MVP -- 172.26.2.164;110;Lane 2;3/5/2012;17:45:00;100;15 Minutes;;;;;;1060;265;100.234;0;214;47;1;3;3.395;8.027;A;99.180;5.180;10.688;
040548FF08FBB421;IDS-04B -- ??????-?????? -- 1 -- None -- 78 -- 0 -- Solo Pro II MVP -- 172.26.2.164;113;Total;3/5/2012;17:45:00;100;15 Minutes;;;;;;1104;552;92.590;0;426;108;10;8;3.262;9.414;A;90.699;6.086;12.172;
040548FF08FBB421;IDS-04B -- ??????-?????? -- 1 -- None -- 78 -- 0 -- Solo Pro II MVP -- 172.26.2.164;109;Lane 1;3/5/2012;18:00:00;100;15 Minutes;;;;;;1152;288;82.219;0;217;66;4;1;3.125;10.301;A;81.020;7.059;14.219;
040548FF08FBB421;IDS-04B -- ??????-?????? -- 1 -- None -- 78 -- 0 -- Solo Pro II MVP -- 172.26.2.164;110;Lane 2;3/5/2012;18:00:00;100;15 Minutes;;;;;;1276;319;97.824;0;263;54;1;1;2.820;9.152;A;96.871;6.258;13.172;
040548FF08FBB421;IDS-04B -- ??????-?????? -- 1 -- None -- 78 -- 0 -- Solo Pro II MVP -- 172.26.2.164;113;Total;3/5/2012;18:00:00;100;15 Minutes;;;;;;1214;607;90.422;0;480;120;5;2;2.973;9.727;A;88.590;6.594;13.703;
040548FF08FBB421;IDS-04B -- ??????-?????? -- 1 -- None -- 78 -- 0 -- Solo Pro II MVP -- 172.26.2.164;109;Lane 1;3/5/2012;18:15:00;100;15 Minutes;;;;;;1388;347;80.668;0;250;85;7;5;2.590;13.219;A;79.031;9.000;17.563;
040548FF08FBB421;IDS-04B -- ??????-?????? -- 1 -- None -- 78 -- 0 -- Solo Pro II MVP -- 172.26.2.164;110;Lane 2;3/5/2012;18:15:00;100;15 Minutes;;;;;;1628;407;89.555;0;338;63;1;4;2.211;12.945;A;88.223;8.781;18.453;
040548FF08FBB421;IDS-04B -- ??????-?????? -- 1 -- None -- 78 -- 0 -- Solo Pro II MVP -- 172.26.2.164;113;Total;3/5/2012;18:15:00;100;15 Minutes;;;;;;1508;754;85.465;0;588;148;8;9;2.398;13.082;A;83.738;8.848;18.008;
040548FF08FBB421;IDS-04B -- ??????-?????? -- 1 -- None -- 78 -- 0 -- Solo Pro II MVP -- 172.26.2.164;109;Lane 1;3/5/2012;18:30:00;100;15 Minutes;;;;;;1512;378;76.520;0;286;72;13;7;2.379;14.855;A;75.480;10.449;20.031;
040548FF08FBB421;IDS-04B -- ??????-?????? -- 1 -- None -- 78 -- 0 -- Solo Pro II MVP -- 172.26.2.164;110;Lane 2;3/5/2012;18:30:00;100;15 Minutes;;;;;;2044;511;86.449;0;419;84;1;7;1.758;16.500;A;85.441;11.438;23.922;
040548FF08FBB421;IDS-04B -- ??????-?????? -- 1 -- None -- 78 -- 0 -- Solo Pro II MVP -- 172.26.2.164;113;Total;3/5/2012;18:30:00;100;15 Minutes;;;;;;1778;889;82.227;0;705;156;14;14;2.066;15.676;A;80.875;10.875;21.984;
040548FF08FBB421;IDS-04B -- ??????-?????? -- 1 -- None -- 78 -- 0 -- Solo Pro II MVP -- 172.26.2.164;109;Lane 1;3/5/2012;18:45:00;100;15 Minutes;;;;;;1380;345;77.117;0;263;70;6;4;2.605;13.352;A;75.809;8.898;18.203;
040548FF08FBB421;IDS-04B -- ??????-?????? -- 1 -- None -- 78 -- 0 -- Solo Pro II MVP -- 172.26.2.164;110;Lane 2;3/5/2012;18:45:00;100;15 Minutes;;;;;;1748;437;88.180;0;368;65;1;2;2.059;14.410;A;87.125;9.277;20.063;
040548FF08FBB421;IDS-04B -- ??????-?????? -- 1 -- None -- 78 -- 0 -- Solo Pro II MVP -- 172.26.2.164;113;Total;3/5/2012;18:45:00;100;15 Minutes;;;;;;1564;782;83.297;0;631;135;7;6;2.332;13.879;A;81.742;9.031;19.133;
040548FF08FBB421;IDS-04B -- ??????-?????? -- 1 -- None -- 78 -- 0 -- Solo Pro II MVP -- 172.26.2.164;109;Lane 1;3/5/2012;19:00:00;100;15 Minutes;;;;;;1316;329;77.066;0;254;60;6;9;2.734;15.918;A;75.398;8.563;17.453;
040548FF08FBB421;IDS-04B -- ??????-?????? -- 1 -- None -- 78 -- 0 -- Solo Pro II MVP -- 172.26.2.164;110;Lane 2;3/5/2012;19:00:00;100;15 Minutes;;;;;;1724;431;87.082;0;377;49;3;2;2.086;18.063;A;85.797;8.594;20.094;
040548FF08FBB421;IDS-04B -- ??????-?????? -- 1 -- None -- 78 -- 0 -- Solo Pro II MVP -- 172.26.2.164;113;Total;3/5/2012;19:00:00;100;15 Minutes;;;;;;1520;760;82.746;0;631;109;9;11;2.410;16.988;A;80.930;8.508;18.781;
040548FF08FBB421;IDS-04B -- ??????-?????? -- 1 -- None -- 78 -- 0 -- Solo Pro II MVP -- 172.26.2.164;109;Lane 1;3/5/2012;19:15:00;100;15 Minutes;;;;;;1228;307;76.852;0;225;69;8;4;2.930;15.406;A;75.133;8.008;16.344;
040548FF08FBB421;IDS-04B -- ??????-?????? -- 1 -- None -- 78 -- 0 -- Solo Pro II MVP -- 172.26.2.164;110;Lane 2;3/5/2012;19:15:00;100;15 Minutes;;;;;;1396;349;89.652;0;291;50;3;5;2.578;15.313;A;88.457;7.320;15.781;
040548FF08FBB421;IDS-04B -- ??????-?????? -- 1 -- None -- 78 -- 0 -- Solo Pro II MVP -- 172.26.2.164;113;Total;3/5/2012;19:15:00;100;15 Minutes;;;;;;1312;656;83.664;0;516;119;11;9;2.754;15.359;A;81.641;7.598;16.070;
040548FF08FBB421;IDS-04B -- ??????-?????? -- 1 -- None -- 78 -- 0 -- Solo Pro II MVP -- 172.26.2.164;109;Lane 1;3/5/2012;19:30:00;100;15 Minutes;;;;;;988;247;81.309;0;189;51;3;4;3.641;12.445;A;79.078;6.070;12.492;
040548FF08FBB421;IDS-04B -- ??????-?????? -- 1 -- None -- 78 -- 0 -- Solo Pro II MVP -- 172.26.2.164;110;Lane 2;3/5/2012;19:30:00;100;15 Minutes;;;;;;1056;264;98.926;0;219;41;1;3;3.406;10.625;A;97.945;5.047;10.781;
040548FF08FBB421;IDS-04B -- ??????-?????? -- 1 -- None -- 78 -- 0 -- Solo Pro II MVP -- 172.26.2.164;113;Total;3/5/2012;19:30:00;100;15 Minutes;;;;;;1022;511;90.410;0;408;92;4;7;3.523;11.535;A;87.852;5.492;11.633;
040548FF08FBB421;IDS-04B -- ??????-?????? -- 1 -- None -- 78 -- 0 -- Solo Pro II MVP -- 172.26.2.164;109;Lane 1;3/5/2012;19:45:00;100;15 Minutes;;;;;;1008;252;83.441;0;182;61;5;4;3.570;11.977;A;81.789;6.004;12.324;
040548FF08FBB421;IDS-04B -- ??????-?????? -- 1 -- None -- 78 -- 0 -- Solo Pro II MVP -- 172.26.2.164;110;Lane 2;3/5/2012;19:45:00;100;15 Minutes;;;;;;996;249;98.559;0;195;48;5;1;3.613;9.965;A;97.367;4.883;10.227;
040548FF08FBB421;IDS-04B -- ??????-?????? -- 1 -- None -- 78 -- 0 -- Solo Pro II MVP -- 172.26.2.164;113;Total;3/5/2012;19:45:00;100;15 Minutes;;;;;;1002;501;90.957;0;377;109;10;5;3.590;10.969;A;88.879;5.402;11.273;
040548FF08FBB421;IDS-04B -- ??????-?????? -- 1 -- None -- 78 -- 0 -- Solo Pro II MVP -- 172.26.2.164;109;Lane 1;3/5/2012;20:00:00;100;15 Minutes;;;;;;856;214;85.098;0;158;48;4;4;4.203;9.965;A;83.121;4.973;10.297;
040548FF08FBB421;IDS-04B -- ??????-?????? -- 1 -- None -- 78 -- 0 -- Solo Pro II MVP -- 172.26.2.164;110;Lane 2;3/5/2012;20:00:00;100;15 Minutes;;;;;;704;176;101.695;0;145;30;1;0;5.113;6.973;A;100.406;3.121;7.008;
040548FF08FBB421;IDS-04B -- ??????-?????? -- 1 -- None -- 78 -- 0 -- Solo Pro II MVP -- 172.26.2.164;113;Total;3/5/2012;20:00:00;100;15 Minutes;;;;;;780;390;92.586;0;303;78;5;4;4.656;8.469;A;90.188;4.000;8.648;
040548FF08FBB421;IDS-04B -- ??????-?????? -- 1 -- None -- 78 -- 0 -- Solo Pro II MVP -- 172.26.2.164;109;Lane 1;3/5/2012;20:15:00;100;15 Minutes;;;;;;816;204;84.145;0;141;51;6;6;4.410;9.785;A;82.113;5.117;9.934;
040548FF08FBB421;IDS-04B -- ??????-?????? -- 1 -- None -- 78 -- 0 -- Solo Pro II MVP -- 172.26.2.164;110;Lane 2;3/5/2012;20:15:00;100;15 Minutes;;;;;;688;172;100.418;0;138;31;1;2;5.230;6.914;A;99.434;3.277;6.918;
040548FF08FBB421;IDS-04B -- ??????-?????? -- 1 -- None -- 78 -- 0 -- Solo Pro II MVP -- 172.26.2.164;113;Total;3/5/2012;20:15:00;100;15 Minutes;;;;;;752;376;91.590;0;279;82;7;8;4.820;8.348;A;89.289;4.148;8.422;
040548FF08FBB421;IDS-04B -- ??????-?????? -- 1 -- None -- 78 -- 0 -- Solo Pro II MVP -- 172.26.2.164;109;Lane 1;3/5/2012;20:30:00;100;15 Minutes;;;;;;852;213;84.387;0;164;45;0;4;4.223;10.121;A;82.523;4.934;10.324;
040548FF08FBB421;IDS-04B -- ??????-?????? -- 1 -- None -- 78 -- 0 -- Solo Pro II MVP -- 172.26.2.164;110;Lane 2;3/5/2012;20:30:00;100;15 Minutes;;;;;;668;167;101.484;0;130;33;2;2;5.387;6.633;A;100.355;3.234;6.656;
040548FF08FBB421;IDS-04B -- ??????-?????? -- 1 -- None -- 78 -- 0 -- Solo Pro II MVP -- 172.26.2.164;113;Total;3/5/2012;20:30:00;100;15 Minutes;;;;;;760;380;91.902;0;294;78;2;6;4.805;8.375;A;89.574;4.051;8.484;
040548FF08FBB421;IDS-04B -- ??????-?????? -- 1 -- None -- 78 -- 0 -- Solo Pro II MVP -- 172.26.2.164;109;Lane 1;3/5/2012;20:45:00;100;15 Minutes;;;;;;772;193;85.289;0;148;41;3;1;4.660;8.684;A;83.129;4.305;9.285;
040548FF08FBB421;IDS-04B -- ??????-?????? -- 1 -- None -- 78 -- 0 -- Solo Pro II MVP -- 172.26.2.164;110;Lane 2;3/5/2012;20:45:00;100;15 Minutes;;;;;;592;148;102.652;0;115;31;2;0;6.078;5.797;A;101.609;2.707;5.824;
040548FF08FBB421;IDS-04B -- ??????-?????? -- 1 -- None -- 78 -- 0 -- Solo Pro II MVP -- 172.26.2.164;113;Total;3/5/2012;20:45:00;100;15 Minutes;;;;;;682;341;92.824;0;263;72;5;1;5.367;7.238;A;90.273;3.477;7.555;
040548FF08FBB421;IDS-04B -- ??????-?????? -- 1 -- None -- 78 -- 0 -- Solo Pro II MVP -- 172.26.2.164;109;Lane 1;3/5/2012;21:00:00;100;15 Minutes;;;;;;748;187;87.922;0;147;38;2;0;4.813;8.270;A;85.945;3.984;8.703;
040548FF08FBB421;IDS-04B -- ??????-?????? -- 1 -- None -- 78 -- 0 -- Solo Pro II MVP -- 172.26.2.164;110;Lane 2;3/5/2012;21:00:00;100;15 Minutes;;;;;;560;140;102.742;0;105;32;3;0;6.426;5.426;A;101.531;2.539;5.512;
040548FF08FBB421;IDS-04B -- ??????-?????? -- 1 -- None -- 78 -- 0 -- Solo Pro II MVP -- 172.26.2.164;113;Total;3/5/2012;21:00:00;100;15 Minutes;;;;;;654;327;94.266;0;252;70;5;0;5.617;6.848;A;92.090;3.242;7.102;
040548FF08FBB421;IDS-04B -- ??????-?????? -- 1 -- None -- 78 -- 0 -- Solo Pro II MVP -- 172.26.2.164;109;Lane 1;3/5/2012;21:15:00;100;15 Minutes;;;;;;824;206;87.512;0;152;50;2;2;4.367;9.285;A;85.344;4.539;9.652;
040548FF08FBB421;IDS-04B -- ??????-?????? -- 1 -- None -- 78 -- 0 -- Solo Pro II MVP -- 172.26.2.164;110;Lane 2;3/5/2012;21:15:00;100;15 Minutes;;;;;;532;133;105.500;0;112;19;2;0;6.766;5.188;A;104.152;2.348;5.105;
040548FF08FBB421;IDS-04B -- ??????-?????? -- 1 -- None -- 78 -- 0 -- Solo Pro II MVP -- 172.26.2.164;113;Total;3/5/2012;21:15:00;100;15 Minutes;;;;;;678;339;94.570;0;264;69;4;2;5.566;7.234;A;91.930;3.410;7.375;
040548FF08FBB421;IDS-04B -- ??????-?????? -- 1 -- None -- 78 -- 0 -- Solo Pro II MVP -- 172.26.2.164;109;Lane 1;3/5/2012;21:30:00;100;15 Minutes;;;;;;752;188;89.039;0;145;35;3;5;4.785;8.438;A;86.926;4.438;8.648;
040548FF08FBB421;IDS-04B -- ??????-?????? -- 1 -- None -- 78 -- 0 -- Solo Pro II MVP -- 172.26.2.164;110;Lane 2;3/5/2012;21:30:00;100;15 Minutes;;;;;;504;126;106.242;0;106;16;1;3;7.141;5.078;A;104.637;2.387;4.816;
040548FF08FBB421;IDS-04B -- ??????-?????? -- 1 -- None -- 78 -- 0 -- Solo Pro II MVP -- 172.26.2.164;113;Total;3/5/2012;21:30:00;100;15 Minutes;;;;;;628;314;95.945;0;251;51;4;8;5.961;6.758;A;93.359;3.379;6.727;
040548FF08FBB421;IDS-04B -- ??????-?????? -- 1 -- None -- 78 -- 0 -- Solo Pro II MVP -- 172.26.2.164;109;Lane 1;3/5/2012;21:45:00;100;15 Minutes;;;;;;620;155;90.754;0;115;32;3;5;5.805;6.758;A;88.480;3.715;7.004;
040548FF08FBB421;IDS-04B -- ??????-?????? -- 1 -- None -- 78 -- 0 -- Solo Pro II MVP -- 172.26.2.164;110;Lane 2;3/5/2012;21:45:00;100;15 Minutes;;;;;;372;93;106.246;0;77;15;1;0;9.676;3.781;A;104.922;1.621;3.543;
040548FF08FBB421;IDS-04B -- ??????-?????? -- 1 -- None -- 78 -- 0 -- Solo Pro II MVP -- 172.26.2.164;113;Total;3/5/2012;21:45:00;100;15 Minutes;;;;;;496;248;96.563;0;192;47;4;5;7.738;5.270;A;94.004;2.637;5.273;
040548FF08FBB421;IDS-04B -- ??????-?????? -- 1 -- None -- 78 -- 0 -- Solo Pro II MVP -- 172.26.2.164;109;Lane 1;3/5/2012;22:00:00;100;15 Minutes;;;;;;656;164;93.039;0;114;42;3;4;5.484;7.289;A;90.375;3.590;7.258;
040548FF08FBB421;IDS-04B -- ??????-?????? -- 1 -- None -- 78 -- 0 -- Solo Pro II MVP -- 172.26.2.164;110;Lane 2;3/5/2012;22:00:00;100;15 Minutes;;;;;;328;82;108.414;0;65;15;1;1;10.973;3.367;A;106.703;1.410;3.070;
040548FF08FBB421;IDS-04B -- ??????-?????? -- 1 -- None -- 78 -- 0 -- Solo Pro II MVP -- 172.26.2.164;113;Total;3/5/2012;22:00:00;100;15 Minutes;;;;;;492;246;98.164;0;179;57;4;5;8.227;5.328;A;95.234;2.480;5.164;
040548FF08FBB421;IDS-04B -- ??????-?????? -- 1 -- None -- 78 -- 0 -- Solo Pro II MVP -- 172.26.2.164;109;Lane 1;3/5/2012;22:15:00;100;15 Minutes;;;;;;584;146;87.113;0;109;30;3;4;6.164;6.945;A;84.539;3.523;6.906;
040548FF08FBB421;IDS-04B -- ??????-?????? -- 1 -- None -- 78 -- 0 -- Solo Pro II MVP -- 172.26.2.164;110;Lane 2;3/5/2012;22:15:00;100;15 Minutes;;;;;;304;76;107.578;0;58;15;2;1;11.840;3.051;A;106.164;1.375;2.863;
040548FF08FBB421;IDS-04B -- ??????-?????? -- 1 -- None -- 78 -- 0 -- Solo Pro II MVP -- 172.26.2.164;113;Total;3/5/2012;22:15:00;100;15 Minutes;;;;;;444;222;94.121;0;167;45;5;5;9.000;4.996;A;90.879;2.418;4.883;
040548FF08FBB421;IDS-04B -- ??????-?????? -- 1 -- None -- 78 -- 0 -- Solo Pro II MVP -- 172.26.2.164;109;Lane 1;3/5/2012;22:30:00;100;15 Minutes;;;;;;588;147;95.316;0;104;37;3;2;6.121;6.234;A;92.453;3.109;6.359;
040548FF08FBB421;IDS-04B -- ??????-?????? -- 1 -- None -- 78 -- 0 -- Solo Pro II MVP -- 172.26.2.164;110;Lane 2;3/5/2012;22:30:00;100;15 Minutes;;;;;;304;76;110.617;0;67;8;0;1;11.840;2.918;A;109.508;1.289;2.773;
040548FF08FBB421;IDS-04B -- ??????-?????? -- 1 -- None -- 78 -- 0 -- Solo Pro II MVP -- 172.26.2.164;113;Total;3/5/2012;22:30:00;100;15 Minutes;;;;;;446;223;100.531;0;171;45;3;3;8.980;4.574;A;97.637;2.184;4.566;
040548FF08FBB421;IDS-04B -- ??????-?????? -- 1 -- None -- 78 -- 0 -- Solo Pro II MVP -- 172.26.2.164;109;Lane 1;3/5/2012;22:45:00;100;15 Minutes;;;;;;524;131;90.844;0;100;24;3;4;6.867;5.637;A;88.109;2.992;5.945;
040548FF08FBB421;IDS-04B -- ??????-?????? -- 1 -- None -- 78 -- 0 -- Solo Pro II MVP -- 172.26.2.164;110;Lane 2;3/5/2012;22:45:00;100;15 Minutes;;;;;;252;63;103.617;0;47;15;1;0;14.285;2.523;A;101.938;1.160;2.469;
040548FF08FBB421;IDS-04B -- ??????-?????? -- 1 -- None -- 78 -- 0 -- Solo Pro II MVP -- 172.26.2.164;113;Total;3/5/2012;22:45:00;100;15 Minutes;;;;;;388;194;94.992;0;147;39;4;4;10.574;4.078;A;92.168;2.063;4.207;
040548FF08FBB421;IDS-04B -- ??????-?????? -- 1 -- None -- 78 -- 0 -- Solo Pro II MVP -- 172.26.2.164;109;Lane 1;3/5/2012;23:00:00;100;15 Minutes;;;;;;416;104;94.199;0;73;25;0;6;8.652;4.566;A;91.629;2.461;4.539;
040548FF08FBB421;IDS-04B -- ??????-?????? -- 1 -- None -- 78 -- 0 -- Solo Pro II MVP -- 172.26.2.164;110;Lane 2;3/5/2012;23:00:00;100;15 Minutes;;;;;;196;49;115.184;0;35;12;2;0;18.367;1.832;A;112.785;0.848;1.734;
040548FF08FBB421;IDS-04B -- ??????-?????? -- 1 -- None -- 78 -- 0 -- Solo Pro II MVP -- 172.26.2.164;113;Total;3/5/2012;23:00:00;100;15 Minutes;;;;;;306;153;100.918;0;108;37;2;6;13.508;3.199;A;97.484;1.633;3.137;
040548FF08FBB421;IDS-04B -- ??????-?????? -- 1 -- None -- 78 -- 0 -- Solo Pro II MVP -- 172.26.2.164;109;Lane 1;3/5/2012;23:15:00;100;15 Minutes;;;;;;356;89;98.449;0;60;26;2;1;10.109;3.727;A;95.242;1.801;3.734;
040548FF08FBB421;IDS-04B -- ??????-?????? -- 1 -- None -- 78 -- 0 -- Solo Pro II MVP -- 172.26.2.164;110;Lane 2;3/5/2012;23:15:00;100;15 Minutes;;;;;;136;34;113.234;0;27;7;0;0;26.469;1.336;A;111.980;0.547;1.211;
040548FF08FBB421;IDS-04B -- ??????-?????? -- 1 -- None -- 78 -- 0 -- Solo Pro II MVP -- 172.26.2.164;113;Total;3/5/2012;23:15:00;100;15 Minutes;;;;;;246;123;102.535;0;87;33;2;1;18.289;2.531;A;99.348;1.168;2.473;
040548FF08FBB421;IDS-04B -- ??????-?????? -- 1 -- None -- 78 -- 0 -- Solo Pro II MVP -- 172.26.2.164;109;Lane 1;3/5/2012;23:30:00;100;15 Minutes;;;;;;308;77;87.844;0;42;28;1;6;11.688;4.043;A;85.125;2.145;3.617;
040548FF08FBB421;IDS-04B -- ??????-?????? -- 1 -- None -- 78 -- 0 -- Solo Pro II MVP -- 172.26.2.164;110;Lane 2;3/5/2012;23:30:00;100;15 Minutes;;;;;;136;34;107.852;0;24;9;0;0;26.469;1.348;A;106.195;0.590;1.277;
040548FF08FBB421;IDS-04B -- ??????-?????? -- 1 -- None -- 78 -- 0 -- Solo Pro II MVP -- 172.26.2.164;113;Total;3/5/2012;23:30:00;100;15 Minutes;;;;;;222;111;93.973;0;66;37;1;6;19.078;2.695;A;90.633;1.340;2.449;
040548FF08FBB421;IDS-04B -- ??????-?????? -- 1 -- None -- 78 -- 0 -- Solo Pro II MVP -- 172.26.2.164;109;Lane 1;3/5/2012;23:45:00;100;15 Minutes;;;;;;264;66;93.121;0;47;17;2;0;13.633;2.844;A;90.465;1.406;2.918;
040548FF08FBB421;IDS-04B -- ??????-?????? -- 1 -- None -- 78 -- 0 -- Solo Pro II MVP -- 172.26.2.164;110;Lane 2;3/5/2012;23:45:00;100;15 Minutes;;;;;;96;24;106.082;0;20;3;1;0;37.500;0.891;A;104.875;0.453;0.914;
040548FF08FBB421;IDS-04B -- ??????-?????? -- 1 -- None -- 78 -- 0 -- Solo Pro II MVP -- 172.26.2.164;113;Total;3/5/2012;23:45:00;100;15 Minutes;;;;;;180;90;96.574;0;67;20;3;0;25.566;1.867;A;93.906;0.926;1.914;
