238.0	59.5	70.23375	0.0	54.5	1.75	2.5	0.75	15.426749999999998	3.21375	65.01774999999999	1.6847500000000002	3.6415	
196.0	49.0	72.32625000000002	0.0	42.5	3.25	3.0	0.25	18.989250000000002	2.754	66.833	1.4005	2.9375	
177.0	44.25	69.89325	0.0	38.25	2.0	3.0	1.0	20.416	2.632	63.9855	1.31525	2.7752499999999998	
213.0	53.25	66.99125000000001	0.0	44.75	4.0	3.75	0.75	17.0985	3.38675	60.115249999999996	1.6727500000000002	3.5497499999999995	
339.0	84.75	59.371	0.0	75.25	3.25	4.25	1.75	10.951249999999998	5.358499999999999	54.4415	2.88	6.21675	
505.0	126.25	62.66799999999999	0.0	112.0	3.75	8.75	1.5	7.24225	7.27425	58.74225	3.9717499999999997	8.620249999999999	
928.0	232.0	72.32525	0.0	210.75	3.75	11.25	6.25	4.037	10.76675	69.664	6.7355	13.411	
1412.0	353.0	68.55575	0.0	339.75	3.0	5.5	4.0	2.5524999999999998	17.5175	64.9015	9.338999999999999	21.94175	
1349.0	337.25	56.455	0.0	319.0	5.5	8.5	4.0	2.66925	19.51375	50.79600000000001	11.59375	27.839750000000002	
1318.0	329.5	59.83325000000001	0.0	291.75	12.25	16.75	7.75	2.73075	17.432499999999997	56.79175	11.4815	23.32025	
1177.0	294.25	52.23825	0.0	251.5	12.25	21.0	9.0	3.0655	20.521749999999997	47.6995	12.64725	25.24225	
1206.0	301.5	50.261750000000006	0.0	250.25	13.25	27.0	10.25	2.9845	21.831000000000003	46.72175	13.9815	25.961	
1057.0	264.25	49.51175	0.0	222.0	11.25	22.75	6.75	3.4255000000000004	20.201	44.58	12.052999999999999	24.506	
1124.0	281.0	54.164	0.0	242.25	10.0	18.5	9.5	3.20725	19.4735	50.84075	11.661	22.17975	
1174.0	293.5	54.25875	0.0	255.5	13.0	17.75	6.5	3.077	21.07625	50.752	11.9795	23.128999999999998	
1195.0	298.75	59.10125	0.0	256.75	18.0	18.25	5.0	3.01675	19.87325	56.3925	11.1465	21.253999999999998	
1328.0	332.0	56.336749999999995	0.0	297.25	10.0	15.75	8.5	2.7139999999999995	22.4685	52.5195	12.744250000000001	25.527499999999996	
924.0	231.0	21.8635	0.0	201.75	12.5	8.5	2.75	3.932	41.219750000000005	13.15925	22.018250000000002	72.3535	
1194.0	298.5	33.44025	0.0	279.5	9.75	5.75	1.5	3.0722500000000004	33.172000000000004	28.33175	18.3055	50.65425	
911.0	227.75	61.13775	0.0	212.25	6.5	5.0	3.75	4.008	13.970500000000001	57.254999999999995	7.101749999999999	15.988	
713.0	178.25	61.077	0.0	166.0	4.25	6.75	1.0	5.05075	10.269750000000002	56.60525	5.422000000000001	12.642750000000001	
568.0	142.0	66.756	0.0	130.25	5.0	4.75	1.75	6.400499999999999	7.968500000000001	62.2725	4.1085	9.1495	
466.0	116.5	70.46175	0.0	109.0	3.25	3.0	1.25	7.8105	6.032499999999999	64.77725	3.1610000000000005	7.2197499999999994	
299.0	74.75	72.251	0.0	68.75	2.25	2.25	1.5	12.14075	4.00975	66.786	2.08975	4.48325	

119.0	29.75	90.16975	0.0	27.75	1.5	0.5	0.0	32.1445	1.254	86.3545	0.6287499999999999	1.36625	
93.0	23.25	89.58324999999999	0.0	21.25	2.0	0.0	0.0	39.277249999999995	0.96275	85.93575	0.50275	1.09075	
81.0	20.25	89.48849999999999	0.0	19.25	0.75	0.25	0.0	47.13075	0.9005	86.58000000000001	0.4295	0.9392499999999999	
108.0	27.0	87.77749999999999	0.0	25.25	1.0	0.75	0.0	34.823	1.22075	83.374	0.5935	1.3135	
246.0	61.5	82.71775	0.0	58.25	1.5	1.5	0.25	15.521500000000001	2.8720000000000003	78.75775	1.4465	3.14925	
551.0	137.75	85.58175	0.0	133.25	2.75	0.75	1.0	6.734249999999999	5.1375	82.92049999999999	2.88975	6.610499999999999	
1186.0	296.5	91.05775	0.0	289.5	3.0	1.5	2.5	3.33975	10.17575	89.2645	5.991250000000001	13.4465	
1872.0	468.0	83.871	0.0	456.25	7.75	1.75	2.25	1.9267499999999997	18.421999999999997	81.1535	9.8235	23.2185	
1849.0	462.25	70.913	0.0	453.5	3.75	1.25	2.25	1.9475000000000002	20.334	63.1515	11.62775	30.5235	
1813.0	453.25	72.9825	0.0	447.5	1.75	1.25	1.75	1.98625	17.41575	68.54	11.04425	26.711	
1713.0	428.25	64.88	0.0	415.25	3.75	5.5	3.25	2.10175	20.13775	58.048	12.3965	30.24225	
1728.0	432.0	60.72825	0.0	421.25	4.25	4.0	1.75	2.08225	20.972749999999998	56.333	13.596749999999998	31.082250000000002	
1648.0	412.0	61.633750000000006	0.0	399.25	6.0	3.75	2.0	2.1905	20.42275	55.83775	12.621000000000002	30.347749999999998	
1673.0	418.25	66.495	0.0	406.75	3.75	3.5	2.75	2.1525	18.69525	63.469750000000005	11.935500000000001	26.6055	
1705.0	426.25	66.207	0.0	414.75	6.25	3.75	1.5	2.10925	19.91575	61.9805	12.23175	27.52725	
1695.0	423.75	71.245	0.0	403.75	11.0	3.0	5.75	2.13575	18.596249999999998	68.54899999999999	11.80075	24.906499999999998	
1756.0	439.0	66.496	0.0	420.25	7.25	6.5	4.25	2.04975	20.92775	61.249750000000006	13.2715	29.152250000000002	
788.0	197.0	23.5245	0.0	171.75	8.75	4.5	2.0	4.7275	29.88675	12.59375	16.6375	64.88175	
1281.0	320.25	37.413	0.0	305.5	7.25	2.0	0.75	2.964	29.25325	31.338	16.902250000000002	51.39549999999999	
1246.0	311.5	74.81424999999999	0.0	297.5	8.0	3.75	1.75	2.9305000000000003	15.495000000000001	72.33500000000001	7.835000000000001	17.3635	
936.0	234.0	77.6805	0.0	220.75	7.75	3.25	1.75	3.90325	11.59675	75.04975	5.774249999999999	12.586	
774.0	193.5	83.85875	0.0	185.5	4.25	2.25	1.0	4.699	8.75375	81.48724999999999	4.3740000000000006	9.54675	
457.0	114.25	89.662	0.0	107.25	4.25	2.75	0.0	8.3105	4.868	87.2005	2.4512499999999995	5.282	
229.0	57.25	93.42375000000001	0.0	51.75	2.25	2.75	0.5	16.14275	2.47975	91.0145	1.2155	2.528	

178.5	89.25	77.04025	0.0	82.25	3.25	3.0	0.75	23.78425	2.2319999999999998	70.95425	1.136	2.50375	
144.5	72.25	77.84375	0.0	63.75	5.25	3.0	0.25	29.131749999999997	1.8575	72.0305	0.9402499999999999	2.0145	
129.0	64.5	75.96575000000001	0.0	57.5	2.75	3.25	1.0	33.77225	1.7647499999999998	69.54025	0.8579999999999999	1.8575	
160.5	80.25	74.01474999999999	0.0	70.0	5.0	4.5	0.75	25.96	2.3035	66.27449999999999	1.10725	2.43175	
292.5	146.25	69.14925	0.0	133.5	4.75	5.75	2.0	13.23525	4.11325	62.49	2.09975	4.6827499999999995	
528.0	264.0	74.59275	0.0	245.25	6.5	9.5	2.5	6.98625	6.205	69.19900000000001	3.32625	7.61425	
1057.0	528.5	82.69525	0.0	500.25	6.75	12.75	8.75	3.6875	10.4705	79.3145	6.2345	13.42975	
1642.0	821.0	77.28325	0.0	796.0	10.75	7.25	6.25	2.2395	17.96875	73.24300000000001	9.47175	22.584	
1599.0	799.5	64.82875	0.0	772.5	9.25	9.75	6.25	2.3077499999999995	19.92375	57.271750000000004	11.40825	29.1855	
1565.5	782.75	67.44924999999999	0.0	739.25	14.0	18.0	9.5	2.3575	17.423	63.0265	11.06725	25.017500000000002	
1445.0	722.5	59.74825	0.0	666.75	16.0	26.5	12.25	2.58225	20.32825	53.3535	12.265749999999999	27.74425	
1467.0	733.5	56.433749999999996	0.0	671.5	17.5	31.0	12.0	2.53125	21.4005	51.91375000000001	13.541	28.52725	
1352.5	676.25	56.896499999999996	0.0	621.25	17.25	26.5	8.75	2.80675	20.3105	50.8095	12.079	27.42775	
1398.5	699.25	61.52924999999999	0.0	649.0	13.75	22.0	12.25	2.67875	19.084	57.6585	11.58	24.3985	
1439.5	719.75	61.3565	0.0	670.25	19.25	21.5	8.0	2.593	20.495	56.8605	11.89975	25.333999999999996	
1445.0	722.5	66.203	0.0	660.5	29.0	21.25	10.75	2.57625	19.2345	62.886750000000006	11.317499999999999	23.080000000000002	
1542.0	771.0	62.11525	0.0	717.5	17.25	22.25	12.75	2.38	21.69725	57.128750000000004	12.879999999999999	27.34175	
856.0	428.0	22.669999999999998	0.0	373.5	21.25	13.0	4.75	4.3285	35.552749999999996	12.875	19.302750000000003	68.62225000000001	
1237.5	618.75	35.7695	0.0	585.0	17.0	7.75	2.25	3.0165	31.212000000000003	29.91225	17.567500000000003	51.0275	
1078.5	539.25	69.03025	0.0	509.75	14.5	8.75	5.5	3.46875	14.732500000000002	65.08875	7.3885000000000005	16.67575	
824.5	412.25	70.4405	0.0	386.75	12.0	10.0	2.75	4.4755	10.932749999999999	65.746	5.52825	12.6115	
671.0	335.5	76.63375	0.0	315.75	9.25	7.0	2.75	5.54875	8.36025	72.11225	4.18275	9.345749999999999	
461.5	230.75	79.80449999999999	0.0	216.25	7.5	5.75	1.25	8.0595	5.449249999999999	74.06175	2.7657499999999997	6.2490000000000006	
264.0	132.0	81.37475	0.0	120.5	4.5	5.0	2.0	14.1405	3.2439999999999998	75.49225	1.6237499999999998	3.5060000000000002	

