6.0	1.5	46.833	0.0	0.5	0.5	0.25	0.0	255.996	0.0645	46.61725	25.048750000000002	0.095	
3.0	0.75	25.625	0.0	0.5	0.0	0.25	0.0	255.996	0.04875	25.427750000000003	50.033249999999995	0.0575	
1.0	0.25	15.5	0.0	0.0	0.25	0.0	0.0	255.996	0.00975	15.5	75.00874999999999	0.01575	
0.0	0.0	0.0	0.0	0.0	0.0	0.0	0.0	255.996	0.0	0.0	100.0	0.0	
3.0	0.75	26.75	0.0	0.5	0.0	0.0	0.0	255.996	0.06925	26.7295	50.01175	0.05975	
0.0	0.0	0.0	0.0	0.0	0.0	0.0	0.0	255.996	0.0	0.0	100.0	0.0	
7.0	1.75	43.4375	0.0	0.0	1.0	0.25	0.25	248.24699999999999	0.21675	42.793	25.084	0.12000000000000001	
6.0	1.5	46.333	0.0	0.25	0.5	0.0	0.25	255.996	0.11624999999999999	43.91775	25.052500000000002	0.09775	
10.0	2.5	59.833	0.0	2.0	0.25	0.0	0.0	255.996	0.214	58.297000000000004	0.056749999999999995	0.182	
6.0	1.5	43.75	0.0	0.75	0.25	0.25	0.25	255.996	0.11224999999999999	40.6565	25.08025	0.1085	
13.0	3.25	73.583	0.0	1.5	1.25	0.0	0.25	248.24699999999999	0.18925	72.043	0.09475	0.18475000000000003	
8.0	2.0	53.333	0.0	1.25	0.5	0.0	0.0	255.996	1.2069999999999999	46.581	0.048999999999999995	0.28524999999999995	
3.0	0.75	32.25	0.0	0.0	0.5	0.0	0.0	255.996	0.057749999999999996	32.057500000000005	50.0175	0.045	
19.0	4.75	65.29575	0.0	1.75	1.5	1.0	0.0	186.1415	0.296	61.40425	0.1485	0.3155	
43.0	10.75	55.86225	0.0	4.5	2.0	1.0	0.5	111.07124999999999	0.69625	53.330999999999996	0.35175000000000006	0.8340000000000001	
31.0	7.75	50.5165	0.0	4.5	1.75	0.25	0.25	131.328	0.40825	46.0195	25.21975	0.5137499999999999	
69.0	17.25	60.79025000000001	0.0	8.25	3.5	1.25	1.25	68.631	0.79175	56.98325	0.23149999999999998	1.207	
255.0	63.75	64.036	0.0	31.25	13.75	3.25	2.25	14.779250000000001	2.3575	60.746750000000006	1.79	4.176	
61.0	15.25	65.38674999999999	0.0	9.75	2.0	0.75	0.25	93.82124999999999	0.91025	54.1015	0.38175	1.0765	
67.0	16.75	64.96575	0.0	11.5	2.75	0.5	0.75	64.61125	0.78625	62.03425	0.47775	1.07125	
29.0	7.25	64.708	0.0	4.5	0.25	1.0	0.5	139.01749999999998	0.32325000000000004	63.50675	0.20225	0.45599999999999996	
45.0	11.25	65.914	0.0	5.25	2.75	1.25	0.25	88.125	0.49224999999999997	63.2335	0.30200000000000005	0.7137499999999999	
34.0	8.5	65.7235	0.0	3.25	1.75	2.0	0.25	138.02425	0.463	63.215	0.2275	0.55	
17.0	4.25	67.08875	0.0	1.5	1.25	0.75	0.0	208.6415	0.24024999999999996	64.59174999999999	0.124	0.26075000000000004	

192.0	48.0	62.001000000000005	0.0	21.25	17.0	5.0	4.75	18.7695	3.45325	59.05875	2.2435	3.25075	
167.0	41.75	60.11225	0.0	17.5	16.25	3.0	4.75	21.7695	3.30375	57.160250000000005	2.0275	2.94325	
157.0	39.25	61.521499999999996	0.0	19.0	14.5	2.5	3.25	23.097749999999998	2.74425	57.8945	1.7029999999999998	2.7090000000000005	
172.0	43.0	58.859249999999996	0.0	20.25	15.5	3.75	3.5	21.217	2.9855	56.71375	1.99725	3.051	
229.0	57.25	56.47675	0.0	32.5	14.0	5.75	4.5	16.17	4.3485	54.927	2.6345	4.171749999999999	
338.0	84.5	59.61525	0.0	52.75	21.5	4.75	5.25	10.8525	5.537000000000001	58.089	3.346	5.835	
393.0	98.25	63.438500000000005	0.0	30.75	32.0	12.75	22.5	9.19425	7.384500000000001	61.68375	5.84175	6.37425	
481.0	120.25	63.79700000000001	0.0	32.75	46.25	17.25	24.0	7.5285	8.17775	61.43650000000001	6.979749999999999	7.81925	
520.0	130.0	62.40025	0.0	30.75	50.75	17.75	30.75	6.935499999999999	10.039000000000001	60.13375	8.086	8.682500000000001	
672.0	168.0	58.26275	0.0	37.0	68.25	24.5	37.75	5.383	14.383	56.180499999999995	11.02825	11.976500000000001	
700.0	175.0	59.5645	0.0	55.25	73.25	20.25	25.75	5.15025	13.08975	57.998999999999995	9.4405	12.0665	
658.0	164.5	61.06625	0.0	64.0	64.5	16.75	19.0	5.5177499999999995	11.759	59.365	8.14275	11.094750000000001	
680.0	170.0	60.223499999999994	0.0	65.5	64.5	17.0	22.75	5.30475	11.88675	58.8865	8.82975	11.55775	
698.0	174.5	61.23125	0.0	53.0	67.75	19.5	33.5	5.163	13.045	59.888999999999996	10.220749999999999	11.672	
707.0	176.75	60.4065	0.0	56.0	74.0	14.0	32.5	5.11425	13.1005	58.805499999999995	10.0535	12.01175	
753.0	188.25	59.746	0.0	65.75	72.75	17.25	32.5	5.42075	13.55875	58.26075	10.751999999999999	12.917	
850.0	212.5	60.8575	0.0	68.75	93.75	16.0	33.75	4.24325	14.559750000000001	59.36725	11.475750000000001	14.318249999999999	
828.0	207.0	64.381	0.0	91.0	73.25	14.75	27.75	4.42975	13.397499999999999	62.2365	9.820500000000001	13.291999999999998	
793.0	198.25	65.2715	0.0	104.5	59.5	11.25	23.0	4.5440000000000005	11.65175	63.0685	8.7015	12.57025	
754.0	188.5	57.04975	0.0	99.5	66.0	12.0	10.25	4.79425	13.291	54.75025	8.2775	13.8125	
635.0	158.75	59.08275	0.0	81.75	59.75	9.25	7.5	5.867999999999999	10.919	56.5345	6.554749999999999	11.245999999999999	
452.0	113.0	61.166000000000004	0.0	54.0	42.0	6.5	10.5	7.9990000000000006	8.10675	58.44525	5.110250000000001	7.75475	
359.0	89.75	61.95425	0.0	36.5	39.0	6.5	7.5	10.1095	6.592749999999999	59.333999999999996	4.04975	6.0565	
283.0	70.75	62.89175	0.0	26.25	29.0	4.25	10.5	12.8505	5.3172500000000005	59.21375	3.448	4.7695	

99.0	49.5	62.007000000000005	0.0	21.75	17.5	5.25	4.75	226.58675	1.7575	59.135	1.1455	1.67275	
85.0	42.5	60.00175	0.0	18.0	16.25	3.25	4.75	251.287	1.6755	57.0	1.02925	1.50025	
79.0	39.5	61.536	0.0	19.0	14.75	2.5	3.25	255.996	1.37575	57.919	0.85425	1.3612499999999998	
86.0	43.0	58.859249999999996	0.0	20.25	15.5	3.75	3.5	255.996	1.4925	56.71375	0.99825	1.5245000000000002	
116.0	58.0	56.36725	0.0	33.0	14.0	5.75	4.5	250.33	2.208	54.804750000000006	1.32325	2.11625	
169.0	84.5	59.61525	0.0	52.75	21.5	4.75	5.25	255.996	2.76675	58.089	1.672	2.91575	
200.0	100.0	63.342749999999995	0.0	30.75	33.0	13.0	22.75	214.56924999999998	3.8000000000000003	61.596	2.964	3.2459999999999996	
243.5	121.75	63.79325	0.0	33.0	46.75	17.25	24.25	223.50575	4.1457500000000005	61.404250000000005	3.5145	3.958	
265.0	132.5	62.356500000000004	0.0	32.75	51.0	17.75	30.75	179.08025	5.125	60.042	4.071	4.431500000000001	
339.0	169.5	58.28525	0.0	37.75	68.5	24.75	38.0	223.02825	7.247	56.173	5.54975	6.042	
356.5	178.25	59.80275	0.0	56.75	74.5	20.25	26.0	143.199	6.63875	58.1765	4.758	6.1267499999999995	
333.0	166.5	60.910250000000005	0.0	65.25	65.0	16.75	19.0	204.47375	6.4825	58.496249999999996	4.1015	5.6895	
341.5	170.75	60.265499999999996	0.0	65.5	65.0	17.0	22.75	248.87875	5.9719999999999995	58.91375	4.42	5.80175	
358.5	179.25	61.285250000000005	0.0	54.75	69.25	20.5	33.5	119.9015	6.669	59.875	5.18175	5.993	
375.0	187.5	60.0625	0.0	60.5	76.0	15.0	33.0	58.09175	6.8972500000000005	58.3485	5.21475	6.42175	
392.0	196.0	59.998000000000005	0.0	70.25	74.5	17.5	32.75	99.21375	6.9822500000000005	58.32525	5.47175	6.71475	
459.5	229.75	60.79775	0.0	77.0	97.25	17.25	35.0	36.43575	7.6747499999999995	59.1505	6.0525	7.76275	
541.5	270.75	64.31425	0.0	122.25	87.0	18.0	30.0	9.60325	7.875749999999999	61.89075	5.80475	8.7335	
427.0	213.5	65.46199999999999	0.0	114.25	61.5	12.0	23.25	49.182	6.2802500000000006	62.526250000000005	4.53125	6.82325	
410.5	205.25	57.75575	0.0	111.0	68.75	12.5	11.0	34.702	7.03825	55.30375	4.355499999999999	7.4415	
332.0	166.0	59.32025	0.0	86.25	60.0	10.25	8.0	72.44225	5.6209999999999996	56.79975	3.38975	5.85075	
248.5	124.25	61.59075	0.0	59.25	44.75	7.75	10.75	48.061499999999995	4.2989999999999995	58.8215	2.69925	4.235250000000001	
196.5	98.25	62.2705	0.0	39.75	40.75	8.5	7.75	79.5675	3.5265000000000004	59.5705	2.173	3.30275	
150.0	75.0	63.244	0.0	27.75	30.25	5.0	10.5	134.99525	2.7784999999999997	59.5265	1.7785	2.5155000000000003	

