1.0	0.25	11.5	0.0	0.25	0.0	0.0	0.0	255.996	0.01175	11.505	75.01075	0.0215	
0.0	0.0	0.0	0.0	0.0	0.0	0.0	0.0	255.996	0.0	0.0	100.0	0.0	
0.0	0.0	0.0	0.0	0.0	0.0	0.0	0.0	255.996	0.0	0.0	100.0	0.0	
0.0	0.0	0.0	0.0	0.0	0.0	0.0	0.0	255.996	0.0	0.0	100.0	0.0	
0.0	0.0	0.0	0.0	0.0	0.0	0.0	0.0	255.996	0.0	0.0	100.0	0.0	
0.0	0.0	0.0	0.0	0.0	0.0	0.0	0.0	255.996	0.0	0.0	100.0	0.0	
26.0	6.5	39.02625	0.0	1.75	0.25	0.5	0.5	201.77925000000002	0.3205	36.446250000000006	25.18675	0.50775	
464.0	116.0	62.937250000000006	1.25	44.5	55.75	4.75	7.0	8.3165	5.79275	60.875750000000004	4.537749999999999	7.6610000000000005	
172.0	43.0	58.1355	0.75	13.0	22.0	5.75	1.0	23.07625	3.24975	56.16775	1.9229999999999998	3.04775	
44.0	11.0	38.23625	0.5	4.75	3.75	0.5	0.25	150.249	1.0117500000000001	37.74425	25.45625	0.868	
6.0	1.5	34.583	0.0	1.0	0.5	0.0	0.0	255.996	0.17099999999999999	29.34175	25.0665	0.1855	
4.0	1.0	31.333	0.0	0.75	0.25	0.0	0.0	255.996	0.04575	31.035249999999998	50.027249999999995	0.058499999999999996	
4.0	1.0	36.875	0.0	0.75	0.25	0.0	0.0	255.996	0.046	36.87625	25.033250000000002	0.07825	
3.0	0.75	44.25	0.0	0.75	0.0	0.0	0.0	255.996	0.0195	44.20225	50.01475	0.036	
7.0	1.75	54.208	0.25	1.0	0.5	0.0	0.0	255.996	0.08499999999999999	52.1985	0.04775000000000001	0.13475	
10.0	2.5	54.65625	0.0	2.0	0.25	0.0	0.25	220.12199999999999	0.12225	54.11225	25.092	0.14925	
5.0	1.25	46.375	0.0	1.0	0.0	0.0	0.25	255.996	0.06525	45.3505	25.041	0.08	
8.0	2.0	51.7285	0.5	1.0	0.5	0.0	0.0	248.24699999999999	0.08975	45.59775	25.043	0.14275	
10.0	2.5	51.67475	0.0	2.25	0.25	0.0	0.0	236.99699999999999	0.1015	49.814499999999995	25.0585	0.1485	
11.0	2.75	66.1035	0.0	2.0	0.5	0.0	0.0	248.24699999999999	0.127	64.44324999999999	0.03325	0.17275000000000001	
8.0	2.0	56.498999999999995	0.0	1.25	0.25	0.0	0.0	255.996	0.078	55.369249999999994	0.04475	0.15525000000000003	
4.0	1.0	30.375	0.0	0.5	0.0	0.0	0.0	255.996	0.0625	30.0985	50.010749999999994	0.0665	
3.0	0.75	29.875	0.0	0.0	0.25	0.25	0.0	255.996	0.03225	29.83025	50.0235	0.04975	
0.0	0.0	0.0	0.0	0.0	0.0	0.0	0.0	255.996	0.0	0.0	100.0	0.0	

211.0	52.75	64.78224999999999	0.0	31.0	17.5	1.5	2.25	17.22175	3.376	62.85450000000001	1.81775	3.35175	
171.0	42.75	63.17575	0.0	22.25	17.0	1.5	1.5	21.25575	2.88975	60.84775	1.5342500000000001	2.8047500000000003	
186.0	46.5	60.982499999999995	0.0	27.0	16.25	1.25	1.5	19.70475	3.00275	58.52525	1.6055000000000001	3.18075	
194.0	48.5	64.08575	0.0	28.0	17.0	0.75	2.25	18.964999999999996	3.0715	61.57325	1.6855	3.1552499999999997	
268.0	67.0	60.0235	0.0	42.25	20.5	1.25	2.5	13.69925	4.43175	58.33125	2.3259999999999996	4.582000000000001	
417.0	104.25	61.73725	0.0	69.75	28.75	2.75	2.5	8.65625	6.46875	60.263000000000005	3.4295	6.922750000000001	
526.0	131.5	67.55749999999999	0.0	48.0	47.75	15.0	20.5	7.006	8.8925	65.753	6.40225	8.01275	
942.0	235.5	71.173	0.0	128.5	64.5	23.5	19.0	3.826	12.87775	68.47625000000001	9.07225	13.76675	
758.0	189.5	65.71374999999999	0.0	92.75	68.5	15.5	12.5	4.754	11.53425	63.001000000000005	7.67775	12.058	
904.0	226.0	58.006	0.0	75.75	105.25	21.75	23.0	4.0135000000000005	16.75075	55.851499999999994	11.45825	16.21425	
968.0	242.0	57.408249999999995	0.0	79.75	107.0	29.5	24.5	3.71975	19.13	55.936499999999995	12.817250000000001	17.304499999999997	
908.0	227.0	59.841750000000005	0.0	66.0	112.0	23.75	24.5	3.98825	17.548750000000002	58.71875000000001	11.793750000000001	15.4835	
839.0	209.75	60.27425	0.0	69.0	90.25	23.5	26.25	4.291	15.2705	58.88875	11.071250000000001	14.25	
814.0	203.5	63.545	0.0	81.5	79.75	17.0	25.25	4.42675	13.38875	61.85775	9.715	13.167	
902.0	225.5	61.3265	0.0	92.25	88.25	17.75	27.0	3.99525	14.72175	60.077999999999996	11.02175	15.052000000000001	
829.0	207.25	62.588750000000005	0.0	89.25	78.5	17.75	19.75	5.10475	13.27325	61.05975000000001	9.55575	13.791	
930.0	232.5	61.03425	0.0	103.5	83.75	20.75	23.5	3.89275	15.586	59.4025	10.9515	15.634749999999999	
886.0	221.5	63.04775	0.0	106.75	77.0	16.25	20.25	4.09175	13.793750000000001	61.23625	9.64625	14.54225	
810.0	202.5	67.242	0.0	115.0	58.0	12.5	17.0	4.457000000000001	10.5695	64.994	7.8175	12.457250000000002	
708.0	177.0	60.13575	0.0	98.5	67.75	5.0	5.0	5.14475	11.430500000000002	57.993249999999996	6.47275	12.21475	
619.0	154.75	61.13375	0.0	88.75	55.0	4.75	5.5	5.839	10.33875	58.76349999999999	5.56325	10.53875	
468.0	117.0	63.32025	0.0	67.5	40.5	3.5	4.75	7.799999999999999	7.7402500000000005	60.674	4.085	7.713750000000001	
415.0	103.75	63.462	0.0	57.75	36.25	2.5	5.25	8.76975	7.06325	61.18225	3.74525	6.789	
287.0	71.75	66.09475	0.0	45.0	20.75	2.5	2.75	12.833	4.50575	63.04325	2.379	4.547	

106.0	53.0	64.6845	0.0	31.25	17.5	1.5	2.25	255.996	1.6935000000000002	62.73125000000001	0.91325	1.68575	
85.5	42.75	63.17575	0.0	22.25	17.0	1.5	1.5	255.996	1.44425	60.84775	0.76575	1.401	
93.0	46.5	60.982499999999995	0.0	27.0	16.25	1.25	1.5	255.996	1.5	58.52525	0.80075	1.58975	
97.0	48.5	64.08575	0.0	28.0	17.0	0.75	2.25	255.996	1.53425	61.57325	0.842	1.57625	
134.0	67.0	60.0235	0.0	42.25	20.5	1.25	2.5	255.996	2.215	58.33125	1.1622500000000002	2.29	
208.5	104.25	61.73725	0.0	69.75	28.75	2.75	2.5	255.996	3.23425	60.263000000000005	1.714	3.46075	
276.0	138.0	67.26750000000001	0.0	49.75	48.0	15.5	21.0	190.6415	4.6045	65.09200000000001	3.2910000000000004	4.25975	
703.0	351.5	68.47175	1.25	173.0	120.25	28.25	26.0	6.070500000000001	9.33475	65.78425	6.797750000000001	10.71275	
465.0	232.5	64.30175	0.75	105.75	90.5	21.25	13.5	13.91425	7.3915	61.583	4.788	7.55275	
474.0	237.0	57.65125	0.5	80.5	109.0	22.25	23.25	108.64775	8.88075	55.54	5.96275	8.539	
487.0	243.5	57.355500000000006	0.0	80.75	107.5	29.5	24.5	222.6855	9.6495	55.7	6.4425	8.745	
456.0	228.0	59.881	0.0	66.75	112.25	23.75	24.5	229.96574999999999	8.79575	58.745	5.90725	7.7705	
421.5	210.75	60.237500000000004	0.0	69.75	90.5	23.5	26.25	248.76950000000002	7.657	58.84	5.55175	7.16325	
408.5	204.25	63.62325	0.0	82.25	79.75	17.0	25.25	248.7695	6.7035	61.91625	4.8605	6.6005	
454.5	227.25	61.28125	0.25	93.25	88.75	17.75	27.0	222.75	7.40225	60.009	5.53925	7.59375	
419.5	209.75	62.680499999999995	0.0	91.25	78.75	17.75	20.0	206.46075	6.69725	61.11925000000001	4.8175	6.971749999999999	
467.5	233.75	61.044000000000004	0.0	104.5	83.75	20.75	23.75	241.40625	7.824249999999999	59.41525	5.495	7.856249999999999	
447.0	223.5	63.097750000000005	0.5	107.75	77.5	16.25	20.25	194.587	6.941749999999999	61.18925	4.842	7.341749999999999	
410.0	205.0	67.26374999999999	0.0	117.25	58.25	12.5	17.0	181.92275	5.334	65.0155	3.9365	6.30175	
359.5	179.75	60.247	0.0	100.5	68.25	5.0	5.0	180.69625000000002	5.776999999999999	58.0665	3.2647500000000003	6.194249999999999	
313.5	156.75	61.06425	0.0	90.0	55.25	4.75	5.5	204.4365	5.20675	58.65925	2.80275	5.345749999999999	
236.0	118.0	63.29775	0.0	68.0	40.5	3.5	4.75	242.57525	3.9005	60.668	2.048	3.8895	
209.0	104.5	63.4375	0.0	57.75	36.5	2.75	5.25	249.28799999999998	3.54725	61.16875	1.8845	3.41875	
143.5	71.75	66.09475	0.0	45.0	20.75	2.5	2.75	255.996	2.25175	63.04325	1.1885	2.2725	

