2.0	0.5	22.0	0.0	0.5	0.0	0.0	0.0	255.996	0.0205	22.00875	50.0205	0.04875	
5.0	1.25	59.375	0.0	1.0	0.0	0.25	0.0	255.996	0.041999999999999996	58.34875	0.035	0.085	
1.0	0.25	15.5	0.0	0.25	0.0	0.0	0.0	255.996	0.00875	15.5	75.00775	0.01575	
1.0	0.25	12.25	0.0	0.25	0.0	0.0	0.0	255.996	0.01075	12.254	75.00575	0.0195	
4.0	1.0	28.25	0.0	1.0	0.0	0.0	0.0	255.996	0.03225	28.0165	50.0235	0.07125000000000001	
1.0	0.25	14.0	0.0	0.25	0.0	0.0	0.0	255.996	0.005	14.003	75.005	0.0175	
3.0	0.75	30.875	0.0	0.25	0.5	0.0	0.0	255.996	0.04975	30.875	50.0255	0.049	
3.0	0.75	65.5	0.0	0.5	0.25	0.0	0.0	255.996	0.04	65.5675	25.0245	0.05175	
7.0	1.75	52.8495	0.0	0.5	1.0	0.25	0.0	236.99699999999999	0.16799999999999998	50.48650000000001	25.122999999999998	0.127	
12.0	3.0	61.6875	0.0	2.0	0.75	0.0	0.0	240.498	0.17775	58.906	0.10074999999999998	0.19824999999999998	
9.0	2.25	54.625	0.0	1.25	0.75	0.0	0.25	255.996	0.20325	48.810500000000005	0.11425	0.27925	
12.0	3.0	53.29975	0.0	1.25	1.75	0.0	0.0	229.248	0.211	51.40225	0.125	0.2325	
11.0	2.75	43.958	0.0	1.5	1.25	0.0	0.0	248.24699999999999	0.393	38.74	0.11625	0.40725	
10.0	2.5	66.04975	0.0	1.75	0.5	0.0	0.25	236.99699999999999	0.13874999999999998	65.0565	0.09075000000000001	0.16975	
6.0	1.5	86.0	0.0	1.5	0.0	0.0	0.0	255.996	0.054000000000000006	82.09875	0.0315	0.087	
14.0	3.5	64.583	0.0	1.5	1.25	0.5	0.25	229.497	0.26575000000000004	61.08275	0.13674999999999998	0.22575	
97.0	24.25	50.24125	0.0	18.25	4.75	0.5	0.0	103.785	2.25275	46.78999999999999	1.20925	3.61325	
792.0	198.0	29.6905	0.0	159.25	30.5	1.0	0.0	5.002	28.719	19.179750000000002	13.436499999999999	45.189499999999995	
981.0	245.25	44.5675	0.0	204.75	37.25	2.0	0.5	3.9385	18.208	42.4875	13.23625	33.45425	
34.0	8.5	45.669	0.0	7.25	1.25	0.0	0.0	199.25475	0.42674999999999996	45.08775	25.2255	0.60525	
6.0	1.5	17.69925	0.0	1.0	0.0	0.25	0.0	236.99699999999999	0.29274999999999995	15.046	50.10825	0.5635	
5.0	1.25	47.333	0.0	1.0	0.25	0.0	0.0	255.996	0.044	45.00675	25.029249999999998	0.083	
3.0	0.75	40.75	0.0	0.75	0.0	0.0	0.0	255.996	0.035250000000000004	40.7685	25.0195	0.052500000000000005	
1.0	0.25	15.0	0.0	0.25	0.0	0.0	0.0	255.996	0.005	15.003	75.005	0.0165	

197.0	49.25	65.881	0.0	31.0	16.5	0.75	0.5	18.39025	2.293	62.811499999999995	1.3925	3.1319999999999997	
218.0	54.5	64.43575	0.0	34.5	17.5	1.0	0.5	16.5985	2.6885000000000003	61.792	1.57525	3.5324999999999998	
181.0	45.25	62.76575	0.0	28.25	15.0	1.25	0.5	20.1085	2.13575	59.77725	1.3760000000000001	3.0315	
193.0	48.25	65.16300000000001	0.0	30.5	15.75	0.25	1.0	18.82325	2.2647500000000003	62.704249999999995	1.3985	3.085	
299.0	74.75	64.04374999999999	0.0	47.75	24.0	1.5	0.75	12.186750000000002	3.3172499999999996	62.203250000000004	2.20825	4.807	
441.0	110.25	61.8195	0.0	77.0	31.75	1.0	0.5	8.17775	4.83225	59.988249999999994	3.1690000000000005	7.348750000000001	
515.0	128.75	71.70224999999999	0.0	44.5	45.5	15.5	22.75	7.00775	7.389	69.98124999999999	5.583	7.359500000000001	
654.0	163.5	75.70499999999998	0.0	64.75	72.0	11.5	13.5	5.55275	8.616249999999999	73.45299999999999	5.6514999999999995	8.892	
691.0	172.75	72.24125	0.0	74.0	64.25	17.0	15.25	5.243	10.27425	69.76474999999999	6.3797500000000005	9.943249999999999	
828.0	207.0	67.31649999999999	0.0	77.5	85.25	24.25	19.25	4.3477500000000004	11.5595	65.842	8.5595	12.5735	
913.0	228.25	63.530249999999995	0.0	77.75	89.0	33.0	27.0	3.94825	14.962	62.230250000000005	10.455	14.672999999999998	
940.0	235.0	62.4395	0.0	76.25	96.0	34.5	27.0	3.83	15.63475	61.16975	11.258500000000002	15.3645	
858.0	214.5	60.798	0.0	60.0	93.5	27.5	31.5	4.209	15.1555	59.794	11.250749999999998	14.36225	
788.0	197.0	61.282250000000005	0.0	57.0	80.25	33.0	25.75	4.585	13.98825	59.91525	10.156500000000001	13.1415	
839.0	209.75	60.798	0.0	62.0	92.5	25.5	29.25	4.30175	14.2695	58.45625	10.8565	14.3825	
867.0	216.75	58.708	0.0	45.0	112.75	32.75	25.75	4.1545000000000005	14.835749999999999	57.0665	11.80275	15.20025	
879.0	219.75	57.089749999999995	0.0	55.5	116.0	24.5	21.5	4.10425	16.61025	49.885999999999996	11.211750000000002	18.979499999999998	
703.0	175.75	25.892500000000002	0.0	79.0	63.75	17.5	10.25	7.164000000000001	30.480500000000003	21.3045	17.564500000000002	41.223749999999995	
1044.0	261.0	37.8595	0.0	119.0	92.25	23.0	24.0	3.505	25.82225	35.415	20.88375	35.13575	
668.0	167.0	59.7295	0.0	86.5	72.5	3.75	3.25	5.67575	9.26575	57.353500000000004	5.875	12.074250000000001	
491.0	122.75	61.786	0.0	66.75	51.0	2.5	1.5	7.3565	6.07725	58.60725	3.9452499999999997	8.38375	
431.0	107.75	66.96975	0.0	59.25	46.25	1.25	0.5	8.37975	4.9325	63.8575	3.11525	6.756	
334.0	83.5	66.513	0.0	48.75	32.25	1.5	0.5	10.83125	3.77825	63.38850000000001	2.3895	5.26275	
239.0	59.75	66.33875	0.0	32.5	26.0	0.75	0.0	15.49825	2.6935000000000002	63.12500000000001	1.71	3.7772500000000004	

99.5	49.75	65.6515	0.0	31.5	16.5	0.75	0.5	255.996	1.15625	62.467	0.7052499999999999	1.59	
111.5	55.75	64.34375	0.0	35.5	17.5	1.25	0.5	250.33	1.3649999999999998	61.688250000000004	0.8054999999999999	1.808	
91.0	45.5	62.755	0.0	28.5	15.0	1.25	0.5	255.996	1.071	59.78025	0.6915	1.52225	
97.0	48.5	65.0575	0.0	30.75	15.75	0.25	1.0	255.996	1.1367500000000001	62.591	0.7020000000000001	1.552	
151.5	75.75	63.94825	0.0	48.75	24.0	1.5	0.75	243.54875	1.674	62.112249999999996	1.11625	2.4385	
221.0	110.5	61.80775	0.0	77.25	31.75	1.0	0.5	255.996	2.418	59.9815	1.586	3.6827499999999995	
259.0	129.5	71.63875	0.0	44.75	46.0	15.5	22.75	249.09275	3.71875	69.91675000000001	2.80475	3.704	
328.5	164.25	75.76475	0.0	65.25	72.25	11.5	13.5	255.996	4.327	73.368	2.833	4.47175	
349.0	174.5	72.19725	0.0	74.5	65.25	17.25	15.25	215.125	5.2197499999999994	69.65725	3.2470000000000003	5.03425	
420.0	210.0	67.292	0.0	79.5	86.0	24.25	19.25	170.92275	5.86825	65.75099999999999	4.32625	6.385999999999999	
461.0	230.5	63.462	0.0	79.0	89.75	33.0	27.25	208.22275	7.581250000000001	61.706	5.28125	7.4755	
476.0	238.0	62.32725	0.0	77.5	97.75	34.5	27.0	172.31025	7.922	61.0175	5.69125	7.79875	
434.5	217.25	60.60075	0.0	61.5	94.75	27.5	31.5	180.2285	7.7725	58.9015	5.6865	7.38475	
399.0	199.5	61.288000000000004	0.0	58.75	80.75	33.0	26.0	189.1895	7.0615	59.90125	5.12125	6.656	
422.5	211.25	60.94125	0.0	63.5	92.5	25.5	29.25	230.0225	7.161	58.5215	5.435499999999999	7.235250000000001	
440.5	220.25	58.80875	0.0	46.5	114.0	33.25	26.0	152.07625000000002	7.54975	57.12125	5.9670000000000005	7.714	
488.0	244.0	55.9075	0.0	73.75	120.75	25.0	21.5	59.4445	9.43075	49.34175	6.20425	11.296	
747.5	373.75	28.57125	0.0	238.25	94.25	18.5	10.25	6.082	29.59875	19.69525	14.7785	43.19825	
1012.5	506.25	40.7685	0.0	323.75	129.5	25.0	24.5	3.71975	22.014750000000003	38.17375	16.789	34.297000000000004	
351.0	175.5	59.94425	0.0	93.75	73.75	3.75	3.25	189.0675	4.84575	57.57125	3.044	6.33825	
248.5	124.25	61.3475	0.0	67.75	51.0	2.75	1.5	215.501	3.1847499999999997	56.20675	2.007	4.47175	
218.0	109.0	66.93175000000001	0.0	60.25	46.5	1.25	0.5	230.57800000000003	2.4872500000000004	63.78999999999999	1.5722500000000001	3.419	
168.5	84.25	66.40450000000001	0.0	49.5	32.25	1.5	0.5	255.996	1.90625	63.29375	1.2049999999999998	2.659	
120.0	60.0	66.30350000000001	0.0	32.75	26.0	0.75	0.0	255.996	1.34775	63.1115	0.85675	1.89575	

