88.0	22.0	53.75575	0.0	18.75	3.25	0.0	0.0	41.79899999999999	0.9397500000000001	52.589749999999995	0.7284999999999999	1.66525	
102.0	25.5	56.0595	0.0	21.75	3.75	0.0	0.0	35.33475	1.06725	54.34	0.8144999999999999	1.87575	
77.0	19.25	56.5075	0.0	16.25	2.75	0.25	0.0	48.125	0.7949999999999999	54.586999999999996	0.626	1.421	
72.0	18.0	56.936499999999995	0.0	14.75	2.75	0.5	0.0	51.02625	0.7429999999999999	55.3525	0.581	1.29775	
102.0	25.5	56.54775	0.0	22.5	3.0	0.0	0.0	35.970749999999995	1.075	55.336	0.8182499999999999	1.8445	
173.0	43.25	58.44525	0.0	34.75	8.0	0.25	0.25	20.96075	1.9587500000000002	56.6835	1.377	3.0469999999999997	
284.0	71.0	70.549	0.0	30.5	18.5	11.75	10.0	12.7735	4.5235	68.81375	3.36725	4.124	
316.0	79.0	73.28125	0.0	36.5	21.5	9.25	11.5	11.457999999999998	5.6115	70.73925	3.5	4.464	
334.0	83.5	72.2285	0.0	40.25	21.25	10.75	8.0	10.79875	5.9822500000000005	69.65325	3.3020000000000005	4.8215	
418.0	104.5	69.49	0.0	51.25	31.0	8.5	12.25	8.63375	6.284249999999999	67.876	4.415	6.1572499999999994	
471.0	117.75	66.68175	0.0	44.0	36.75	17.5	19.25	7.6575	8.6915	65.1905	6.025250000000001	7.220749999999999	
455.0	113.75	65.34875	0.0	46.5	32.25	17.25	17.5	7.94725	8.542	63.72274999999999	5.879	7.153499999999999	
459.0	114.75	63.96875	0.0	44.0	37.0	16.75	16.0	7.88675	8.67575	62.757999999999996	5.875	7.30975	
393.0	98.25	62.11925	0.0	38.25	31.75	14.0	13.75	9.32425	7.741250000000001	60.56075	5.295	6.50375	
430.0	107.5	61.32725	0.0	38.75	36.75	19.75	11.5	8.40725	8.69925	59.76475	5.68175	7.210000000000001	
449.0	112.25	60.6855	0.0	34.25	48.5	19.5	9.75	8.042	8.7725	59.044	5.912999999999999	7.6025	
431.0	107.75	67.20325	0.0	36.0	45.25	14.25	11.75	8.408	7.7772499999999996	65.14725	5.02825	6.62125	
396.0	99.0	64.66225	0.0	34.75	40.5	12.75	10.25	9.121	7.2627500000000005	62.69525000000001	4.80275	6.3125	
325.0	81.25	64.53450000000001	0.0	27.25	27.75	9.0	16.25	11.084	8.957	59.90925	4.584	5.4465	
225.0	56.25	58.093	0.0	42.5	11.5	1.75	0.5	16.26275	2.8195	55.819250000000004	1.97575	4.0245	
199.0	49.75	56.135999999999996	0.0	40.75	8.75	0.25	0.0	18.271500000000003	2.1542499999999998	54.19799999999999	1.6375	3.669	
131.0	32.75	57.788000000000004	0.0	27.25	4.5	0.25	0.5	27.84375	1.42475	55.58225	1.07925	2.35425	
132.0	33.0	56.053749999999994	0.0	28.5	4.25	0.0	0.25	28.6055	1.39175	53.55475	1.08375	2.4627499999999998	
82.0	20.5	56.029250000000005	0.0	16.5	4.0	0.0	0.0	47.899249999999995	0.913	54.611250000000005	0.68375	1.5077500000000001	

155.0	38.75	67.75575	0.0	31.75	6.0	0.75	0.25	23.9755	1.5197500000000002	66.06824999999999	1.0967500000000001	2.3575	
140.0	35.0	67.82325	0.0	29.75	4.5	0.5	0.0	26.839	1.4667499999999998	66.1445	0.926	2.11125	
144.0	36.0	68.3165	0.0	30.5	5.25	0.25	0.0	25.094749999999998	1.4267500000000002	66.042	0.9445000000000001	2.17875	
165.0	41.25	65.95625	0.0	33.25	7.0	0.75	0.25	22.002	1.63175	64.73825000000001	1.2040000000000002	2.5527499999999996	
244.0	61.0	65.2745	0.0	53.5	7.0	0.25	0.25	15.041999999999998	2.49725	63.36525	1.671	3.84175	
316.0	79.0	68.37375	0.0	62.0	13.25	2.0	1.75	11.433499999999999	3.4015	66.43925	2.32425	4.7547500000000005	
367.0	91.75	86.57724999999999	0.0	58.25	18.25	8.75	6.25	10.101500000000001	4.172000000000001	84.5075	2.75	4.33	
657.0	164.25	88.58775	0.0	121.75	31.25	5.25	5.75	5.5009999999999994	7.2805	86.5675	3.8565	7.585999999999999	
657.0	164.25	88.31425000000002	0.0	123.25	26.0	8.5	5.25	5.48725	7.341749999999999	85.71975	3.8145000000000002	7.66025	
649.0	162.25	82.74900000000001	0.0	103.5	40.5	8.0	9.25	5.5489999999999995	6.632	80.763	4.553749999999999	8.035	
652.0	163.0	79.5	0.0	99.0	36.75	14.75	12.0	5.54975	8.091750000000001	78.08699999999999	5.252	8.338000000000001	
651.0	162.75	76.75225	0.0	92.0	40.5	20.25	9.75	5.55175	8.5655	75.28224999999999	5.65625	8.64275	
653.0	163.25	74.74625	0.0	94.0	42.25	17.5	9.25	5.5145	8.82125	73.419	5.6339999999999995	8.89575	
664.0	166.0	74.60925	0.0	97.5	40.75	14.75	13.0	5.505999999999999	9.167	73.28625	5.86525	9.076	
676.0	169.0	74.75875	0.0	95.5	47.0	13.5	12.5	5.338	9.42975	73.17475000000002	5.912	9.23225	
688.0	172.0	74.29775	0.0	84.0	58.5	16.5	12.75	5.28625	9.411249999999999	72.99025	6.377	9.42875	
631.0	157.75	76.89349999999999	0.0	84.75	49.75	14.25	8.25	5.730499999999999	8.163	75.3545	5.1485	8.37125	
657.0	164.25	77.6455	0.0	110.5	37.0	8.75	7.5	5.51	7.4990000000000006	76.301	4.999750000000001	8.61025	
609.0	152.25	76.538	0.0	98.0	36.75	9.0	7.5	5.957000000000001	7.238250000000001	74.42075	4.80175	8.195	
506.0	126.5	70.67875	0.0	98.75	22.25	2.5	2.5	7.17	5.3925	68.36449999999999	3.56625	7.39925	
389.0	97.25	69.4735	0.0	78.5	14.25	1.5	2.75	9.296	3.9247499999999995	66.77324999999999	2.8545	5.83325	
319.0	79.75	71.14249999999998	0.0	61.0	15.0	3.0	0.5	11.395499999999998	3.248	68.67275000000001	2.22275	4.63675	
254.0	63.5	70.8985	0.0	47.0	13.75	1.5	1.25	14.336	2.51175	68.27825	1.827	3.71575	
182.0	45.5	68.97675	0.0	36.0	8.25	0.75	0.5	19.995	1.80375	66.52324999999999	1.297	2.7430000000000003	

121.5	60.75	62.600500000000004	0.0	50.5	9.25	0.75	0.25	32.88675	1.2285	60.341499999999996	0.90525	2.0105	
121.0	60.5	62.837	0.0	51.5	8.25	0.5	0.0	31.086	1.26575	60.58025	0.8635	1.9932500000000002	
110.5	55.25	64.07225	0.0	46.75	8.0	0.5	0.0	36.60825	1.1092499999999998	61.463	0.77725	1.8	
118.5	59.25	63.238499999999995	0.0	48.0	9.75	1.25	0.25	36.51375	1.1865	61.592749999999995	0.8887499999999999	1.9252500000000001	
173.0	86.5	62.70975	0.0	76.0	10.0	0.25	0.25	25.505000000000003	1.78525	60.753750000000004	1.23925	2.84375	
244.5	122.25	64.85175	0.0	96.75	21.25	2.25	2.0	16.19625	2.67875	62.603750000000005	1.84525	3.9002499999999998	
325.5	162.75	79.634	0.0	88.75	36.75	20.5	16.25	11.435500000000001	4.3475	76.88875	2.9805	4.227499999999999	
486.5	243.25	83.65050000000001	0.0	158.25	52.75	14.5	17.25	8.47875	6.445500000000001	80.7255	3.57225	6.02575	
495.5	247.75	82.84575000000001	0.0	163.5	47.25	19.25	13.25	8.14175	6.661	79.454	3.46875	6.24125	
533.5	266.75	77.55975000000001	0.0	154.75	71.5	16.5	21.5	7.091	6.4567499999999995	75.20124999999999	4.4075	7.09375	
561.5	280.75	74.16125	0.0	143.0	73.5	32.25	31.25	6.60225	8.39025	72.17675	5.5285	7.7775	
553.0	276.5	72.0195	0.0	138.5	72.75	37.5	27.25	6.74925	8.552	70.036	5.677999999999999	7.8965	
556.0	278.0	70.28425	0.0	138.0	79.25	34.25	25.25	6.70025	8.74725	68.61825	5.666	8.10175	
528.5	264.25	69.8965	0.0	135.75	72.5	28.75	26.75	7.414000000000001	8.452	67.9395	5.474749999999999	7.787249999999999	
553.0	276.5	69.535	0.0	134.25	83.75	33.25	24.0	6.87075	9.0635	67.33599999999998	5.684500000000001	8.21875	
568.5	284.25	68.91425000000001	0.0	118.25	107.0	36.0	22.5	6.66225	9.08975	66.7885	6.041	8.51075	
531.0	265.5	72.97375000000001	0.0	120.75	95.0	28.5	20.0	7.0685	7.96875	70.88675	5.0285	7.49425	
526.5	263.25	72.76775	0.0	145.25	77.5	21.5	17.75	7.31475	7.38	70.56524999999999	4.79875	7.46075	
467.0	233.5	72.33875	0.0	125.25	64.5	18.0	23.75	8.51975	8.09675	68.63675	4.5760000000000005	6.8205	
365.5	182.75	66.8095	0.0	141.25	33.75	4.25	3.0	11.71575	4.1057500000000005	63.93575	2.74425	5.710999999999999	
294.0	147.0	64.9375	0.0	119.25	23.0	1.75	2.75	13.78225	3.0389999999999997	61.875249999999994	2.2352499999999997	4.75075	
225.0	112.5	67.2695	0.0	88.25	19.5	3.25	1.0	19.619000000000003	2.3352500000000003	64.27449999999999	1.63975	3.496	
193.0	96.5	65.872	0.0	75.5	18.0	1.5	1.5	21.47075	1.95	62.449	1.4455	3.0890000000000004	
132.0	66.0	64.71799999999999	0.0	52.5	12.25	0.75	0.5	33.94625	1.35725	62.027249999999995	0.9804999999999999	2.12575	

