222.0	55.5	96.37974999999999	0.0	52.0	2.25	0.75	0.5	16.6045	2.2402499999999996	93.33875	1.03225	2.37975	
165.0	41.25	93.09	0.0	38.5	1.5	0.5	0.75	22.24325	1.8719999999999999	89.86125000000001	0.8184999999999999	1.82825	
133.0	33.25	96.38900000000001	0.0	30.25	2.25	0.5	0.25	27.56825	1.38575	92.63075	0.63975	1.4335	
148.0	37.0	93.93375	0.0	34.25	1.5	0.75	0.5	25.0	1.5245000000000002	90.85625	0.715	1.62975	
219.0	54.75	92.3985	0.0	49.75	3.0	1.75	0.25	16.6465	2.3087500000000003	89.3125	1.0907499999999999	2.4549999999999996	
385.0	96.25	90.03425	0.0	89.0	3.0	3.0	1.25	9.69525	3.8202499999999997	87.1035	1.927	4.416	
859.0	214.75	92.6545	0.0	194.75	5.5	5.0	9.0	4.46775	7.7802500000000006	90.88175	4.74625	9.45875	
1598.0	399.5	88.95125	0.0	378.75	11.25	4.75	3.25	2.2560000000000002	14.44325	87.49600000000001	8.06175	18.301	
1430.0	357.5	88.244	0.0	346.75	3.5	2.75	2.5	2.5175	11.791	86.74025	6.991249999999999	16.4885	
1322.0	330.5	86.594	0.0	314.75	8.25	5.0	2.25	2.7235	11.38975	85.23849999999999	6.97875	15.5195	
1219.0	304.75	84.62200000000001	0.0	282.5	9.5	7.25	5.25	2.95625	11.449	83.168	7.0155	14.656500000000001	
1092.0	273.0	83.583	0.0	249.25	7.0	12.0	4.25	3.31475	10.924999999999999	81.993	6.595750000000001	13.334	
1080.0	270.0	78.40249999999999	0.0	243.75	8.25	11.5	6.0	3.3310000000000004	11.65925	76.44449999999999	7.178	14.164250000000001	
1052.0	263.0	85.98225000000001	0.0	244.25	6.5	6.25	5.75	3.42275	10.318249999999999	84.35575	6.149500000000001	12.471499999999999	
1122.0	280.5	84.35925	0.0	259.5	7.5	5.75	6.75	3.2140000000000004	11.088249999999999	82.88675	6.624	13.55875	
1186.0	296.5	82.97075000000001	0.0	273.25	6.0	11.0	6.25	3.03525	11.7745	81.46175	7.3095	14.566500000000001	
980.0	245.0	89.37174999999999	0.0	233.25	3.25	6.0	2.5	4.409	8.90025	87.75200000000001	5.460999999999999	11.489249999999998	
1041.0	260.25	73.32925	0.0	231.0	9.25	12.5	7.5	4.0272499999999996	13.8095	66.30775	7.939499999999999	18.425	
1204.0	301.0	66.58274999999999	0.0	281.0	8.0	5.75	5.0	3.02825	18.31825	63.8565	10.9445	27.256999999999998	
911.0	227.75	38.873000000000005	0.0	203.75	13.5	3.75	1.5	3.96	34.19525	33.2245	15.78425	48.257749999999994	
735.0	183.75	85.4735	0.0	174.0	4.25	2.75	1.75	4.962	8.816500000000001	83.38775	3.9435	8.8175	
660.0	165.0	89.29425	0.0	158.0	2.0	3.0	1.5	5.5145	7.26275	86.877	3.3485	7.61525	
502.0	125.5	92.754	0.0	117.25	3.5	2.0	2.5	7.1875	5.363250000000001	90.292	2.5665000000000004	5.56375	
303.0	75.75	96.26774999999999	0.0	73.0	1.0	0.5	1.0	12.151499999999999	3.0097500000000004	93.51175	1.41725	3.2344999999999997	

86.0	21.5	119.5075	0.0	21.5	0.0	0.0	0.0	48.29975	0.7755000000000001	117.47000000000001	0.31925000000000003	0.7274999999999999	
44.0	11.0	120.51475	0.0	10.75	0.25	0.0	0.0	100.45400000000001	0.39175	118.29875	0.1605	0.38200000000000006	
59.0	14.75	117.707	0.0	14.0	0.75	0.0	0.0	61.613249999999994	0.50475	115.08675	0.218	0.5105	
55.0	13.75	119.3925	0.0	13.0	0.25	0.5	0.0	76.70400000000001	0.4465	116.82124999999999	0.21499999999999997	0.46874999999999994	
105.0	26.25	115.33574999999999	0.0	25.25	0.5	0.25	0.0	44.42175	0.84975	113.4385	0.40800000000000003	0.93075	
320.0	80.0	115.59550000000002	0.0	77.75	1.75	0.25	0.25	13.1035	2.49025	113.67	1.21375	2.831	
1013.0	253.25	111.77149999999999	0.0	244.25	5.5	0.5	2.5	3.92475	7.221	110.72475	4.1425	9.21775	
2030.0	507.5	100.5165	0.0	487.0	17.5	0.5	1.25	1.7755	15.6405	99.29974999999999	8.702000000000002	20.4925	
1796.0	449.0	100.002	0.0	443.25	3.5	1.5	0.5	2.0060000000000002	13.26775	98.86525	7.6065000000000005	18.16	
1680.0	420.0	100.63875	0.0	414.75	4.0	0.5	0.75	2.1465	12.217749999999999	99.65950000000001	7.2402500000000005	16.878999999999998	
1544.0	386.0	98.70325	0.0	381.25	2.5	2.0	0.25	2.33025	11.44625	97.2705	6.8622499999999995	15.879	
1372.0	343.0	98.49225	0.0	338.25	2.75	1.25	0.75	2.63275	10.3155	97.29700000000001	6.132	14.129	
1252.0	313.0	95.121	0.0	309.0	2.25	1.5	0.0	2.877	9.745750000000001	93.61125	5.79575	13.422	
1237.0	309.25	103.20150000000001	0.0	306.25	1.75	0.25	1.0	2.91625	9.011500000000002	102.25475	5.295999999999999	12.117500000000001	
1256.0	314.0	100.1425	0.0	311.5	1.75	0.75	0.0	2.8732499999999996	9.369250000000001	99.08800000000001	5.544	12.699250000000001	
1377.0	344.25	97.925	0.0	338.5	3.0	1.0	1.75	2.61925	10.5165	97.03224999999999	6.400500000000001	14.19925	
994.0	248.5	104.75	0.0	241.0	4.5	1.0	2.0	4.912	7.341749999999999	103.67975	4.480499999999999	9.929000000000002	
1120.0	280.0	82.35999999999999	0.0	268.75	4.25	2.75	4.0	4.088	11.76775	74.3485	6.6895	17.377	
1246.0	311.5	76.8905	0.0	299.5	4.25	1.5	3.0	3.004	15.80275	73.40325	8.7685	24.029249999999998	
1022.0	255.5	46.20425	0.0	236.0	9.75	2.5	2.25	3.5322500000000003	29.871000000000002	38.50575	14.033249999999999	47.05575000000001	
721.0	180.25	103.28625	0.0	173.25	4.0	2.25	0.75	5.129	7.23925	101.993	3.2647500000000003	7.09075	
593.0	148.25	107.72475	0.0	145.25	2.0	0.75	0.25	6.215	5.7372499999999995	106.33025	2.542	5.58125	
380.0	95.0	110.60825	0.0	91.5	1.75	1.0	0.75	9.55475	3.7070000000000003	108.70700000000001	1.60625	3.4932499999999997	
187.0	46.75	117.07525	0.0	45.0	1.25	0.5	0.0	20.358249999999998	1.6962499999999998	114.94624999999999	0.7432500000000001	1.62025	

154.0	77.0	102.7745	0.0	73.5	2.25	0.75	0.5	32.45125	1.507	98.89075	0.669	1.5534999999999999	
104.5	52.25	98.2695	0.0	49.25	1.75	0.5	0.75	61.347750000000005	1.131	94.1465	0.48324999999999996	1.10525	
96.0	48.0	102.86825	0.0	44.25	3.0	0.5	0.25	44.58975	0.94525	98.49025	0.42374999999999996	0.97175	
101.5	50.75	100.77250000000001	0.0	47.25	1.75	1.25	0.5	50.851499999999994	0.98425	96.656	0.45975	1.049	
162.0	81.0	99.45025	0.0	75.0	3.5	2.0	0.25	30.533	1.5782500000000002	95.59875	0.74125	1.6925000000000001	
352.5	176.25	101.19725000000001	0.0	166.75	4.75	3.25	1.5	11.39825	3.15425	97.0215	1.5442500000000001	3.6239999999999997	
936.0	468.0	102.872	0.0	439.0	11.0	5.5	11.5	4.19525	7.5	100.55850000000001	4.3835	9.335749999999999	
1814.0	907.0	95.42099999999999	0.0	865.75	28.75	5.25	4.5	2.01475	15.041	93.71799999999999	8.34075	19.39875	
1613.0	806.5	94.79275	0.0	790.0	7.0	4.25	3.0	2.25975	12.52825	93.06225	7.26675	17.33	
1501.0	750.5	94.44825	0.0	729.5	12.25	5.5	3.0	2.4334999999999996	11.80275	92.7205	7.05575	16.203	
1381.5	690.75	92.50475	0.0	663.75	12.0	9.25	5.5	2.6414999999999997	11.4475	90.48825	6.87	15.271500000000001	
1232.0	616.0	91.90125	0.0	587.5	9.75	13.25	5.0	2.9727499999999996	10.619	89.8555	6.2860000000000005	13.7345	
1166.0	583.0	87.36925000000001	0.0	552.75	10.5	13.0	6.0	3.1035	10.701	84.75600000000001	6.3767499999999995	13.797	
1144.5	572.25	95.2715	0.0	550.5	8.25	6.5	6.75	3.16775	9.664	93.116	5.641500000000001	12.29875	
1189.0	594.5	92.70525	0.0	571.0	9.25	6.5	6.75	3.04175	10.2285	90.72575	6.008	13.129249999999999	
1281.5	640.75	91.00774999999999	0.0	611.75	9.0	12.0	8.0	2.82625	11.144750000000002	89.12875	6.77525	14.386750000000001	
987.0	493.5	96.88975	0.0	474.25	7.75	7.0	4.5	4.66025	8.1205	94.88075	4.92775	10.709	
1080.5	540.25	78.04674999999999	0.0	499.75	13.5	15.25	11.5	4.05675	12.78825	70.21374999999999	7.248	17.90525	
1225.0	612.5	71.90225	0.0	580.5	12.25	7.25	8.0	3.0145	17.0595	68.456	9.786999999999999	25.6445	
966.5	483.25	42.8625	0.0	439.75	23.25	6.25	3.75	3.74525	32.03125	35.92775	14.781	47.6525	
728.0	364.0	94.24799999999999	0.0	347.25	8.25	5.0	2.5	5.045	8.0275	91.67475	3.5760000000000005	7.9515	
626.5	313.25	98.01849999999999	0.0	303.25	4.0	3.75	1.75	5.86425	6.4990000000000006	95.15925	2.9217500000000003	6.59475	
441.0	220.5	100.44725	0.0	208.75	5.25	3.0	3.25	8.37025	4.535	97.39175	2.0685000000000002	4.52825	
245.0	122.5	104.15799999999999	0.0	118.0	2.25	1.0	1.0	16.253	2.35275	100.64075	1.0717500000000002	2.4274999999999998	

