<?xml version="1.0" encoding="UTF-8"?>
<session version="1.0">
<refactoring comment="Rename package &apos;remove&apos; to &apos;move&apos;&#x0D;&#x0A;- Original project: &apos;VISSIM&apos;&#x0D;&#x0A;- Original element: &apos;VISSIM/src/remove&apos;&#x0D;&#x0A;- Renamed element: &apos;VISSIM/src/move&apos;&#x0D;&#x0A;- Update references to refactored element&#x0D;&#x0A;- Update textual occurrences in comments and strings" description="Rename package &apos;remove&apos;" flags="589830" hierarchical="false" id="org.eclipse.jdt.ui.rename.package" input="/src&lt;remove" name="move" qualified="false" references="true" stamp="1371200085302" textual="false" version="1.0"/>
</session>