119.05086516942141
116.46104295892505
116.4488095642039
115.83865137763713
117.74974293129975
114.3712942441438
119.61259761635608
115.4181609899529
114.65976679392716
116.26638681367095
115.13082285692342
114.10715979705776
114.9331268005439
119.78875969739934
119.77324071993502
117.97147365717365
117.85562840283168
119.16946825972533
117.88240728021609
114.15605258649413
119.05137664608837
119.83720676155109
118.5444304188469
116.0633859147902
119.08375252458487
117.14479975342066
117.81162243460747
119.84771826163183
116.66770773999035
116.25972947320147
119.08563591433531
114.59488056284404
116.04238901321787
119.3336322854514
119.94739573272399
115.21965479226203
118.57458845616208
117.82154841456649
119.08538214306859
117.4622050645135
114.37249872829375
118.26507663539115
114.52654559688195
118.40221510896474
114.58573829412946
116.98443924185506
114.11437412697417
117.63397991508297
119.15159510398618
118.9428240634609
115.10636703020629
117.65781302970977
114.01892162776757
114.55223104741961
119.87840152406922
115.14273551673853
118.34009939633039
117.38340632175513
119.02621560177967
115.50252576142907
117.76797472266873
115.62331172214809
-1
116.8286497115764
116.69193068735689
121.24152769681452
120.37103219380299
117.36250412459242
119.6860770598843
116.61353850539368
116.15858518927195
117.23479723540416
118.26122797729855
120.05371562044733
116.78582336383148
119.91369320269366
121.19326260318952
116.51347050565487
120.49487657895251
119.09753204580799
117.18035125945636
120.75937357330504
118.49162247559002
121.34465419001994
120.45109304998266
119.18535445003431
119.58561850848338
121.61807206352084
116.43836326403895
116.74223286392512
118.51595322302587
121.80376433781579
118.15919139431915
117.43691286694646
117.42657834027419
120.59535497468687
120.00934801928685
117.03130340435958
121.61679250379356
120.65942231913141
120.43717917867765
118.93626859025449
120.04215894519301
121.70466869130958
120.40458690651434
116.84863980934108
116.07824524380493
119.9746636323848
116.67391141682272
118.41956102301403
120.78418675401508
117.76786094414369
117.77783461340717
121.17016829597478
121.31518041562589
120.86007136389104
116.03527814575773
118.98584362201146
121.23262899922013
121.16356066783092
117.16963325845725
120.82301319607284
117.24776288585535
120.60342074708403
-1
117.40917582162955
113.02585485748867
114.97660226651202
117.14275976983336
115.90682182864694
116.97449419036863
118.52495979830317
113.64600700181009
117.51462803492367
117.37985217074369
114.23164141895322
115.71409074717276
118.23099029580548
118.6035053454388
114.87918195303354
115.59731214030533
117.90102412146669
114.86257521098381
116.78098380911655
116.2182352076629
117.51655583125296
116.83156830685466
116.81044481390256
115.92221165637692
118.48944738658992
115.17761754909243
116.94403786990304
117.91066539253953
117.48095721203401
116.93165100645234
118.5524137144303
118.15321949013439
113.34444867760388
117.93200156328292
113.74195408660616
116.75248081969238
113.40086796361503
115.09844875926875
114.80506437407894
115.10053176891627
116.61602277837034
116.00367793756989
115.2808555172022
116.71891632328352
115.28580052465271
116.10561680103821
117.2587197676022
115.41413572255087
114.56007661261722
114.0881004398031
113.37566876130823
116.30841128784071
116.54817157487588
117.02879790805333
114.46415900187287
117.42069878284939
114.84832499754313
115.57231614924889
113.00049195195639
113.77567835250123
114.13076414469209
118.93288496762702
114.38473089631016
-1
117.38500837562661
117.65144047940572
117.11220809529367
114.55252518732014
116.92195275710532
117.4664132108215
114.83507248213576
119.29618672003461
116.97092783512663
116.20790348956544
115.2976484648715
114.83363552846103
115.45029875496466
114.56175365954857
114.62729773993293
115.43809162531123
116.0381526780784
115.37815262620984
115.84549497784757
117.76078904146547
118.29303014766944
118.54362904987347
116.85355157382152
117.90956821511277
114.22661127976617
114.31523798180854
116.166529957405
117.45362068992328
117.07463439713175
114.94476284239865
119.535177523507
114.00544995931884
116.34630923842728
116.48910990983286
116.77344973706022
117.69321791634795
114.75396941486252
117.45893599614162
116.47442042005375
114.18626009641048
115.33369408959911
116.40090430086751
114.85011367960847
117.97365604706187
116.9641137921961
116.63983009825718
119.6710282432352
114.32035947456123
117.57459851029741
115.22532751669684
115.20885603619149
118.73749223665887
116.60551174686915
114.63343947537075
117.20113339477557
114.90302280635366
115.7421975338488
117.96708023872363
118.15929713302316
119.75615786219069
115.59085229656333
115.27999061528345
-1
115.79841817957555
110.21725655900035
113.31208976981205
113.11618572329654
111.1401184372794
110.42130581964997
115.14503762506131
115.87016520327931
114.30723849337052
114.09565636323649
113.841041117213
113.77220923150983
111.52424543482095
114.74954785176783
111.44363028875192
115.74719883248589
115.70831417984272
112.46494800461431
111.22704505857351
110.12767204602528
115.65582503543543
111.03328549521247
111.21403237365571
112.70955863026106
114.69936906211225
114.00261936248023
110.00726396690581
114.60418475801492
114.42529251342
113.05681459698623
113.41795450568922
114.63135968422937
112.37578857811539
115.21665397181954
113.55299714222816
115.66046712547978
111.18103474754808
115.10867375095631
115.38716644852553
110.65609044425224
110.27585259420172
112.99087116694798
113.39967288854965
112.22181232661538
112.25185754052485
112.35529236919707
114.59458969021171
111.160439866019
113.98004518026241
114.74586580774084
114.15240239441501
114.98101097371838
113.91024773582222
115.93570783832031
112.07517216420807
114.38255356337849
111.41287901297943
110.80148675535058
111.49053270920814
112.53167300964169
111.67486883783972
110.11328856963561
113.76997887664885
112.42565562737941
-1
107.29463604035782
112.79488473708695
108.35072868487545
107.32040326120651
112.56693858186961
109.84797449107118
107.2987161186233
110.36340845353961
112.41937306597539
110.70013753811961
107.7054539916502
107.43197009610446
110.31168389898323
108.54990972155109
110.34126515363657
108.3082641414764
110.13566780099256
107.58146727763162
109.18011205430491
108.10382632903658
111.56192031768433
107.16937816301296
109.18779890602161
111.9415788276176
107.76563175603253
108.24974117165428
111.53301483694592
107.51185489137546
109.35876412356893
107.69627510528892
111.98898049405241
108.58610289104449
108.53367434593704
110.20202847674068
107.81494443625702
111.32780466697136
111.78848509348113
108.51699073448252
109.11575693759781
110.68351007017249
110.15723706366553
109.92899567052332
112.57423760194449
112.26774236517574
112.60809197951643
109.59991633319063
110.53503579477228
107.97389200347486
109.2005898517037
107.78125957394012
110.69016450973811
111.04907501274104
111.70819819681557
112.03287999517404
107.07537784883738
112.56429144425763
112.71512580088974
109.35563904053075
109.73304254925445
108.0920782641135
109.68660622551695
110.62344833363093
108.23114013683126
112.97221110361457
112.18959336875476
110.86224147961589
-1
113.3060449680539
112.77303211509044
113.65351016046405
111.73003447219337
111.33370104029153
114.43332175422121
112.87146976091637
115.76676047154825
115.10950335543777
113.33573287922562
113.97686597308761
113.63629865944237
111.71853491964936
115.8348508381456
111.6469246223746
113.70893605212211
110.96659019688219
115.67286789545774
113.12890195509719
110.23975448338196
114.79722493562799
113.54173217536675
111.49150263194365
115.52338006006339
115.82436575688021
113.61411252830825
114.77295626797479
110.64215246376165
113.32929733314934
114.63760299207334
110.15874732413185
112.24100342188719
112.43607536701374
115.53619472486437
110.03097796648889
111.20569124804845
115.73215123464348
111.50015792337166
115.62782965350846
114.25190005523247
112.34122765088094
110.27008208212297
114.13557096625424
111.25106815128738
113.38309716704492
115.73293296491477
112.30704496614067
113.62467436105533
110.87045307854237
113.04759669931704
112.15955378493969
112.33206579118111
115.39539395252801
112.30448599391538
115.95154292115092
111.85777311767346
112.44857867864548
110.19839706599497
114.47146970622913
115.17261588523779
115.89172252922948
113.35591361322626
110.69372900128559
113.89876406168116
-1
106.06548811766626
107.85227539832802
108.29853368123224
110.63763908773429
109.08477403856372
106.76749479062947
109.51530428594839
107.04962079910069
111.41413234204074
110.32605338058747
110.68470766291327
109.0364113502695
107.54566999156542
106.61907163498496
111.19602532301238
108.3952511006143
111.99227180771976
107.86452587447684
107.66796202637747
107.15345060623443
107.12626844513234
107.58259575524444
108.37856464863542
108.42610750473914
109.12081723034399
111.5001768286043
111.9124467546673
110.39467957538196
108.97074082899881
111.21159177548074
111.08311924111578
108.44419267467894
108.27855455022824
109.06590136894202
109.74096296476665
111.53397639168517
107.387896155574
108.88207099246981
108.81761084282704
109.6014243668307
108.53055670021695
109.91161030381511
106.88524334431557
107.21038895968697
110.92479585453874
106.97416147654091
111.62453659900564
110.75543042659531
106.22160952948042
111.88487198977695
109.89773179304848
108.32024468720876
111.34210065511142
108.17324643274767
111.61353714223597
108.76320989513802
109.58309028744945
106.66153101589487
106.24829886825047
107.76509659980039
111.88958931716392
111.72654622304245
106.75311958246962
107.42359771208039
108.40173539570561
109.01223826893785
107.62933206986615
-1
117.99108278054595
119.194973331802
117.77947070027258
117.39873542028666
118.0908331333916
117.49263716222448
117.45815095499323
118.26162955216502
119.10896275536791
118.90431716261638
122.99063271995921
120.46759508981134
119.33051323815859
120.34158889746169
120.96753999727312
122.18213658907264
122.14591789955338
121.86971225437111
117.48831511386516
119.41919515429593
120.03372915110714
122.80196791875106
122.69603529472293
121.4519716949452
119.52903952234854
120.66578235455263
120.62223198454416
119.38249334892161
122.24174314371665
120.99492153786935
120.51035412611822
121.2958861199028
122.11964538925018
119.64227567495949
121.51112495030098
119.50930407394434
118.96978795176744
117.23548672983057
118.05514871775996
120.69694808096872
122.75721477844601
119.51290701133438
120.30773946912888
122.13159052343121
120.39376389436377
121.58011138508809
120.89804619370777
122.9295084155345
122.61033163273143
118.61741832849191
119.58916384539796
120.01971133270658
121.07441130541821
122.24661265377404
121.71802434057865
118.57983512486369
121.17057156521352
122.63029375086026
120.08347502039274
119.89005480663963
-1
105.49805956548258
105.95285797227216
110.22527010878962
107.98956822876461
110.4436239154636
105.81050150225558
107.16774724192416
108.53766415549111
107.1829846997154
107.26345851152145
107.64511123106509
107.81916568626001
108.27949946680354
105.65215122293581
105.38707854638629
110.36717866876789
109.7634944125881
110.51074264204651
106.32247238711085
110.61820542910348
107.15910988736455
105.23575193433469
106.56204123534479
107.25047087214365
106.24723557508868
108.43373584982695
109.09646356710336
105.49071373625992
109.78981658453566
108.32126876034184
110.8674354738133
105.68747875461784
110.47791975661058
107.44693478835478
110.00059844409023
105.18917793831649
105.09056002905638
108.08902945163112
107.80742452963467
109.49292518277487
107.26339631203064
106.95415647609515
105.66903476599994
105.74538120260148
106.36601385315362
109.26088497686294
109.10828618452642
106.97958168017151
107.77362239300462
110.93911997188675
108.23732214184245
110.96195465782979
105.29360544519577
107.50982238904038
109.33614045503425
105.20146870923449
105.66946829605962
109.2311989883592
108.57359315922473
105.53808565921631
109.93434007881123
108.30646714187112
109.82558934817645
107.78043023960498
108.92329470486897
105.34478356816821
108.17613665368053
-1
103.85091205333879
106.00520833281988
105.33951879989341
102.79224073102711
104.29068628799264
102.57329143622323
103.92937944955858
106.93622001907667
105.23831201358576
104.70582475983244
104.06663134488009
103.90515846134397
104.25803384200657
107.56159505278961
105.60398749183003
107.48668519743127
103.50667998028194
104.53752340379113
102.43183021287523
103.92413358652868
104.56507781574152
102.11812807245451
102.4225457969615
104.69220766341253
107.71532295625039
102.9213134205169
104.58178829827972
107.74152723813644
104.77736429505829
102.32299022152006
107.78869392469716
105.29279988949681
106.70235461011129
107.86139684851251
107.43479633504246
103.67347892157326
104.39169992093926
105.12784479234217
104.38663397018607
105.78937588943306
105.66972372645334
107.04397513904506
104.99976886795706
107.6108058955497
104.98435086087331
107.30647126498037
105.40217496575302
106.52745065159833
105.24419349226564
107.34853084781578
103.94268649456929
103.5882384834466
103.22191288868976
103.42326154235354
104.56543193954018
103.49214441718846
105.16271085084193
104.35752298461597
106.92391251926
103.73292724812967
103.63328944594464
103.15559781473772
106.28861979541745
107.52542761184618
102.23060392502424
106.95043239395204
105.72982119994364
102.05316021927476
103.54121636845404
-1
108.17654467566817
111.70104258357362
107.56809597596319
107.72217434313899
110.02822740114154
110.05176903349077
111.34033164148096
107.65404714426404
106.89655434362844
106.72420180656378
108.23326491362052
108.62868526069508
111.46037070515416
108.50029155001214
110.78694514372992
108.07139405256675
111.78792287792433
108.01456573990507
109.91332844244346
106.19820617337676
111.549756490523
107.2521830768831
106.33446597897762
108.91512095472144
111.6201092794972
109.38480668577273
110.31113578062418
110.74397758285447
106.65340675620239
107.25698129379367
106.96239022912596
111.54369917568218
110.32207929315842
110.29468071884342
110.66985771109191
106.09837636785491
110.68902943077271
106.25417815453841
106.94149206758608
111.1339032427724
106.66268459606742
108.0633746668518
109.67782333913443
108.00260000843014
111.64468277536164
111.02920736621157
108.0396248662049
109.14050245893928
107.32984697912558
111.89374243498231
110.05926909146399
106.45472579516557
107.15521224512922
106.61804019920075
111.76890349846887
110.03854608190041
109.11948261463186
106.356869391218
106.93693999539649
108.03958095206936
107.60639755134393
108.8588260763993
111.51020721827743
109.12167791499114
107.44510608565342
109.48540033346973
106.5524774877117
-1
117.18901834631612
116.85093795617504
116.62991953533634
118.87904958338159
113.12407033675308
118.43053365775327
118.41993969106183
114.13487652710791
115.08641967684669
116.97197399347979
113.98035792045131
115.93623690322275
113.68587494000937
118.57254800717871
118.00179051848917
118.78241269716455
114.05258617798273
116.41975586785399
118.37417701182039
118.81144724356349
115.96231776384404
117.766125692145
118.19648598897031
116.78835324925657
113.53702750654391
115.09943924044744
114.55346839541232
115.28100973436031
115.13617224229631
117.59595274919508
117.47468464183112
113.59082675512211
113.70064022836613
114.82505797075683
116.98125996712885
116.47986177724346
116.64519640927948
115.24218767296183
118.80355795861499
114.89818727144333
118.41681254039592
113.26262868716353
114.21820066887197
114.7649130630586
114.04523585818377
118.65226596454208
116.50559143451173
115.39338037391201
116.40863642113167
114.6021389817064
117.76933725750003
114.37564982375063
115.52115582693811
118.17205464937244
117.2866973150454
116.65352016581521
118.9206668764827
114.79435386981316
118.1744215052822
118.10291801056596
118.19403587299355
117.22229611037234
-1
119.82366367893508
118.6883794695993
120.61518491170882
118.67682259298324
118.87306849285635
118.10627613412201
117.86826224201729
119.45936852490628
119.55075423891503
119.90592153659173
119.81301990641253
119.08468108920363
117.40059599999933
120.53465600757919
119.58980132965272
120.63802694484109
115.76345528611616
119.78817481335292
115.49050153851691
117.5299674050233
118.23872545115782
119.95340477009655
116.84897800608479
120.56815480334738
117.14598963039693
115.25128230507713
117.17019198492923
116.24318494128553
115.44595785708859
120.2607697148074
116.25705136483975
115.88933212959319
116.22633733404373
116.88630209466385
116.58416120234165
116.85560625372925
117.69226954554803
120.99922245113601
120.84542384309313
119.98467604409565
120.6224569838603
116.13961611447429
115.46766323913781
120.54681531970481
115.46108311956247
118.60831777313396
120.93518346241585
118.31313768645127
117.61211554551269
115.90972425502505
120.01040533176555
118.67699242248638
118.08656574463603
116.82440394179956
119.36345920161205
120.64450847752704
116.42476423202689
116.39635460684285
120.73884773715062
119.1148765006578
117.77469225267255
-1
117.15807401693394
121.1538981983153
118.53783209814752
121.10297039753195
117.97234448156284
116.25650958926308
120.12061768315886
117.70758616936277
117.86585224022294
121.6883358396009
117.87264182311533
116.54094586450842
118.95654392151157
116.22204210377201
118.02945228400381
117.87920125663953
117.32135552243244
116.5608581431205
120.16112284138497
116.2951542657533
121.05051717533304
116.18327255484444
117.40506481279917
119.22624982607421
117.07481116195707
118.11264248516795
116.60323263276108
116.75297871300606
117.73325417792509
119.91463935894815
117.61880954564245
116.69041141644094
116.83578015488393
120.8719309205276
118.9883174066326
121.58581912526853
121.45011094280414
118.11948499927624
121.63345474499982
118.89307558399543
121.80411106305093
120.54536865275949
119.61282760069463
116.45976022830953
117.5445328719629
118.470893663932
118.83709542332164
120.51562774887805
120.13016598024677
117.52045125717203
119.30191434963604
118.59133326902692
118.362017880975
116.67535727755315
117.71141896512241
121.22404525950003
116.96525615976655
117.27751782015834
121.37084594545757
121.92180707166069
116.73725946183453
-1
118.66124382813496
119.06322614058547
115.60972691270311
114.86218136648351
118.18344819792343
115.57540553683565
117.86573754788137
114.90436245706185
114.53060941709109
117.39412156607962
114.04945457339316
115.89463663337722
119.63118534630361
119.73837040966104
117.79299421200709
119.56835313002198
114.29415470050661
116.73088065014382
116.39954956470939
115.45958504783384
116.71311609857901
115.94713884093147
118.11810711865358
117.14575137795218
118.50873746102134
116.66998470815263
116.7678851226368
117.50112541823158
119.45329566384751
119.91099861561196
114.85916179885253
116.82806453553395
119.32377642538414
114.04700632180676
117.00364411739952
118.61565722685101
116.82024174950273
115.39463861787048
115.24151409624483
117.24384033288825
117.16390596626725
114.20799292459536
116.93377429725849
116.20690091096087
119.85459552238603
119.43405159710385
118.07749495456677
114.37363554377508
118.12000235802711
114.09762272288768
116.29805397534722
117.43229903843256
117.82937471179197
115.41217770195348
116.35644359019358
115.98683473461165
118.07202368423474
119.62506989001842
116.78120076346622
118.77673739954787
116.21625823641381
115.2052264908111
-1
104.06709711289606
104.2685180494439
101.04046599268924
104.58952273443533
101.7313369316909
102.11061550729347
102.78562604038974
102.14649294202648
105.97629407256284
106.3792584031881
106.12714916813773
103.42055517902656
106.23377087723179
106.76746254804107
104.52320127730239
105.63189099345909
101.95352852046956
103.14631013584777
105.20047067213166
105.49163138900889
101.7507887501409
102.78056886195367
104.90578254868286
104.3801639307142
103.72001628779866
103.68250128321843
101.93224068405554
101.13881861513616
101.40246831811491
105.25883134699083
106.41031271468772
104.93751785666733
102.19773592351682
102.19294639940944
106.50076150296744
106.56183457178695
105.49973300639815
101.97902102835377
102.96030833249712
103.03126393761565
104.51532227165868
106.68685979265526
104.57240003429588
101.71637153928943
106.58900575352682
105.38586458777542
102.14443233070972
106.06584108086732
103.90983771855257
105.19364079780152
101.16927071119279
105.68530343110494
103.71695468762024
104.13936823939228
106.83289318286657
106.82818997881651
102.54785230016122
103.94416936393476
101.82146091802156
101.36471037718658
102.68876857479445
103.42031906789572
105.34011012424124
104.98841482543249
104.78927443208467
103.47824838043086
104.90224352278622
104.80066201329647
104.59340081828731
102.7049034373606
-1
116.91736769922909
117.13913231629215
117.5447076472079
121.01269398289449
119.36921875287638
116.21937915107107
116.77687992286759
119.35721444566288
121.85839122085801
118.91607694201923
116.03824901790009
116.6399166509114
119.68349518033615
117.785737796794
119.13675747088539
121.18055518712075
121.91430175494229
118.09584957477723
116.10335607884227
120.24569263708302
118.89918045513734
120.26929731058108
119.70022243579065
121.57464406528774
119.03195581748412
118.68413716420081
120.94312914058705
121.61682239167558
117.40239237905952
118.33915945011428
118.95259958947456
117.98603874870724
116.63224653856351
116.0577882174296
121.46997075805659
117.89317249902926
116.06406145396073
119.75247154012335
116.58346850745195
119.26198144675475
117.52261598947399
119.80882896525881
117.6058845676601
118.86368731755817
118.10916870667148
116.87342972898865
121.62942974919427
116.12432684061019
120.91637855206237
118.24118739871187
116.05481965800124
120.26471895455778
117.16701341173953
118.6379603921457
120.35063743097432
116.12625975697445
120.08229315891249
120.48106651669301
118.44549864368025
118.41661453042948
121.77595002705678
-1
113.64782207655183
111.66190153161399
113.24316682938418
113.03449729529518
110.11602849414699
108.79543586717077
110.06021421062488
109.43539200000001
119.09145599999999
120.7008
120.7008
115.87276800000001
117.48211200000001
123.919488
109.43539200000001
122.31014400000001
115.87276800000001
104.60736
115.87276800000001
117.48211200000001
114.263424
117.48211200000001
114.263424
122.31014400000001
117.48211200000001
112.65408000000001
114.263424
106.21670399999999
117.48211200000001
82.076544000000013
113.22558824017671
111.07951401561736
108.14484000436804
112.32869880092674
108.54918068672191
112.2429786933607
112.55927094192465
110.31689576739137
113.17423197742021
108.36394865901426
111.2356816672018
112.64350255734443
113.77415032690747
108.59697441275064
113.13257321533956
110.04986411927081
111.63290898155959
111.41267963204447
111.35921543064389
108.79865497261122
109.25455371859958
111.0596157880302
109.14452434178912
113.85739999152435
109.57540683870036
108.21461528541646
112.15189261291805
112.04671026570051
111.13413393450031
112.33256633234826
109.75587894657511
110.54208432731022
110.49819186279476
108.25927194582883
109.43377107168027
108.51461575929542
113.87604558421313
112.91128320035844
109.64964710679914
113.27993239124713
113.16289156171202
109.25433985440482
109.52066985765316
111.09617271667231
113.67348984522324
110.42727693942614
108.15495575296515
112.71079291600269
113.50906668120855
112.66099756525786
112.83747224394402
108.90248266143644
-1
119.2150260963152
121.59844846093114
119.82320745634503
121.070413459843
118.29351214616155
117.66881272280358
121.33805661625753
104.60736
120.7008
114.263424
115.87276800000001
114.263424
119.09145599999999
115.87276800000001
114.263424
120.7008
117.48211200000001
112.65408000000001
115.87276800000001
114.263424
111.04473600000001
112.65408000000001
117.48211200000001
114.263424
117.48211200000001
112.65408000000001
115.87276800000001
114.263424
115.87276800000001
120.79818319652516
118.41020510332305
117.20885648219326
118.74989355022683
121.94487001526414
119.38098388818089
120.0163208134377
119.81374856488038
121.80490382339697
120.74698763060979
121.05496670223671
117.23105476830544
117.74695131503458
118.45731225092212
117.9670749424977
118.58711701534514
118.69175090010151
118.42396755463049
119.15655378633178
118.95926956942591
121.98022796524589
117.17241913800936
121.6108079626419
121.32042136753466
120.94359486765451
117.28565571638985
119.46350185281403
121.4310389535968
118.16487985993913
118.50182571792564
119.32184174071888
120.16848353729472
119.28655762302751
116.17510019921667
116.59097826010661
119.18597404406771
118.27169216562763
117.34652686826927
118.4246204862711
121.42430809386592
121.26623560237211
116.89624930795367
121.51493538764467
120.31783382610493
118.63786277829433
120.16057593235983
120.7062895074578
118.54202201176086
-1
113.37637664678041
110.84335077890412
110.88805943913252
113.56731630087617
112.67475765330877
115.87307102474185
114.0504752346914
107.826048
120.7008
112.65408000000001
117.48211200000001
112.65408000000001
115.87276800000001
114.263424
109.43539200000001
109.43539200000001
117.48211200000001
115.87276800000001
119.09145599999999
120.7008
112.65408000000001
114.263424
117.48211200000001
115.87276800000001
114.263424
114.263424
98.169983999999999
119.09145599999999
112.65408000000001
111.08381560884909
114.04282405298328
113.01478278528045
114.8841630189175
113.42519823110504
115.9606804718745
115.95161084360525
111.17264898524093
115.87901630726465
113.57542650114044
113.16212749095396
112.22713448672498
115.30411853407031
110.76180203025979
110.66502973368999
111.57635587919721
115.73140151509632
110.25014460005661
110.15093772158703
114.3344439057272
110.83321961987178
114.72809238140331
112.14554022207751
111.10926898926571
114.79142079900919
110.2814501797789
111.0416739952816
114.61649830123011
113.88108647027569
113.18611875770046
110.7187784420577
113.65481686828892
111.56166270823746
113.89697780306011
112.0365344821292
113.77550616253724
112.02927807359082
114.10108698459307
112.74534687317103
112.84480572000443
113.03365560376231
115.91156661810403
110.29969598982954
114.75021546850721
112.30013184616774
110.6749919541836
112.6912396549543
113.74213425089265
115.12190981706721
114.44912849809786
115.73690699752285
-1
119.97931387551408
119.26308681384495
117.26703781358395
118.6061381317148
116.96078120700669
121.32036814969473
119.96147745045111
119.09145599999999
109.43539200000001
109.43539200000001
111.04473600000001
122.31014400000001
109.43539200000001
114.263424
90.12326400000002
112.65408000000001
106.21670399999999
117.48211200000001
117.48211200000001
115.87276800000001
111.04473600000001
120.7008
111.04473600000001
119.09145599999999
119.09145599999999
115.87276800000001
115.87276800000001
122.31014400000001
117.48211200000001
119.83729949906055
119.52069784516642
116.94415582141185
117.64030106745004
119.2925925868178
116.18768383353654
118.04483823716559
119.77185656149028
121.18098193515399
119.13805385715624
121.76704659985128
116.61687563273951
120.60545544501424
118.21701202574629
116.10090371452834
121.33118475554781
120.41257945075841
121.12951627099083
119.65901915287401
117.78334138273634
116.31922093821147
120.27950924003521
117.35134839523874
118.17820029432417
118.84054488079516
119.00769838164972
121.19589051906799
119.69264619627309
118.6430051419711
117.43705453211994
117.69656159723981
120.63246571710654
119.73315640654091
118.78167981395627
118.10043776717119
116.10956527376885
116.36772394456025
116.80868082384964
117.4149214250275
118.91647481673253
116.73247866320402
120.16416707896514
118.32124627843697
119.14031470501281
119.28707221471069
121.48348341351392
119.06409159515009
118.1111329967555
-1
103.02793972260312
103.51975855902164
99.603246503395681
102.76885637388206
101.02916853575175
101.96804917372771
103.02556027501534
103.53026341879668
122.31014400000001
107.826048
117.48211200000001
119.09145599999999
112.65408000000001
117.48211200000001
111.04473600000001
112.65408000000001
120.7008
111.04473600000001
119.09145599999999
114.263424
122.31014400000001
114.263424
106.21670399999999
109.43539200000001
119.09145599999999
115.87276800000001
111.04473600000001
114.263424
120.7008
106.21670399999999
117.48211200000001
103.35872833514046
100.82964512296408
103.52834451777653
99.922491822354417
99.303616407193289
101.10207758968393
103.64847372039357
102.74298857493154
101.25621552327478
100.92131214162598
102.79238276385554
99.016583596668326
102.58892887542478
101.58754443538751
101.10517385615488
101.28796595752948
103.22739775442918
104.31629655029936
100.26886573009801
101.08266839828944
104.2989516641604
102.48160046574081
102.71092781845367
99.775023968100513
100.36379654758636
99.858287256167372
104.42884805326311
100.18554562400604
103.55480860673364
103.29813383736983
102.04859214603125
99.501659685343384
100.45766033753753
100.38985829391167
101.83442469273538
104.57471131714249
103.75636312261926
100.95568206990748
99.154668198550411
102.29264489660649
102.55017194797672
101.72741934599195
99.382587201835548
102.56174392733381
99.816156811319942
100.22278098196712
103.37369430032884
103.45230215373833
100.74760225972726
100.70782189209731
104.51038384931444
103.27208048422482
99.641761246028281
100.18418775989497
101.84190830583391
100.7278891569423
-1
99.07232127717792
101.91961913060028
100.9524790718265
104.75141462448566
104.06112190524495
101.6825297031958
103.16776299494155
103.51549085332589
120.7008
115.87276800000001
115.87276800000001
120.7008
120.7008
114.263424
114.263424
119.09145599999999
111.04473600000001
119.09145599999999
115.87276800000001
119.09145599999999
114.263424
119.09145599999999
120.7008
119.09145599999999
120.7008
119.09145599999999
104.60736
115.87276800000001
115.87276800000001
65.983103999999997
98.169983999999999
100.10094397283132
102.75258675441961
102.01633438003742
104.74101271244032
104.52374103699704
101.37612695474964
102.24381543805684
101.51004825029109
102.16153125334803
100.31910905107064
100.39328815056503
100.54404160957169
100.84987225039818
99.752699007703924
102.01434566118046
100.45182797498774
99.511846832856776
101.20091884958997
101.27061734802975
103.91016348198349
102.39745068163475
103.63257166680992
101.04702646708503
103.6275416181023
99.777879821486152
101.86364401277375
104.47639350824061
100.86979773396671
101.8063288157043
101.70786764653512
100.31086483130082
100.44123957156674
102.35651531140108
101.77210748157269
100.75700007136179
103.31777652464817
103.43726209992278
104.43972911619758
103.27421414360403
99.618754116536223
100.25606977738767
100.41908081839838
103.40462613115776
100.28193461344229
100.16672982158562
102.25571124458476
101.9582321221655
101.67129790863885
99.585631369771093
100.41592744071689
104.82067143103059
99.400075073335444
101.49852825420257
102.94578361715998
101.28171982339344
99.891654806245029
-1
117.10100336077365
118.62874545964107
117.45307399314822
120.6553784776718
119.53327951743785
120.65640117214458
116.14015057001862
119.09145599999999
111.04473600000001
115.87276800000001
112.65408000000001
115.87276800000001
117.48211200000001
111.04473600000001
117.48211200000001
112.65408000000001
120.7008
114.263424
115.87276800000001
120.7008
115.87276800000001
112.65408000000001
115.87276800000001
112.65408000000001
120.7008
114.263424
117.48211200000001
112.65408000000001
114.263424
116.16223697941511
117.22900163412108
117.70726324634244
120.19535444044384
118.37392154968337
118.30673074159333
119.30759490730314
116.29320247299528
120.87837612459248
120.96232885291923
118.40042802338755
120.86246349362317
117.31728389809804
116.73571921702782
119.3873700341623
116.62775534145067
116.86725444592376
116.99936286151677
120.04335734480313
120.55166006895064
116.10259277666913
120.36345861162623
118.49887350700912
120.57060731075664
116.24960005184259
118.51123200292574
116.41188465976582
117.92988523406579
120.1138375522858
116.48354157781164
115.56698273743197
119.0227448017306
119.42077283902476
116.62538591699621
119.44195527772392
117.42567857545674
120.95670941198178
119.28775678477965
117.77224091471989
119.29655832454357
120.73088512632263
115.94664366270933
118.82146009610894
117.4644284582493
117.40111232926712
115.65685119032794
116.9314471340072
115.38936216075103
-1
110.97794246058531
106.70789443442941
107.70978171585185
110.93017404819831
109.59833988723524
106.30415543078058
106.41702657356328
112.65408000000001
119.09145599999999
112.65408000000001
119.09145599999999
115.87276800000001
115.87276800000001
109.43539200000001
107.826048
115.87276800000001
107.826048
112.65408000000001
107.826048
115.87276800000001
112.65408000000001
114.263424
119.09145599999999
122.31014400000001
115.87276800000001
115.87276800000001
115.87276800000001
114.263424
120.7008
106.5927096250292
107.48561676878987
106.75894097203773
107.75144953176299
106.49013943742254
107.65781034858848
111.62856055664378
106.2702059562713
107.94683960415134
109.4151364673876
106.29241722987889
109.7969923246271
109.49744671531573
108.68708378595878
108.08288006937461
107.65853135818936
110.2461418302149
110.64954777351743
108.07312245261555
111.39700083700947
111.61299474183468
107.85730602183348
109.24820495464283
106.83163376771645
108.62526653528292
107.68986842448334
106.82179399066713
108.2392070714367
110.04242762291682
111.64897260460918
111.1855159777825
110.5071143607032
109.4220068930324
109.97372693739864
108.39005488227829
111.384208390767
110.73925072624316
106.15463891012743
111.1567126568989
107.4135800169157
108.36692446657928
107.23050190615599
107.20525894094986
109.77792396238986
106.10245270538404
111.24234646514988
111.15850859838206
108.12213088813562
107.49795235201968
110.89639668332029
111.44617113496356
107.43922263218091
108.00457206225427
-1
99.314738176225106
100.38591013314435
98.112889376648667
100.91041999519943
100.22115910131537
100.48614545905086
103.20657626901298
100.99576074986115
106.21670399999999
115.87276800000001
119.09145599999999
112.65408000000001
119.09145599999999
107.826048
115.87276800000001
117.48211200000001
114.263424
115.87276800000001
119.09145599999999
107.826048
117.48211200000001
115.87276800000001
96.560640000000006
53.108351999999996
56.327040000000004
0
40.23360000000001
61.155072000000004
99.779328000000021
104.60736
70.811136000000019
62.764416000000004
101.38867200000001
98.137947798442369
102.75687006014671
98.331993284317605
100.03466032971501
100.54425655309299
103.95247635430323
102.18626119217184
98.402652010519887
103.79035037821338
103.09731066884532
100.0517669386013
100.02838338361701
98.000271038256329
100.20865862611126
100.68119217416975
98.115867110724338
102.99225149521004
101.32799694031709
102.70550999966913
103.58231160510762
101.22487885049472
101.16879594767137
103.15400265850347
100.03056586992069
103.48598357171367
101.132522904537
102.22808466098456
101.1123161844158
103.93772099362238
101.57535296397378
102.210949942751
101.86278559266647
99.215293195002971
103.0264545809269
100.32279670690923
100.99979448179222
101.54824378165236
101.56457478794044
101.44661743150385
98.279650341684089
98.332244224565812
102.75301143928752
100.95227682276814
101.78944501954045
98.22577275779463
102.41391457527594
98.336833862816462
102.52994582733125
102.68007240612393
103.09122387168365
103.07679822022924
101.80537728837321
101.83225821364147
102.30740439989994
102.95324821970655
100.78599865016882
102.90043000842634
-1
105.14649373014137
105.6161281087599
108.4549086974947
107.77299763008114
108.90779597344836
106.81345741179513
106.82156017821478
107.826048
117.48211200000001
115.87276800000001
115.87276800000001
115.87276800000001
112.65408000000001
111.04473600000001
119.09145599999999
117.48211200000001
114.263424
114.263424
117.48211200000001
117.48211200000001
101.38867200000001
104.48972946242434
108.52208280125434
105.06568725309961
105.40119661662375
105.35690468674508
106.84028458571682
106.21911931501329
107.21761803078935
107.7646162334343
108.88855775192646
109.82050065350055
106.86077151677516
108.16964341311584
107.35478610091361
104.76824333890411
106.111842841681
107.09118825034517
107.34828185841089
106.03919617631868
107.91439426570945
108.31531008278434
107.34546524450035
109.0516980226399
109.03694258889456
104.79359636022504
104.27141550331494
106.12212733318074
109.90323915661132
108.46183700095852
109.39179016346888
106.55614785701873
108.88486494895774
106.13220555974431
106.10172347187384
106.18733067133459
109.85661869509364
104.72768621588858
108.79792112762334
109.63482364714822
106.00853336279989
104.43021789365318
105.80727906627057
109.19821710039054
109.78921495896591
107.80426158123478
104.81996472713857
106.14174410533933
104.42355876892623
104.63523313540644
108.43700398702443
109.14143436383321
106.70375597128611
104.0874755563319
106.29203346536579
106.87782781601501
105.69586406977491
105.83918136818679
-1
113.63507304617261
110.09190876297947
113.36204485675462
113.49733160754749
109.60115967119323
112.78006911711498
109.33647193593781
119.09145599999999
109.43539200000001
99.779328000000021
114.263424
114.263424
119.09145599999999
114.263424
119.09145599999999
109.43539200000001
109.43539200000001
119.09145599999999
117.48211200000001
114.263424
114.263424
104.60736
96.560640000000006
117.48211200000001
114.263424
104.60736
120.7008
115.87276800000001
123.919488
109.99350349276314
109.57147884429591
110.9210006973687
108.54820015237982
110.02305487516008
110.14220675858901
111.84897310619469
111.31759517692936
112.76373582089965
111.58940044349802
113.0667067100491
109.82707872519144
110.61874405696456
113.00980669439718
110.62572092149577
108.87457184813005
111.27097994264831
112.03720810023229
109.31206193242308
109.96428711988972
109.76713908714798
110.07345261927223
111.46669618569879
108.77850682400927
110.93260553205361
113.10417575070733
111.01008641330525
113.79859830780543
108.50209500019943
111.9875819545708
109.16820479859241
111.25562482823786
108.6224806209446
108.61050994881845
110.51247165229663
108.69052001757585
109.84321930319655
113.49936825781988
108.22883998275645
112.19090422909053
109.3562800875502
108.35438655310341
112.02148453694655
108.84622915721266
108.08146101695512
111.54398598783416
112.73428443245831
110.12504683940432
113.21446519209645
111.85193154688245
108.63852641176018
111.72781043839275
-1
119.38798627681578
121.00571929500033
121.4013712113024
121.80608320275549
120.88278502946086
120.26073563742224
111.04473600000001
114.263424
117.48211200000001
119.09145599999999
117.48211200000001
115.87276800000001
109.43539200000001
117.48211200000001
115.87276800000001
112.65408000000001
120.7008
111.04473600000001
119.09145599999999
104.60736
74.029824000000005
53.108351999999996
3.2186880000000002
83.685888000000006
117.48211200000001
120.7008
115.87276800000001
115.87276800000001
112.65408000000001
115.87276800000001
114.263424
120.12750244069655
120.1838514861097
119.71114612707316
119.15400464766694
119.83884122952109
119.14027434490058
117.45341697845458
120.04952200603664
119.82629170573969
121.69026277265885
118.93545357307308
118.40700166886194
120.19284273611152
120.9328706239461
120.50869721931888
118.31250595356332
121.10702121784927
121.62969457649299
116.61201080110204
118.89750875679567
119.73150638318815
116.08830387078508
117.23557497829185
120.74667234645123
121.07513683836154
121.88359604952609
119.45987852424497
118.43173043479088
116.91302145227085
117.08083711465588
118.98307142359018
120.03347281978213
120.00345657608058
119.4425032419478
120.47768542900191
118.92594418294756
117.10182876978948
117.60689832020132
116.73295814901398
117.19657402791343
117.73067463389161
120.41988498149317
119.84173512230778
121.86306393698008
120.31154584348333
121.4819218875223
117.18115318706842
116.52247231340716
119.09831818873896
-1
108.23003920324797
108.37306393146993
109.61763367353618
109.20327210084537
108.25491120634358
106.57459300693669
106.69244859139131
104.60736
119.09145599999999
114.263424
117.48211200000001
112.65408000000001
115.87276800000001
115.87276800000001
114.263424
114.263424
117.48211200000001
117.48211200000001
117.48211200000001
114.263424
117.48211200000001
112.65408000000001
117.48211200000001
111.04473600000001
111.04473600000001
119.09145599999999
112.65408000000001
109.43539200000001
115.87276800000001
115.87276800000001
109.7837907214308
111.89702661558698
108.42625239716833
111.41571853395317
109.9777729779582
106.77404078127215
111.71355688015535
111.61912268839568
108.6654834438026
106.89927069249059
111.13371001714799
110.41380663591914
111.54012997004698
109.47125550741609
110.59805747579131
111.35321317211658
110.17750081435354
110.58263343656775
111.51499926564065
111.51971695949275
106.04147585517585
109.03064841238911
107.91487238006788
106.46249100616386
110.024225597236
106.07370734435727
107.79980069468796
108.66989508737147
109.48514974185487
111.32801859737172
107.81048868753392
111.70303228334593
110.30534037173562
109.03545204956902
111.19842759108573
107.24798267285423
111.21458677102594
106.6583705051513
109.17595969179197
106.16257984305173
109.57567815099907
107.16929055364045
108.98813458692983
107.0994562666009
107.92598910869241
107.50284175545571
110.5092761652318
109.48044391192963
110.87907223621868
110.42460236095302
108.81366044962779
107.4782734733212
110.47921387853802
-1
111.22987764910864
109.77964244201095
108.37655273595017
112.60044270679136
107.76146210729659
110.28031710369721
107.15442428082488
119.09145599999999
111.04473600000001
104.60736
117.48211200000001
120.7008
115.87276800000001
111.04473600000001
119.09145599999999
117.48211200000001
112.65408000000001
117.48211200000001
114.263424
120.7008
114.263424
115.87276800000001
115.87276800000001
114.263424
119.09145599999999
114.263424
115.87276800000001
117.48211200000001
119.09145599999999
111.01043055713284
109.04886555591904
108.91395485107667
109.73319329843845
108.97893856512459
108.26759322359445
112.50918979876074
111.02757690686701
111.52423711329558
107.6052637158971
108.08749433494273
107.43277312960983
111.61849393614648
108.0150717716279
107.96572443181262
110.23178809641799
112.84017246559422
112.98222638286346
111.4388849872178
109.29219743790939
111.36919426790401
110.75618454092667
109.8079495516113
111.3284056830971
111.03012584375897
109.56985953688861
109.69529739323667
110.66757094562995
110.61013716267131
109.12284285616177
111.95556986093767
107.80698029322529
111.38746031443938
107.04903686470765
108.04248034121716
112.0877633582819
112.70256293848277
111.21995678556253
112.43234743015901
109.53444317875793
112.4882368251932
107.55331677274205
110.63285317189229
107.3219358210562
109.94628128165253
108.50237872210032
107.42076566826985
108.43121401728853
109.01745327613372
107.59489664924887
111.25509802577011
111.84196424921313
107.93783144452961
-1
119.08517444302286
118.00873487766661
120.84054383312153
119.18868840850145
119.14069696150032
119.72881283924008
119.62641414030934
111.04473600000001
115.87276800000001
115.87276800000001
119.09145599999999
115.87276800000001
114.263424
114.263424
119.09145599999999
120.7008
115.87276800000001
115.87276800000001
120.7008
117.48211200000001
117.48211200000001
117.48211200000001
112.65408000000001
117.48211200000001
119.09145599999999
117.48211200000001
117.48211200000001
119.09145599999999
119.09145599999999
119.45749932552032
120.51444533014684
118.64591457849295
117.32343865649706
116.76679123244421
117.86698621382159
116.68282468865927
115.20865686774249
118.09702358385299
116.78990533592265
115.27494085048991
118.17686906339654
116.67098121359633
118.23842797771984
116.42945082540639
120.57133840177121
116.90089334525183
117.72838841201322
116.77454987121013
118.47571203744356
118.48120348558442
115.6927513043313
117.81372879184303
120.51372826009025
119.73557125397497
116.36749694200252
118.93413970353508
116.27164210084693
117.50442326517722
117.23879059019428
120.2395390189432
115.21415566994523
118.22460243897314
117.43296888416411
117.98728445199718
119.40800180476755
116.40539972741207
117.4679811467967
118.30535292409215
116.4981887181699
118.44548967537172
118.50953651621903
120.94932568238124
119.20027264041312
117.66302037670417
118.68731527944828
116.1307765550481
120.07788270914571
-1
113.90747769831202
111.56808571662557
112.37563579894004
111.13469494112408
111.27232777075739
111.09803498656112
115.41577706615398
111.04473600000001
111.04473600000001
114.263424
117.48211200000001
115.87276800000001
115.87276800000001
109.43539200000001
111.04473600000001
119.09145599999999
112.65408000000001
117.48211200000001
123.919488
117.48211200000001
117.48211200000001
115.87276800000001
90.12326400000002
114.263424
120.7008
117.48211200000001
109.43539200000001
112.65408000000001
114.263424
106.21670399999999
116.46694661610491
116.91188597309549
113.70470593943907
116.43882978452396
114.73761964208023
111.62688479325151
111.82538457008275
114.59939026704605
111.91757629922336
113.61607465996788
113.86993006755317
114.61906466267465
115.3761474243243
112.22124184143902
113.81669354989124
116.03643367616081
112.16003139202235
115.31522109321274
111.39233653662367
112.54663643461024
116.11106431838657
112.28621249734014
112.40164756201402
111.08993862057248
112.02470755791116
114.53069548317706
115.46682094431019
112.15138084231965
115.33820308660869
114.51371486154788
112.81651313677399
116.72383946355836
111.8119605272427
116.78930251065304
116.83335969344159
115.56456464763404
113.32984564221526
115.89527856731856
116.82448964561755
116.74049803661956
115.29365250626027
112.74566253191854
115.92293474646593
116.01040160426729
114.12414820494924
115.0404095429184
114.15869287868183
111.33207035724439
112.10569051492827
116.29616941282609
-1
101.22352693529818
100.37325156344868
102.6237081124752
101.71915385221095
101.7424932892622
101.83296444667064
103.78334524481176
102.32558608787025
115.87276800000001
115.87276800000001
114.263424
117.48211200000001
120.7008
112.65408000000001
111.04473600000001
119.09145599999999
117.48211200000001
111.04473600000001
119.09145599999999
119.09145599999999
115.87276800000001
119.09145599999999
115.87276800000001
115.87276800000001
120.7008
117.48211200000001
115.87276800000001
114.263424
112.65408000000001
120.7008
99.062940291772136
99.105979900631013
102.19164974473398
102.15015198747106
103.86432385316164
101.28636055790577
103.94353658121901
100.95522303839127
103.7090067920339
104.38736758699004
99.928665668754149
99.03479439030194
101.1284264964255
99.104157989874267
102.54246847400206
100.22349171394266
99.750895092894822
101.52495785947963
104.08782270430166
100.48524994591358
102.25490486162136
102.8162856339199
101.02136784737058
100.46954183915862
99.843924399423841
103.67928495301827
103.20431273261518
103.03826992601739
100.5382781330529
102.33320781223775
103.0109450570922
99.569168810262767
102.86681153703837
102.92857640664852
99.528913930354875
103.83179885506178
100.51565422096762
100.62653321992862
104.15371171671582
101.40994777233979
102.15350336737706
102.10237704112996
99.635648046412157
102.00949057397176
99.002456174289676
99.940262932888899
101.08096009608396
99.543491442421157
102.76053271466486
100.28253139166191
102.5395684293587
100.62656769883621
100.20663986565368
103.18111610925045
100.63034457783809
102.03826939526702
-1
119.16061720135059
119.83046045916528
118.13234065723985
117.63637069333376
115.89000022614718
119.05642672989148
120.81494677534309
104.60736
107.826048
114.263424
112.65408000000001
114.263424
115.87276800000001
119.09145599999999
114.263424
115.87276800000001
119.09145599999999
117.48211200000001
117.48211200000001
111.04473600000001
120.7008
114.263424
114.263424
115.87276800000001
115.87276800000001
117.48211200000001
112.65408000000001
115.87276800000001
112.65408000000001
118.61568005135703
116.4694905330972
115.58966387312051
116.98388615241237
115.66765493350954
115.15513720992769
116.1780390737535
118.61058206598862
115.51446963333339
117.1514470629493
119.74424991489246
117.7811118922956
118.52912983925077
119.38304877229068
117.99624144033032
118.58142278155599
118.95967710924656
115.12399845941924
118.65147331870435
116.89691991860988
118.95849825466095
115.23246849335098
118.00666901458203
115.91616364886288
116.05754823967706
118.74441962887984
115.19990584177306
119.72801469261586
119.68927857269615
120.2732178014883
120.31464617503002
119.68868567637372
117.49954867278764
119.04301546669059
118.46553991058433
120.20975517390302
116.53278086843017
120.4520763956547
118.18356339158058
116.28031939388777
117.89110481836315
115.81808205582939
116.78329750099316
120.38606170629481
118.17822217918003
115.40081827725447
119.94787656437961
115.52512853214931
120.93520352622659
-1
109.74531316184486
108.359419559207
110.67234645652213
110.31416920278971
110.03915510305809
105.86928683863731
105.61989450941655
114.263424
112.65408000000001
115.87276800000001
115.87276800000001
115.87276800000001
117.48211200000001
102.99801600000001
115.87276800000001
99.779328000000021
106.21670399999999
120.7008
117.48211200000001
117.48211200000001
111.04473600000001
69.201791999999998
37.014912000000002
22.530816000000005
0
51.499008000000003
90.12326400000002
74.029824000000005
86.904576000000006
70.811136000000019
64.373760000000004
88.513919999999999
106.23390252502927
109.53317321371435
107.53649714507196
105.49086702026769
110.57371250151353
107.69456149909207
105.05388150609463
106.22030948688219
107.75923848282309
106.7532826641194
108.74104590406355
108.10203808460635
106.74996340003032
110.69960748808053
108.11139832915916
106.04131606067665
106.54752863080321
108.06675513351706
109.73317297233093
106.30903177144373
110.20443483300336
110.24539937596801
105.51354025575559
108.82051005417516
109.98077567770071
105.30141513828285
109.11887733288913
106.28044772746667
110.72437901778453
105.18035015248053
110.01575621881931
106.54132688568146
109.16497286811108
105.78171349376281
109.57619164585543
108.21601341868455
109.61571892544681
106.67328570186406
109.83717852616304
109.96611269679286
107.56569900064906
108.19025974050604
108.83852470120718
106.95601083685837
105.824667038035
106.32613710060058
108.98448145797852
109.71838985283318
109.24661925269208
108.17190782696163
106.58364461934379
109.12036578963506
105.61146685139015
110.69715493363763
-1
117.98432822101749
115.3913337182654
118.87673838733046
115.86333900839379
117.79969743323139
116.69558346056648
118.85923006102873
117.48211200000001
111.04473600000001
102.99801600000001
120.7008
120.7008
114.263424
114.263424
119.09145599999999
111.04473600000001
111.04473600000001
114.263424
115.87276800000001
120.7008
104.60736
107.826048
96.560640000000006
115.87276800000001
107.826048
115.87276800000001
119.09145599999999
112.65408000000001
115.87276800000001
120.53084725100194
118.03297357694331
119.25504076206964
117.31598655970528
119.82975323396451
118.12457573589231
115.80873221731342
115.93609954434677
120.79181898521794
116.81209795227097
116.00873197277896
117.52909063397708
118.39869761528888
117.70369657106373
120.62238319770356
115.06786009166656
116.16575699474481
119.29113508535627
117.42098582510516
119.16918812989962
120.80064487758581
116.15364525886413
116.59546972524716
116.98462474592941
117.55348153903174
117.34399949763521
118.76417315368187
119.05859712948053
118.19391825885292
119.37592272447966
115.54996565124569
117.48203687075672
115.55616540087959
118.84720622166905
119.30355286723946
120.62882436803694
119.28644764987651
115.53562024516563
116.83692192834113
120.90882422162844
120.80821021905896
120.7949585546351
120.00548367174919
116.30527474405378
119.58875037195968
118.25627874817127
117.63958825683216
117.98577502097707
115.54681747518703
-1
105.9851022837198
102.88407571461646
106.55437393039705
106.37455707639883
103.85457139038238
105.75419009433928
107.08615186306663
119.09145599999999
117.48211200000001
117.48211200000001
115.87276800000001
120.7008
109.43539200000001
115.87276800000001
115.87276800000001
115.87276800000001
114.263424
117.48211200000001
119.09145599999999
104.60736
106.21670399999999
48.280320000000003
22.530816000000005
45.06163200000001
65.983103999999997
88.513919999999999
78.857855999999998
54.717696000000004
49.88966400000001
62.764416000000004
99.779328000000021
67.592448000000005
62.764416000000004
80.46720000000002
83.685888000000006
74.029824000000005
107.238518959114
103.25663671750782
104.00164951680792
107.53686223445672
107.65186755585528
106.75491900227496
105.70830502216529
106.2485256307053
104.36812478392613
103.50882503412241
102.47895751163664
102.38522559919201
105.75500698768256
106.22841085243307
107.2781910839558
105.21725998008294
107.18252220049801
102.57912614779148
105.19900367337243
102.64945337207357
106.10174737407225
104.24756030529102
104.79965217550564
102.0358078265259
106.2114405443768
107.08829361857983
106.58848152676589
104.37539791572782
104.64675403008673
105.16844457669808
104.86737201346975
107.22465855167911
102.34892129541397
106.11048666276515
105.46279675858673
106.08894082080863
105.68690457181255
106.90539233093145
102.87933821517908
106.67144964825455
107.00159278430962
106.32714604698354
106.10387743731461
107.16041041487739
107.0302553386305
104.22615570723579
104.66952287438693
106.72554660536076
103.14356221849712
107.31307058813262
105.65670968918108
107.5726834114932
105.98959241048397
107.56600317960553
106.06475798405769
-1
112.1031349207569
114.43053679051904
114.61641179150838
110.16150529744999
111.25916976528617
113.7017427385579
113.04801280276953
117.48211200000001
112.65408000000001
119.09145599999999
114.263424
111.04473600000001
119.09145599999999
117.48211200000001
122.31014400000001
119.09145599999999
117.48211200000001
122.31014400000001
109.43539200000001
115.87276800000001
115.87276800000001
56.327040000000004
109.43539200000001
120.7008
117.48211200000001
114.263424
106.21670399999999
119.09145599999999
119.09145599999999
101.38867200000001
112.49238061080833
112.68808394097898
112.19065876465926
114.53581129234612
113.45192104363952
113.58610532194886
110.94011976996096
112.0062686459471
109.39023881073861
114.58784105712563
112.02677004099912
109.64844826101726
110.30903472166776
109.53495329159043
111.20755811078436
113.94703799823661
111.99051039511518
111.15077008175768
109.88377230918645
113.96246361593826
109.62457616078477
111.67570326861875
113.61278114486488
109.24401850048689
111.42526249729264
110.72732570478196
112.34100124363073
114.81467027097551
110.26434803554091
111.04544988428594
112.1624757740687
111.90643727721177
110.57483080095859
114.36653054951114
109.72580338191823
114.55296325851653
112.68897457693213
110.44319856860997
110.4180213754662
111.7611548780216
111.3752750495388
112.18371951809949
110.14740080416367
110.78647680392936
111.62579768692852
113.03265448174309
113.92797517899999
109.02673740655054
112.71994960903454
113.04798258858708
110.53698172971737
-1
106.65143218079436
104.27225232735118
104.05293322383291
108.16612934089149
104.73775021214881
105.27995445474289
107.64459660080016
111.04473600000001
117.48211200000001
120.7008
119.09145599999999
120.7008
114.263424
112.65408000000001
119.09145599999999
111.04473600000001
115.87276800000001
115.87276800000001
115.87276800000001
115.87276800000001
115.87276800000001
86.904576000000006
54.717696000000004
106.21670399999999
111.04473600000001
114.263424
119.09145599999999
111.04473600000001
111.04473600000001
117.48211200000001
104.85589593218877
108.72512405750072
107.05393747155024
107.49899340704917
109.15762480536168
106.21295475265853
107.52630154009083
107.96233218004173
105.41932064290218
107.18466444220134
104.67466611933361
108.72427150122905
109.97432808013804
106.15220608219414
108.76497180709357
108.01110733306602
108.11206493027892
107.28542664955042
105.22951218746115
104.66454170012823
105.11962325942643
104.4034204519368
108.74824852592165
108.97047124074321
108.12928403742046
104.7264924989292
109.35732073495539
105.96747220086056
108.35660171124063
107.49633829339768
108.3520300577259
107.01739232139307
105.85082340262247
109.96852769578886
105.3824215685174
107.66069094625253
109.1040177227071
107.8653686836185
106.45796218457195
106.2069096936052
107.77739649001524
105.14870578083242
105.58366301000528
104.12588233234446
108.40292340417115
108.93119992907455
108.44335691317613
106.10803404075729
104.20541097633034
109.49111327330799
104.92670191956167
108.65235079860433
107.16491977829197
108.68961109620024
-1
118.10137902416355
115.61107750832807
120.0954886831304
120.34349037001705
117.91296136029652
116.95592345152774
117.4216502765923
117.48211200000001
112.65408000000001
120.7008
112.65408000000001
117.48211200000001
117.48211200000001
117.48211200000001
119.09145599999999
106.21670399999999
114.263424
112.65408000000001
119.09145599999999
112.65408000000001
114.263424
96.560640000000006
70.811136000000019
98.169983999999999
106.21670399999999
117.48211200000001
98.169983999999999
98.169983999999999
111.04473600000001
114.263424
114.263424
115.68064651312039
116.1368506131076
117.61185171673645
115.15888321324537
115.64959718620204
117.72565209435294
115.9135289192362
117.78456606931832
117.32535208134456
117.34480615086393
120.37209594171073
116.7083409847565
116.30046109158852
116.59596963930851
118.11493420617784
115.37633536621723
119.56164350311978
115.3584474698167
115.92259231923289
119.80260555670677
115.91117658515597
119.91535671812008
116.58375533289376
119.68960580186149
118.14123528487559
116.69332338647496
117.3106305002958
120.55534557384537
118.03460754973986
120.29411522781999
120.1661031429354
117.22825993632058
116.31794551190568
116.03372700701684
116.85050151846104
117.70167345895001
116.93394610411386
120.42904195845612
117.77979582540583
117.65810082379225
116.42658992498635
117.98430404088141
118.15853780288533
117.97948374473991
116.84880075780777
117.22924336128528
115.70983540205438
120.25282648299324
116.40462391509645
-1
108.66154767540752
112.02825273665739
109.91106575596666
110.59858703015811
108.72122968699662
112.27997216477696
108.68994147619237
104.60736
114.263424
119.09145599999999
111.04473600000001
115.87276800000001
117.48211200000001
122.31014400000001
117.48211200000001
109.43539200000001
114.263424
106.21670399999999
111.04473600000001
122.31014400000001
114.263424
85.295231999999999
53.108351999999996
115.87276800000001
115.87276800000001
114.263424
112.65408000000001
119.09145599999999
120.7008
119.09145599999999
110.44420382975987
108.07430269710235
109.30431722366764
108.27308007106353
110.27909767019301
108.00156165832129
111.14848202133514
110.25221655198435
108.93245695924374
112.43927386972653
108.47924833848138
112.86205728408237
112.09999194134734
110.10899452233832
112.66443760351871
109.17378027813908
110.14702341319058
110.87306380771888
111.30012303541372
110.24087262717784
109.89038247383972
107.62212409993364
112.56757452666173
109.48313309228398
112.08977270921888
109.88185019384338
107.294143860931
112.06927611056047
108.21323289401903
110.89444668549737
107.27002925279371
112.22068468614384
109.06281871050061
110.18632751836286
112.2380964210865
112.20846684859004
112.05560981243488
110.57674920070851
110.02666406830041
111.35308148949372
111.35163119722252
110.21303052299153
112.53539975635655
111.56040824885383
107.60426244259467
108.53635079583059
110.71220272380887
107.84024414794962
109.88019312810005
112.08797694078024
108.27418739663869
111.85282230917113
-1
111.72861510137891
108.81605275897562
106.73664050975019
106.46856696662516
106.23985501397755
106.08079994871342
110.50407137792948
106.32028551422506
111.06618902821427
111.34361657995542
106.96782449629139
111.04967772010535
108.65551472565819
107.81596503703595
110.87068394165344
111.00974269846949
106.04172550091175
110.70606691148004
109.54123053591367
108.07988857071831
111.92379183112234
110.09412962835549
109.49793401701085
110.69818253515979
107.73729521594429
107.69380910974022
111.87269467852508
110.72377643658523
106.14340095080614
111.09237775194572
108.58175055654966
110.02959307840865
110.66299539730871
109.84917283350708
108.81835226354885
110.60621813368897
110.67394079252358
106.30651602594398
108.27559197229191
108.52630213894624
110.66714146427285
108.12939661369956
107.52925762676269
107.37463589158307
111.52234402175603
107.43982705963315
111.2195656083818
110.69242231666054
108.61733400536775
106.94888509106308
108.06711339801572
109.61512646539623
108.82442016507068
110.71406520789333
109.34237429959617
107.20164704758396
111.87583689796071
108.06167684280108
110.17954360306963
106.95840803782049
107.19492753129011
107.81362943589284
108.08452750349383
111.75533370303275
111.09270386560736
106.24505850617803
-1
118.21961516417625
115.17385415411439
113.69125532099453
118.69681337723718
114.34009257587303
115.24526459515046
118.00420193672224
116.85124415152679
118.86266754789652
113.82435282648966
117.72356079210026
116.96786335646604
117.11120173797883
116.94619992503901
116.32114967919257
115.71509101300435
118.06299401780873
114.49835239541807
117.43585097202052
114.49327962610528
113.20727097351462
113.22212176142021
117.46448137805579
115.2259433640827
114.29279725186117
115.21895748386748
117.16858105682688
117.57948822501403
116.03607807020846
114.43521856354729
117.71527651456748
116.98614135041669
117.35186060467406
115.07328031726885
116.40435157216037
118.41313195425164
118.3453745989886
115.03902561242639
116.35514684205991
117.0770377203156
118.17098933015085
118.38537358196631
118.63589553162245
118.24557013191189
114.91469365496145
117.24861148813098
118.71458083946435
117.89993039197677
114.89804603583087
113.99890605213811
113.69439195739092
114.34922848230315
117.22897083665205
116.23847519474231
114.56833544744717
115.89431523866109
118.04001545953537
116.88051583266544
118.68654414490665
117.33173841583275
113.65741334171744
116.82908999856274
-1
107.93453707867553
103.75477957464898
107.18886053938718
105.89380015032874
105.16105503012538
104.12303373328596
103.56834778317842
105.98478012382499
104.32434354850098
106.98173675788171
106.8475748625774
102.6167101371514
107.05243765272331
107.05163998374243
106.37137831821757
105.11633005554239
104.30804155740755
105.38790350777465
102.03264384923159
102.86548898626337
107.8308505082543
102.29311003601416
103.57737891749635
104.44305124953247
103.44067251443759
103.2617165162587
106.69425891881275
107.39354673262869
104.61657199009949
102.52302246422893
105.15055301331506
107.59101199504218
103.25749211578317
105.22434220471197
107.07031072304864
107.73482472265026
107.2075462245768
107.45817662084599
107.47218490263644
107.77019716792896
102.99440419376852
107.1867904020343
106.3932424924992
105.96934930898665
103.28193329998878
104.65471025350426
102.32160322326452
106.04024597420776
105.77848740338413
106.10426834647104
104.24473179332712
102.94813775004503
105.76997268084736
105.52142523536781
106.39168893263944
104.14100894203325
104.06205314498189
107.7387143290109
107.70663576805971
103.56339065312523
103.91859370200977
106.50926239199867
105.23736765748519
103.22386123917994
106.57366992544246
107.14044665284966
104.95663880098196
105.14991095517993
107.07221412296143
-1
117.31971120357484
114.55959403163946
114.05986709263418
119.45704023004735
114.60368543419514
117.69316211219467
118.42013648798743
119.19476648928935
115.8796395099167
118.5890422996568
117.00015528793756
116.38511894488254
115.30356744875498
117.64515919975125
114.34582951029284
119.7935071301027
117.22410942455799
116.69674582540347
115.12189097480237
116.45351253747594
116.42199712231202
117.26330354648738
115.38493766895802
116.44475029296544
116.23668173884109
114.13622062359974
114.71054455781955
117.7690489627136
118.71069735680329
114.23398843062371
116.47199255024549
115.28606943373136
119.13817586124482
114.51719421488959
114.41776885856329
117.87846707895119
114.34728318853381
116.80819570247037
114.23210615510469
119.41318673406461
115.67721195493405
119.60062508682616
116.98743392865721
115.64946532218647
119.9287210381251
117.37159986784862
117.30972633015786
115.01559823931456
114.57307233771404
114.52475163920072
116.67733968554187
118.13551439228307
117.19757702147949
119.89492250639596
119.56104153270046
119.13268380589658
117.54681966848749
118.73560939230472
115.08754508527186
119.07287235544337
119.5869899347844
116.28797165709595
-1
116.77661036073408
112.39545364974056
115.60625095969702
117.1582388907476
114.170308035804
116.18080627955094
113.45566466611979
117.88535108744955
114.11313837782535
113.5425250979696
116.18417393595492
113.75548766610257
112.10132572622065
116.15546207736786
117.41149829723501
113.80960995536691
113.89114959413041
112.77559450603337
115.64834914677445
115.17991263264352
116.13105912316325
117.95167624407685
115.97141747202933
113.0564987992172
112.6729626366851
117.73672655573441
112.26629910481437
116.20842610534558
113.28699613294647
112.67004808850501
113.42965429864724
115.86399699708626
112.75993330683923
113.16569838456783
112.77150676246085
116.9641475928359
114.30076104333794
113.49607537990263
115.39569970638054
115.19927380756594
115.8078022964509
115.79951077062634
117.56112874449985
112.82381896428484
112.87012821919768
116.96850001698313
114.93849092422744
113.01443167253755
112.38186074994395
112.89042991105406
113.27688833971052
116.49648469285032
113.34132514132389
112.31540442579573
115.28174361357033
117.31023306938155
116.78787387853555
114.61599651627827
113.48008401527775
112.92187343410566
114.89755986508779
117.88149412343525
116.51137118027233
-1
99.154440752739461
100.63165210129706
98.136920617698195
100.83971291517432
102.17000342686281
100.2559254989967
99.315855634581396
98.124530105090813
101.69893953283142
99.088220437450161
99.758867103675072
98.045128111866006
101.52266381185908
98.800997685846028
101.6245548494899
99.926726074055836
97.184154550661262
97.32509086916501
99.233372732357267
100.19044346277391
100.96117060498281
97.598516236665944
100.76999047958049
102.27112655986654
98.998486891789042
100.09708734063521
98.496082099075892
102.82439549786584
101.21358657478299
100.63188076477874
101.12216312726686
101.79682605564622
102.45548889543439
97.74820912604153
98.196080265064666
100.87653840521335
97.449119222724633
98.597867269683434
101.76224343506527
102.47232552392161
100.29786699624594
98.381023577065889
101.12967488645651
101.68781308874323
101.74470975893102
98.366244198668213
102.35843134046399
102.76300223254214
102.00751546416213
97.096738866813354
97.032943947893159
97.148904063247073
99.806871144348136
100.67803545638894
99.037300659976651
102.76183819318098
99.195018479847988
101.01689186819212
97.381484733329373
99.032322213661004
100.97221296091608
97.543368685586643
97.649062634480188
98.119342156065812
100.84205648562649
102.29759124453561
98.345802997023469
97.104151110351495
100.01008910554567
102.2998453763288
101.32518968988248
101.10860353440297
99.670156171638993
-1
102.10139262754203
101.75080861758352
101.79237224453462
103.72683371577274
99.661415492020794
103.40921999244988
98.958747989682834
100.78764920919534
100.16085228352892
102.06284478619733
102.63538851491943
101.88247846207072
99.71140516536471
101.23927417149828
102.566959825651
103.32693733051936
103.78549866401289
103.20247994163866
100.01842913026336
99.013262725612478
100.68010829807299
98.178871580350673
100.34258746174113
100.98077893429642
102.93423703427044
100.05932630712218
100.01596035498245
100.24441137859021
102.44192532049266
100.69358715375611
100.33323316658614
98.563070323120101
98.321032887299836
100.32115588963396
98.862424710367108
98.601213727103428
98.603897001730829
99.298044328521286
98.362651368112154
101.89588261116479
103.50932387963647
102.08148170865744
101.15343470459909
101.18798316719834
99.43623684071126
98.42490851317892
100.89911663349312
102.01057927200881
100.88765710896662
98.913323832868144
99.434049567999821
103.94843972771682
98.289558189720992
102.33428612116957
103.60384620476535
98.692071285459519
99.112490051124084
98.93260069094292
100.13507628946392
103.90594986966305
99.834732338143681
98.336966292097657
99.270412183447647
103.01465128271188
99.104090993011411
103.87458060174947
102.31832956686186
101.28206240449646
101.96131684626553
98.104943610264542
100.36608411250437
102.01784113777983
-1
117.19178950867446
117.39177789619281
116.67049031214705
119.34265702278944
120.88603637844454
120.17069230346802
119.42233793639875
119.80211899789667
119.85559460536919
117.71398920248787
118.79843156504526
117.59238545699174
117.73136015371421
117.77297544088712
116.83384506699608
121.19464770783209
120.23980617027574
121.03552993900009
118.90608040715307
119.44723574167692
121.32181667146
121.941697702007
118.42034889557837
119.94315464665742
121.69488422716223
117.06726901338523
120.17121812065753
119.94516087330814
120.65426784243178
117.33138372251277
118.73383623038642
117.12422207237644
121.19580939024071
118.43068886258554
116.61880428073866
118.41744552810644
121.51772516352638
119.23656024907979
121.99312357784609
118.47928769151568
120.62079075850677
116.41338415451834
117.52550885146965
116.56509771042793
120.07595091608347
121.22487862548988
120.35771334947636
116.23877808919973
120.06549575594997
119.39191907900482
118.33437489824611
120.03658249968807
119.52855059177891
120.94931617929205
117.44224859521493
121.14680304077721
119.65374019610405
118.32048065983655
119.9155517430713
120.28033638384946
121.06149479105753
-1
113.2098490700798
114.80557526243265
112.18376500578616
112.50903376221459
111.94549970636572
110.79800635800333
110.45932794343359
114.46387387719786
112.19290903242266
114.423710532386
112.81253540767453
111.18534505490162
113.60430289827814
114.9607527400249
109.26311921617645
111.12321644907801
111.38648684738806
113.95920790378128
112.9602874558655
112.1601044225938
110.06954800096761
111.95627741400432
112.09240476989007
114.03512586728699
110.66791214784371
111.81738729477793
110.03946147110798
109.79841066399862
111.08061761968379
112.59261220012996
112.86812294420056
109.24343346750184
109.38040553485936
110.0648781267347
112.41563728898642
112.64498445821087
109.63145428856832
110.14100417095146
113.54286099043422
111.19895915715828
110.05332933908412
110.89875696948103
113.65815039449818
113.31600456124883
111.71394296843985
110.45269696522
111.32284590285303
111.36442076885453
112.4870631030324
114.83870710172565
110.64556663748958
111.58857508012387
109.75013773580775
110.84170365622059
113.25651172806484
112.74744472575868
110.2259395342077
111.10313790744338
111.92445224559165
112.52376427661973
114.48676784307368
114.9445071843636
113.3380821814887
112.94761477198232
114.94268072465727
-1
118.95914714986836
115.62546264376616
116.26762849887535
118.77460527634123
115.80349590086311
115.75777025277608
117.70464813137404
116.49609295143657
115.20679515562492
118.96213016043599
116.63399712195412
115.56487749762341
115.22557170933408
116.01719904070399
117.65144384383701
116.46580932726673
118.29264580306716
115.3089300854586
115.23906352027205
117.03869471831199
116.3010321772115
115.5520235782673
117.55711160842237
119.94652958866813
116.57319258129537
119.97227594766755
119.52759027706716
116.50486895485695
116.25634960784126
117.94317228574518
119.47971021225966
116.96235965450771
119.06543184556101
117.06030575985066
116.60205925923509
120.65644552168352
119.36358013126669
117.81493884992966
117.10840124508644
117.98974242116887
120.32600286856953
116.39325717643371
119.37363235381011
117.88156178286411
117.37632828284021
120.68059969156739
118.33353902805547
117.24554858374162
117.21546139727461
118.29018616345888
115.16660363879731
119.12838103247825
118.58131219255257
117.36359265521617
119.68821954312392
115.41596516031895
117.3836209982592
119.00546570192131
117.98728060744898
116.47254328297147
118.05146658507746
116.51769492897061
-1
114.8119022191966
115.08850196194886
117.16823074632508
116.03556582247893
117.18652233279914
116.2696370615726
115.06931696116879
116.73835268787703
113.24862595055055
116.44010621232444
114.59883238263198
117.40263527572091
118.12699739253662
115.50759193372687
115.26876810812649
118.80915733085948
117.87318801987404
113.33895905346957
114.25306703995246
117.18822595168615
116.12754014810946
116.8389744335505
114.30214811616447
116.55058566034661
117.02505404037156
116.21160519368551
113.22548966976245
117.89798303876285
118.47555958712734
114.74099002242437
115.30622537550092
117.24719877942948
115.33351024968336
114.41941647435728
116.98631574128366
114.7353077104105
114.04108159071276
113.92737066808772
118.82296443880517
116.59541275478698
113.08410922644586
113.8359586370044
113.06656186999174
118.50108247851544
117.04376822323053
116.4547341407733
117.24754580431356
116.67420735412148
118.15774715936031
118.48820289064538
116.88417767092803
116.2349727399361
114.12303746789063
117.59200519392775
114.83534475820052
116.54413131602794
118.37831079636418
117.03501620773751
118.92210600887312
114.74674414978152
113.29722159169893
117.97633511705288
117.22880793465393
-1
118.35637002135094
117.96921027030325
113.68603109637735
116.89770002100083
113.07895894217188
113.96516457572291
117.48700448303863
118.40407883000483
114.02670397875121
114.63500435397289
114.2989953303173
118.06394638630684
118.50442540564796
114.92591012120687
114.24482948138254
115.63954981685113
116.94588285942758
114.84912449678266
115.52031194480415
113.8854257517558
117.14663943859794
117.18900085408976
117.13461609085144
118.81275784363466
114.90118344685122
116.55647965995638
116.54891930098675
117.77627967624815
115.72515340521534
114.24469414724813
115.99080886430571
114.49279403289727
115.33374897026255
114.31901793815739
116.55597192833967
113.16873722266836
115.72514386711187
117.03597567444235
115.73016330333743
115.67007624540564
117.08294938098703
116.03504728118946
115.67343232324008
114.11118880226985
117.2645147868581
115.78450737136039
114.50507199786145
116.37023097791547
116.38208387258416
113.48704660510529
116.91174045227085
115.85686101534517
113.91155925496591
117.06303683917136
117.67268657450204
113.36404504441558
117.87886404343962
117.92890616351234
118.15499782217763
116.02902897292323
115.97662230752279
116.07520282572426
117.47827272921049
-1
112.4235339264516
111.88210309016614
115.44870448413357
112.30119982444687
114.60367653807606
110.85123698300448
112.16129281819931
114.11212934861425
113.14176580945924
114.762278266938
114.21073762216011
113.06791120289297
113.58757552254836
112.21226078223513
114.18538437497466
112.71612043489216
110.33351681311058
115.77342154737833
111.09426857820901
114.65478325447037
115.79008660264228
110.68998143163923
110.41183895030731
115.84219691473507
114.18211140739481
111.9917247037064
112.89346727170958
114.0572840489824
112.51723742733034
111.6456557050998
112.86456718814387
112.5253117831296
115.25272972948187
111.70099264062409
110.754499459016
112.90154240991291
110.84875200246812
112.90424495182017
115.40230402038456
114.17061471204035
115.74590725867733
114.97010327079145
111.10465488657866
115.57219209729416
112.3419293555127
110.59035812398017
112.50729619917165
114.40364581391617
110.26702628056267
110.34704338791384
115.25957681199843
112.47827660669842
114.66948164506418
113.96749078362009
111.85755774908098
114.13281205091432
115.32273577593665
112.81796008157812
114.29452937770567
115.98065420113312
110.15227037367883
111.17899816885031
112.01863291967541
112.09757961460717
-1
112.26564014902057
113.00433834462282
109.64787661313871
114.28923800784744
113.09080409546223
111.67582197118233
114.82537603107653
113.47402237429314
109.3670564918073
112.85921337777503
114.75594474999272
114.52332236772877
110.64768017569638
113.22376150135939
111.15546905564385
111.63267902036337
113.10995207329853
113.29255984415407
109.80123570525726
113.10391588079494
111.80210507154256
113.72194036201721
112.24281823201959
110.98053883430934
114.10932113312256
114.29683105119578
109.55532694562071
111.58351646128533
110.73532357647328
112.0006594375283
111.75483429919713
111.74645488920171
109.56449953502222
113.69611469334205
109.15789895042923
110.07065733035095
113.52534018939961
114.31832319826468
110.31671712332779
114.22955511037895
112.01934716175732
113.03471848362246
111.1985428142924
112.24846757997639
114.61041123095166
109.56612651795243
114.00262637495395
111.76964561355429
111.48803249652271
114.79131876226238
111.42002851547579
112.58402808189891
113.72360516185321
109.87252193789151
111.24128122615866
110.17012948688242
111.53235444511198
112.44210570883072
113.00397009454103
109.62696189450604
114.63437023681388
114.88090499434
110.84692644085561
110.2218764707539
109.37653987287435
-1
120.79569431973087
122.53304677216759
119.47395471127149
117.38660127031793
119.476484018227
121.64545427997926
122.3279481907058
119.15817448423445
119.54982207585068
120.39426052317505
122.21806674069401
117.59465080704754
120.91736380405689
122.81216315026315
117.9260130900276
117.7291910988542
117.34702821342323
120.15513637146913
117.30131683388475
117.04541482327568
119.67709412052855
118.94078117365549
121.58857062592176
122.68728465015745
118.28298022860938
118.04426734334584
122.23839190221166
119.79503414952735
122.44947352445423
120.81054727978996
122.08217371862301
121.34280964284916
117.81264947633157
118.89737990281536
119.11592702144797
117.20330903839545
119.74471514536164
122.00706272750118
121.69124909773333
119.20180451861724
120.45148893518532
119.79562951193599
118.65168452066416
117.64655104417177
118.63621679571651
117.06662960666773
118.88048679236846
117.23468947987918
118.85490630896606
120.86246610594443
121.84101319667874
120.33236094123129
121.14734723197871
120.25962739943334
119.99372930100239
119.41486190829825
120.17447090253683
122.5550068284664
119.46402643265782
121.9272753294039
122.92668312619024
-1
101.98812618132368
101.08929210626499
98.285851963931876
101.22693390908395
100.20821503037504
98.360136783969921
98.158848848948892
99.899683833592647
101.43389650050013
100.41100439517842
102.71128396057766
97.810967697340516
102.44867591169307
97.768410465014199
102.29189278486615
97.545576517259065
99.57910922187645
101.66080074508633
101.52178525764404
100.60233782646384
99.750598058743762
97.838215777357021
97.827028339893673
98.85010582721992
97.825783525776501
101.51694700253053
98.070812351456638
99.376655475803545
102.03285093613688
97.935694225005378
101.83763135374582
100.95429717237707
97.953165619860769
97.531219244922781
97.677765524389386
97.711261700463012
101.88727229170784
100.45047885541855
97.063714888052914
97.150640392973159
98.455396609142937
102.01269760650723
99.941089212708164
99.39889935052193
101.01319893631751
100.81883187945368
101.57482310149213
100.4937215851398
100.87563998684915
102.47735748891628
98.897441945552629
100.63616443688392
100.4414251409967
98.374297629100383
99.759462214790076
100.63485410502334
100.09760642109256
102.5618939118368
98.362874094410117
102.26017545411776
101.25852817042635
100.67430702202795
100.72700757608588
100.90414579881794
100.05541362409367
102.80021585453797
97.291948386729146
97.806899103605332
98.04249709663118
101.45117240652954
99.70802380313485
102.16344104730555
101.82271839777395
-1
103.66456694875521
103.720602668442
98.835909179404567
98.538935269405982
100.4535731960173
103.54205949181924
99.745089904567507
98.519676707946701
100.09562345725156
101.06044648166824
101.00332175396231
101.81698502814041
99.959367166610008
98.155346803418581
98.540128966237944
99.122082507629742
98.400642241974992
102.50512592913481
100.88679246115886
99.811418949685574
99.315827597055019
101.39643622532728
103.63261343477278
99.014487136980549
101.99764608288545
100.56345268378652
100.11120912820762
99.716833032062056
101.77895181449476
101.0067270572677
101.7740548218454
103.37451356264907
101.6902714307066
99.466162937450164
100.79247085644852
99.334622045885538
98.284603569509301
100.63471838159032
103.70073777722611
102.86235628690699
99.898211857114845
99.299055762649203
102.35200734048483
99.768464389060739
102.91888661213099
100.38046476037667
99.105160953121825
102.51176341848085
101.1233796770575
98.323998311799855
100.99475138448327
100.2197850227587
100.82345408305319
98.445864749180345
98.657649728541912
101.32646232615737
102.42522356066459
101.69873426588681
101.99900044938455
102.46912944184452
99.059192219225537
102.85172343395367
99.976576415096332
98.917967606253015
101.17863756058246
102.306433397581
102.46660514348414
100.12938898664524
100.45171582249681
101.68252422979251
103.94562644900651
99.020708239845305
-1
115.68192294882213
117.2568146960556
119.94211215765515
119.81984842113388
115.27654936468242
115.22041173208456
117.33009006106225
116.31351958001001
119.72797424647565
118.40575594085438
114.46637202492754
115.62537924666091
118.71582800315271
115.73168215418734
116.8013825154259
119.82745289944471
114.50823701094301
117.71306295947906
118.8869443603641
114.53442923206731
119.79370899753221
115.56071081920321
117.73972216013458
115.60573000674225
116.82251906955575
118.09808877517227
117.99985270683763
118.02092618812785
116.51402705004061
119.88905539456911
114.49725075651581
118.20846656411203
118.64534621935782
115.16423055552056
118.14081057963614
115.89479858888379
117.88326376287894
118.01442622724645
119.53596253699254
116.01556833446952
119.25529995648709
119.88794584859593
115.41377286238487
117.3926938251399
116.67727653261092
118.68441742789091
115.82001372811025
114.73072027092255
119.36374798317836
117.68118192387763
119.06536235833934
116.02297036100646
115.34413733158289
115.15911938878662
116.67812415115645
118.68261508064056
118.89139869932444
118.9131557532283
116.02860688934989
116.62589912152561
115.44151496377938
117.83854987966318
-1
119.54112279901109
115.47742210014292
116.15942548639394
114.61001294864498
114.50704307733977
117.79084383829522
118.40678291931283
118.31201180382193
116.81547590587475
119.49016747606194
119.18930196970314
116.82554030294393
119.76010801287134
116.01713555783523
117.06925656732709
117.36313261116412
115.62736076323996
119.70566658260093
115.91758155665494
115.03586209307886
117.53349470176711
114.78907441595909
115.28009363685484
117.95638199511238
115.15226733853066
116.73483975844728
117.66682892956626
116.4479280338703
118.83332947693675
118.89490780307149
119.72073445350213
116.73300322741413
118.07052645218535
117.65284854151477
119.52468657550622
115.2625702974113
114.92575537265309
118.13007378045914
117.79604318882731
115.32119033463935
118.84801667637862
116.08166656870522
114.39566847750424
118.70565304859058
114.34877837359139
119.86823502457467
119.44360931683551
116.124255615655
117.20376015848248
115.33356386264145
114.38632819278791
114.5009933495318
116.2477233637112
116.04869699067076
114.60064163142168
117.59353901673678
114.41284581816878
115.70144114657552
119.54723823026984
114.24599260548835
116.43273372000611
116.41614386362424
-1
114.59311767415006
111.48195308620228
116.49521900295852
111.65091542250265
115.05675656512541
114.34863250225693
112.28205056287565
112.79440172494945
115.62406384373372
111.81735660784436
115.93925404399515
111.10275312711947
111.31244722156177
114.10977968842909
116.0560374690168
111.63010822484394
114.84634714513403
113.94202189533738
116.63352873381126
116.51461047249155
111.04643322738005
112.86108212725279
115.75064900729505
114.65429449690454
111.19041145990886
111.91954485258685
115.78103132817274
112.92155148476562
111.68937328902412
115.27030491203264
113.46097472441299
116.38364337266005
113.88260331025097
114.45639733772498
116.41115268523912
113.78384275056983
111.40025050299661
113.0518773191359
115.20503685610109
113.01238558011428
112.37724535659905
113.87805248062347
116.75472236381636
111.45853282640324
115.82333625012876
116.27523347924176
113.65008382883811
111.98464767851358
116.66309952686242
114.85352393778925
113.13991896614718
114.80030244976619
114.35626154613659
111.77703352681833
112.68397609062077
112.73904065772749
111.59265760031205
113.95425465296354
116.43249181627181
114.35252651270969
116.32763569434886
116.51320505415421
116.60510329524145
115.83642771540502
-1
109.54373180259962
109.08948144946278
114.98264781730899
109.18674149997324
114.20426848941923
109.18180778046774
111.93453475902439
111.71070569224197
111.02962905687006
110.17063957996123
114.67508883325871
112.98719439323338
109.51197756728419
109.55125298317755
110.12243002289112
114.95112321069827
109.3046536441141
110.66798455267464
112.16423218111814
109.77779728913188
114.48457218965865
111.13483793674146
110.69855277976971
114.81942780795673
111.49359912626552
111.72728732749179
114.41501036823162
113.56615988253986
114.4026417951296
110.30649621437186
114.96297491775651
109.00044724624945
110.44492405644642
113.12427939015993
110.79992551038384
110.59446803482471
110.25515482260614
109.33174470308391
114.8471105246759
113.76863763358313
110.92903032780247
109.67666125322954
111.1011299101752
114.88512895924248
109.8827439229897
111.22421054759641
113.55904661364103
109.79367704330051
109.54491580319736
110.47288315851809
114.21111506677839
113.57779707734163
113.15358451969169
111.46189980099581
111.43920031142231
111.46790918975682
112.35863885324116
111.37863554430565
109.93044735363591
111.893720730333
109.94530422253892
113.77414495422128
112.17474124909739
114.34157614824834
113.79702994908379
-1
