165.34842384641863
328.89836004665926
490.64131318772104
651.95204995288839
814.16621266742789
975.36137737259696
1137.8501911646108
1301.0659957523253
1460.8423344911309
1621.2077189408519
1781.9002256565425
1941.0932691662517
2100.1490237479197
2263.1503338159359
2429.5128341057516
2594.6133302009662
2758.3821510759699
2922.98291264719
3087.6022706610383
3248.7400900129205
3410.6896936466583
3576.5845432352967
3742.1273468327954
3905.0494415089324
4068.3460654251653
4232.3936711737806
4395.5578532487998
4560.599062065633
4724.8458856778707
4886.6010504092537
5050.0353319283768
5212.3134683708622
5372.4782389097945
5535.9338092560929
5702.1011898242705
5865.4116415777335
6027.7687549446946
6191.9327388827005
6356.451440658836
6520.7205984418788
6681.7169205202172
6843.2707923005537
7004.9316410729652
7166.6877248964702
7328.4849147597297
7489.2975380486077
7649.7828251102947
7810.7191820839453
7975.153609180521
8140.4969558245812
8303.0311163062943
8464.6729080145687
8625.5595293044844
8784.2894964400311
8947.0885468368979
9110.2976697819031
9272.4385273604239
9436.1354063313174
9600.3087548893272
9763.1759363915553
9925.1693395055117
10087.246621758857
-1
162.26201348830057
324.42908320978199
489.66065153212321
657.44715145616306
822.53988501060428
987.15695527760204
1151.2539105312674
1312.9012186525629
1474.9799564474768
1638.518862845187
1804.0153514547328
1968.4872535271486
2132.8619178094577
2300.2973037857655
2465.3714240002409
2629.960553920107
2796.3441710206353
2960.4260344270688
3125.6619544498199
3291.8084794837746
3458.3614493904483
3626.2751627515613
3792.689362404351
3958.5025380699881
4126.0051009672134
4291.3220699446856
4453.2530394779942
4616.6267798161543
4783.5154725667389
4950.1564140473884
5113.7648197843782
5276.8644664560588
5442.1574757025592
5609.2440750039295
5773.8556384925732
5939.583482873235
6107.8308542780442
6275.2590497626334
6441.4906107132811
6607.4478520573421
6775.3275934715803
6943.4590209700691
7108.2182061894127
7269.9729874763198
7433.8986186403408
7598.237906868957
7761.4972627299549
7927.6109764640032
8093.2721206988354
8256.8455203915782
8422.7816335230928
8591.1742367950374
8759.3514949752571
8923.862154356957
9087.0712666956861
9253.8896504604309
9422.2203377292171
9587.7295001780276
9753.0021713270071
9918.3290991616796
10083.503532240109
-1
163.06829975226324
323.09262661276199
481.42766628220693
642.62166769633563
804.46165491750253
966.18479104181893
1129.7260785339522
1290.9559165895864
1451.4841353650959
1614.605302174587
1775.4466171674321
1935.1311533939086
2097.5930152293099
2262.061414980174
2424.2021700485575
2584.2552909467095
2746.4069133507178
2908.0483017760307
3068.9118844288782
3230.7168976349749
3393.0327247453333
3555.7744776190193
3718.0258756195453
3879.6457759461282
4042.4316502815218
4204.7004453757454
4365.8960394167143
4528.9895833489663
4692.4559879354756
4855.2425214205359
5018.7731219211491
5183.1520338687633
5343.9143034296931
5504.5229494303094
5665.4076408538431
5825.4732206498838
5985.3019350827362
6143.982016140294
6303.6372335940077
6463.293897582199
6624.2081715733702
6785.7496304038841
6946.3638897474757
7107.47484241448
7268.5892291144355
7429.2777133683876
7591.3362804299431
7752.9146522981046
7912.6189664197491
8071.4024227061518
8229.3633735402564
8388.8662069077218
8550.5721672290529
8712.7783960366432
8873.5373938907578
9034.5685451301488
9195.8664783109762
9355.8808124406933
9514.6119291776413
9672.0953807779588
9830.3637436232311
9992.2134999512309
10154.239622078965
-1
163.03473385503696
326.25449000436498
489.28480151457291
650.16308851638803
810.90925375557242
973.6789523444105
1134.9994285200753
1297.5905807438048
1461.6649658515557
1623.5947098270362
1784.3624542398397
1944.1758459018763
2104.0952447098107
2263.8258366643336
2422.9849001361958
2582.7525316398378
2743.4999235171917
2904.205691089614
3064.7776685924318
3227.0042547169546
3390.9305180427427
3555.4004202632586
3718.8706845852689
3881.9006288831401
4043.106309087917
4201.8159266306775
4361.8727099217977
4524.1089256491086
4686.9757694595637
4848.100350875904
5010.9336427966718
5173.1146341041895
5333.0811335470689
5494.7723968444716
5656.760285488147
5819.5843602474579
5981.0060181163544
6142.2649802073292
6304.7186999407986
6464.8997280772319
6624.2885851508499
6785.215389588674
6945.8063742973382
7107.4895477186374
7270.6407767736773
7432.8657378087146
7596.9705005458618
7759.4645197943319
7920.502685061595
8082.1693003581186
8242.1930389365134
8404.6557807926602
8568.0884224478887
8728.6710274633333
8889.667258623158
9050.850700429497
9211.0209923324146
9373.3191018967009
9537.2957528493025
9702.5148188182011
9865.9502425395585
10026.277216783896
-1
160.83113636052161
317.78646604008821
473.01517876843013
630.25703674975557
785.99058130571109
939.85268148413434
1096.4959755429616
1256.9231997293093
1416.768618963094
1575.3817403912933
1733.6711136416054
1891.7358708282186
2048.1917421242815
2205.3263207955238
2362.4049167264402
2520.1763258384108
2680.9093209858611
2839.3629752806228
2994.7046371300589
3148.4231906749192
3305.217285870378
3462.6402792944391
3616.9786944811531
3772.4811882338731
3930.4040546869101
4089.2248799817658
4244.7872989605057
4400.7674716861447
4559.8157197913079
4717.7894052846459
4875.0635504948368
5033.4311297933909
5191.0749827533527
5349.1252900796962
5507.9931033533403
5667.1691202059155
5824.6979409510741
5981.8435718528135
6141.9101275468984
6298.8846115002161
6452.3095719435869
6607.3559078888302
6764.5715634829257
6921.2531504379012
7077.1376434011927
7233.1148308385
7390.7189156019786
7547.4932416826941
7703.8408007426115
7862.6782389287246
8021.6353696246661
8180.7557955747588
8339.7080585674958
8499.3233054939828
8657.664194384628
8814.9265039176735
8971.7288876512557
9126.0444194348183
9280.4138773963168
9435.9848535899619
9591.6838409840457
9745.7033947392374
9901.1778860213799
10058.258187760288
-1
149.02032783383029
301.86027281816689
455.43361547230745
605.20523487930882
757.90477782588948
912.3595785709872
1063.1558914943862
1214.3101446694993
1369.0204096136069
1523.9645141997839
1675.6350638732351
1825.0360528230649
1976.2469236529869
2128.2341414450248
2280.2419017750162
2432.0818526744001
2583.7790276344481
2734.9714825501592
2885.5003570862264
3036.3919809635468
3188.937638357103
3340.8343734131427
3491.0824130444166
3644.6444809149993
3797.218932709201
3947.2296083534279
4099.8565222482894
4251.9710151151794
4402.5756116533348
4553.3082777844866
4705.8674830618065
4859.0446243014576
5009.8222473826945
5161.7220410095542
5313.1227166435801
5465.3051812985996
5620.247049187803
5773.2369629572222
5924.3708155072782
6077.0091953737856
6230.3708253278401
6383.2084869488044
6537.7246211657957
6693.8648850318514
6850.0286588823319
7004.339775766156
7157.2112702994636
7308.9535812704689
7459.7691936698984
7610.4510335488176
7762.1673002735943
7916.1528832753156
8070.8454341152856
8226.2211828597228
8378.3796952513967
8530.907243371601
8687.3512831251755
8841.5670920428292
8993.7120098135129
9144.9794548227965
9296.2146523850406
9449.2077458288932
9601.1900989333808
9754.8035372948016
9911.1659015117239
10066.063009045314
-1
157.36950690007487
314.36886598559181
471.60952034361577
628.12587078296121
783.03124266663121
939.81389738504288
1097.6644470483329
1256.4409958208778
1416.7717345896181
1575.4142597525788
1733.2702311777964
1891.3349288392756
2047.8313410469782
2205.8545256010025
2363.8279807819195
2520.32510625032
2676.3497772565729
2833.7382898206979
2992.6284077724722
3147.7455302991939
3304.0212104512843
3462.5899306672527
3618.8630103945516
3776.512234486223
3937.1703913035449
4096.5026678904815
4255.1047989990111
4411.6430689516055
4567.178797977238
4725.4891454253093
4881.5977220337854
5036.0419933851872
5192.0677425441463
5350.3818189968397
5507.0256889213906
5660.6622647648192
5818.2579887111333
5976.058203404199
6133.7859725548105
6293.424673741436
6450.7810124262369
6605.3721997408229
6761.2094588021955
6917.7279581893772
7073.7239063271081
7232.8322605854137
7391.193356370869
7548.0903836814214
7703.9897777366978
7859.4884234157671
8015.882277918723
8171.7792359576961
8329.9233052241616
8488.0482218536363
8646.5593530446549
8804.7602669605058
8960.5285668190609
9115.1445221972826
9271.1652630113276
9430.6403224498463
9591.1016685710038
9750.3014158921542
9905.8914454855658
10061.85845455707
-1
147.31317794120315
295.86718038286585
445.97190891033824
598.01091777767613
750.59592689316082
900.4933358023228
1050.6897240499463
1201.0820331367859
1352.7929728181341
1506.7792129032925
1660.2589080723903
1812.8430184982117
1963.2472416522637
2111.9727566707015
2263.2332406693108
2415.7271826301626
2568.7740735387279
2721.4524052624756
2871.1277440825133
3020.3092806329382
3169.1146410852762
3318.2180190022045
3468.1910470604544
3618.7498471669646
3769.8241004552169
3923.0331241072645
4078.1807793734251
4232.5607282137371
4384.8978257167792
4537.802223358779
4692.1735504536373
4844.6230726173835
4995.1249804124582
5146.0586303563268
5298.0078416991801
5451.6709940300498
5603.7000721878685
5753.8875493740097
5905.0678839818547
6056.7477695441166
6208.2283119517888
6359.9242612601447
6510.477631849124
6659.1551542824591
6810.6379215145607
6961.9566418833656
7113.7612933247174
7268.1918259813847
7418.870325950882
7570.3331603392553
7724.3488574106623
7875.8891188552852
8028.4324142318965
8180.8736274873545
8333.5033383033151
8486.5427459681578
8638.1721210949545
8788.3419970000541
8936.1960455307108
9084.816459050191
9237.3544353814159
9392.643418395448
9544.365408538164
9693.0992399927127
9842.9779435397868
9993.9598696957892
10144.405404653291
-1
163.87650386186937
328.58904282877768
493.15462896216286
656.47282765699572
820.00725026371674
983.60688241345019
1146.7671519392959
1310.4614439581558
1475.3021330606091
1640.5891330036538
1808.5717370887758
1977.6399508455609
2144.1664149622065
2310.6053747786095
2478.1811587332863
2647.0351008071375
2816.7073608686833
2986.1626595866865
3152.3835119257392
3316.902616278629
3483.1893692684921
3651.825270011449
3822.3099944652504
3991.8572215414088
4159.2051459978629
4326.0071056345996
4493.5682267034172
4660.2381748516573
4828.0327835271
4996.9471340004238
5164.6591309893038
5332.5801311601517
5501.6186947081751
5669.5089176694319
5836.9765569925294
6004.3518549260334
6169.9623354994446
6333.9937762505542
6497.3900508669367
6663.190118088276
6832.2555089628695
7000.4986490946612
7167.0407647060938
7335.4014105342603
7503.821795546618
7671.8592089351259
7840.2468183648452
8009.5715090657077
8180.0852868770035
8347.6045576834094
8513.0257953041655
8679.4208475111827
8846.8473215654358
9015.8202548704303
9185.2401416720641
9352.1136551897325
9518.6069931689526
9687.9131496384489
9856.4643779518192
10023.112662553925
-1
146.52508272983692
293.36599768661108
443.48969774290401
595.02777992176107
746.71749668858615
896.89397267311335
1044.795534301016
1194.5909588825543
1344.3969650320032
1493.3181061509176
1642.5601684721582
1792.188138553634
1942.2566560210391
2090.8203023333581
2237.3753230064985
2387.2046682948003
2540.0731912679644
2693.041411444794
2843.6200329928201
2994.2732814763021
3145.5075282238495
3293.0039600444738
3440.0857608567512
3588.566672042507
3736.8289681864185
3885.9129761203876
4036.9756146043669
4185.994487731703
4335.4948560100329
4486.9608874995311
4639.175265439917
4789.5606225429938
4939.6754826202359
5091.012187165351
5242.017418576771
5391.4547632867752
5537.4823590974511
5685.5237406812621
5835.4518337238078
5986.3548543574252
6136.8800776177068
6285.642267053905
6433.2972609720264
6580.1128276168884
6727.4124075167183
6877.1533094820079
7028.7985672329723
7178.8595865834568
7327.9937560787184
7479.8776049432263
7632.083467522205
7784.3051875219771
7934.4826598157451
8082.2628180339643
8232.8502922312382
8381.8347430397589
8528.2728937378797
8677.509468240949
8828.7627961212165
8977.4514619673555
9127.0850909520959
9278.6412070775696
9430.121801862324
9581.2370932427275
9731.7257911208344
9880.5230676993324
10028.801484520061
-1
144.23737785185943
289.97079478669184
436.73796640663164
581.27391052532653
725.08149873297918
868.73703881924018
1012.1416713788109
1158.576115454252
1305.9195404769341
1451.7140799029189
1596.6949521978581
1741.1198062299582
1885.6775786628405
2032.7745431731155
2180.8061977179905
2328.7858315299773
2475.3090017922782
2619.7841430312178
2763.5128608205696
2906.8156134590445
3051.5997880439545
3195.1297921329797
3337.1719267645185
3481.0016166675559
3628.506846264544
3774.7822881928546
3918.8816643864634
4066.3284112867523
4213.9109748514711
4357.730665487984
4503.64155725619
4651.6148168493801
4798.8336741407747
4947.8362793203742
5097.3475245867321
5243.9504935149371
5388.4402010444601
5533.939884873128
5679.4360506804396
5825.391613082953
5972.2382100384293
6119.9560564728035
6267.2086564776664
6414.8548889523236
6562.4904144776174
6709.9145965094604
6857.628934169692
7004.8022852928525
7151.8659270594244
7299.4997634067031
7446.229775450026
7590.348473351426
7733.9666340265203
7877.4702273814119
8021.9068200771717
8166.3912481026773
8311.2904531499207
8456.7906155356559
8603.5138346355707
8749.803306696258
8893.8076238449212
9037.4110177759503
9182.858391116335
9331.3403684824898
9477.0042792719833
9622.2688878268273
9769.9635083781432
9914.2572454748224
10057.031118105189
-1
150.24520093842801
302.93796986845706
455.20820497924655
604.71533714528971
755.93089391215119
908.76422476953474
1062.5087391271541
1214.588168839477
1363.5816420949579
1511.9293894214802
1661.2054079771638
1811.803984487105
1964.6436066856115
2117.3940665850328
2269.6768698445758
2421.6618276197819
2574.3419088215119
2726.9825259172267
2878.3213413216354
3028.3987959159549
3179.6126588769966
3331.5584502432507
3479.8825120875986
3629.3613919026675
3782.5108573430971
3935.9864934300899
4088.5531201428657
4242.0636155341708
4393.0340213251829
4541.582901915458
4690.34635436193
4842.0866942263801
4996.1601514964086
5149.3662348380767
5302.8138309699762
5453.3473268581338
5603.8941364405146
5754.5491417080921
5902.6016904734561
6054.0429372167609
6205.2905676603996
6354.4058865929819
6505.6150518749164
6656.7820125329472
6809.3148477994691
6963.9494937311174
7116.0806272258515
7266.9001600905349
7417.2267916447463
7569.4653954045434
7723.599431186798
7873.9563720802907
8022.2966068304959
8170.7502543612809
8322.40785415133
8476.4408052488088
8628.6338807325119
8778.27023629213
8926.390937255057
9075.6801879130198
9225.4343396515014
9375.7574116152118
9528.791462514293
9682.0080494123958
9832.4016494128427
9983.0478344261228
10133.07413846861
-1
162.76252548099461
325.29027291328015
487.42975728238525
650.97765250371708
812.09093022603281
972.8927385555512
1137.3722339366727
1298.8686340881795
1458.0500897853703
1619.2017520564305
1779.5853158855493
1939.2496178464341
2098.7094177375675
2259.9999892286705
2424.2877243159401
2588.7211987712553
2750.4121702123298
2910.4624077441608
3073.5137500217124
3238.2259890879513
3401.2633258986511
3563.5747449653099
3727.437669743862
3890.6215858815194
4050.5697669619362
4209.3450910917909
4368.826276950027
4528.4335534290358
4688.4454853572697
4850.0650166013611
5013.3085147895736
5173.7706754819019
5331.6119719982134
5490.3103735253826
5651.2869832044698
5813.4127621936177
5975.3051637120361
6136.3380693247036
6298.86983712441
6461.1627157563953
6623.1870211812839
6784.075522033756
6942.0483201976695
7101.0643714003991
7259.9603081512614
7421.5557955281547
7584.8598631663863
7745.9008158111246
7906.8744385854607
8067.2985881707646
8228.6676688924363
8389.8794654766389
8549.5300249562843
8711.8169766759438
8875.3299988734561
9037.7884832351647
9201.3816686812042
9363.6837664216873
9525.4676382099478
9689.5491239848416
9853.6442308484238
10017.12779472576
-1
166.42175510963204
332.05511840722534
498.23814922757822
664.41315443916994
829.37835658211407
993.94734590640462
1157.8185531120569
1322.6294078113094
1488.6086597306298
1654.898017908065
1821.3695050212623
1987.270686268218
2151.4965731357202
2316.7293870298718
2483.4824824029492
2650.3073631491256
2814.475059142846
2978.0525800452551
3141.4405497340535
3303.2603198337342
3466.9885787616377
3632.3997803041752
3796.8458794543012
3961.7188883497402
4126.7981553176178
4288.1851497172529
4449.5889513075354
4611.6815741729624
4772.5768122273885
4936.2620397078717
5100.510526568738
5261.7232928843168
5422.914730011842
5584.7985073928894
5746.9307735713655
5909.0417231936372
6071.9221924986905
6237.6801730519437
6405.6278440896031
6572.8709690112619
6739.959255836231
6904.3773621545188
7065.215750594527
7229.1146940381677
7393.0090679543255
7555.557263018698
7721.9069166544969
7888.0515841189881
8051.8885655300746
8214.0565098360039
8377.8899331601642
8543.6450704895051
8708.064208105563
8871.1968259433652
9035.2161753485125
9201.8883751256926
9366.5198145073282
9528.2011470343205
9692.8783708843166
9859.4434571605725
10023.950102128163
-1
162.71954724574158
328.2139723952202
494.66656287887497
661.0837868342079
827.10831105580155
989.76723749387509
1153.918020321946
1319.0764952195304
1482.6691607817427
1649.0262358371758
1815.3880258807287
1978.1752395526896
2141.7151630152034
2305.0336255327616
2467.7082744131612
2631.5337282608302
2794.867448246297
2957.2856521807089
3121.6759167532823
3285.8816647443505
3450.7050476895492
3615.4507350021727
3777.6648581741474
3941.9921600066982
4106.0901190261648
4269.4147396144463
4432.4118751130081
4594.46479965868
4757.3024613884936
4922.3357207891004
5087.2895047506217
5250.0042415298467
5412.175207898822
5577.2500072567464
5743.8196241506075
5910.8849967422057
6079.6599481783669
6246.0277231381451
6412.5228201827813
6579.5551329112504
6746.7059569716994
6915.0042067743452
7081.7807319503554
7245.7200290538303
7408.2230103734637
7572.1226121345017
7736.9198267784277
7903.1369956480112
8070.2521301821253
8235.2872810414447
8399.7472571572835
8564.9509013369097
8729.5018396355226
8892.722239051167
9055.4908336641365
9221.4182393756801
9386.8274764723938
9549.4960695140089
9715.2240999067981
9884.1773311686866
10049.91279403917
-1
164.80728309463188
329.89372057290996
492.86104908213815
652.9109853871289
814.74822814018921
977.08076545599408
1139.1926703759364
1300.838573157147
1460.1684147364199
1621.2272556969551
1781.9519613493667
1941.6353580207351
2105.1949566177354
2271.4238147816
2436.3761513244249
2601.2104203119452
2763.6149396387013
2924.048991965542
3085.9451240591902
3246.9584119845676
3408.1894544473544
3569.7590759331256
3732.304385627282
3895.6820651388139
4059.3310157214346
4222.6495727833608
4384.7592046102982
4547.4460174859014
4711.9976987929003
4878.2229031536363
5041.2577367747926
5202.1516439514498
5366.1459779520874
5528.2090215265252
5688.6608621093073
5852.2853769317035
6015.7825289986158
6177.0428625870691
6337.206857527427
6498.6550203254365
6661.4381774776275
6822.1131072629487
6982.6282233892362
7144.5314700616109
7308.4630648069906
7474.6357364177475
7639.5743104119629
7800.9987065913665
7962.4526218009514
8123.7148614404759
8283.7118591475828
8446.0246042960407
8609.4007666225862
8771.3740669099097
8932.3244983627901
9093.6739971994612
9256.2148711014379
9421.2822971946698
9585.4533184818119
9749.0352199839053
9912.2248002866563
10072.934164680562
-1
144.53763487902231
289.21514540842509
431.79082877101757
574.58943205374294
717.86780682188623
859.42471823784763
1001.7137748681832
1144.0277463837501
1288.5574595883261
1436.0265932520419
1583.6004873987961
1729.1197265287713
1874.713008512284
2022.6305317242791
2169.3601593807675
2315.3011956799073
2459.4577370090246
2601.8881805203559
2746.5734449703418
2892.8874047350228
3036.8057520538769
3178.8414170622759
3323.0680499863292
3468.405512819244
3612.9195268598778
3756.9490529508621
3899.7370682059136
4040.7586371636858
4181.41230864511
4324.9271000792114
4471.919561233155
4618.688888018818
4762.532814255057
4904.4707880904225
5049.3969741337396
5197.3571102967635
5344.622087781614
5488.7045558613027
5631.0235345841156
5774.0732375494717
5918.2028113059123
6064.8709932950196
6211.5788126192911
6354.8349039898367
6499.4914159987366
6646.6961870690857
6790.8144488180333
6935.4049164649614
7081.2213600756695
7226.4321090453595
7369.7396864821612
7513.388696303201
7658.8069311078716
7803.1515998071854
7949.6601146837538
8098.0358668793669
8243.4358962397673
8386.8331335065013
8529.7259323134149
8670.827440157309
8812.5312449850735
8955.6625558480537
9100.6350761203703
9246.6965517798653
9392.3755026531417
9537.0057268285
9681.71440176129
9827.3414194946799
9972.753963127725
10116.711118860814
-1
162.38523291559596
324.92446903748572
487.89935790102743
653.56422014415409
820.49610398843947
984.09929697729183
1145.9022546675269
1309.8842646456731
1477.3951019140904
1644.5995936938664
1807.7623200549215
1969.3443795471517
2133.4578599855181
2298.3670495529695
2462.8965601555246
2629.7835828346956
2798.5994557111285
2965.2731719123226
3127.9115091717804
3292.0427930022843
3458.1156215385486
3624.2048422091866
3790.8503420330558
3958.4023326588049
4125.4902492440633
4290.5708693702336
4456.978693193003
4625.4231039792967
4791.4086697923067
4955.1180807847886
5119.9040245622809
5284.4447456304624
5447.3741104132896
5608.9644123271737
5773.9142449490391
5940.1386499886821
6102.6089513449251
6266.3704325908166
6430.4926131794109
6594.2741756476098
6758.7079238672131
6923.5214273080001
7088.3927561503051
7252.6077366261516
7417.1722199763108
7580.3545800010752
7745.9815657498129
7911.0883411593995
8075.6999421265336
8241.7815851479045
8404.4871456039546
8568.5979363071201
8733.4810837837158
8897.2345378141908
9063.198841858024
9227.4189093496552
9391.4526266523553
9558.5105153159711
9724.4317411217853
9888.9193197149179
10055.719711768728
-1
157.8441973285442
314.30928316754824
470.49335841824143
627.63062517149092
782.59626808082578
934.6181183317409
1086.6012086635435
1184.1421351986996
1228.2252463098107
1274.481468532033
1321.0481351986996
1366.683468532033
1411.6979129764775
1458.2645796431441
1503.2790240875886
1547.9830240875885
1593.9288018653663
1636.4596907542552
1678.9905796431442
1724.0050240875887
1768.7090240875887
1813.4130240875886
1858.1170240875886
1903.752357420922
1950.0085796431442
1994.4021351986999
2038.1748018653666
2080.7056907542556
2123.8574685320332
2162.3525796431445
2256.8141270321562
2412.5815591542355
2564.8206938903363
2717.9273180606797
2871.3147343715468
3024.6426228299374
3180.7552961877745
3335.5304119581328
3490.7325840031408
3644.5785427784426
3797.0782860605373
3952.5499417720275
4109.7844229416469
4264.208815121965
4418.1876676414722
4573.1754713460632
4727.1218415549729
4882.0146114255313
5036.7173163301759
5189.6047263324363
5341.0305657013323
5494.0265167476027
5646.9460585044217
5801.8085059581117
5956.9701773679899
6108.2132482875159
6261.2455454391375
6416.9390196603999
6571.9257170216506
6727.1109255402953
6881.3390125395472
7034.3237092575228
7187.8239010562065
7339.738806478862
7490.9145307965764
7642.2675772069761
7796.7055364733014
7954.1967370181428
8108.752938620336
8263.5651466050895
8420.8171076835333
8575.2735183891709
8727.2006084669883
8880.4067491436035
9036.4967925893652
9192.1223250787043
9343.9155422261974
9497.2945343574247
9654.3916590777098
9811.4542036933108
9968.050363283035
10122.036443078438
-1
165.57642513377112
332.80800468741438
500.46193240774505
667.74916915509789
833.97411749260107
997.83684309604905
1163.8138356926193
1268.2552638983536
1311.7174861205758
1357.0423750094646
1401.4359305650203
1445.8294861205759
1490.8439305650204
1536.1688194539092
1580.5623750094649
1625.8872638983537
1671.8330416761314
1716.226597231687
1760.3097083427981
1804.7032638983537
1848.1654861205759
1891.3172638983538
1935.7108194539094
1980.4148194539093
2025.1188194539093
2069.5123750094649
2113.595486120576
2157.9890416761314
2202.3825972316868
2308.6222244514961
2474.739160770835
2638.3635090941102
2802.2237521721795
2969.3728935371037
3136.9602920811626
3303.2084203461754
3469.757079636674
3637.5478104618664
3805.9866239715934
3973.904647813848
4139.381051612836
4302.5602225040448
4466.5909610915151
4630.7745633091681
4795.0483077243371
4959.8252993322858
5124.4889927036274
5289.4754658570737
5454.8336765207941
5622.1527720309832
5788.230999186022
5954.0526846725852
6122.7549272629858
6290.9938274263113
6456.4308069985645
6620.8399441994006
6788.1278197594083
6954.5138744910309
7118.8657533645483
7284.0210779886065
7450.3338038761158
7616.6220269041169
7780.1370670584529
7941.7801770996493
8105.5141717553261
8270.4153288453927
8434.0390920633763
8597.7690555040299
8764.3308114624579
8932.8659112515124
9098.2565257725728
9263.8198484778495
9431.7592715429528
9597.7007275182295
9763.5329766228497
9930.8016331782783
10096.946293955514
-1
157.46718978719503
313.17533383280926
467.15547981755691
623.02726852589626
780.13981988296916
938.85358979828209
1098.5227191451108
1198.5242158358687
1242.6073269469798
1287.6217713914243
1332.0153269469799
1376.4088825025356
1420.4919936136466
1464.8855491692022
1508.0373269469801
1550.2577713914245
1594.0304380580912
1639.0448825025358
1684.3697713914246
1730.6259936136469
1775.6404380580914
1819.4131047247581
1864.1171047247581
1909.1315491692026
1953.5251047247582
1997.6082158358693
2038.5868825025359
2080.4968825025358
2125.2008825025359
2224.0735322309033
2380.411476440509
2538.0903700781923
2696.3535268866631
2854.9016944214009
3014.1974435206921
3175.2476458231085
3332.9728262598073
3490.6475938240474
3649.9909568854396
3807.447591602172
3963.9679124200047
4121.9757270177788
4278.9659496318973
4432.7345828013067
4587.0688783658115
4744.9214876674041
4901.8531169140379
5054.9094240818458
5210.8020502119252
5367.1684832158135
5523.8082832166992
5681.3594169691169
5836.397478921439
5993.2729579410743
6149.5735627874546
6303.2701767979133
6459.9772408927129
6618.6561192062582
6776.3416783923531
6931.8311903366293
7087.6461870799258
7244.0465201191801
7400.615020474248
7557.5132928945186
7714.3272100088707
7871.1360879506265
8028.1710636854768
8185.7033094200351
8342.3631376097401
8499.2231801956896
8658.2129178497635
8815.3040724386065
8971.588733173563
9129.2625854754206
9284.1064214478865
9439.2218600653432
9596.4672586110701
9755.400622547153
9914.8249547104624
10074.676368249087
-1
166.63793593821399
332.77849197249111
497.0355229637612
660.83633959244094
824.42447802210859
989.89749840870684
1157.4543356310303
1263.7338060827324
1307.8169171938434
1350.0373616382878
1392.5682505271768
1437.5826949716213
1482.2866949716213
1525.4384727493991
1564.8649171938437
1603.9809171938437
1646.2013616382881
1689.3531394160659
1734.6780283049548
1779.6924727493993
1823.465139416066
1868.1691394160659
1912.8731394160659
1957.2666949716215
2003.2124727493992
2048.5373616382881
2093.2413616382883
2139.1871394160662
2185.4433616382885
2291.3261529570805
2457.5469844461268
2621.7586883812505
2784.6645612207381
2949.2012929250909
3112.729262661448
3275.3907363216576
3440.5412188207242
3607.8695788878385
3774.757798188054
3942.0530068387538
4107.597397278053
4272.3351271931597
4438.1840629367434
4600.9048377563786
4765.7882325272649
4933.6658465594219
5101.4034130328591
5268.6176737438764
5433.5082018936055
5596.0794257275966
5760.3840994624898
5925.4055283758744
6088.9677149658482
6253.5640657819031
6418.736456936379
6585.5445047840994
6752.8282108364192
6918.3390798213113
7082.2835657060969
7245.5707991292629
7411.0770680975593
7577.9976390167585
7743.6329419476597
7908.1344124901098
8070.7802479352067
8232.2228098923806
8394.1508687593323
8556.8061480988308
8720.9251732667199
8884.5702798500097
9049.0818393931822
9214.6967097802662
9379.6005715743286
9545.1751458241361
9712.3769205659592
9879.4238476553091
10044.128864733022
-1
143.09436072583767
286.53026231029935
427.58790471475584
568.12408726842091
709.65049345566661
850.62078353169397
992.97745675998772
1136.4190009918016
1231.9087950326325
1276.3023505881881
1319.7645728104103
1365.3999061437437
1410.1039061437436
1454.4974616992993
1498.5805728104103
1541.7323505881882
1586.7467950326327
1631.4507950326326
1675.8443505881883
1720.8587950326328
1766.4941283659662
1812.1294616992996
1854.6603505881885
1896.259906143744
1940.3430172548551
1985.6679061437439
2029.4405728104107
2072.9027950326331
2118.2276839215219
2162.0003505881887
2205.1521283659663
2299.5914674875917
2441.3889490557199
2583.3042196395677
2724.5895226535476
2862.9409867018448
3002.1116075330096
3144.29949038723
3287.6268947589833
3429.2930087160712
3569.6940695944745
3711.1619132788369
3851.3070288069785
3991.3108569125989
4133.1000744895518
4273.8589066364566
4414.4096981737375
4556.4342563070422
4700.5618217964375
4842.6348511578244
4982.4623054136491
5125.0884304570172
5268.6860361027821
5411.1808474112504
5551.7960917074688
5690.781383732251
5829.8244974848576
5971.6905636719621
6113.7838926145105
6255.2702497191913
6398.9181264164854
6541.520019460514
6681.4854721211905
6820.3461110259686
6959.8235545200305
7100.2570843718686
7243.596762156506
7388.2711194063404
7530.4322619011509
7669.3977829209134
7809.2917503481058
7951.5437064901771
8093.4031448887663
8233.0628716580904
8373.3019904977918
8513.8421993440788
8652.7581283671952
8794.144569535456
8937.7737337396684
9079.5792229156868
9219.4788230211198
9361.9914658970993
9506.2848439065019
9647.1972339969561
9785.9652541399591
9926.261154185604
10066.934624645864
-1
137.60044621830266
277.1781826125931
418.06158414205618
560.91151032005075
705.92021624347478
848.79775208266972
991.05489978970957
1134.5849371843397
1229.7540280547048
1275.3893613880382
1320.0933613880381
1365.7286947213715
1412.2953613880381
1457.620250276927
1501.703361388038
1546.7178058324826
1591.1113613880382
1635.5049169435938
1680.8298058324826
1726.1546947213715
1771.169139165816
1816.1835836102605
1862.4398058324828
1908.696028054705
1954.9522502769273
2001.2084724991496
2044.3602502769274
2086.8911391658162
2131.5951391658164
2166.6753613880387
2198.3406947213721
2286.7923502580607
2427.6628577075403
2569.8634973842463
2713.4449884206892
2858.7677340800205
3001.7537535187334
3143.1564912915155
3284.6522299639792
3426.0908268415064
3566.7023826084637
3706.0859917762664
3845.6258041096949
3985.482688734674
4124.7900298861341
4264.9060331284145
4405.5075425979758
4544.3712056589793
4683.7550707162336
4824.3603041868028
4966.846957540979
5110.1161340434919
5253.1925384521337
5395.3311482673389
5537.4662649931633
5678.7200298817661
5818.7488658777802
5962.0405586007064
6104.6420802966841
6245.3893904006227
6386.7186934993997
6527.0094799423414
6666.4206635554438
6807.2524377797272
6949.0084258304032
7089.6536394088298
7231.3722342671699
7374.9521222008998
7519.311143878761
7663.5569378091786
7804.4548324342759
7943.2567934717226
8082.6145369410187
8224.1587778782105
8365.6077783952933
8504.8082398085062
8645.3793794377907
8787.1946178869221
8928.6040137416476
9068.3657701849879
9207.2557415811607
9349.7811574643183
9491.6011203145717
9631.1140392920279
9773.0892558693631
9914.913911036414
10054.617643418107
-1
162.64028244551895
326.34149690414029
490.28720485746618
655.64029685109119
822.43797601436177
989.23636538212736
1153.6784152030741
1257.3041864322538
1301.6977419878094
1345.4704086544762
1389.5535197655872
1433.6366308766983
1478.6510753211428
1522.7341864322539
1566.8172975433649
1611.2108530989206
1656.2252975433651
1701.5501864322539
1745.9437419878095
1791.5790753211429
1837.2144086544763
1881.2975197655874
1925.3806308766984
1969.4637419878095
2014.478186432254
2059.8030753211428
2104.507075321143
2148.9006308766984
2192.6732975433652
2295.3830732235147
2457.4603222606925
2620.6105062054589
2785.8206573768384
2951.4937657033156
3115.85532979448
3280.8652781617693
3444.4769430091987
3609.1794281464126
3777.1243621585736
3943.3484988782311
4109.5032846539334
4274.9058870092949
4437.4426947281327
4601.4170622636811
4765.3164548856348
4927.4657672379781
5089.873140368145
5254.4861405114225
5421.5660137154182
5585.9092448582096
5750.1217805445258
5915.9984000713557
6082.0188728614712
6246.4773501966092
6409.5057057901986
6572.6467590281791
6735.3840992322284
6900.6922400560834
7064.9959755630953
7226.1421730042366
7389.0517060175443
7554.637482156958
7718.5584257375285
7882.4940793449732
8046.9854917430157
8212.5288167342933
8379.3652515931553
8543.9902499955861
8708.6213605784087
8875.307085197066
9039.6664801894494
9202.6998855775182
9366.7873081847119
9529.8883781760433
9691.7341861757614
9853.2538377898836
10014.587733133465
-1
154.13603119525737
305.30675126123981
454.20791525449067
606.04121786841438
759.18601921246545
909.11830762775423
1056.8413506863262
1152.4731746957452
1197.1771746957452
1241.8811746957451
1286.5851746957451
1331.9100635846339
1376.6140635846339
1420.076285806856
1461.9862858068561
1505.138063584634
1548.2898413624118
1590.8207302513008
1633.3516191401898
1676.5033969179676
1720.5865080290787
1764.3591746957454
1809.3736191401899
1855.9402858068565
1901.8860635846343
1946.5900635846342
1991.2940635846342
2035.6876191401898
2081.0125080290786
2178.3185563797933
2326.9840608199456
2475.7650036955201
2624.7305526564928
2773.509433885094
2922.2232879031571
3074.5054899206793
3225.8240777768706
3374.5859149716084
3525.531731687955
3675.3286439777235
3825.3907339461302
3977.6785388349795
4129.1955739053092
4279.7302710270687
4429.550695629544
4580.8733853437134
4734.2731697907493
4886.1639130033418
5038.5737208433593
5193.4417733286682
5345.8517044145492
5496.6194203704354
5646.6748639276293
5796.2977113602674
5946.5165550823276
6095.4829873150711
6244.8309047193097
6396.4153732570549
6550.3677345261704
6705.1139071528314
6859.0671226656686
7011.7956790918743
7164.153827585229
7315.7953427377824
7468.4163588996198
7622.6687610642102
7773.289517756134
7924.2001785665689
8075.9851040344956
8225.8326765924776
8375.553111573543
8524.4668343840331
8675.1496002891308
8825.0665285306404
8976.0004168435116
9130.4454550820756
9282.7236769477131
9432.4598458644869
9584.1225882501403
9738.5271492350603
9890.5308949066875
10040.144641222267
-1
137.9371363558682
276.61814212626365
414.46453067473101
552.67516218295884
692.34986988887192
831.72994250023737
973.18322147805952
1114.9903999633889
1205.6156782619037
1248.457011595237
1293.7819004841258
1338.4859004841258
1383.1899004841257
1426.9625671507924
1470.1143449285703
1515.1287893730148
1559.8327893730147
1604.2263449285704
1649.5512338174592
1693.3239004841259
1736.7861227063481
1781.8005671507926
1822.7792338174593
1851.6505671507925
1872.7607893730149
1883.6263449285705
1891.3874560396816
1910.9454560396816
1941.9899004841261
1981.4163449285707
2015.254789373015
2041.0216782619038
2072.687011595237
2160.3963642330441
2299.9066544126199
2439.5516984018313
2577.3063189671316
2716.5972334690814
2858.608853543662
3001.7607546176032
3141.0586110083614
3281.4704182227597
3425.1424050609949
3566.2181533994994
3705.1627022343732
3842.6826011384519
3980.3276911831517
4119.83453201668
4257.8880454089676
4397.5464611075331
4539.4355225210938
4681.1254578960843
4824.3808895660677
4966.6081051602359
5107.1592682145183
5249.0501005799179
5390.1504953913236
5531.4814325035695
5673.5776175565215
5814.8002616992453
5956.0088733974399
6098.4047325488555
6241.122145019408
6382.640410926856
6524.3582828264516
6663.9958375401111
6804.4414957178406
6945.6562535566154
7085.4636085487691
7226.1219684539392
7367.1725369050455
7508.1525315018816
7646.8513285665958
7783.387366459825
7923.0299051152788
8064.4919108528175
8205.2847732433092
8344.1842300331245
8483.5173462366456
8622.9275882075435
8762.4184074368131
8904.9253645433801
9047.8220980696351
9190.9943356334643
9333.2736241811053
9474.6886488352829
9616.4523034280191
9758.9944233027454
9900.4800114068257
10041.928920197517
-1
146.03679684741857
292.39972867998893
441.06017090655462
591.21843918959337
741.69121252537775
891.49763848735233
1039.8552895915259
1134.8367063819528
1178.298928604175
1223.3133730486195
1268.0173730486194
1312.7213730486194
1356.8044841597305
1399.9562619375083
1444.3498174930639
1489.9851508263973
1534.6891508263973
1578.7722619375083
1623.4762619375083
1668.8011508263971
1711.0215952708415
1803.1419073975251
1951.0667770250798
2099.3916173406033
2245.5491755834669
2391.9089681552509
2539.2681273722383
2687.2260467477454
2835.4460032378861
2984.7392214769302
3135.1928145223196
3287.0741050816441
3437.5472107554469
3586.8738877900932
3736.5436305081694
3883.851289841376
4030.2957941334489
4178.3534546140227
4327.2697533006585
4475.4555019358877
4624.0343841872964
4774.1939010959723
4923.9583284065866
5074.2341362309899
5225.6845811001112
5374.1780109258889
5519.3620469422358
5665.4686739120243
5815.4862895299357
5967.1287035282485
6118.4159446146568
6268.3797904622179
6417.9916049108124
6567.3090149863001
6714.6936879249242
6862.1166421910411
7012.1471625843942
7161.1640409947986
7309.4457127611267
7461.1351188547178
7610.8874501116261
7757.0254718174965
7903.0237335952215
8052.3331059331804
8204.4077115299551
8355.5142924606498
8503.1700051747976
8649.6711918640176
8795.8970966378129
8941.0768132380435
9089.0436445730647
9240.1397823167154
9390.0322756049918
9536.4150752769492
9682.5119565420173
9830.5465824318653
9978.1672017969977
10125.066538906693
-1
157.82649034190638
313.19244993159532
468.36880661196619
625.91004026773157
780.83954810019043
935.27095698096002
1089.518554934469
1188.4195493344257
1232.5026604455368
1272.8604382233145
1314.1495493344257
1358.2326604455368
1403.2471048899813
1448.2615493344258
1493.2759937788703
1537.3591048899814
1579.5795493344258
1623.6626604455369
1669.2979937788703
1714.0019937788702
1758.0851048899813
1800.3055493344257
1839.1111048899813
1880.4002160010925
1925.1042160010925
1967.3246604455369
2010.7868826677591
2056.4222160010922
2102.6784382233145
2202.9670378710666
2355.4427200495797
2508.5624975090691
2660.9716647658388
2812.7572585349635
2965.6498013361784
3119.8103429089447
3274.7871264388918
3430.3991618540508
3586.1999509265493
3742.211136449846
3896.9984874465408
4050.0858643785937
4205.3834690670392
4360.6859188002982
4513.1166776680939
4665.9955330783569
4821.0706636636905
4974.7854345197011
5127.0606769171409
5279.6519451164722
5432.3190226903753
5586.1663482493832
5739.114405895014
5891.6915672533905
6047.2726653664186
6202.9075696469827
6359.0247118144207
6513.4001932783131
6666.5180244969033
6820.0984319643776
6973.1705358718982
7125.8636646560526
7276.7199081072768
7428.888645330273
7581.1129451010174
7732.872486295998
7887.9715054355929
8041.9494278248822
8195.0186946386639
8348.8709059696648
8500.0588689145625
8653.0976682826531
8806.4780250147087
8957.122254302325
9109.6399258334295
9265.3887247364109
9420.1521492307602
9575.249032585969
9731.5451414324816
9884.6635150148722
10037.695693383033
-1
165.81664760668858
332.75672092044977
501.09497821649336
669.98904378181135
838.52298005418379
1005.9837582950748
1110.9188247099514
1154.3810469321736
1199.0850469321736
1244.7203802655069
1290.3557135988403
1335.3701580432848
1378.832380265507
1422.6050469321738
1467.6194913766183
1511.7026024877293
1556.7170469321738
1601.4210469321738
1645.8146024877294
1688.9663802655073
1723.4257135988405
1747.9508247099516
1758.8163802655072
1775.5803802655071
1814.3859358210627
1860.3317135988405
1905.9670469321738
1950.6710469321738
1994.7541580432849
2038.8372691543959
2083.2308247099513
2188.6942569604353
2355.5771416318285
2522.1708899743167
2688.0494669012196
2854.0167209826
3019.9744401315038
3184.2756146616116
3349.2082111786194
3515.7886373673527
3683.5084668662407
3850.609658772999
4015.430808246565
4181.1251446389078
4348.5735566945032
4516.2413121412146
4682.0893699001608
4848.3529304358644
5016.9200941819354
5182.3657229163764
5345.9140003871389
5511.6285942343502
5675.3923513551654
5837.422822778135
6002.6882723092067
6170.6200842431044
6339.34142652636
6506.9410616470341
6672.1435678685866
6835.5774233457132
6998.0731584616342
7162.0064282798603
7327.99013955998
7494.6824516404404
7660.9643681807374
7827.5756103133417
7993.8281308771957
8157.736306538819
8320.7284781290909
8483.4644895660458
8645.9155535778009
8809.0594762596102
8974.44180932585
9141.2901566201563
9309.1407115224392
9477.3175238699841
9645.2296542387376
9810.9679008183139
9973.2620851936445
10136.887634153469
-1
150.31949889339995
300.73832051473187
452.12074940709721
604.07971175041769
755.09233904707662
904.27949475074342
1052.3816069718046
1146.6524740491595
1189.8042518269374
1234.8186962713819
1279.5226962713818
1323.9162518269375
1367.9993629380485
1412.7033629380485
1457.0969184936041
1501.1800296047152
1545.8840296047151
1591.208918493604
1636.5338073824928
1681.2378073824927
1725.9418073824927
1770.3353629380483
1814.7289184936039
1858.812029604715
1901.6533629380483
1946.0469184936039
1990.7509184936039
2033.5922518269372
2077.0544740491596
2121.7584740491598
2220.3492176057089
2374.2942296453048
2527.2965067374957
2679.9645421063301
2833.7100223229354
2984.23211521129
3135.9596135872812
3291.0517521765528
3444.0271731016906
3593.724919029672
3745.1367111891432
3898.9891533093287
4053.1238315079163
4206.6039603117097
4359.4298721056039
4513.562698944429
4667.4034725461443
4820.7091213315061
4974.9435884858176
5129.828808086605
5280.912969763458
5430.2686116159339
5580.9252232773624
5729.7983922955791
5880.1363899368289
6030.2043989240465
6178.7276683956061
6329.0538460220359
6480.5504049312212
6633.8928829445731
6786.0724018924238
6938.5123470110902
7092.6848280215636
7245.0048227585803
7397.9450169534794
7549.6439129701048
7701.3540306394661
7852.6546954145888
8002.539646940244
8152.0802993949965
8301.8985341130865
8452.415873491309
8602.5251965055941
8752.5860234872125
8901.9092494422766
9051.5126042090469
9202.9099083206347
9355.6805472631077
9508.707989032655
9662.3910963918024
9814.6398900102613
9964.8426219011981
10116.201988117768
-1
154.48594117931756
307.9647745759284
459.46213233840137
612.91837917363853
765.94747973897734
917.36538196883407
1068.3617301525301
1165.7474136808808
1210.1409692364364
1251.7405247919919
1294.5818581253252
1340.5276359031029
1386.1629692364363
1429.935635903103
1474.3291914586587
1519.9645247919921
1564.3580803475477
1608.7516359031033
1653.4556359031033
1698.7805247919921
1744.1054136808809
1788.4989692364366
1833.2029692364365
1877.5965247919921
1922.6109692364366
1967.6254136808811
2012.0189692364368
2057.033413680881
2102.6687470142142
2202.7322126788899
2355.5511683129539
2506.9142380400344
2658.7525353660867
2810.6359602713387
2961.5016073468382
3114.8188177790294
3270.0526835468263
3424.6025543941614
3576.7758188588787
3726.5624563941842
3876.2293088001234
4028.348244262454
4180.8715537817416
4330.8582178119086
4482.3842681787355
4637.2953519023549
4794.116462213784
4949.964456220785
5103.2499301271237
5256.4870077006053
5410.7407429845152
5563.9102805487773
5717.4771939062139
5871.8928407998637
6025.0872750919798
6177.3547451823442
6330.3845148621131
6484.0495899373218
6636.6419371726224
6790.1686126706081
6942.7814947221104
7094.9998562552109
7246.6918681851739
7396.0609773559554
7548.9292021472738
7705.033595408916
7860.5353452172803
8015.8494453670874
8169.9930499566126
8324.175466626024
8476.9821010690339
8628.5002746416958
8779.8577669979095
8930.7384733192357
9082.4389316551751
9232.3855597040438
9382.2827678190151
9533.2887867727804
9683.7140297765181
9835.6931927452806
9990.6217082140192
10143.246566334674
-1
165.39607561530954
330.04462375467722
495.91217841494677
662.59914524940723
828.10566286746405
993.98726689575597
1160.206174520443
1264.7007398956578
1308.4734065623245
1353.1774065623244
1398.5022954512133
1443.8271843401021
1488.2207398956577
1532.3038510067688
1577.3182954512133
1623.5745176734356
1669.209851006769
1713.9138510067689
1759.5491843401023
1805.49496211788
1850.8198510067689
1896.1447398956577
1940.5382954512133
1984.931851006769
2030.5671843401024
2076.2025176734355
2121.5274065623244
2167.1627398956575
2213.1085176734355
2319.0380033161578
2485.6851871048157
2651.7687703747042
2815.6363767878915
2978.1990364329895
3141.1391596595631
3304.0209727862857
3465.0567238671201
3627.0745575140613
3790.1904803750167
3951.3466235600254
4113.4659360002242
4276.5547209148026
4439.6862550754386
4602.650059799832
4767.2339412075944
4932.1452132541381
5095.0822144744607
5257.9314771711433
5421.2997146077087
5585.8531281653668
5748.4739301028085
5910.6312079473737
6076.1363864556606
6242.9761777848726
6406.9366418098571
6570.3405561470363
6733.6779046223019
6896.0223944598183
7059.0385151927148
7223.9540218657266
7387.4635320663438
7549.5737807530923
7713.2248719497156
7876.7111589887163
8041.5689966670252
8205.3283032865947
8367.7403733381288
8531.4718553318016
8694.5298703611497
8857.6852025788867
9022.237304100825
9188.5281806276307
9355.2987350184594
9519.7871329470127
9683.9193104860078
9846.9874298155191
10011.02122097121
-1
158.20483013654447
314.78508250802895
470.30155578272729
625.51706324110512
779.96638456880055
934.39024759471613
1091.6915059646572
1193.262017816153
1236.1033511494863
1279.5655733717085
1324.2695733717085
1369.284017816153
1413.9880178161529
1457.4502400383751
1499.9811289272641
1544.3746844828197
1589.0786844828197
1633.4722400383753
1680.0389067050419
1726.6055733717085
1771.9304622605973
1816.9449067050418
1856.6817955939307
1896.1082400383752
1941.4331289272641
1987.3789067050418
2031.1515733717085
2073.9929067050421
2117.7655733717088
2160.2964622605978
2261.6656196328927
2423.7342533753931
2583.8846644257642
2743.7065642340717
2904.245765224769
3061.4433377493051
3216.6185248071761
3373.8579517774042
3531.1614007817579
3687.7819917256406
3845.7583838975302
4004.4312969046327
4164.1501941872712
4322.2039367329398
4479.174725199141
4638.7949524394553
4797.2647198479162
4955.2336451848851
5112.6694490944938
5268.1826247689614
5426.9726947363206
5585.5819147472421
5741.6151508995717
5896.8176413041456
6051.7583678169813
6209.0885088177365
6368.8090063368245
6526.877202021984
6684.856079750406
6844.4754672144036
7002.3436811021274
7161.7467037412471
7320.4521204015255
7479.2029975111755
7641.44095737513
7802.8284048342102
7961.7828564243837
8120.9669704587823
8282.5779206066545
8444.7758287193192
8605.9106554852078
8764.2712909283873
8923.0689279272647
9084.1337448374961
9243.9494044272305
9403.0914584188049
9562.2575017671388
9718.8483095698648
9874.0134212866506
10032.625824014258
-1
140.58823185458081
280.58599470093282
421.55610558699107
563.46087084024532
704.75368135515725
846.1255270051106
988.91463095752897
1132.0458332718915
1225.4572680551348
1270.1612680551348
1314.5548236106904
1359.2588236106903
1405.2046013884681
1450.2190458329126
1493.3708236106904
1537.764379166246
1583.3997124995794
1627.4828236106905
1671.8763791662461
1717.8221569440238
1763.1470458329127
1808.4719347218015
1853.7968236106904
1898.5008236106903
1944.1361569440237
1990.0819347218014
2035.0963791662459
2079.4899347218015
2123.2626013884683
2168.2770458329128
2260.3540877021992
2397.9713933913681
2537.7614139784273
2679.6654429591254
2822.7310511817868
2965.196804245028
3107.7175661471979
3250.0083714385937
3392.1363088208336
3536.6476799173779
3678.5338141227558
3816.7028836082113
3955.7051203351052
4094.755526228369
4234.7879057171722
4375.5976002921334
4514.4687022413264
4654.2436001249198
4797.0302532942123
4939.0948870790844
5079.8866612509837
5222.2972102062204
5363.8511362348945
5503.775379072762
5642.8819528495551
5784.2175148998622
5927.8866799593297
6071.1106956944914
6212.4832985132898
6353.3662748641864
6495.9663810234433
6636.6470156535506
6777.2275575613985
6920.1410214111811
7060.7365008118777
7201.9592180239724
7343.8671715489927
7483.5492461607264
7625.7577495889518
7768.5102909007956
7909.8737986367105
8051.7181600315071
8191.8140107867448
8331.8453570509009
8471.4369867371934
8609.5916527838453
8749.1897243317435
8888.512260122372
9029.0011657870145
9170.0032936386306
9310.8519740698957
9451.939568603364
9591.4070738564824
9732.648571061276
9874.1843076495315
10014.92640068641
-1
165.50085722409804
331.46688337723401
496.71882859695984
660.44710036819151
822.6181912844977
985.77543222619124
1152.3527749381597
1256.4309324210367
1297.4095990877033
1340.2509324210366
1384.0235990877034
1427.7962657543701
1472.1898213099257
1517.5147101988146
1562.5291546432591
1606.9227101988147
1652.2475990877035
1697.8829324210369
1743.2078213099257
1787.2909324210368
1831.9949324210368
1877.3198213099256
1921.4029324210367
1965.7964879765923
2010.5004879765922
2055.5149324210365
2099.9084879765919
2143.991599087703
2188.074710198814
2292.1778213455896
2455.4314120292383
2616.5836025891117
2778.093012329065
2939.656582527622
3099.9501881827869
3260.5982272686765
3423.6458808379421
3586.2327222958047
3747.8062755571123
3912.317176236169
4077.2653441578273
4241.3696786936234
4406.586469396083
4571.4331987104033
4735.7232433089357
4900.6823404553261
5063.2404484891222
5225.5845261128188
5389.1597991942872
5552.9482840368364
5715.5808998340672
5877.5525231034653
6039.9989346753018
6201.0917901534549
6364.1487122843973
6526.6100494167949
6689.7544386767877
6856.01644788881
7022.6570703708821
7189.731975910131
7356.400956362495
7521.115007993857
7685.3806775351613
7850.3171743249359
8016.0639070224961
8180.4684459407827
8345.0412634852855
8510.7604577819766
8673.5825986052187
8836.2016431970587
8998.4996896374705
9160.0284254408198
9324.7293693347692
9490.3990109219048
9652.60667790554
9816.0432715455645
9979.5661917514881
10143.774755680915
-1
152.42404605811788
303.88566600329278
455.99105906977138
609.45391716651579
762.47705904557677
912.413477060643
1059.2809641079027
1154.6696686283308
1198.4423352949975
1242.5254464061086
1287.2294464061085
1331.9334464061085
1376.947890850553
1419.478779739442
1461.6992241838864
1503.2987797394419
1543.0356686283308
1586.8083352949975
1632.7541130727752
1678.0790019616641
1722.1621130727751
1756.9318908505529
1777.4212241838864
1788.9076686283308
1793.253890850553
1803.1881130727752
1830.5072241838864
1862.1725575172197
1893.2170019616642
1923.6405575172198
1949.7178908505532
1979.2101130727754
2070.0581009373791
2219.8963479781733
2370.6391746162194
2518.5748441754831
2668.619691065609
2820.1948813438075
2967.9368556529648
3114.655043842532
3263.2519521548274
3412.2189807290929
3561.8678200125532
3712.4532950046851
3861.6560738134604
4012.6627202635373
4164.6148076366208
4313.3319704073401
4460.963112554201
4610.0008096127567
4761.2507596862624
4911.2800685361062
5061.6366425669721
5214.7268052120908
5364.5594021785655
5513.4024926715729
5665.3478299853759
5814.8493513853646
5963.7523322681227
6113.3351968933694
6264.0329932442382
6413.9668329458109
6563.4085734814362
6713.7954367484508
6863.5914782441405
7012.8600104398865
7162.4141112312882
7313.6586980816628
7464.930734431754
7615.131432089609
7765.4859211368503
7918.1270955972359
8069.190853720459
8219.021380624039
8369.7358142641169
8519.5931306099956
8667.3574902453383
8814.6844375638357
8964.2057004517374
9116.0826944175788
9268.141728518638
9419.1268167683975
9568.2626170783315
9718.0570687512336
9867.1763969741678
10017.390717658214
-1
163.86712252919096
325.93355443147072
488.6197156159123
651.63365825183189
813.89965578073827
976.74360084587568
1140.3233324580947
1245.5269088893647
1289.6100200004757
1330.8991311115869
1374.0509088893648
1420.6175755560314
1465.9424644449202
1510.0255755560313
1555.0400200004758
1599.4335755560314
1642.2749088893647
1685.7371311115869
1730.1306866671425
1775.7660200004759
1819.2282422226981
1860.2069088893647
1899.6333533338093
1940.6120200004759
1983.7637977782538
2026.9155755560316
2072.2404644449207
2116.9444644449209
2161.0275755560319
2267.0815528136723
2432.7508728330786
2597.5342161240596
2761.8196517641809
2926.5041932875629
3091.7502550721856
3254.2039411508008
3415.1378520963981
3579.5322399641514
3744.5349600596296
3906.2160919520252
4068.3951354289393
4232.2338772687071
4396.193873231452
4561.6980952930962
4725.3718753551584
4885.9507761096111
5049.4625067207926
5213.8459240197244
5378.1446559329224
5544.7903732992318
5709.3419636717663
5870.9732935218435
6033.1816924601608
6196.0553773802731
6359.1786281001805
6523.1426368858174
6688.2973384713468
6853.0560297132452
7018.0350859516702
7181.1780639903682
7343.0058435195369
7504.8379284303956
7667.6180476127211
7833.0005192022409
7999.6202256156275
8166.2280534058455
8329.2989338885127
8490.6687548423361
8655.769967446482
8823.6290191414046
8991.4089974564704
9158.6315267803475
9322.7362201246542
9486.5515153441083
9651.7216744553098
9815.5382487643401
9979.1669732628179
10141.342384718488
-1
147.20153094961083
292.24957122623323
437.6929390352704
585.56025223443419
731.55270255858773
877.11434247853333
1024.9201355045097
1122.2584076316393
1167.8937409649727
1213.2186298538616
1258.2330742983061
1303.8684076316395
1348.2619631871951
1391.7241854094173
1436.4281854094172
1481.1321854094172
1525.5257409649728
1570.2297409649727
1615.8650742983061
1659.016852076084
1699.6850742983063
1729.487740964973
1743.1472965205285
1756.1859631871951
1777.6066298538617
1807.4092965205284
1839.6955187427507
1865.4624076316395
1885.6412965205284
1907.3724076316396
1938.7272965205284
1971.0135187427506
1996.1595187427506
2023.7890742983061
2055.4544076316392
2085.8779631871948
2174.629601353246
2320.8067927953443
2464.7361582358412
2611.637902507553
2761.0745204174918
2909.9681221939713
3057.5120277664992
3204.7042712754369
3350.9658340633755
3495.3248269925757
3638.3718982049086
3780.6386920318728
3925.1805202172022
4072.3912270506157
4220.6597006175525
4368.2259860786908
4515.7258348152054
4661.3936461681842
4805.6840140995482
4950.0232203811083
5094.9893320103765
5241.0652401210455
5386.2369154549324
5529.8726515674543
5674.4887962694702
5822.6136116604121
5971.0002610669026
6117.5029551241896
6262.6572273087831
6408.3622263412726
6554.2204323066671
6701.506564643576
6847.0437728707238
6991.8072506194594
7138.7331418842869
7285.6440707588672
7432.7106300592986
7580.3441695750935
7726.0280102321149
7871.5493906928323
8019.9334479376685
8168.0784054593996
8315.5999495457181
8463.7001494430733
8612.443667327454
8759.1495083315276
8904.2159517909877
9051.0180833741451
9196.7605200573798
9342.9109595064274
9490.8066402545628
9638.8826076855858
9787.1897436730706
9935.4922406106325
10083.846935863176
-1
155.69879850105124
313.01384830054843
472.07422926028971
628.1700050165108
781.93436269896642
938.15721860441363
1095.6223266192244
1196.7903355100366
1241.1838910655922
1285.8878910655922
1330.9023355100367
1374.3645577322588
1418.7581132878145
1464.3934466211479
1510.6496688433701
1557.2163355100367
1602.8516688433701
1649.1078910655924
1693.8118910655924
1737.2741132878145
1781.9781132878145
1815.19566884337
1847.1714466211477
1891.5650021767033
1937.510779954481
1982.2147799544809
2024.7456688433699
2068.2078910655923
2114.1536688433703
2156.6845577322592
2254.3622664897648
2410.7375890951726
2566.9033826407549
2724.3523201803418
2882.6771343025539
3040.3424303897682
3196.263420036928
3351.0873008813087
3504.834875504007
3660.3752087455796
3817.7464664526105
3971.6875902734555
4124.4358423447648
4277.1052784650828
4430.3986891611767
4586.7560475702194
4743.6571228433804
4898.6163453967647
5052.1125553904758
5207.5613303384789
5362.8301079612029
5516.5108575649556
5672.9611939632077
5827.7228603835911
5980.9654166320488
6135.2380473279336
6290.1466077087762
6447.8936018161412
6604.1984756401107
6757.8858353066571
6912.8913392360701
7068.4947510772372
7222.9956316870775
7379.2049104026819
7534.8245867439528
7690.5737302442549
7848.3806315188722
8003.3335295366096
8156.7093767199958
8311.0004713404742
8465.9563254568347
8621.2056272399168
8775.602238574822
8929.0285424693302
9083.4815108657585
9239.4943248717809
9397.1058732472975
9551.9355347650417
9705.9262896369764
9862.7095758853247
10017.97691221748
-1
148.12698913999216
294.6017700484266
439.27203779230445
586.64638679558527
734.49630315186323
880.34193139276022
1028.2062029591095
1124.3800617096651
1168.4631728207762
1214.4089505985539
1260.6651728207762
1306.9213950429985
1352.2462839318873
1396.0189505985541
1440.722950598554
1485.1165061541096
1528.8891728207764
1573.5931728207763
1618.2971728207763
1663.0011728207762
1707.7051728207762
1746.8211728207762
1774.1402839318873
1805.1847283763318
1847.0947283763319
1890.5569505985541
1935.5713950429986
1979.9649505985542
2022.8062839318875
2066.8893950429988
2162.3684338847966
2310.6885866554144
2460.5351571616998
2609.5302480496161
2759.9862329193461
2909.5491353901934
3057.9791744823806
3207.6240590102502
3355.8057623595168
3503.4474186686166
3650.5719537807936
3798.76566046174
3950.6396879488007
4100.7275588948651
4249.9755990957592
4400.5145429430922
4550.6000792370814
4700.1816706119625
4847.7614892487763
4993.5212488929355
5139.2046967815149
5284.706810469962
5432.7288028156972
5583.9223582092145
5734.6860771523834
5882.5025886359599
6031.1719033817135
6180.7030095871414
6329.5391720261005
6479.4370470293215
6629.3317472731578
6778.8938461475464
6926.7189959558909
7076.593545329788
7226.1428156522225
7374.089421565257
7524.6204692520341
7675.2936542564266
7824.1293006926699
7971.8132394969598
8120.4134521244741
8268.2788009236738
8414.6207236950886
8560.2523524050539
8707.8418008331901
8858.7682753701665
9009.7228287328398
9158.7168502286277
9304.7678537127158
9453.1682177749644
9602.0694783255676
9750.3882649354055
9900.2613695026939
10050.160349276646
-1
164.02969308911605
326.33001012556861
490.01512553630363
656.98663876765602
822.44250802481827
985.54590025525181
1148.308104233113
1252.5133613696355
1296.9069169251911
1341.9213613696356
1386.9358058140801
1431.3293613696358
1476.6542502585246
1521.9791391474134
1567.6144724807468
1611.076694702969
1653.607583591858
1697.3802502585247
1742.0842502585247
1786.7882502585246
1830.5609169251913
1871.2291391474137
1903.5153613696359
1936.1120280363025
1975.538472480747
2018.6902502585249
2060.2898058140804
2098.1640280363026
2138.5218058140804
2181.9840280363028
2226.0671391474139
2328.4424770037476
2489.4268500080725
2651.7523377371308
2813.3986814385071
2973.6823483825679
3135.7484937162867
3297.9979249757234
3460.2882687177753
3623.559045211291
3786.5244328725471
3951.6056148812795
4116.2448071913259
4278.0564752998989
4439.7901077519109
4602.7837909779428
4764.9305059587723
4928.0818801735895
5091.2208322381284
5251.8326654249686
5415.530719505482
5579.220845992887
5742.9892718979399
5907.2247663778107
6071.3034893880576
6236.4637956982915
6399.5433503311742
6562.0460960858763
6727.2308016929192
6892.9182691398537
7058.4243266242702
7225.4105893817396
7390.2677859645564
7552.452650859158
7713.807978997299
7875.5331376955473
8038.4165925409716
8201.3579950153216
8366.1934033921061
8531.6162074086769
8695.114746748397
8857.6735597683819
9020.4589028002338
9184.4469874139613
9348.4317245998118
9511.5069221710255
9674.0611194759513
9835.8243686171591
9999.6873282595534
10164.032779924893
-1
150.91881621584378
304.17562205755553
458.30014878854445
611.43185211224227
763.73728038804416
917.2103372295536
1070.6616661468934
1166.3196810609159
1208.5401255053603
1253.5545699498048
1297.9481255053604
1341.7207921720271
1386.7352366164716
1432.9914588386939
1479.2476810609162
1523.0203477275829
1566.1721255053608
1608.7030143942497
1650.6130143942498
1695.6274588386943
1741.2627921720277
1779.7579032831388
1806.4561255053611
1839.0527921720277
1883.7567921720276
1928.1503477275833
1971.92301439425
2016.62701439425
2062.883236616472
2109.1394588386943
2208.8097114982497
2360.5586743641261
2511.5160493091053
2662.6114640971132
2814.3838097507637
2965.9676009511209
3118.1551312842157
3271.9056164045764
3424.1171952318182
3577.8475638630475
3731.2632042854143
3884.9724443010837
4041.1960895965208
4195.5078857518583
4350.2116580614811
4504.2659760348542
4656.5720897093888
4810.0582613905763
4964.3451966983075
5118.193110352885
5271.0620375063691
5422.1123892937121
5575.0219022288475
5729.2237825197817
5883.0938559930473
6037.2408163423961
6188.0574788804342
6340.3931871939703
6493.3671517804842
6645.5252625995927
6797.0283708900724
6949.4524777921124
7103.1215773731155
7255.3779289209378
7409.839334434444
7565.7050033717196
7721.4439454974317
7876.0497503676706
8029.2465651378161
8182.9824995529507
8337.6385500298366
8491.5028984466517
8646.1893083628656
8801.8113972553729
8954.0090852355461
9104.1067333177853
9256.3626732619796
9408.1352058118118
9559.3299539201798
9713.4745164680135
9866.5037972578884
10019.369776220256
-1
155.17863208524849
308.3346514327169
458.0240217582209
606.08319361681492
753.79737554778899
901.24227482743549
1051.6484354709376
1202.2209055349338
1353.1837350782944
1507.6349889728567
1659.2401563869171
1810.6411995927481
1963.2142499023062
2113.5416664041772
2265.4073948616006
2419.4910244727971
2570.2212107223672
2720.7405110087502
2873.6900231249961
3024.8158002823793
3177.5961338947686
3331.775246019406
3484.2697346620216
3637.183704489918
3788.8750084837402
3938.4799420432432
4090.9566807850942
4245.5375635039209
4396.1397700229427
4546.9979496776314
4699.5494276696418
4851.3628607494738
5004.6216027464998
5157.7550529067885
5309.6075008908547
5461.9856747778258
5615.6524518099177
5766.3333246005204
5915.3486773770728
6065.9055482876547
6218.1232174565566
6370.0652577884821
6519.8282121221364
6669.0670270654318
6821.0788186719174
6973.1358819228817
7124.9826823867807
7279.088229556949
7431.386671447246
7581.0854347086561
7730.4021003260723
7881.5703224534418
8033.2644520579324
8185.7217335669357
8338.5387054471375
8488.916498049346
8641.0536396781972
8793.7880242203937
8945.3444273078039
9096.1346715028667
9244.8522656480818
9394.1637635419593
9544.0930391943111
9696.7596094766213
9851.5151911215107
10002.444192768584
-1
164.1939099502448
326.27270808794663
485.2068118901056
646.58741515276654
808.41859984242637
967.85287565563715
1129.8316718583264
1292.9257316418327
1456.6159480997655
1618.2041566930893
1779.0013189282213
1941.9814745869478
2104.5363809025343
2267.0762431685189
2429.0674581714575
2590.2037364299276
2752.5496288124368
2914.0505638216223
3075.1159828267878
3236.1778790754861
3394.3032614363333
3551.5458952800382
3711.7449252380075
3873.3354979756036
4032.7235122922311
4192.1066753031537
4353.4869104008585
4516.5064029576924
4678.7394351071525
4838.788946658372
5000.0045682403961
5162.9916639799685
5325.7263875598928
5487.1327354223531
5647.8810909011236
5810.9487877944648
5975.3644173453258
6137.4369174921421
6298.1273150299794
6460.2329987538515
6623.5996842055647
6787.8749362278686
6952.4730397789717
7116.9740576008708
7278.8909074528665
7440.1154249133469
7603.9787529186215
7768.2943857182336
7929.9596471264331
8088.9158638541894
8247.0362096941408
8405.3998349994836
8566.2180289709795
8728.3481998261141
8888.6307072165237
9048.6742146374327
9211.128610955624
9374.2678687974294
9537.856104892966
9701.7576900045897
9862.1668231695548
10022.226894933638
-1
149.90907927593824
296.9155491740803
443.40418814216093
591.37825806557476
737.94412971866791
883.28030247103698
1027.5104285241373
1173.0334340151119
1319.0814365653382
1465.8217701114372
1614.314347625645
1759.7756566532344
1905.379231507314
2054.0626187548596
2202.2730481312205
2349.1395122796648
2494.5731036775469
2640.1952877505901
2784.237334526289
2926.5277045509383
3072.8446069776869
3218.7640240223177
3361.7296413511444
3506.1882734115811
3650.5519704698936
3794.0952961856551
3939.8980569044547
4088.5701441624001
4235.7993932754061
4379.6463338686899
4523.8640946169844
4671.6012925394543
4818.0238648386385
4962.8029164500931
5110.2297587610383
5259.3999917094407
5408.6655270894598
5557.7389457321142
5706.9961412345328
5856.4700176724255
6002.8343241736038
6148.793487087356
6297.1129543752268
6444.5869764595918
6589.9003671602695
6734.3008140724178
6878.0343650979521
7022.7300937073078
7169.8264363306353
7316.9672389347015
7463.0429334762284
7606.9268706591256
7751.8700029028005
7898.6001403446162
8045.7620251835106
8191.9652875964775
8336.5507473791276
8483.6346136805114
8633.2494401368112
8779.9647362626347
8924.0494476203676
9070.1799032412073
9217.2261741089042
9361.9909163982556
9507.6836463736872
9656.0962273308342
9803.3858700071069
9949.293196226663
10096.669671975373
-1
162.9440433382984
323.97133864053058
482.73485331016508
644.89937228424947
807.44154288441791
968.75879812496646
1132.7263665973151
1297.7367158870907
1460.9828311643171
1623.8083046431875
1787.4119140790169
1949.4850211851419
2110.3799422918346
2272.1498913532973
2433.2547446241615
2595.8515061799917
2760.4470732318396
2922.8921115998683
3083.8772760444558
3244.6935284835381
3406.4126324139465
3568.6940912117238
3730.255369833561
3891.2482086960076
4052.8325364958732
4212.813718692013
4371.7350834013323
4533.179245568369
4697.4012916235888
4859.1684345315243
5019.3809213237946
5180.3240199237789
5343.1186347119565
5505.3793083759383
5664.361921621392
5825.6787521335546
5986.9466342637525
6147.471272382505
6307.915926450265
6470.1696020677437
6633.4268233795483
6796.8142102141037
6961.1114734193006
7122.6648756768309
7286.260838427047
7451.0527279450844
7614.0258711381448
7775.3629020891676
7934.799478878771
8093.8951899738504
8254.4521978382545
8417.5166798367445
8580.9424377629693
8745.590006879549
8911.8788707955882
9077.6384022807251
9241.9991685823807
9406.084188763487
9568.461379372915
9731.0727803734117
9896.8087958527358
10060.610852513764
-1
162.18973661213067
321.33700328607142
479.67152037595861
641.31352721654514
801.95835147109483
961.92440307898016
1121.3941745690292
1282.0476577312302
1443.1577198598934
1601.2519306069732
1760.7843604916429
1920.4646810486274
2077.3096903488517
2235.8213485457882
2398.0206265837069
2558.5908406480139
2716.7163681129427
2874.1238292936123
3032.7515679413955
3193.04897195488
3353.6815912297457
3516.2390463458846
3678.6856392042919
3837.7328032815462
3994.489373723145
4154.4961023289916
4314.2204257043722
4472.8834293225391
4632.2552503213528
4789.1698643640275
4946.1835465773274
5105.4152488660311
5264.1818671326464
5421.0746669183454
5577.9755038260046
5737.5141526838497
5898.1147836811924
6056.3070311973315
6215.2596527850283
6375.3950510586019
6535.8166316863917
6696.6550435385288
6858.7110432018108
7018.7005902217998
7175.4324979881067
7335.0426564854542
7496.0891779724061
7654.3898186646038
7810.9150217357719
7967.3541124725762
8124.4147501467178
8283.9795925304406
8443.589182693062
8600.2952448924498
8758.3488199197873
8919.8710259496147
9082.4391557745566
9243.1362879931767
9401.5363439178691
9558.7599254799406
9716.9678652710463
9878.6199860964098
10041.392809223984
-1
137.71450104547148
276.45484330521907
414.48857436007688
552.66679209123834
693.64576177320851
834.21932352727765
972.81083820337358
1109.922217189257
1248.6885155489254
1388.1240433060652
1526.2122985429578
1663.5761841093058
1802.1649285007816
1941.2785823186323
2080.4629938015046
2220.4291611095223
2357.311717098909
2492.3875819737882
2628.8865150304009
2767.37527627702
2907.0638971574067
3044.9525685752183
3182.708476017056
3323.7092517388942
3463.4798166358773
3601.7406320750611
3739.6525552970825
3879.4584425171811
4021.151485623187
4161.3219490534384
4301.4289239784703
4442.3448886888264
4584.1867740715215
4723.2171199197692
4859.2895431080378
4997.53441718462
5135.2605683151323
5271.4043089348597
5410.5432747020459
5552.3728364791205
5693.1854701736811
5831.1569219607036
5969.7060181159277
6110.5514958764834
6251.8240811873684
6390.7900214357014
6530.1821572267654
6672.6275972080193
6814.8293456085084
6953.0961888939082
7087.9084686263432
7222.756974189635
7359.5318180837985
7498.7574476676436
7637.448653304009
7777.586944174257
7917.8347613083051
8056.870810161111
8194.6474605788335
8331.0459376253548
8469.9379759410331
8607.7960187511053
8743.3463182789292
8879.296599383475
9017.4642373290953
9158.5334371417084
9297.8691275872352
9433.5982623840227
9570.4831514228408
9710.9761614796989
9852.382435831234
9992.9614589036537
10132.391153143961
-1
141.80748976047505
283.37151840292336
424.72094955717205
567.44262036294106
708.68446009057539
849.70573473256889
990.23904583127216
1128.9518216638264
1268.499392144885
1408.9325151099727
1551.0840660135259
1693.1103625253247
1833.106115044377
1972.6551979171986
2114.1873048596635
2257.1691778847817
2400.9972584365401
2544.7389102460202
2685.8645415459523
2824.0809942236438
2962.7569463234254
3100.8534601278861
3238.7155844626723
3378.5234777932537
3520.1311277714253
3661.0988800918367
3800.040051384965
3939.1097539777238
4079.8641544631982
4220.9304825703157
4360.532441126109
4498.6548741050719
4635.3799457789746
4773.3259102074007
4911.6478411796234
5048.7753678723111
5185.7233614340012
5323.1552651355651
5460.4196371471162
5599.4880635216141
5742.1305680291152
5884.9019607987639
6026.0373194190806
6166.5521929411625
6305.8745679466556
6443.2781411090791
6581.6976030164906
6722.6071140619779
6863.5086671043218
7002.259348313929
7140.0005798423099
7281.2384196310022
7421.6814737403338
7561.003587845119
7704.0161797381297
7844.4994557730079
7981.8637344789686
8119.3950474942931
8257.6364898417978
8399.3316468967478
8540.81823176328
8678.4374669231693
8815.6648130867416
8956.1405516049072
9096.5007892963822
9237.4582001260769
9380.6477210765006
9522.0368821677221
9663.178117758529
9802.1130208533414
9939.9401234385969
10080.484515973516
-1
162.76637431760344
325.67162945987235
488.21487127121947
652.11289025381427
818.93837178244894
986.33887781155488
1152.7229265892402
1318.8510216825009
1485.2799894625466
1650.2588671068918
1814.5036037510122
1978.663893349649
2142.0831611348613
2305.6278386311124
2468.5492417615869
2633.846806188551
2801.5096213816814
2969.0619381242341
3135.6880564201738
3301.2111926346392
3468.4119234770956
3637.3449195697808
3804.2630074847707
3969.79321827799
4137.5974119403645
4303.4044628018555
4468.1534122004959
4634.9008976129717
4801.9838342211242
4967.2516478078915
5131.1858283307383
5294.9761465965457
5460.4761684455852
5626.8834588989366
5790.1122735818008
5953.3318915046102
6119.9535378182445
6287.1440137992213
6454.6646275679195
6621.6593576160876
6787.7010787619365
6952.3081446737597
7114.7657092612517
7277.3286304847916
7441.66269203098
7609.2327125459615
7776.9984014174661
7941.3015204721023
8105.4017106423453
8271.6915820555078
8436.7792862063761
8602.3146732882742
8768.6793490462369
8935.6778676372578
9101.227565397332
9266.9144068112146
9434.1370062812712
9599.3968818756748
9764.8385710443599
9931.6412711324992
10099.239765003962
-1
157.23590148622196
315.57994616157782
473.211432458952
629.24809827006356
785.11930206768875
939.80229239016728
1093.4532189883873
1249.6498869193815
1407.050430606618
1564.4230830821796
1722.2260316516661
1877.7801153062328
2033.8840374959409
2192.6097705780958
2348.3207927699023
2501.3668592041067
2655.8874864933191
2812.3775522927422
2969.9605351813857
3126.2941406525379
3280.6202881689001
3434.8048891515195
3590.3942517792239
3747.4272591661525
3903.4710355655488
4057.9747157340362
4212.0419718214571
4364.7071608041697
4518.0953748900602
4673.4240067093751
4829.9939616707161
4984.2380980677317
5136.0602084860384
5288.452766584368
5442.9531245119524
5599.2452229475057
5753.6038609661027
5906.2236237852139
6061.5596412583982
6217.6303496942264
6371.2777722610617
6524.7167210864545
6680.6590178669958
6838.2799588084872
6994.5507557041046
7148.8331445469239
7302.8439382053075
7457.4878733939931
7612.9402927494702
7770.8054109472187
7927.3917121550066
8081.7209772366823
8235.4284166921898
8388.6171954366546
8544.2409561201857
8701.1881481020082
8856.0307760603173
9009.7315242836867
9164.6117952232944
9320.4786122526075
9478.124815113506
9637.4520894381149
9795.9816653866237
9953.1245104932004
10111.381660143645
-1
165.2210377081505
328.12701673150787
489.16388558056451
652.38765903557601
815.28911818641234
976.09555301532851
1138.2222324487661
1300.8616359784958
1461.7664193861774
1624.3837286334419
1787.9921503573239
1949.2413688431416
2109.5125141257508
2270.0977715910549
2432.3676624830973
2594.9490882963637
2757.9757932479843
2920.1991098372382
3080.3018831745512
3241.6058819513455
3403.6473589621255
3564.6564254589857
3726.5377693386313
3891.4708535032773
4055.720660565752
4219.9883470441982
4386.307698589153
4550.219128611323
4711.8588637243074
4874.4974205948538
5039.3744223295798
5203.5703041815013
5367.4784927232158
5531.454699393641
5693.7202306568952
5858.4830811991997
6025.1636545693036
6189.870959417357
6353.0121678166734
6516.2747675849059
6681.7718129250025
6846.160187956255
7009.8871945744795
7174.647746058281
7338.0212808261313
7503.3385919194698
7669.3206326969857
7832.9172213162892
7995.7373671364394
8159.2829557202822
8321.405726416293
8484.1105768824564
8649.1867527331724
8813.0373810996789
8977.6566951263048
9140.923490059251
9302.5898693360414
9466.7489573222774
9631.3272533704512
9794.1465755165773
9957.0104712582779
10119.905722309701
-1
159.46097530443973
319.1140337635685
480.40343147764764
642.350512428206
804.31029586937132
966.43262878212954
1127.0846801868111
1288.062228554204
1447.7754081642231
1607.2814721662196
1767.7251795238283
1928.8373098421289
2092.3995547506411
2254.645797338324
2414.9071584784997
2577.4612733666845
2741.8240131935827
2902.388004216738
3060.43802233717
3221.1611424702523
3383.185980039555
3544.9682818323745
3705.4829502696766
3865.7973487255872
4028.0026540733083
4189.9725563191814
4349.3038721965759
4509.8062837997186
4673.9545772899201
4835.910514518775
4995.6655252117789
5157.1609586527029
5318.6753399229201
5478.2259834812812
5638.9244086310318
5799.8422026947082
5958.7146952649327
6117.0261204446551
6278.65829760222
6442.1432817644372
6601.6429498069601
6759.2263302676893
6916.7975250642139
7077.6083891951221
7241.1812021824453
7403.332939935226
7565.6261898970915
7728.0718518126714
7891.1495980025893
8055.4870633150931
8218.9401053717411
8380.8284042681753
8540.7992446902772
8701.7124687609848
8863.1203506721849
9023.8005423903996
9186.941127190672
9350.4226042768532
9514.2817169272766
9676.5517517596763
9834.9156168579266
9995.5222534612258
10158.859158358244
-1
164.38384725187632
328.49883356552505
489.37052895905327
649.49812001278815
809.20413318165811
966.8736634024184
1127.6043363598917
1291.4175886606163
1452.8278545000303
1611.6207075088664
1770.6026517340679
1931.9658057039458
2096.2493972261368
2258.3537968975638
2417.5001438438067
2577.1420739120244
2738.6597354927735
2899.6284906012529
3059.6072659079105
3218.9168059749659
3379.355740134934
3542.0888236715227
3704.8135576610653
3868.6659006711252
4030.9672487895182
4191.7017370581343
4353.5804863365674
4516.3063189596469
4678.460091932885
4838.161374955429
4998.0471409356751
5158.1051985031772
5317.7069644775938
5477.1880526084406
5637.5179066823966
5797.0489547039297
5956.0030387940551
6117.642705142357
6279.2858572102596
6439.9804680079978
6601.6145135818815
6763.5020112639486
6924.4106776559138
7083.9833312152959
7244.6609031521903
7406.5005018731754
7566.4238208795796
7726.7538923905358
7888.3874443700497
8048.0187849795566
8208.0179426582908
8369.6628047885806
8529.2242077540741
8689.6232328194474
8852.6341518567206
9013.0763265920796
9173.6616801253131
9337.4170761023634
9501.3642316479818
9663.9920280334682
9825.1070636448894
9986.2541644318662
10148.444078011682
-1
156.14379712007167
311.91160060383402
469.78021697487554
627.93987274472306
785.51270355203064
942.07861571944773
1096.9484280813949
1254.082749030571
1411.8979540014554
1570.1646512767313
1729.1736900886051
1887.006085106003
2044.4057286653372
2201.2111705436591
2358.4317574583883
2516.0022469096848
2670.8978283319088
2827.9165355266928
2985.4635425583506
3142.2337174421559
3302.2648770651508
3459.5427020889574
3613.0856329097537
3770.2064911493667
3929.9455941508459
4087.0107581168886
4243.1810303220382
4400.7857187391855
4558.1291364310691
4713.7978122174791
4869.7076892266759
5026.2284385122821
5184.4076340071515
5342.0143856530585
5496.4973662778084
5651.8140620201202
5807.1962109176075
5962.5802365803074
6121.1264511443387
6280.5520891529668
6440.2163405215206
6600.4357922780964
6757.4321521096035
6914.8466291817376
7073.120324635076
7227.9344131625021
7382.8633397758022
7540.4403828404465
7696.4616829060569
7849.6658979536096
8006.3371619813261
8164.4884490776431
8322.2299478635887
8481.0056231612853
8637.8285735312165
8794.7663303367681
8954.1104607720808
9112.5414995620213
9270.2585061309692
9430.1718280607183
9587.2085812376718
9740.9108510588721
9895.9092059814593
10051.545464685822
-1
155.92450020697302
312.36198527200315
466.98157899267085
622.49346414613342
780.39627116232077
936.48420593082392
1093.7767045435037
1252.3179534361216
1407.0687026486912
1561.3925011692345
1719.4585832024065
1878.680296478602
2035.0490482448695
2190.5153271872696
2346.3342372962998
2501.0482290157493
2657.11950060857
2814.3434672179119
2969.2697141272251
3124.0649582842057
3280.2496950566624
3436.8636154966343
3593.7835867424933
3748.799806927444
3905.1122096826052
4063.7275931439376
4219.1804806417267
4372.7491218965224
4527.1372052560773
4681.8149712380227
4837.2007307774156
4992.4099593804704
5146.0981221750699
5301.1402153892113
5455.8999470862746
5608.1420000590388
5763.4169983366437
5921.6417645780775
6077.6383203569612
6233.5732316303684
6390.6905248749072
6546.9780704619761
6702.6956130299723
6857.8671480259927
7015.4080360891376
7171.0861873036547
7326.3422657015062
7483.1285656935261
7638.168619936635
7795.307058310791
7952.3982716981091
8107.956644335175
8265.1147229766702
8420.3898112403822
8573.94106343764
8727.6989875439176
8881.6590458300252
9037.1968653813747
9193.7566402448265
9348.3614541261086
9504.0984903284134
9663.4840981278267
9820.2395366244909
9973.7595386464418
10126.258438885072
-1
167.77179766629288
336.75009009122238
504.81050778805508
669.29700499749219
833.78525867009284
1001.2310491549583
1170.6570230929342
1338.3557193949759
1504.1251614505907
1670.7529965888029
1839.2337794109342
2005.7703888190881
2171.4037322990216
2340.6603482395217
2507.8396372952793
2671.4890846486696
2834.7364591710843
2999.668517910593
3164.568832636533
3327.309618509561
3491.7002497205362
3657.4071075637194
3824.4413796467593
3994.0773902551477
4161.4178519765137
4325.533996123705
4492.3969539331201
4660.4757220246056
4828.7010745759817
4997.6316445789289
5166.3071452722716
5335.3522726066276
5501.4324525505035
5665.8144173971332
5831.1014360945383
5995.212016691652
6159.7592557081498
6327.6424347865268
6496.8773735540508
6664.1642163431834
6830.5901145749904
6997.4283912743804
7163.0168037970197
7327.1128007170446
7491.1980561614118
7654.8805883852901
7818.7327525512874
7982.7016249625703
8146.6527331492689
8313.1231306596237
8481.6672135086683
8649.8431677711051
8817.5374095580573
8985.1811419409823
9152.0237507607289
9318.2797168782981
9484.661197996933
9653.2233353101292
9821.2921084081318
9988.9249568540072
10158.962428003726
-1
141.65017525183845
282.67616017377503
421.13112133363398
559.6816670787839
699.56718717563047
837.46187593559227
973.9333937362303
1111.4740414324397
1251.2890277755596
1391.4590978420031
1532.5162425335004
1671.7678061848326
1810.8370031355503
1949.8766464527082
2088.8074125984585
2227.5834329471568
2364.4755758215565
2504.2255132986138
2645.3245313560656
2785.6885057200293
2924.8224889736457
3062.0369430264936
3197.9155847745842
3334.4969279461907
3471.0774066635495
3609.5098584193183
3748.1124690818096
3885.2287661840737
4025.0964789701434
4163.963524220937
4302.6950003172915
4443.5227284604325
4581.652910955042
4717.4059560000305
4852.9677509787198
4988.6545754404233
5127.2646684905421
5267.7769956760467
5404.9396302201239
5539.8107102763925
5675.6482359723068
5814.8621902887307
5955.1078755798526
6093.5384231932067
6232.7134914479566
6372.8746239589091
6513.4257732512324
6653.7511515058377
6793.5909859308304
6934.8083452890005
7074.6519560073821
7213.2169604396295
7352.8541754242688
7490.9206495701692
7628.5135383506486
7767.6762580171853
7907.0738000492101
8047.8095641692998
8187.3406530625271
8326.6622152490054
8467.9946483216063
8608.2257838719215
8748.0878078983897
8888.1094421865164
9027.6646917857597
9168.5366567014753
9307.4895485356883
9442.9748592928645
9578.9813844319178
9717.5186549202244
9857.2125411769357
9997.4010584341868
10139.05811360438
-1
143.97856520660446
287.99604410743586
428.6602884462182
565.72615264678109
703.91539463665833
845.5790284476559
986.7506599729245
1124.4345256760594
1262.3618174574472
1402.0535326928082
1542.3755939675516
1683.2230292329007
1823.3454960348106
1960.9251585139971
2097.5192389095919
2234.784663544222
2371.9532223981141
2511.4711169613847
2652.7155047324222
2792.0892626566197
2930.3720727585228
3069.7555893018439
3212.1368737880243
3352.8640269628531
3492.4557861433154
3633.1232158423932
3772.4806198785004
3911.2500936009101
4051.1777219665746
4192.0011100719648
4332.8210974880158
4475.2853810883589
4617.691481778189
4757.3834500894091
4896.4519457796168
5035.4290936284597
5172.6646669724842
5310.8030849940815
5452.7027073265926
5596.1493004266849
5736.9552505267002
5875.2866863737581
6015.3221468620459
6155.6835855631189
6296.4386904250578
6437.6187955448549
6576.1504800681178
6716.1622331039525
6857.5755269202982
6996.0806505236715
7134.4964489238682
7274.2287658733421
7413.8421263634891
7552.2235977747623
7689.1010383842913
7827.9788939778327
7969.4731202881258
8111.2258687787862
8252.6826289977253
8394.6743858666341
8534.6246092423771
8674.8405228904176
8815.693508896702
8953.8147200226394
9092.7706958329418
9234.0797728872221
9376.2832718740738
9516.9749344644406
9656.2673683596786
9796.6383683959903
9939.4356952562666
10080.384538790191
-1
160.66933742891965
322.43234968230695
487.15382666405054
653.65518817709847
816.91657552835977
976.98390962333679
1138.4773136463555
1300.7298203415446
1464.6475243877153
1630.0181703511389
1791.734925882932
1951.5208642659795
2114.2578137450168
2277.068584687614
2438.5498795970675
2602.875459746283
2765.6085777396079
2926.8733693857343
3091.1789300245146
3253.2771061303697
3416.0049799009248
3579.4455492181023
3741.4597387870867
3903.5051916807511
4064.9136979837358
4228.053008987019
4392.0099127939702
4555.9132314710296
4718.7847267753132
4882.9535340285147
5045.7218021889903
5207.3229947727596
5371.8048092057252
5534.1725708549466
5696.1899605321387
5858.7146891213888
6021.0605657545575
6184.8784060254775
6349.8439537784216
6513.4214057724921
6676.8039531967679
6842.8756516725198
7006.2796229995902
7167.9507804214827
7330.4993709476985
7493.9449917536022
7656.795291167492
7816.8999675557088
7979.4655705099458
8144.0801051676235
8308.4874275858292
8471.7432141964855
8632.4148167607837
8792.4865228165963
8953.4846086082234
9116.9295664080819
9281.911520421947
9447.053572125109
9610.2075739602333
9771.7732031344531
9932.931129582581
10094.93117461275
-1
166.02933722084873
329.23666006748346
490.09558200257851
650.35213647135561
809.46120315606731
970.77918018081391
1134.8053098735973
1299.193361764663
1462.4763393408412
1626.5774805782971
1792.3271121378561
1956.2263081605277
2120.5218972687326
2284.2560941928346
2446.1216442797527
2608.9219145425936
2770.7208682748187
2934.1465817094304
3097.7738373616912
3258.1581732295617
3419.6646710037603
3580.9997884466256
3740.7700440388576
3902.7398187832791
4064.6208252649758
4225.6535385267662
4388.4324751156646
4551.0121674513848
4714.4019296116676
4879.4909832783396
5045.1962904009606
5209.4002749015972
5372.4582816235416
5536.1550698136107
5700.8616914226532
5863.9083975844014
6023.761401521946
6185.6057273227188
6349.4433085513901
6511.3302762760195
6673.9477811447823
6837.0933945094239
6997.1470994026249
7159.0230171290796
7320.8663722833726
7483.5170760320989
7649.7058568247448
7813.2946519167526
7975.327996204348
8136.8122489967955
8296.3399518130664
8455.2894806618988
8615.5316450460959
8776.8486036255272
8937.0217554464252
9098.2677142298689
9259.3832592541094
9419.1848474240705
9582.5519858802127
9744.9083961828219
9905.1019561310823
10066.80256556416
-1
159.15710788076399
316.15368479767534
474.47116541514811
632.90598098838495
790.34186431312673
949.65116227658666
1107.0335810718177
1263.3366729383629
1421.9606073610596
1579.9060382302109
1738.0703511828772
1895.7384117183735
2050.1934119605135
2206.7366250924515
2366.5739981184556
2524.6893770725255
2681.964693301677
2840.8455051353376
3000.9674152944685
3162.8758452988454
3320.9043478682006
3476.3956779755845
3635.1538245967981
3795.1572575858254
3951.9938589447238
4106.9313286061788
4265.0567287317062
4423.8779667962472
4579.8577756669347
4737.4686633065576
4896.3098297207562
5055.9241478437234
5215.8312635957445
5374.4000140457274
5534.7247015616749
5694.5823372809864
5850.9601798181857
6006.8297130279998
6165.3414589830254
6323.8257801192858
6480.3463571586699
6637.4680917678525
6797.6297409653798
6956.1111681808097
7113.9457994839568
7275.1253617960192
7434.7957210377417
7591.4865068067356
7750.269664588247
7911.0450975498106
8069.373877344211
8227.6656977719285
8386.8022005468611
8543.8392110141904
8699.7149121374114
8856.2586737682086
9012.044575336291
9168.674375512177
9328.6651716713677
9488.9325455109374
9649.1271025991718
9810.8221308967441
9972.7098450282683
10134.127574896773
-1
152.14407194805506
303.97269226198728
459.57833758613435
615.25152461202481
770.38417043799177
925.51339006985768
1079.0664057222828
1234.3756004801066
1389.0563885003232
1542.6676861647895
1698.8105531184144
1856.9093609145896
2011.4226747760601
2163.549918213881
2316.1010869680954
2472.4021656025325
2628.13534397393
2780.8941204994776
2935.6387154535005
3089.7651248078409
3245.5028813903346
3402.1830273114456
3556.2339930868006
3712.8437018282775
3870.0055260881541
4025.02003056993
4182.0632928586265
4340.3835499772176
4498.6952178089323
4654.7432303155301
4811.1803630461745
4966.7105173267346
5119.1031362869398
5274.3595275693051
5429.8624476391269
5583.6085542677438
5736.9763479187377
5889.4672503671336
6045.147010941967
6203.9079471629802
6359.9479943583865
6513.1463912896588
6666.4643018198012
6823.3992038124525
6979.488004425114
7133.0345005852432
7289.133984724991
7444.240042820089
7596.5585100746011
7749.3486482424587
7905.3792025655812
8063.5659471101089
8221.0182954413813
8377.0012706640809
8531.7937012977054
8686.5903051179685
8842.0254079256065
8997.3985151461256
9151.0853782696959
9305.129939439119
9459.1848178786131
9614.545546473586
9771.4544952258912
9928.7574934184922
10087.187080986085
-1
